# This file uses centimeters as units for non-parametric coordinates.

mtllib door_wall_small_tile.mtl
g default
v 0.000000 300.000000 -50.000000
v 0.000000 300.000000 -150.000000
v 0.000000 0.000000 -50.000000
v -0.000000 0.000000 -150.000000
vt 0.000000 0.000000
vt 1.000000 0.000000
vt 0.000000 1.000000
vt 1.000000 1.000000
vn -1.000000 0.000000 0.000000
vn -1.000000 0.000000 0.000000
vn -1.000000 0.000000 0.000000
vn -1.000000 0.000000 0.000000
s off
g door_wall_small_tile
usemtl initialShadingGroup
f 1/1/1 2/2/2 4/4/3 3/3/4
