# This file uses centimeters as units for non-parametric coordinates.

mtllib lantern_mesh.mtl
g default
v 8.287323 9.319443 -4.784790
v 4.784607 9.319443 -8.287537
v -0.000198 9.319443 -9.569580
v -4.785004 9.319443 -8.287537
v -8.287720 9.319443 -4.784790
v -9.569809 9.319443 0.000000
v -8.287720 9.319443 4.784790
v -4.785004 9.319443 8.287537
v -0.000198 9.319443 9.569580
v 4.784607 9.319443 8.287537
v 8.287323 9.319443 4.784790
v 9.569412 9.319443 0.000000
v 6.999741 38.429688 -4.041443
v 4.041229 38.429688 -6.999939
v -0.000198 38.429688 -8.082825
v -4.041626 38.429688 -6.999939
v -7.000137 38.429688 -4.041443
v -8.083038 38.429688 0.000000
v -7.000137 38.429688 4.041443
v -4.041626 38.429688 6.999939
v -0.000198 38.429688 8.082825
v 4.041229 38.429688 6.999939
v 6.999741 38.429688 4.041443
v 8.082642 38.429688 0.000000
v -0.000198 9.319443 0.000000
v -0.000198 38.429688 0.000000
v 9.936325 6.106155 -5.736938
v 5.736755 6.106155 -9.936523
v -0.000031 6.106155 -11.473572
v -5.736984 6.106155 -9.936523
v -9.936554 6.106155 -5.736938
v -11.473618 6.106155 0.000000
v -9.936554 6.106155 5.736816
v -5.736984 6.106155 9.936340
v -0.000031 6.106155 11.473572
v 5.736755 6.106155 9.936340
v 9.936325 6.106155 5.736816
v 11.473465 6.106155 0.000000
v 9.630127 9.319458 -5.559998
v 5.559952 9.319458 -9.630310
v -0.000031 9.319458 -11.119934
v -5.560013 9.319458 -9.630310
v -9.630356 9.319458 -5.559998
v -11.119995 9.319458 0.000000
v -9.630356 9.319458 5.559998
v -5.560013 9.319458 9.630188
v -0.000031 9.319458 11.119934
v 5.559952 9.319458 9.630188
v 9.630127 9.319458 5.559998
v 11.119934 9.319458 0.000000
v -0.000031 9.319458 0.000000
v 10.805923 3.178589 -6.238953
v 6.238800 3.178589 -10.806030
v 0.000046 3.178589 -12.477905
v -6.239014 3.178589 -10.806030
v -10.806076 3.178558 -6.238953
v -12.477707 3.178589 -0.000061
v -10.806076 3.178589 6.238831
v -6.239014 3.178558 10.805969
v 0.000046 3.178589 12.477478
v 6.238800 3.178589 10.805969
v 10.805923 3.178558 6.238831
v 12.477722 3.178589 -0.000061
v 10.805923 0.000000 -6.238953
v 6.238800 0.000000 -10.806030
v -0.000031 0.000000 0.000000
v 0.000046 0.000000 -12.477905
v -6.239014 0.000000 -10.806030
v -10.806076 -0.000015 -6.238953
v -12.477707 0.000000 -0.000061
v -10.806076 0.000000 6.238831
v -6.239014 -0.000015 10.805969
v 0.000046 0.000000 12.477478
v 6.238800 0.000000 10.805969
v 10.805923 -0.000015 6.238831
v 12.477722 0.000000 -0.000061
v -0.963242 5.375336 16.304138
v 0.963516 5.375336 16.304138
v -0.963242 5.222672 14.438110
v 0.963516 5.222672 14.438110
v -0.963242 42.273239 11.407043
v 0.963516 42.273239 11.407043
v -0.963242 42.425888 13.273010
v 0.963516 42.425888 13.273010
v -0.963242 40.262817 11.571411
v 0.963516 40.262817 11.571411
v 0.963516 40.415482 13.437500
v -0.963242 40.415482 13.437500
v -0.963242 7.462372 14.254883
v 0.963516 7.462372 14.254883
v 0.963516 7.615051 16.120911
v -0.963242 7.615051 16.120911
v -0.963242 39.826752 6.241211
v 0.963516 39.826752 6.241211
v 0.963516 41.837173 6.076721
v -0.963242 41.837173 6.076721
v -0.963242 4.786606 9.107849
v 0.963516 4.786606 9.107849
v 0.963516 7.026337 8.924622
v -0.963242 7.026337 8.924622
v -0.000198 45.970581 -3.458008
v -0.000198 47.438782 -6.672913
v -0.000198 49.753250 -9.343994
v -0.000198 52.726486 -11.254761
v -0.000198 56.117615 -12.250488
v -0.000198 59.651901 -12.250488
v -0.000198 63.043030 -11.254761
v -0.000198 66.016281 -9.343994
v -0.000198 68.330750 -6.672974
v -0.000198 69.798950 -3.458069
v -0.000198 70.301941 0.040283
v -0.000198 69.798950 3.538574
v -0.000198 68.330750 6.753479
v -0.000198 66.016281 9.424561
v -0.000198 63.043045 11.335327
v -0.000198 59.651917 12.331055
v -0.000198 56.117615 12.331055
v -0.000198 52.726486 11.335327
v -0.000198 49.753250 9.424561
v -0.000198 47.438782 6.753540
v -0.000198 45.970581 3.538574
v -0.000198 45.467606 0.040283
v 0.744644 45.255905 -3.667908
v 0.744644 46.812164 -7.075623
v 0.744644 49.265472 -9.906921
v 0.744644 52.417053 -11.932312
v 0.744644 56.011612 -12.987732
v 0.744644 59.757904 -12.987793
v 0.744644 63.352463 -11.932312
v 0.744644 66.504044 -9.906921
v 0.744644 68.957352 -7.075623
v 0.744644 70.513626 -3.667908
v 0.744644 71.046783 0.040283
v 0.744644 70.513626 3.748474
v 0.744644 68.957367 7.156189
v 0.744644 66.504059 9.987488
v 0.744644 63.352463 12.012878
v 0.744644 59.757919 13.068359
v 0.744644 56.011612 13.068359
v 0.744644 52.417068 12.012878
v 0.744644 49.265472 9.987488
v 0.744644 46.812180 7.156189
v 0.744644 45.255905 3.748474
v 0.744644 44.722748 0.040283
v -0.000198 44.541229 -3.877747
v -0.000198 46.185562 -7.478333
v -0.000198 48.777695 -10.469849
v -0.000198 52.107635 -12.609863
v -0.000198 55.905609 -13.725037
v -0.000198 59.863907 -13.725037
v -0.000198 63.661880 -12.609863
v -0.000198 66.991821 -10.469849
v -0.000198 69.583969 -7.478333
v -0.000198 71.228302 -3.877747
v -0.000198 71.791626 0.040283
v -0.000198 71.228302 3.958313
v -0.000198 69.583969 7.558899
v -0.000198 66.991821 10.550415
v -0.000198 63.661896 12.690430
v -0.000198 59.863922 13.805603
v -0.000198 55.905609 13.805603
v -0.000198 52.107651 12.690430
v -0.000198 48.777710 10.550415
v -0.000198 46.185562 7.558899
v -0.000198 44.541229 3.958313
v -0.000198 43.977905 0.040283
v -0.745041 45.255905 -3.667908
v -0.745041 46.812164 -7.075623
v -0.745041 49.265472 -9.906921
v -0.745041 52.417053 -11.932312
v -0.745041 56.011612 -12.987732
v -0.745041 59.757904 -12.987793
v -0.745041 63.352463 -11.932312
v -0.745041 66.504044 -9.906921
v -0.745041 68.957352 -7.075623
v -0.745041 70.513626 -3.667908
v -0.745041 71.046783 0.040283
v -0.745041 70.513626 3.748474
v -0.745041 68.957367 7.156189
v -0.745041 66.504059 9.987488
v -0.745041 63.352463 12.012878
v -0.745041 59.757919 13.068359
v -0.745041 56.011612 13.068359
v -0.745041 52.417068 12.012878
v -0.745041 49.265472 9.987488
v -0.745041 46.812180 7.156189
v -0.745041 45.255905 3.748474
v -0.745041 44.722748 0.040283
v 8.287308 38.429688 -4.784790
v 4.784607 38.429688 -8.287537
v -0.000198 38.429688 -9.569458
v -4.785004 38.429688 -8.287537
v -8.287704 38.429688 -4.784790
v -9.569794 38.429688 0.000000
v -8.287704 38.429688 4.784790
v -4.785004 38.429688 8.287537
v -0.000198 38.429688 9.569580
v 4.784607 38.429688 8.287537
v 8.287308 38.429688 4.784790
v 9.569397 38.429688 0.000000
v 6.999786 42.811188 -4.041443
v 4.041214 42.811188 -6.999939
v -0.000198 42.811188 -8.082886
v -4.041611 42.811188 -6.999939
v -7.000183 42.811188 -4.041443
v -8.083084 42.811188 0.000000
v -7.000183 42.811188 4.041504
v -4.041611 42.811188 7.000000
v -0.000198 42.811188 8.082886
v 4.041214 42.811188 7.000000
v 6.999786 42.811188 4.041504
v 8.082687 42.811188 0.000000
v -0.000198 38.429688 0.000000
v 6.999786 44.677505 -4.041443
v 4.041214 44.677505 -6.999939
v -0.000198 44.677505 -8.082886
v -4.041611 44.677505 -6.999939
v -7.000183 44.677505 -4.041443
v -8.083084 44.677505 0.000000
v -7.000183 44.677505 4.041504
v -4.041611 44.677505 7.000000
v -0.000198 44.677505 8.082886
v 4.041214 44.677505 7.000000
v 6.999786 44.677505 4.041504
v 8.082687 44.677505 0.000000
v 5.016418 44.677505 -2.896301
v 2.896118 44.677505 -5.016602
v -0.000198 44.677505 -5.792664
v -2.896561 44.677505 -5.016602
v -5.016876 44.677505 -2.896301
v -5.792938 44.677505 0.000000
v -5.016876 44.677505 2.896362
v -2.896561 44.677505 5.016663
v -0.000198 44.677505 5.792725
v 2.896118 44.677505 5.016663
v 5.016418 44.677505 2.896362
v 5.792480 44.677505 0.000000
v 5.016418 47.865784 -2.896301
v 2.896118 47.865784 -5.016602
v -0.000198 47.865784 -5.792664
v -2.896561 47.865784 -5.016602
v -5.016876 47.865784 -2.896301
v -5.792938 47.865784 0.000000
v -5.016876 47.865784 2.896362
v -2.896561 47.865784 5.016663
v -0.000198 47.865784 5.792725
v 2.896118 47.865784 5.016663
v 5.016418 47.865784 2.896362
v 5.792480 47.865784 0.000000
v 6.397446 48.954468 -3.693542
v 3.693405 48.954468 -6.397583
v -0.000198 48.954468 -7.387329
v -3.693863 48.954468 -6.397583
v -6.397842 48.954468 -3.693542
v -7.387527 48.954468 0.000000
v -6.397842 48.954468 3.693665
v -3.693863 48.954468 6.397644
v -0.000198 48.954468 7.387329
v 3.693405 48.954468 6.397644
v 6.397446 48.954468 3.693665
v 7.387131 48.954468 0.000000
v 6.397446 49.732117 -3.693542
v 3.693405 49.732117 -6.397583
v -0.000198 49.732117 -7.387329
v -3.693863 49.732117 -6.397583
v -6.397842 49.732117 -3.693542
v -7.387527 49.732117 0.000000
v -6.397842 49.732117 3.693665
v -3.693863 49.732117 6.397644
v -0.000198 49.732117 7.387329
v 3.693405 49.732117 6.397644
v 6.397446 49.732117 3.693665
v 7.387131 49.732117 0.000000
v 3.551285 52.842651 -2.050354
v 2.050156 52.842651 -3.551514
v -0.000198 52.842636 0.000000
v -0.000259 52.842651 -4.101013
v -2.050552 52.842651 -3.551514
v -3.551682 52.842651 -2.050354
v -4.101074 52.842651 0.000061
v -3.551636 52.842651 2.050476
v -2.050659 52.842651 3.551514
v -0.000259 52.842651 4.100952
v 2.050262 52.842651 3.551514
v 3.551285 52.842651 2.050415
v 4.100800 52.842651 -0.000061
v -0.963242 5.375305 -16.304138
v 0.963516 5.375305 -16.304138
v -0.963242 5.222656 -14.438110
v 0.963516 5.222656 -14.438110
v -0.963242 42.273239 -11.407043
v 0.963516 42.273239 -11.407043
v -0.963242 42.425888 -13.273010
v 0.963516 42.425888 -13.273010
v -0.963242 40.262817 -11.571411
v 0.963516 40.262817 -11.571411
v 0.963516 40.415466 -13.437500
v -0.963242 40.415466 -13.437500
v -0.963242 7.462372 -14.254883
v 0.963516 7.462372 -14.254883
v 0.963516 7.615036 -16.120911
v -0.963242 7.615036 -16.120911
v -0.963242 39.826752 -6.241333
v 0.963516 39.826752 -6.241333
v 0.963516 41.837173 -6.076843
v -0.963242 41.837173 -6.076843
v -0.963242 4.786591 -9.107910
v 0.963516 4.786591 -9.107910
v 0.963516 7.026306 -8.924683
v -0.963242 7.026306 -8.924683
vt 0.635316 0.078125
vt 0.578125 0.020934
vt 0.500000 0.000000
vt 0.421875 0.020934
vt 0.364684 0.078125
vt 0.343750 0.156250
vt 0.364684 0.234375
vt 0.421875 0.291566
vt 0.500000 0.312500
vt 0.578125 0.291566
vt 0.635316 0.234375
vt 0.656250 0.156250
vt 0.375000 0.312500
vt 0.395833 0.312500
vt 0.416667 0.312500
vt 0.437500 0.312500
vt 0.458333 0.312500
vt 0.479167 0.312500
vt 0.500000 0.312500
vt 0.520833 0.312500
vt 0.541667 0.312500
vt 0.562500 0.312500
vt 0.583333 0.312500
vt 0.604167 0.312500
vt 0.625000 0.312500
vt 0.375000 0.688440
vt 0.395833 0.688440
vt 0.416667 0.688440
vt 0.437500 0.688440
vt 0.458333 0.688440
vt 0.479167 0.688440
vt 0.500000 0.688440
vt 0.520833 0.688440
vt 0.541667 0.688440
vt 0.562500 0.688440
vt 0.583333 0.688440
vt 0.604167 0.688440
vt 0.625000 0.688440
vt 0.635316 0.765625
vt 0.578125 0.708434
vt 0.500000 0.687500
vt 0.421875 0.708434
vt 0.364684 0.765625
vt 0.343750 0.843750
vt 0.364684 0.921875
vt 0.421875 0.979066
vt 0.500000 1.000000
vt 0.578125 0.979066
vt 0.635316 0.921875
vt 0.656250 0.843750
vt 0.500000 0.150000
vt 0.500000 0.837500
vt 0.375000 0.312500
vt 0.395833 0.312500
vt 0.395833 0.688440
vt 0.375000 0.688440
vt 0.416667 0.312500
vt 0.416667 0.688440
vt 0.437500 0.312500
vt 0.437500 0.688440
vt 0.458333 0.312500
vt 0.458333 0.688440
vt 0.479167 0.312500
vt 0.479167 0.688440
vt 0.500000 0.312500
vt 0.500000 0.688440
vt 0.520833 0.312500
vt 0.520833 0.688440
vt 0.541667 0.312500
vt 0.541667 0.688440
vt 0.562500 0.312500
vt 0.562500 0.688440
vt 0.583333 0.312500
vt 0.583333 0.688440
vt 0.604167 0.312500
vt 0.604167 0.688440
vt 0.625000 0.312500
vt 0.625000 0.688440
vt 0.578125 0.020934
vt 0.635316 0.078125
vt 0.500000 0.150000
vt 0.500000 0.000000
vt 0.421875 0.020934
vt 0.364684 0.078125
vt 0.343750 0.156250
vt 0.364684 0.234375
vt 0.421875 0.291566
vt 0.500000 0.312500
vt 0.578125 0.291566
vt 0.635316 0.234375
vt 0.656250 0.156250
vt 0.635316 0.921875
vt 0.578125 0.979066
vt 0.500000 0.837500
vt 0.500000 1.000000
vt 0.421875 0.979066
vt 0.364684 0.921875
vt 0.343750 0.843750
vt 0.364684 0.765625
vt 0.421875 0.708434
vt 0.500000 0.687500
vt 0.578125 0.708434
vt 0.635316 0.765625
vt 0.656250 0.843750
vt 0.578125 0.020934
vt 0.635316 0.078125
vt 0.635316 0.078125
vt 0.578125 0.020934
vt 0.500000 0.000000
vt 0.500000 0.000000
vt 0.421875 0.020934
vt 0.421875 0.020934
vt 0.364684 0.078125
vt 0.364684 0.078125
vt 0.343750 0.156250
vt 0.343750 0.156250
vt 0.364684 0.234375
vt 0.364684 0.234375
vt 0.421875 0.291566
vt 0.421875 0.291566
vt 0.500000 0.312500
vt 0.500000 0.312500
vt 0.578125 0.291566
vt 0.578125 0.291566
vt 0.635316 0.234375
vt 0.635316 0.234375
vt 0.656250 0.156250
vt 0.656250 0.156250
vt 0.375000 0.000000
vt 0.625000 0.000000
vt 0.625000 0.250000
vt 0.375000 0.250000
vt 0.375000 0.482482
vt 0.625000 0.482482
vt 0.625000 0.500000
vt 0.375000 0.500000
vt 0.375000 0.500000
vt 0.625000 0.500000
vt 0.625000 0.750000
vt 0.375000 0.750000
vt 0.625000 0.767518
vt 0.375000 0.767518
vt 0.857483 0.250000
vt 0.857482 0.000000
vt 0.875000 0.000000
vt 0.875000 0.250000
vt 0.125000 0.000000
vt 0.142518 0.000000
vt 0.142518 0.250000
vt 0.125000 0.250000
vt 0.375000 0.265113
vt 0.625000 0.265113
vt 0.625000 0.482482
vt 0.375000 0.482482
vt 0.640113 0.250000
vt 0.640113 0.000000
vt 0.625000 0.984887
vt 0.375000 0.984887
vt 0.359887 0.000000
vt 0.359887 0.250000
vt 0.375000 0.250000
vt 0.625000 0.250000
vt 0.625000 0.265113
vt 0.375000 0.265113
vt 0.625000 1.000000
vt 0.375000 1.000000
vt 0.045455 1.000000
vt 0.000000 1.000000
vt 0.000000 0.750000
vt 0.045455 0.750000
vt 0.090909 1.000000
vt 0.090909 0.750000
vt 0.136364 1.000000
vt 0.136364 0.750000
vt 0.181818 1.000000
vt 0.181818 0.750000
vt 0.227273 1.000000
vt 0.227273 0.750000
vt 0.272727 1.000000
vt 0.272727 0.750000
vt 0.318182 1.000000
vt 0.318182 0.750000
vt 0.363636 1.000000
vt 0.363636 0.750000
vt 0.409091 1.000000
vt 0.409091 0.750000
vt 0.454545 1.000000
vt 0.454545 0.750000
vt 0.500000 1.000000
vt 0.500000 0.750000
vt 0.545455 1.000000
vt 0.545455 0.750000
vt 0.590909 1.000000
vt 0.590909 0.750000
vt 0.636364 1.000000
vt 0.636364 0.750000
vt 0.681818 1.000000
vt 0.681818 0.750000
vt 0.727273 1.000000
vt 0.727273 0.750000
vt 0.772727 1.000000
vt 0.772727 0.750000
vt 0.818182 1.000000
vt 0.818182 0.750000
vt 0.863637 1.000000
vt 0.863637 0.750000
vt 0.909091 1.000000
vt 0.909091 0.750000
vt 0.954546 1.000000
vt 0.954546 0.750000
vt 1.000000 1.000000
vt 1.000000 0.750000
vt 0.000000 0.500000
vt 0.045455 0.500000
vt 0.090909 0.500000
vt 0.136364 0.500000
vt 0.181818 0.500000
vt 0.227273 0.500000
vt 0.272727 0.500000
vt 0.318182 0.500000
vt 0.363636 0.500000
vt 0.409091 0.500000
vt 0.454545 0.500000
vt 0.500000 0.500000
vt 0.545455 0.500000
vt 0.590909 0.500000
vt 0.636364 0.500000
vt 0.681818 0.500000
vt 0.727273 0.500000
vt 0.772727 0.500000
vt 0.818182 0.500000
vt 0.863637 0.500000
vt 0.909091 0.500000
vt 0.954546 0.500000
vt 1.000000 0.500000
vt 0.000000 0.250000
vt 0.045455 0.250000
vt 0.090909 0.250000
vt 0.136364 0.250000
vt 0.181818 0.250000
vt 0.227273 0.250000
vt 0.272727 0.250000
vt 0.318182 0.250000
vt 0.363636 0.250000
vt 0.409091 0.250000
vt 0.454545 0.250000
vt 0.500000 0.250000
vt 0.545455 0.250000
vt 0.590909 0.250000
vt 0.636364 0.250000
vt 0.681818 0.250000
vt 0.727273 0.250000
vt 0.772727 0.250000
vt 0.818182 0.250000
vt 0.863637 0.250000
vt 0.909091 0.250000
vt 0.954546 0.250000
vt 1.000000 0.250000
vt 0.000000 0.000000
vt 0.045455 0.000000
vt 0.090909 0.000000
vt 0.136364 0.000000
vt 0.181818 0.000000
vt 0.227273 0.000000
vt 0.272727 0.000000
vt 0.318182 0.000000
vt 0.363636 0.000000
vt 0.409091 0.000000
vt 0.454545 0.000000
vt 0.500000 0.000000
vt 0.545455 0.000000
vt 0.590909 0.000000
vt 0.636364 0.000000
vt 0.681818 0.000000
vt 0.727273 0.000000
vt 0.772727 0.000000
vt 0.818182 0.000000
vt 0.863637 0.000000
vt 0.909091 0.000000
vt 0.954546 0.000000
vt 1.000000 0.000000
vt 0.375000 0.312500
vt 0.395833 0.312500
vt 0.395833 0.688440
vt 0.375000 0.688440
vt 0.416667 0.312500
vt 0.416667 0.688440
vt 0.437500 0.312500
vt 0.437500 0.688440
vt 0.458333 0.312500
vt 0.458333 0.688440
vt 0.479167 0.312500
vt 0.479167 0.688440
vt 0.500000 0.312500
vt 0.500000 0.688440
vt 0.520833 0.312500
vt 0.520833 0.688440
vt 0.541667 0.312500
vt 0.541667 0.688440
vt 0.562500 0.312500
vt 0.562500 0.688440
vt 0.583333 0.312500
vt 0.583333 0.688440
vt 0.604167 0.312500
vt 0.604167 0.688440
vt 0.625000 0.312500
vt 0.625000 0.688440
vt 0.578125 0.020934
vt 0.635316 0.078125
vt 0.500000 0.150000
vt 0.500000 0.000000
vt 0.421875 0.020934
vt 0.364684 0.078125
vt 0.343750 0.156250
vt 0.364684 0.234375
vt 0.421875 0.291566
vt 0.500000 0.312500
vt 0.578125 0.291566
vt 0.635316 0.234375
vt 0.656250 0.156250
vt 0.635316 0.921875
vt 0.578125 0.979066
vt 0.500000 0.837500
vt 0.500000 1.000000
vt 0.421875 0.979066
vt 0.364684 0.921875
vt 0.343750 0.843750
vt 0.364684 0.765625
vt 0.421875 0.708434
vt 0.500000 0.687500
vt 0.578125 0.708434
vt 0.635316 0.765625
vt 0.656250 0.843750
vt 0.635316 0.921875
vt 0.578125 0.979066
vt 0.578125 0.979066
vt 0.635316 0.921875
vt 0.500000 1.000000
vt 0.500000 1.000000
vt 0.421875 0.979066
vt 0.421875 0.979066
vt 0.364684 0.921875
vt 0.364684 0.921875
vt 0.343750 0.843750
vt 0.343750 0.843750
vt 0.364684 0.765625
vt 0.364684 0.765625
vt 0.421875 0.708434
vt 0.421875 0.708434
vt 0.500000 0.687500
vt 0.500000 0.687500
vt 0.578125 0.708434
vt 0.578125 0.708434
vt 0.635316 0.765625
vt 0.635316 0.765625
vt 0.656250 0.843750
vt 0.656250 0.843750
vt 0.578125 0.979066
vt 0.635316 0.921875
vt 0.500000 1.000000
vt 0.421875 0.979066
vt 0.364684 0.921875
vt 0.343750 0.843750
vt 0.364684 0.765625
vt 0.421875 0.708434
vt 0.500000 0.687500
vt 0.578125 0.708434
vt 0.635316 0.765625
vt 0.656250 0.843750
vt 0.578125 0.979066
vt 0.635316 0.921875
vt 0.500000 1.000000
vt 0.421875 0.979066
vt 0.364684 0.921875
vt 0.343750 0.843750
vt 0.364684 0.765625
vt 0.421875 0.708434
vt 0.500000 0.687500
vt 0.578125 0.708434
vt 0.635316 0.765625
vt 0.656250 0.843750
vt 0.578125 0.979066
vt 0.635316 0.921875
vt 0.500000 1.000000
vt 0.421875 0.979066
vt 0.364684 0.921875
vt 0.343750 0.843750
vt 0.364684 0.765625
vt 0.421875 0.708434
vt 0.500000 0.687500
vt 0.578125 0.708434
vt 0.635316 0.765625
vt 0.656250 0.843750
vt 0.578125 0.979066
vt 0.635316 0.921875
vt 0.500000 1.000000
vt 0.421875 0.979066
vt 0.364684 0.921875
vt 0.343750 0.843750
vt 0.364684 0.765625
vt 0.421875 0.708434
vt 0.500000 0.687500
vt 0.578125 0.708434
vt 0.635316 0.765625
vt 0.656250 0.843750
vt 0.375000 0.000000
vt 0.625000 0.000000
vt 0.625000 0.250000
vt 0.375000 0.250000
vt 0.375000 0.482482
vt 0.625000 0.482482
vt 0.625000 0.500000
vt 0.375000 0.500000
vt 0.375000 0.500000
vt 0.625000 0.500000
vt 0.625000 0.750000
vt 0.375000 0.750000
vt 0.625000 0.767518
vt 0.375000 0.767518
vt 0.857483 0.250000
vt 0.857482 0.000000
vt 0.875000 0.000000
vt 0.875000 0.250000
vt 0.125000 0.000000
vt 0.142518 0.000000
vt 0.142518 0.250000
vt 0.125000 0.250000
vt 0.375000 0.265113
vt 0.625000 0.265113
vt 0.625000 0.482482
vt 0.375000 0.482482
vt 0.640113 0.250000
vt 0.640113 0.000000
vt 0.625000 0.984887
vt 0.375000 0.984887
vt 0.359887 0.000000
vt 0.359887 0.250000
vt 0.375000 0.250000
vt 0.625000 0.250000
vt 0.625000 0.265113
vt 0.375000 0.265113
vt 0.625000 1.000000
vt 0.375000 1.000000
vn 0.706249 0.049273 -0.706247
vn 0.706249 0.049273 -0.706247
vn 0.706249 0.049273 -0.706247
vn 0.706249 0.049273 -0.706247
vn 0.258499 0.049274 -0.964754
vn 0.258499 0.049274 -0.964754
vn 0.258499 0.049274 -0.964754
vn 0.258499 0.049274 -0.964754
vn -0.258499 0.049274 -0.964754
vn -0.258499 0.049274 -0.964754
vn -0.258499 0.049274 -0.964754
vn -0.258499 0.049274 -0.964754
vn -0.706249 0.049273 -0.706247
vn -0.706249 0.049273 -0.706247
vn -0.706249 0.049273 -0.706247
vn -0.706249 0.049273 -0.706247
vn -0.964752 0.049273 -0.258506
vn -0.964752 0.049273 -0.258505
vn -0.964752 0.049273 -0.258505
vn -0.964752 0.049273 -0.258505
vn -0.964752 0.049273 0.258505
vn -0.964752 0.049273 0.258506
vn -0.964752 0.049273 0.258505
vn -0.964752 0.049273 0.258505
vn -0.706249 0.049273 0.706247
vn -0.706249 0.049273 0.706247
vn -0.706249 0.049273 0.706247
vn -0.706249 0.049273 0.706247
vn -0.258499 0.049274 0.964754
vn -0.258499 0.049274 0.964754
vn -0.258499 0.049274 0.964754
vn -0.258499 0.049274 0.964754
vn 0.258499 0.049274 0.964754
vn 0.258499 0.049274 0.964754
vn 0.258499 0.049274 0.964754
vn 0.258499 0.049274 0.964754
vn 0.706249 0.049273 0.706247
vn 0.706249 0.049273 0.706247
vn 0.706249 0.049273 0.706247
vn 0.706249 0.049273 0.706247
vn 0.964752 0.049273 0.258506
vn 0.964752 0.049273 0.258505
vn 0.964752 0.049273 0.258505
vn 0.964752 0.049273 0.258505
vn 0.964752 0.049273 -0.258505
vn 0.964752 0.049273 -0.258506
vn 0.964752 0.049273 -0.258505
vn 0.964752 0.049273 -0.258505
vn 0.000000 -1.000000 0.000000
vn 0.000000 -1.000000 0.000000
vn 0.000000 -1.000000 -0.000000
vn 0.000000 -1.000000 0.000000
vn 0.000000 -1.000000 0.000000
vn 0.000000 -1.000000 0.000000
vn 0.000000 -1.000000 0.000000
vn 0.000000 -1.000000 -0.000000
vn 0.000000 -1.000000 -0.000000
vn 0.000000 -1.000000 0.000000
vn 0.000000 -1.000000 -0.000000
vn 0.000000 -1.000000 -0.000000
vn 0.000000 -1.000000 0.000000
vn 0.000000 1.000000 0.000000
vn 0.000000 1.000000 0.000000
vn 0.000000 1.000000 0.000000
vn 0.000000 1.000000 0.000000
vn 0.000000 1.000000 0.000000
vn 0.000000 1.000000 0.000000
vn 0.000000 1.000000 0.000000
vn 0.000000 1.000000 0.000000
vn 0.000000 1.000000 0.000000
vn 0.000000 1.000000 0.000000
vn 0.000000 1.000000 -0.000000
vn 0.000000 1.000000 -0.000000
vn 0.000000 1.000000 0.000000
vn 0.703151 0.105709 -0.703138
vn 0.703151 0.105709 -0.703139
vn 0.703151 0.105709 -0.703139
vn 0.703151 0.105709 -0.703138
vn 0.257346 0.105701 -0.960521
vn 0.257346 0.105701 -0.960521
vn 0.257346 0.105701 -0.960521
vn 0.257346 0.105701 -0.960521
vn -0.257343 0.105708 -0.960521
vn -0.257343 0.105708 -0.960521
vn -0.257343 0.105708 -0.960521
vn -0.257343 0.105708 -0.960521
vn -0.703143 0.105727 -0.703144
vn -0.703143 0.105727 -0.703144
vn -0.703143 0.105727 -0.703144
vn -0.703143 0.105727 -0.703144
vn -0.960521 0.105702 -0.257345
vn -0.960521 0.105702 -0.257345
vn -0.960521 0.105702 -0.257345
vn -0.960521 0.105702 -0.257345
vn -0.960521 0.105697 0.257348
vn -0.960521 0.105697 0.257348
vn -0.960521 0.105697 0.257348
vn -0.960521 0.105697 0.257348
vn -0.703137 0.105707 0.703154
vn -0.703137 0.105707 0.703154
vn -0.703137 0.105707 0.703154
vn -0.703137 0.105707 0.703154
vn -0.257367 0.105699 0.960516
vn -0.257367 0.105699 0.960515
vn -0.257367 0.105699 0.960515
vn -0.257367 0.105699 0.960515
vn 0.257371 0.105692 0.960515
vn 0.257371 0.105692 0.960515
vn 0.257371 0.105692 0.960515
vn 0.257371 0.105692 0.960515
vn 0.703145 0.105689 0.703148
vn 0.703145 0.105689 0.703148
vn 0.703145 0.105689 0.703148
vn 0.703145 0.105689 0.703148
vn 0.960517 0.105684 0.257368
vn 0.960517 0.105684 0.257368
vn 0.960517 0.105684 0.257368
vn 0.960517 0.105684 0.257368
vn 0.960517 0.105689 -0.257365
vn 0.960517 0.105689 -0.257365
vn 0.960517 0.105689 -0.257365
vn 0.960517 0.105689 -0.257365
vn 0.000000 -1.000000 0.000000
vn 0.000000 -1.000000 0.000000
vn 0.000000 -1.000000 -0.000000
vn 0.000000 -1.000000 0.000000
vn 0.000001 -1.000000 -0.000001
vn 0.000001 -1.000000 0.000001
vn -0.000000 -1.000000 0.000001
vn -0.000001 -1.000000 -0.000001
vn 0.000001 -1.000000 -0.000001
vn 0.000001 -1.000000 -0.000000
vn -0.000001 -1.000000 0.000001
vn -0.000001 -1.000000 -0.000001
vn -0.000000 -1.000000 -0.000001
vn 0.000000 1.000000 0.000000
vn 0.000000 1.000000 0.000000
vn 0.000000 1.000000 0.000000
vn 0.000000 1.000000 0.000000
vn 0.000000 1.000000 0.000000
vn 0.000000 1.000000 0.000000
vn 0.000000 1.000000 0.000000
vn 0.000000 1.000000 0.000000
vn 0.000000 1.000000 0.000000
vn 0.000000 1.000000 0.000000
vn 0.000000 1.000000 0.000000
vn 0.000000 1.000000 0.000000
vn 0.000000 1.000000 0.000000
vn 0.472954 0.324437 -0.819180
vn 0.819179 0.324438 -0.472953
vn 0.819182 0.324438 -0.472950
vn 0.472956 0.324438 -0.819178
vn -0.000003 0.324453 -0.945902
vn 0.000004 0.324453 -0.945902
vn -0.472949 0.324429 -0.819185
vn -0.472951 0.324429 -0.819184
vn -0.819193 0.324415 -0.472947
vn -0.819192 0.324415 -0.472947
vn -0.945914 0.324417 0.000002
vn -0.945914 0.324417 -0.000005
vn -0.819189 0.324419 0.472949
vn -0.819189 0.324419 0.472950
vn -0.472949 0.324413 0.819192
vn -0.472945 0.324413 0.819194
vn -0.000005 0.324407 0.945918
vn 0.000002 0.324407 0.945918
vn 0.472955 0.324422 0.819185
vn 0.472953 0.324422 0.819186
vn 0.819177 0.324441 0.472955
vn 0.819180 0.324441 0.472951
vn 0.945902 0.324454 0.000004
vn 0.945902 0.324453 -0.000002
vn 0.707103 0.000000 -0.707110
vn 0.707103 0.000000 -0.707110
vn 0.707103 0.000000 -0.707110
vn 0.707103 0.000000 -0.707110
vn 0.258849 0.000000 -0.965918
vn 0.258849 0.000000 -0.965918
vn 0.258849 0.000000 -0.965918
vn 0.258849 0.000000 -0.965918
vn -0.258837 0.000000 -0.965921
vn -0.258837 0.000000 -0.965921
vn -0.258837 0.000000 -0.965921
vn -0.258837 0.000000 -0.965921
vn -0.707108 0.000000 -0.707106
vn -0.707108 0.000000 -0.707106
vn -0.707108 0.000000 -0.707106
vn -0.707108 0.000000 -0.707106
vn -0.965929 0.000000 -0.258808
vn -0.965929 0.000000 -0.258808
vn -0.965929 0.000000 -0.258808
vn -0.965929 0.000000 -0.258808
vn -0.965929 0.000000 0.258808
vn -0.965929 0.000000 0.258808
vn -0.965929 0.000000 0.258808
vn -0.965929 0.000000 0.258808
vn -0.707113 0.000000 0.707101
vn -0.707113 0.000000 0.707101
vn -0.707113 0.000000 0.707101
vn -0.707113 0.000000 0.707101
vn 0.000001 0.000000 1.000000
vn -0.258784 0.000000 0.965935
vn -0.258784 0.000000 0.965935
vn 0.000000 0.000000 1.000000
vn 0.258796 0.000000 0.965932
vn 0.258796 0.000000 0.965932
vn 0.866023 0.000000 0.500004
vn 0.707108 0.000000 0.707106
vn 0.707108 0.000000 0.707106
vn 0.866023 0.000000 0.500004
vn 0.965922 0.000000 0.258832
vn 0.965922 0.000000 0.258832
vn 0.965922 0.000000 -0.258832
vn 0.965922 0.000000 -0.258832
vn 0.965922 0.000000 -0.258832
vn 0.965922 0.000000 -0.258832
vn 0.000000 -0.996670 0.081540
vn 0.000000 -0.996670 0.081538
vn 0.000000 -0.996670 0.081538
vn 0.000000 -0.996670 0.081540
vn 0.000000 -0.081546 -0.996670
vn 0.000000 -0.081546 -0.996670
vn 0.000000 -0.081546 -0.996670
vn 0.000000 -0.081546 -0.996670
vn 0.000000 0.996670 -0.081536
vn 0.000000 0.996671 -0.081533
vn 0.000000 0.996671 -0.081533
vn 0.000000 0.996670 -0.081536
vn 0.000000 0.081547 0.996670
vn 0.000000 0.081538 0.996670
vn 0.000000 0.081538 0.996670
vn 0.000000 0.081547 0.996670
vn 1.000000 0.000000 0.000000
vn 1.000000 0.000000 0.000000
vn 1.000000 0.000000 0.000000
vn 1.000000 -0.000000 0.000000
vn -1.000000 0.000000 0.000000
vn -1.000000 0.000000 0.000000
vn -1.000000 0.000000 0.000000
vn -1.000000 0.000000 0.000000
vn 0.000000 -0.081540 -0.996670
vn 0.000000 -0.081540 -0.996670
vn 0.000000 -0.081540 -0.996670
vn 0.000000 -0.081540 -0.996670
vn 1.000000 -0.000000 0.000000
vn 1.000000 -0.000000 0.000000
vn 0.000000 0.081538 0.996670
vn 0.000000 0.081538 0.996670
vn -1.000000 -0.000000 0.000000
vn -1.000000 0.000000 0.000000
vn 0.000000 -0.081535 -0.996671
vn 0.000000 -0.081535 -0.996671
vn 0.000000 -0.081535 -0.996671
vn 0.000000 -0.081535 -0.996671
vn 1.000000 0.000000 0.000000
vn 1.000000 0.000000 0.000000
vn 0.000000 0.081536 0.996670
vn 0.000000 0.081536 0.996670
vn -1.000000 -0.000000 0.000000
vn -1.000000 0.000000 0.000000
vn 0.000000 -0.996670 0.081538
vn 0.000000 -0.996670 0.081538
vn 0.000000 -0.996670 0.081538
vn 0.000000 -0.996670 0.081538
vn 1.000000 0.000000 0.000000
vn 1.000000 0.000000 0.000000
vn 0.000000 0.996670 -0.081536
vn 0.000000 0.996670 -0.081536
vn -1.000000 0.000000 0.000000
vn -1.000000 0.000000 0.000000
vn 0.000000 -0.996670 0.081537
vn 0.000000 -0.996670 0.081537
vn 1.000000 0.000000 0.000000
vn 1.000000 0.000000 0.000000
vn 0.000000 0.996671 -0.081531
vn 0.000000 0.996671 -0.081531
vn 0.000000 0.996671 -0.081531
vn 0.000000 0.996671 -0.081531
vn -1.000000 -0.000000 0.000000
vn -1.000000 -0.000000 0.000000
vn 0.707117 0.594848 0.382284
vn 0.707116 0.678456 0.199210
vn 0.707116 0.678454 0.199215
vn 0.707117 0.594848 0.382285
vn 0.707116 0.463052 0.534387
vn 0.707116 0.463052 0.534387
vn 0.707112 0.293738 0.643203
vn 0.707112 0.293739 0.643203
vn 0.707110 0.100633 0.699906
vn 0.707110 0.100633 0.699906
vn 0.707118 -0.100629 0.699898
vn 0.707118 -0.100629 0.699898
vn 0.707118 -0.293737 0.643197
vn 0.707118 -0.293738 0.643197
vn 0.707108 -0.463056 0.534395
vn 0.707108 -0.463054 0.534396
vn 0.707102 -0.594858 0.382296
vn 0.707102 -0.594861 0.382292
vn 0.707105 -0.678465 0.199216
vn 0.707105 -0.678465 0.199215
vn 0.707109 -0.707105 -0.000000
vn 0.707109 -0.707105 0.000000
vn 0.707114 -0.678458 -0.199211
vn 0.707114 -0.678456 -0.199217
vn 0.707117 -0.594849 -0.382284
vn 0.707117 -0.594848 -0.382285
vn 0.707116 -0.463052 -0.534388
vn 0.707116 -0.463052 -0.534388
vn 0.707117 -0.293739 -0.643197
vn 0.707117 -0.293738 -0.643198
vn 0.707124 -0.100631 -0.699892
vn 0.707124 -0.100630 -0.699892
vn 0.707125 0.100631 -0.699892
vn 0.707125 0.100630 -0.699892
vn 0.707117 0.293739 -0.643197
vn 0.707117 0.293738 -0.643198
vn 0.707109 0.463055 -0.534394
vn 0.707109 0.463055 -0.534394
vn 0.707106 0.594856 -0.382292
vn 0.707106 0.594858 -0.382288
vn 0.707111 0.678461 -0.199211
vn 0.707111 0.678459 -0.199217
vn 0.707113 0.707100 0.000000
vn 0.707113 0.707100 0.000000
vn 0.707111 -0.594854 -0.382287
vn 0.707108 -0.678462 -0.199215
vn 0.707108 -0.678463 -0.199214
vn 0.707111 -0.594853 -0.382288
vn 0.707114 -0.463053 -0.534389
vn 0.707114 -0.463053 -0.534389
vn 0.707118 -0.293736 -0.643198
vn 0.707118 -0.293735 -0.643198
vn 0.707117 -0.100632 -0.699899
vn 0.707117 -0.100631 -0.699899
vn 0.707110 0.100629 -0.699906
vn 0.707110 0.100630 -0.699906
vn 0.707111 0.293741 -0.643203
vn 0.707111 0.293741 -0.643204
vn 0.707115 0.463052 -0.534388
vn 0.707115 0.463052 -0.534389
vn 0.707114 0.594850 -0.382287
vn 0.707114 0.594850 -0.382288
vn 0.707110 0.678461 -0.199215
vn 0.707110 0.678461 -0.199214
vn 0.707108 0.707106 0.000000
vn 0.707108 0.707106 0.000000
vn 0.707108 0.678463 0.199214
vn 0.707108 0.678463 0.199213
vn 0.707110 0.594854 0.382288
vn 0.707110 0.594853 0.382290
vn 0.707113 0.463054 0.534390
vn 0.707113 0.463053 0.534391
vn 0.707111 0.293741 0.643203
vn 0.707111 0.293741 0.643203
vn 0.707103 0.100633 0.699913
vn 0.707103 0.100633 0.699913
vn 0.707103 -0.100633 0.699914
vn 0.707103 -0.100633 0.699914
vn 0.707110 -0.293742 0.643204
vn 0.707110 -0.293741 0.643204
vn 0.707113 -0.463054 0.534389
vn 0.707114 -0.463053 0.534390
vn 0.707113 -0.594851 0.382287
vn 0.707113 -0.594851 0.382288
vn 0.707110 -0.678461 0.199215
vn 0.707110 -0.678461 0.199214
vn 0.707108 -0.707106 0.000000
vn 0.707108 -0.707106 0.000000
vn -0.707111 -0.594853 -0.382288
vn -0.707108 -0.678463 -0.199214
vn -0.707108 -0.678462 -0.199215
vn -0.707111 -0.594854 -0.382287
vn -0.707114 -0.463053 -0.534389
vn -0.707114 -0.463053 -0.534389
vn -0.707118 -0.293735 -0.643198
vn -0.707118 -0.293736 -0.643198
vn -0.707117 -0.100631 -0.699899
vn -0.707117 -0.100632 -0.699899
vn -0.707110 0.100630 -0.699906
vn -0.707110 0.100629 -0.699906
vn -0.707110 0.293741 -0.643204
vn -0.707110 0.293741 -0.643204
vn -0.707115 0.463052 -0.534389
vn -0.707115 0.463052 -0.534388
vn -0.707114 0.594850 -0.382288
vn -0.707114 0.594850 -0.382287
vn -0.707110 0.678461 -0.199214
vn -0.707110 0.678461 -0.199215
vn -0.707108 0.707106 0.000000
vn -0.707108 0.707106 0.000000
vn -0.707108 0.678463 0.199213
vn -0.707108 0.678463 0.199214
vn -0.707110 0.594853 0.382290
vn -0.707110 0.594854 0.382288
vn -0.707113 0.463053 0.534391
vn -0.707113 0.463054 0.534390
vn -0.707111 0.293741 0.643203
vn -0.707111 0.293741 0.643203
vn -0.707103 0.100633 0.699913
vn -0.707103 0.100633 0.699913
vn -0.707103 -0.100633 0.699914
vn -0.707103 -0.100633 0.699914
vn -0.707110 -0.293741 0.643204
vn -0.707110 -0.293742 0.643204
vn -0.707113 -0.463053 0.534390
vn -0.707113 -0.463054 0.534389
vn -0.707113 -0.594851 0.382288
vn -0.707113 -0.594852 0.382287
vn -0.707110 -0.678461 0.199214
vn -0.707110 -0.678461 0.199215
vn -0.707108 -0.707106 0.000000
vn -0.707108 -0.707106 0.000000
vn -0.707117 0.594848 0.382285
vn -0.707116 0.678454 0.199215
vn -0.707116 0.678456 0.199210
vn -0.707117 0.594848 0.382284
vn -0.707116 0.463051 0.534387
vn -0.707116 0.463052 0.534387
vn -0.707112 0.293738 0.643203
vn -0.707112 0.293738 0.643203
vn -0.707110 0.100633 0.699906
vn -0.707110 0.100633 0.699906
vn -0.707118 -0.100629 0.699898
vn -0.707118 -0.100629 0.699898
vn -0.707118 -0.293738 0.643197
vn -0.707118 -0.293737 0.643197
vn -0.707108 -0.463054 0.534396
vn -0.707108 -0.463056 0.534395
vn -0.707102 -0.594861 0.382292
vn -0.707102 -0.594858 0.382296
vn -0.707105 -0.678465 0.199215
vn -0.707105 -0.678465 0.199216
vn -0.707109 -0.707105 0.000000
vn -0.707109 -0.707105 -0.000000
vn -0.707114 -0.678456 -0.199217
vn -0.707114 -0.678458 -0.199211
vn -0.707117 -0.594848 -0.382285
vn -0.707117 -0.594848 -0.382284
vn -0.707115 -0.463052 -0.534388
vn -0.707115 -0.463052 -0.534388
vn -0.707117 -0.293738 -0.643198
vn -0.707117 -0.293739 -0.643197
vn -0.707124 -0.100630 -0.699892
vn -0.707124 -0.100631 -0.699892
vn -0.707125 0.100630 -0.699892
vn -0.707125 0.100631 -0.699892
vn -0.707117 0.293738 -0.643198
vn -0.707117 0.293739 -0.643197
vn -0.707109 0.463054 -0.534394
vn -0.707109 0.463055 -0.534394
vn -0.707106 0.594858 -0.382288
vn -0.707106 0.594856 -0.382292
vn -0.707111 0.678459 -0.199217
vn -0.707111 0.678461 -0.199211
vn -0.707113 0.707100 -0.000000
vn -0.707113 0.707100 -0.000000
vn 0.671934 0.311458 -0.671937
vn 0.671934 0.311458 -0.671937
vn 0.687708 0.232604 -0.687716
vn 0.687708 0.232604 -0.687716
vn 0.245936 0.311446 -0.917887
vn 0.245936 0.311446 -0.917887
vn 0.251716 0.232594 -0.939436
vn 0.251716 0.232595 -0.939435
vn -0.245936 0.311446 -0.917887
vn -0.245936 0.311446 -0.917887
vn -0.251716 0.232595 -0.939435
vn -0.251716 0.232594 -0.939435
vn -0.671934 0.311458 -0.671937
vn -0.671934 0.311458 -0.671937
vn -0.687708 0.232604 -0.687716
vn -0.687708 0.232604 -0.687716
vn -0.917883 0.311451 -0.245947
vn -0.917883 0.311451 -0.245947
vn -0.939433 0.232598 -0.251721
vn -0.939433 0.232598 -0.251721
vn -0.917884 0.311449 0.245945
vn -0.917884 0.311449 0.245945
vn -0.939434 0.232596 0.251719
vn -0.939434 0.232597 0.251719
vn -0.671936 0.311449 0.671939
vn -0.671936 0.311449 0.671939
vn -0.687709 0.232597 0.687717
vn -0.687709 0.232598 0.687717
vn -0.245941 0.311452 0.917884
vn -0.245941 0.311452 0.917884
vn -0.251716 0.232599 0.939434
vn -0.251716 0.232600 0.939434
vn 0.245941 0.311452 0.917884
vn 0.245941 0.311452 0.917884
vn 0.251716 0.232600 0.939434
vn 0.251716 0.232599 0.939434
vn 0.671936 0.311450 0.671939
vn 0.671936 0.311450 0.671939
vn 0.687709 0.232598 0.687717
vn 0.687709 0.232597 0.687717
vn 0.917884 0.311449 0.245945
vn 0.917884 0.311449 0.245945
vn 0.939434 0.232597 0.251719
vn 0.939434 0.232596 0.251719
vn 0.917883 0.311451 -0.245946
vn 0.917883 0.311451 -0.245946
vn 0.939433 0.232598 -0.251721
vn 0.939433 0.232598 -0.251721
vn 0.000000 -1.000000 0.000000
vn 0.000000 -1.000000 0.000000
vn 0.000000 -1.000000 0.000000
vn 0.000000 -1.000000 0.000000
vn 0.000000 -1.000000 0.000000
vn 0.000000 -1.000000 0.000000
vn 0.000000 -1.000000 0.000000
vn 0.000000 -1.000000 0.000000
vn 0.000000 -1.000000 0.000000
vn 0.000000 -1.000000 0.000000
vn 0.000000 -1.000000 0.000000
vn 0.000000 -1.000000 0.000000
vn 0.000000 -1.000000 0.000000
vn -0.000003 1.000000 0.000002
vn -0.000002 1.000000 0.000004
vn -0.000000 1.000000 -0.000000
vn 0.000000 1.000000 0.000004
vn 0.000002 1.000000 0.000004
vn 0.000003 1.000000 0.000002
vn 0.000004 1.000000 0.000000
vn 0.000003 1.000000 -0.000002
vn 0.000002 1.000000 -0.000005
vn 0.000000 1.000000 -0.000005
vn -0.000002 1.000000 -0.000004
vn -0.000003 1.000000 -0.000002
vn -0.000004 1.000000 0.000000
vn 0.707097 0.000000 -0.707116
vn 0.707097 0.000000 -0.707116
vn 0.258831 0.000000 -0.965923
vn 0.258831 0.000000 -0.965923
vn -0.258831 0.000000 -0.965923
vn -0.258831 0.000000 -0.965923
vn -0.707097 0.000000 -0.707116
vn -0.707097 0.000000 -0.707116
vn -0.965926 0.000000 -0.258819
vn -0.965926 0.000000 -0.258819
vn -0.965927 0.000000 0.258815
vn -0.965927 0.000000 0.258815
vn -0.707097 0.000000 0.707116
vn -0.707097 0.000000 0.707116
vn -0.258817 0.000000 0.965926
vn -0.258817 0.000000 0.965926
vn 0.258817 0.000000 0.965926
vn 0.258817 0.000000 0.965926
vn 0.707097 0.000000 0.707116
vn 0.707097 0.000000 0.707116
vn 0.965927 0.000000 0.258815
vn 0.965927 0.000000 0.258815
vn 0.965926 0.000000 -0.258819
vn 0.965926 0.000000 -0.258819
vn 0.000000 1.000000 0.000001
vn 0.000000 1.000000 0.000001
vn 0.000000 1.000000 0.000001
vn 0.000000 1.000000 0.000001
vn 0.000000 1.000000 0.000001
vn 0.000000 1.000000 0.000001
vn 0.000000 1.000000 0.000001
vn 0.000000 1.000000 0.000001
vn 0.000000 1.000000 0.000000
vn 0.000000 1.000000 0.000000
vn 0.000000 1.000000 0.000000
vn 0.000000 1.000000 0.000000
vn 0.000000 1.000000 0.000000
vn 0.000000 1.000000 0.000000
vn 0.000000 1.000000 -0.000001
vn 0.000000 1.000000 -0.000001
vn 0.000000 1.000000 -0.000002
vn 0.000000 1.000000 -0.000002
vn 0.000000 1.000000 -0.000001
vn 0.000000 1.000000 -0.000001
vn 0.000000 1.000000 -0.000000
vn 0.000000 1.000000 -0.000000
vn 0.000000 1.000000 0.000000
vn 0.000000 1.000000 0.000000
vn 0.707107 0.000000 -0.707107
vn 0.707107 0.000000 -0.707107
vn 0.648773 -0.397727 -0.648773
vn 0.648772 -0.397732 -0.648772
vn 0.258818 0.000000 -0.965926
vn 0.000000 0.000000 -1.000000
vn 0.000000 -0.409443 -0.912336
vn 0.237468 -0.397729 -0.886239
vn -0.258814 0.000000 -0.965927
vn -0.237464 -0.397731 -0.886240
vn -0.707104 0.000000 -0.707109
vn -0.866022 0.000000 -0.500005
vn -0.790107 -0.409431 -0.456176
vn -0.648774 -0.397721 -0.648776
vn -0.965926 0.000000 -0.258819
vn -0.886244 -0.397718 -0.237469
vn -0.965927 0.000000 0.258814
vn -0.965927 0.000000 0.258814
vn -0.790109 -0.409435 0.456170
vn -0.886245 -0.397721 0.237463
vn -0.707104 0.000000 0.707109
vn -0.499997 0.000000 0.866027
vn -0.456167 -0.409436 0.790110
vn -0.258814 0.000000 0.965927
vn -0.237463 -0.397724 0.886243
vn 0.258818 0.000000 0.965926
vn 0.500002 0.000000 0.866024
vn 0.456171 -0.409438 0.790107
vn 0.237467 -0.397724 0.886242
vn 0.707107 0.000000 0.707107
vn 0.648771 -0.397731 0.648773
vn 0.965927 0.000000 0.258814
vn 1.000000 0.000000 0.000000
vn 0.912335 -0.409444 -0.000000
vn 0.886240 -0.397733 0.237462
vn 0.965926 0.000000 -0.258819
vn 0.886241 -0.397725 -0.237468
vn 0.408136 -0.816609 -0.408136
vn 0.408136 -0.816609 -0.408136
vn -0.000000 -0.825884 -0.563841
vn 0.149389 -0.816616 -0.557514
vn -0.149387 -0.816616 -0.557513
vn -0.488313 -0.825874 -0.281928
vn -0.408141 -0.816606 -0.408137
vn -0.557527 -0.816606 -0.149390
vn -0.488309 -0.825877 0.281925
vn -0.557526 -0.816608 0.149384
vn -0.408134 -0.816610 0.408136
vn -0.149384 -0.816611 0.557522
vn -0.149384 -0.816611 0.557522
vn 0.149387 -0.816611 0.557522
vn 0.149387 -0.816611 0.557522
vn 0.408129 -0.816613 0.408134
vn 0.408129 -0.816613 0.408134
vn 0.563839 -0.825884 0.000000
vn 0.557512 -0.816618 0.149381
vn 0.557513 -0.816617 -0.149385
vn 0.707106 0.000000 -0.707108
vn 0.707106 0.000000 -0.707108
vn 0.707106 0.000000 -0.707108
vn 0.707106 0.000000 -0.707108
vn 0.258831 0.000000 -0.965923
vn 0.258831 0.000000 -0.965923
vn 0.258831 0.000000 -0.965923
vn 0.258831 0.000000 -0.965923
vn -0.258827 0.000000 -0.965924
vn -0.258827 0.000000 -0.965924
vn -0.258827 0.000000 -0.965924
vn -0.258827 0.000000 -0.965924
vn -0.707114 0.000000 -0.707100
vn -0.707114 0.000000 -0.707100
vn -0.707114 0.000000 -0.707100
vn -0.707114 0.000000 -0.707100
vn -0.965926 0.000000 -0.258820
vn -0.965926 0.000000 -0.258820
vn -0.965926 0.000000 -0.258820
vn -0.965926 0.000000 -0.258820
vn -0.965928 0.000000 0.258812
vn -0.965928 0.000000 0.258812
vn -0.965928 0.000000 0.258812
vn -0.965928 0.000000 0.258812
vn -0.707106 0.000000 0.707108
vn -0.707106 0.000000 0.707108
vn -0.707106 0.000000 0.707108
vn -0.707106 0.000000 0.707108
vn -0.258812 0.000000 0.965928
vn -0.258812 0.000000 0.965928
vn -0.258812 0.000000 0.965928
vn -0.258812 0.000000 0.965928
vn 0.258816 0.000000 0.965927
vn 0.258816 0.000000 0.965927
vn 0.258816 0.000000 0.965927
vn 0.258816 0.000000 0.965927
vn 0.707098 0.000000 0.707115
vn 0.707098 0.000000 0.707115
vn 0.707098 0.000000 0.707115
vn 0.707098 0.000000 0.707115
vn 0.965928 0.000000 0.258812
vn 0.965928 0.000000 0.258812
vn 0.965928 0.000000 0.258812
vn 0.965928 0.000000 0.258812
vn 0.965926 0.000000 -0.258820
vn 0.965926 0.000000 -0.258820
vn 0.965926 0.000000 -0.258820
vn 0.965926 0.000000 -0.258820
vn 0.595306 0.726271 -0.343716
vn 0.343718 0.726270 -0.595307
vn 0.343718 0.726270 -0.595307
vn 0.595304 0.726271 -0.343720
vn 0.000002 0.726269 -0.687410
vn -0.000002 0.726269 -0.687410
vn -0.343722 0.726271 -0.595303
vn -0.343720 0.726271 -0.595304
vn -0.595307 0.726277 -0.343702
vn -0.595306 0.726277 -0.343703
vn -0.687400 0.726279 0.000002
vn -0.687400 0.726279 0.000005
vn -0.595309 0.726278 0.343698
vn -0.595308 0.726278 0.343700
vn -0.343706 0.726275 0.595308
vn -0.343707 0.726274 0.595307
vn 0.000002 0.726272 0.687408
vn -0.000002 0.726272 0.687408
vn 0.343703 0.726274 0.595310
vn 0.343706 0.726274 0.595309
vn 0.595309 0.726273 0.343707
vn 0.595309 0.726273 0.343707
vn 0.687406 0.726273 0.000002
vn 0.687406 0.726273 -0.000002
vn 0.000000 -0.996671 -0.081532
vn 0.000000 -0.996671 -0.081532
vn 0.000000 -0.996670 -0.081536
vn 0.000000 -0.996670 -0.081536
vn 0.000000 -0.081546 0.996670
vn 0.000000 -0.081546 0.996670
vn 0.000000 -0.081546 0.996670
vn 0.000000 -0.081546 0.996670
vn 0.000000 0.996670 0.081537
vn 0.000000 0.996670 0.081537
vn 0.000000 0.996671 0.081533
vn 0.000000 0.996671 0.081533
vn 0.000000 0.081546 -0.996670
vn 0.000000 0.081546 -0.996670
vn 0.000000 0.081538 -0.996670
vn 0.000000 0.081538 -0.996670
vn 1.000000 -0.000000 0.000000
vn 1.000000 -0.000000 0.000000
vn 1.000000 -0.000000 0.000000
vn 1.000000 -0.000000 0.000000
vn -1.000000 0.000000 0.000000
vn -1.000000 0.000000 0.000000
vn -1.000000 0.000000 0.000000
vn -1.000000 0.000000 0.000000
vn 0.000000 -0.081540 0.996670
vn 0.000000 -0.081540 0.996670
vn 0.000000 -0.081540 0.996670
vn 0.000000 -0.081540 0.996670
vn 1.000000 0.000000 0.000000
vn 1.000000 0.000000 0.000000
vn 0.000000 0.081538 -0.996670
vn 0.000000 0.081538 -0.996670
vn -1.000000 0.000000 0.000000
vn -1.000000 0.000000 0.000000
vn 0.000000 -0.081536 0.996670
vn 0.000000 -0.081536 0.996670
vn 0.000000 -0.081536 0.996670
vn 0.000000 -0.081536 0.996670
vn 1.000000 0.000000 0.000000
vn 1.000000 0.000000 0.000000
vn 0.000000 0.081535 -0.996671
vn 0.000000 0.081535 -0.996671
vn -1.000000 0.000000 0.000000
vn -1.000000 0.000000 0.000000
vn 0.000000 -0.996670 -0.081540
vn 0.000000 -0.996670 -0.081540
vn 0.000000 -0.996670 -0.081540
vn 0.000000 -0.996670 -0.081540
vn 1.000000 0.000000 0.000000
vn 1.000000 0.000000 0.000000
vn 0.000000 0.996670 0.081538
vn 0.000000 0.996670 0.081538
vn -1.000000 0.000000 0.000000
vn -1.000000 0.000000 0.000000
vn 0.000000 -0.996670 -0.081538
vn 0.000000 -0.996670 -0.081538
vn 1.000000 0.000000 0.000000
vn 1.000000 0.000000 0.000000
vn 0.000000 0.996670 0.081538
vn 0.000000 0.996670 0.081538
vn 0.000000 0.996670 0.081538
vn 0.000000 0.996670 0.081538
vn -1.000000 0.000000 0.000000
vn -1.000000 0.000000 0.000000
s off
g lantern
usemtl initialShadingGroup
f 1/13/1 2/14/2 14/27/3 13/26/4
f 2/14/5 3/15/6 15/28/7 14/27/8
f 3/15/9 4/16/10 16/29/11 15/28/12
f 4/16/13 5/17/14 17/30/15 16/29/16
f 5/17/17 6/18/18 18/31/19 17/30/20
f 6/18/21 7/19/22 19/32/23 18/31/24
f 7/19/25 8/20/26 20/33/27 19/32/28
f 8/20/29 9/21/30 21/34/31 20/33/32
f 9/21/33 10/22/34 22/35/35 21/34/36
f 10/22/37 11/23/38 23/36/39 22/35/40
f 11/23/41 12/24/42 24/37/43 23/36/44
f 12/24/45 1/25/46 13/38/47 24/37/48
s 1
f 2/2/49 1/1/50 25/51/51
f 3/3/52 2/2/49 25/51/51
f 4/4/53 3/3/52 25/51/51
f 5/5/54 4/4/53 25/51/51
f 6/6/55 5/5/54 25/51/51
f 7/7/56 6/6/55 25/51/51
f 8/8/57 7/7/56 25/51/51
f 9/9/58 8/8/57 25/51/51
f 10/10/59 9/9/58 25/51/51
f 11/11/60 10/10/59 25/51/51
f 12/12/61 11/11/60 25/51/51
f 1/1/50 12/12/61 25/51/51
s 2
f 13/49/62 14/48/63 26/52/64
f 14/48/63 15/47/65 26/52/64
f 15/47/65 16/46/66 26/52/64
f 16/46/66 17/45/67 26/52/64
f 17/45/67 18/44/68 26/52/64
f 18/44/68 19/43/69 26/52/64
f 19/43/69 20/42/70 26/52/64
f 20/42/70 21/41/71 26/52/64
f 21/41/71 22/40/72 26/52/64
f 22/40/72 23/39/73 26/52/64
f 23/39/73 24/50/74 26/52/64
f 24/50/74 13/49/62 26/52/64
s off
f 27/53/75 28/54/76 40/55/77 39/56/78
f 28/54/79 29/57/80 41/58/81 40/55/82
f 29/57/83 30/59/84 42/60/85 41/58/86
f 30/59/87 31/61/88 43/62/89 42/60/90
f 31/61/91 32/63/92 44/64/93 43/62/94
f 32/63/95 33/65/96 45/66/97 44/64/98
f 33/65/99 34/67/100 46/68/101 45/66/102
f 34/67/103 35/69/104 47/70/105 46/68/106
f 35/69/107 36/71/108 48/72/109 47/70/110
f 36/71/111 37/73/112 49/74/113 48/72/114
f 37/73/115 38/75/116 50/76/117 49/74/118
f 38/75/119 27/77/120 39/78/121 50/76/122
s 3
f 65/79/123 64/80/124 66/81/125
f 67/82/126 65/79/123 66/81/125
f 68/83/127 67/82/126 66/81/125
f 69/84/128 68/83/127 66/81/125
f 70/85/129 69/84/128 66/81/125
f 71/86/130 70/85/129 66/81/125
f 72/87/131 71/86/130 66/81/125
f 73/88/132 72/87/131 66/81/125
f 74/89/133 73/88/132 66/81/125
f 75/90/134 74/89/133 66/81/125
f 76/91/135 75/90/134 66/81/125
f 64/80/124 76/91/135 66/81/125
s 4
f 39/92/136 40/93/137 51/94/138
f 40/93/137 41/95/139 51/94/138
f 41/95/139 42/96/140 51/94/138
f 42/96/140 43/97/141 51/94/138
f 43/97/141 44/98/142 51/94/138
f 44/98/142 45/99/143 51/94/138
f 45/99/143 46/100/144 51/94/138
f 46/100/144 47/101/145 51/94/138
f 47/101/145 48/102/146 51/94/138
f 48/102/146 49/103/147 51/94/138
f 49/103/147 50/104/148 51/94/138
f 50/104/148 39/92/136 51/94/138
s 5
f 28/105/149 27/106/150 52/107/151 53/108/152
f 29/109/153 28/105/149 53/108/152 54/110/154
f 30/111/155 29/109/153 54/110/154 55/112/156
f 31/113/157 30/111/155 55/112/156 56/114/158
f 32/115/159 31/113/157 56/114/158 57/116/160
f 33/117/161 32/115/159 57/116/160 58/118/162
f 34/119/163 33/117/161 58/118/162 59/120/164
f 35/121/165 34/119/163 59/120/164 60/122/166
f 36/123/167 35/121/165 60/122/166 61/124/168
f 37/125/169 36/123/167 61/124/168 62/126/170
f 38/127/171 37/125/169 62/126/170 63/128/172
f 27/106/150 38/127/171 63/128/172 52/107/151
s off
f 53/108/173 52/107/174 64/80/175 65/79/176
f 54/110/177 53/108/178 65/79/179 67/82/180
f 55/112/181 54/110/182 67/82/183 68/83/184
f 56/114/185 55/112/186 68/83/187 69/84/188
f 57/116/189 56/114/190 69/84/191 70/85/192
f 58/118/193 57/116/194 70/85/195 71/86/196
f 59/120/197 58/118/198 71/86/199 72/87/200
s 6
f 60/122/201 59/120/202 72/87/203 73/88/204
f 61/124/205 60/122/201 73/88/204 74/89/206
s 7
f 62/126/207 61/124/208 74/89/209 75/90/210
f 63/128/211 62/126/207 75/90/210 76/91/212
s off
f 52/107/213 63/128/214 76/91/215 64/80/216
s 8
f 77/129/217 79/132/218 80/131/219 78/130/220
s off
f 93/133/221 96/136/222 95/135/223 94/134/224
s 9
f 81/137/225 83/140/226 84/139/227 82/138/228
s 10
f 83/140/229 88/142/230 87/141/231 84/139/232
s 11
f 86/143/233 82/146/234 84/145/235 87/144/236
s 12
f 83/147/237 81/150/238 85/149/239 88/148/240
s off
f 89/151/241 85/154/242 86/153/243 90/152/244
s 11
f 90/155/245 86/143/233 87/144/236 91/156/246
s 10
f 88/142/230 92/158/247 91/157/248 87/141/231
s 12
f 85/149/239 89/160/249 92/159/250 88/148/240
s off
f 97/161/251 100/164/252 99/163/253 98/162/254
s 11
f 78/130/255 80/131/256 90/155/245 91/156/246
s 10
f 92/158/247 77/166/257 78/165/258 91/157/248
s 12
f 89/160/249 79/132/259 77/129/260 92/159/250
s off
f 85/154/261 93/133/262 94/134/263 86/153/264
s 11
f 86/153/233 94/134/265 95/135/266 82/138/234
s 9
f 82/138/228 95/135/267 96/136/268 81/137/225
s 12
f 81/137/238 96/136/269 93/133/270 85/154/239
s 8
f 79/132/218 97/161/271 98/162/272 80/131/219
s 11
f 80/131/256 98/162/273 99/163/274 90/152/245
s off
f 90/152/275 99/163/276 100/164/277 89/151/278
s 12
f 89/151/249 100/164/279 97/161/280 79/132/259
s 13
f 102/167/281 101/168/282 123/169/283 124/170/284
f 103/171/285 102/167/281 124/170/284 125/172/286
f 104/173/287 103/171/285 125/172/286 126/174/288
f 105/175/289 104/173/287 126/174/288 127/176/290
f 106/177/291 105/175/289 127/176/290 128/178/292
f 107/179/293 106/177/291 128/178/292 129/180/294
f 108/181/295 107/179/293 129/180/294 130/182/296
f 109/183/297 108/181/295 130/182/296 131/184/298
f 110/185/299 109/183/297 131/184/298 132/186/300
f 111/187/301 110/185/299 132/186/300 133/188/302
f 112/189/303 111/187/301 133/188/302 134/190/304
f 113/191/305 112/189/303 134/190/304 135/192/306
f 114/193/307 113/191/305 135/192/306 136/194/308
f 115/195/309 114/193/307 136/194/308 137/196/310
f 116/197/311 115/195/309 137/196/310 138/198/312
f 117/199/313 116/197/311 138/198/312 139/200/314
f 118/201/315 117/199/313 139/200/314 140/202/316
f 119/203/317 118/201/315 140/202/316 141/204/318
f 120/205/319 119/203/317 141/204/318 142/206/320
f 121/207/321 120/205/319 142/206/320 143/208/322
f 122/209/323 121/207/321 143/208/322 144/210/324
f 101/211/282 122/209/323 144/210/324 123/212/283
s 14
f 124/170/325 123/169/326 145/213/327 146/214/328
f 125/172/329 124/170/325 146/214/328 147/215/330
f 126/174/331 125/172/329 147/215/330 148/216/332
f 127/176/333 126/174/331 148/216/332 149/217/334
f 128/178/335 127/176/333 149/217/334 150/218/336
f 129/180/337 128/178/335 150/218/336 151/219/338
f 130/182/339 129/180/337 151/219/338 152/220/340
f 131/184/341 130/182/339 152/220/340 153/221/342
f 132/186/343 131/184/341 153/221/342 154/222/344
f 133/188/345 132/186/343 154/222/344 155/223/346
f 134/190/347 133/188/345 155/223/346 156/224/348
f 135/192/349 134/190/347 156/224/348 157/225/350
f 136/194/351 135/192/349 157/225/350 158/226/352
f 137/196/353 136/194/351 158/226/352 159/227/354
f 138/198/355 137/196/353 159/227/354 160/228/356
f 139/200/357 138/198/355 160/228/356 161/229/358
f 140/202/359 139/200/357 161/229/358 162/230/360
f 141/204/361 140/202/359 162/230/360 163/231/362
f 142/206/363 141/204/361 163/231/362 164/232/364
f 143/208/365 142/206/363 164/232/364 165/233/366
f 144/210/367 143/208/365 165/233/366 166/234/368
f 123/212/326 144/210/367 166/234/368 145/235/327
s 15
f 146/214/369 145/213/370 167/236/371 168/237/372
f 147/215/373 146/214/369 168/237/372 169/238/374
f 148/216/375 147/215/373 169/238/374 170/239/376
f 149/217/377 148/216/375 170/239/376 171/240/378
f 150/218/379 149/217/377 171/240/378 172/241/380
f 151/219/381 150/218/379 172/241/380 173/242/382
f 152/220/383 151/219/381 173/242/382 174/243/384
f 153/221/385 152/220/383 174/243/384 175/244/386
f 154/222/387 153/221/385 175/244/386 176/245/388
f 155/223/389 154/222/387 176/245/388 177/246/390
f 156/224/391 155/223/389 177/246/390 178/247/392
f 157/225/393 156/224/391 178/247/392 179/248/394
f 158/226/395 157/225/393 179/248/394 180/249/396
f 159/227/397 158/226/395 180/249/396 181/250/398
f 160/228/399 159/227/397 181/250/398 182/251/400
f 161/229/401 160/228/399 182/251/400 183/252/402
f 162/230/403 161/229/401 183/252/402 184/253/404
f 163/231/405 162/230/403 184/253/404 185/254/406
f 164/232/407 163/231/405 185/254/406 186/255/408
f 165/233/409 164/232/407 186/255/408 187/256/410
f 166/234/411 165/233/409 187/256/410 188/257/412
f 145/235/370 166/234/411 188/257/412 167/258/371
s 16
f 168/237/413 167/236/414 101/259/415 102/260/416
f 169/238/417 168/237/413 102/260/416 103/261/418
f 170/239/419 169/238/417 103/261/418 104/262/420
f 171/240/421 170/239/419 104/262/420 105/263/422
f 172/241/423 171/240/421 105/263/422 106/264/424
f 173/242/425 172/241/423 106/264/424 107/265/426
f 174/243/427 173/242/425 107/265/426 108/266/428
f 175/244/429 174/243/427 108/266/428 109/267/430
f 176/245/431 175/244/429 109/267/430 110/268/432
f 177/246/433 176/245/431 110/268/432 111/269/434
f 178/247/435 177/246/433 111/269/434 112/270/436
f 179/248/437 178/247/435 112/270/436 113/271/438
f 180/249/439 179/248/437 113/271/438 114/272/440
f 181/250/441 180/249/439 114/272/440 115/273/442
f 182/251/443 181/250/441 115/273/442 116/274/444
f 183/252/445 182/251/443 116/274/444 117/275/446
f 184/253/447 183/252/445 117/275/446 118/276/448
f 185/254/449 184/253/447 118/276/448 119/277/450
f 186/255/451 185/254/449 119/277/450 120/278/452
f 187/256/453 186/255/451 120/278/452 121/279/454
f 188/257/455 187/256/453 121/279/454 122/280/456
f 167/258/414 188/257/455 122/280/456 101/281/415
s 17
f 189/282/457 190/283/458 202/284/459 201/285/460
s 18
f 190/283/461 191/286/462 203/287/463 202/284/464
s 19
f 191/286/465 192/288/466 204/289/467 203/287/468
s 20
f 192/288/469 193/290/470 205/291/471 204/289/472
s 21
f 193/290/473 194/292/474 206/293/475 205/291/476
s 22
f 194/292/477 195/294/478 207/295/479 206/293/480
s 23
f 195/294/481 196/296/482 208/297/483 207/295/484
s 24
f 196/296/485 197/298/486 209/299/487 208/297/488
s 25
f 197/298/489 198/300/490 210/301/491 209/299/492
s 26
f 198/300/493 199/302/494 211/303/495 210/301/496
s 27
f 199/302/497 200/304/498 212/305/499 211/303/500
s 28
f 200/304/501 189/306/502 201/307/503 212/305/504
s 29
f 190/308/505 189/309/506 213/310/507
f 191/311/508 190/308/505 213/310/507
f 192/312/509 191/311/508 213/310/507
f 193/313/510 192/312/509 213/310/507
f 194/314/511 193/313/510 213/310/507
f 195/315/512 194/314/511 213/310/507
f 196/316/513 195/315/512 213/310/507
f 197/317/514 196/316/513 213/310/507
f 198/318/515 197/317/514 213/310/507
f 199/319/516 198/318/515 213/310/507
f 200/320/517 199/319/516 213/310/507
f 189/309/506 200/320/517 213/310/507
s 30
f 274/321/518 275/322/519 276/323/520
f 275/322/519 277/324/521 276/323/520
f 277/324/521 278/325/522 276/323/520
f 278/325/522 279/326/523 276/323/520
f 279/326/523 280/327/524 276/323/520
f 280/327/524 281/328/525 276/323/520
f 281/328/525 282/329/526 276/323/520
f 282/329/526 283/330/527 276/323/520
f 283/330/527 284/331/528 276/323/520
f 284/331/528 285/332/529 276/323/520
f 285/332/529 286/333/530 276/323/520
f 286/333/530 274/321/518 276/323/520
s 17
f 201/334/460 202/335/459 215/336/531 214/337/532
s 18
f 202/335/464 203/338/463 216/339/533 215/336/534
s 19
f 203/338/468 204/340/467 217/341/535 216/339/536
s 20
f 204/340/472 205/342/471 218/343/537 217/341/538
s 21
f 205/342/476 206/344/475 219/345/539 218/343/540
s 22
f 206/344/480 207/346/479 220/347/541 219/345/542
s 23
f 207/346/484 208/348/483 221/349/543 220/347/544
s 24
f 208/348/488 209/350/487 222/351/545 221/349/546
s 25
f 209/350/492 210/352/491 223/353/547 222/351/548
s 26
f 210/352/496 211/354/495 224/355/549 223/353/550
s 27
f 211/354/500 212/356/499 225/357/551 224/355/552
s 28
f 212/356/504 201/334/503 214/337/553 225/357/554
s 31
f 214/337/555 215/336/556 227/358/557 226/359/558
f 215/336/556 216/339/559 228/360/560 227/358/557
f 216/339/559 217/341/561 229/361/562 228/360/560
f 217/341/561 218/343/563 230/362/564 229/361/562
f 218/343/563 219/345/565 231/363/566 230/362/564
f 219/345/565 220/347/567 232/364/568 231/363/566
f 220/347/567 221/349/569 233/365/570 232/364/568
f 221/349/569 222/351/571 234/366/572 233/365/570
f 222/351/571 223/353/573 235/367/574 234/366/572
f 223/353/573 224/355/575 236/368/576 235/367/574
f 224/355/575 225/357/577 237/369/578 236/368/576
f 225/357/577 214/337/555 226/359/558 237/369/578
s 32
f 226/359/579 227/358/580 239/370/581 238/371/582
s 33
f 227/358/583 228/360/584 240/372/585 239/370/586
f 228/360/584 229/361/587 241/373/588 240/372/585
s 34
f 229/361/589 230/362/590 242/374/591 241/373/592
f 230/362/590 231/363/593 243/375/594 242/374/591
s 35
f 231/363/595 232/364/596 244/376/597 243/375/598
f 232/364/599 233/365/600 245/377/601 244/376/597
f 233/365/600 234/366/602 246/378/603 245/377/601
s 37
f 234/366/604 235/367/605 247/379/606 246/378/607
f 235/367/605 236/368/608 248/380/609 247/379/606
s 38
f 236/368/610 237/369/611 249/381/612 248/380/613
f 237/369/611 226/359/614 238/371/615 249/381/612
s 32
f 238/371/582 239/370/581 251/382/616 250/383/617
s 33
f 239/370/586 240/372/585 252/384/618 251/382/619
f 240/372/585 241/373/588 253/385/620 252/384/618
s 34
f 241/373/592 242/374/591 254/386/621 253/385/622
f 242/374/591 243/375/594 255/387/623 254/386/621
s 35
f 243/375/598 244/376/597 256/388/624 255/387/625
f 244/376/597 245/377/601 257/389/626 256/388/624
f 245/377/601 246/378/603 258/390/627 257/389/628
s 37
f 246/378/607 247/379/606 259/391/629 258/390/630
f 247/379/606 248/380/609 260/392/631 259/391/632
s 38
f 248/380/613 249/381/612 261/393/633 260/392/634
f 249/381/612 238/371/615 250/383/635 261/393/633
s off
f 250/383/636 251/382/637 263/394/638 262/395/639
f 251/382/640 252/384/641 264/396/642 263/394/643
f 252/384/644 253/385/645 265/397/646 264/396/647
f 253/385/648 254/386/649 266/398/650 265/397/651
f 254/386/652 255/387/653 267/399/654 266/398/655
f 255/387/656 256/388/657 268/400/658 267/399/659
f 256/388/660 257/389/661 269/401/662 268/400/663
f 257/389/664 258/390/665 270/402/666 269/401/667
f 258/390/668 259/391/669 271/403/670 270/402/671
f 259/391/672 260/392/673 272/404/674 271/403/675
f 260/392/676 261/393/677 273/405/678 272/404/679
f 261/393/680 250/383/681 262/395/682 273/405/683
s 39
f 262/395/684 263/394/685 275/322/686 274/321/687
f 263/394/685 264/396/688 277/324/689 275/322/686
f 264/396/688 265/397/690 278/325/691 277/324/689
f 265/397/690 266/398/692 279/326/693 278/325/691
f 266/398/692 267/399/694 280/327/695 279/326/693
f 267/399/694 268/400/696 281/328/697 280/327/695
f 268/400/696 269/401/698 282/329/699 281/328/697
f 269/401/698 270/402/700 283/330/701 282/329/699
f 270/402/700 271/403/702 284/331/703 283/330/701
f 271/403/702 272/404/704 285/332/705 284/331/703
f 272/404/704 273/405/706 286/333/707 285/332/705
f 273/405/706 262/395/684 274/321/687 286/333/707
s 40
f 287/406/708 288/407/709 290/408/710 289/409/711
s off
f 303/410/712 304/411/713 305/412/714 306/413/715
s 41
f 291/414/716 292/415/717 294/416/718 293/417/719
s 42
f 293/417/720 294/416/721 297/418/722 298/419/723
s 43
f 296/420/724 297/421/725 294/422/726 292/423/727
s 44
f 293/424/728 298/425/729 295/426/730 291/427/731
s off
f 299/428/732 300/429/733 296/430/734 295/431/735
s 43
f 300/432/736 301/433/737 297/421/725 296/420/724
s 42
f 298/419/723 297/418/722 301/434/738 302/435/739
s 44
f 295/426/730 298/425/729 302/436/740 299/437/741
s off
f 307/438/742 308/439/743 309/440/744 310/441/745
s 43
f 288/407/746 301/433/737 300/432/736 290/408/747
s 42
f 302/435/739 301/434/738 288/442/748 287/443/749
s 44
f 299/437/741 302/436/740 287/406/750 289/409/751
s off
f 295/431/752 296/430/753 304/411/754 303/410/755
s 43
f 296/430/724 292/415/727 305/412/756 304/411/757
s 41
f 292/415/717 291/414/716 306/413/758 305/412/759
s 44
f 291/414/731 295/431/730 303/410/760 306/413/761
s 40
f 289/409/711 290/408/710 308/439/762 307/438/763
s 43
f 290/408/747 300/429/736 309/440/764 308/439/765
s off
f 300/429/766 299/428/767 310/441/768 309/440/769
s 44
f 299/428/741 289/409/751 307/438/770 310/441/771
