# This file uses centimeters as units for non-parametric coordinates.

mtllib mushroom03_mesh.mtl
g default
v -39.475586 73.390762 -5.800781
v -42.512695 73.146606 -12.048828
v -47.242920 72.300842 -17.071777
v -53.203613 70.936218 -20.377930
v -59.811035 69.186356 -21.643555
v -66.418457 67.222519 -20.745117
v -72.379150 65.236954 -17.770020
v -77.109375 63.424011 -13.010010
v -80.146484 61.961166 -6.930664
v -81.193115 60.991608 -0.127197
v -80.146484 60.610229 6.734375
v -77.109375 60.854385 12.982422
v -72.379150 61.700165 18.005371
v -66.418457 63.064774 21.311523
v -59.811035 64.814636 22.577393
v -53.203613 66.778473 21.678711
v -47.242920 68.764038 18.703857
v -42.512695 70.576981 13.943604
v -39.475586 72.039825 7.864258
v -38.428955 73.009399 1.060791
v -63.888672 95.830353 2.523926
v -64.453369 95.784973 1.362549
v -65.332520 95.627762 0.428711
v -66.440430 95.374115 -0.185791
v -67.668701 95.048843 -0.420898
v -68.896973 94.683807 -0.253906
v -70.004883 94.314743 0.299072
v -70.884033 93.977753 1.183838
v -71.448730 93.705841 2.313721
v -71.643066 93.525620 3.578369
v -71.448730 93.454727 4.853760
v -70.884033 93.500107 6.015137
v -70.004883 93.657318 6.948975
v -68.896973 93.910980 7.563477
v -67.668701 94.236237 7.798828
v -66.440430 94.601273 7.631592
v -65.332520 94.970352 7.078613
v -64.453369 95.307343 6.193848
v -63.888672 95.579254 5.063965
v -63.694336 95.759460 3.799316
v -59.811035 67.000488 0.466797
v -67.668701 94.642548 3.688965
v -36.677246 79.013153 -6.330078
v -40.317871 78.720474 -13.819824
v -45.988281 77.706619 -19.841064
v -53.133545 76.070816 -23.804199
v -61.054199 73.973190 -25.321533
v -68.974609 71.619080 -24.244385
v -76.119873 69.238922 -20.678223
v -81.790283 67.065689 -14.971924
v -85.430908 65.312119 -7.684570
v -86.685547 64.149872 0.470947
v -85.430908 63.692719 8.696045
v -81.790283 63.985382 16.186035
v -76.119873 64.999252 22.207031
v -68.974609 66.635056 26.170410
v -61.054199 68.732666 27.687500
v -53.133545 71.086792 26.610352
v -45.988281 73.466949 23.044189
v -40.317871 75.640167 17.338135
v -36.677246 77.393738 10.050537
v -35.422852 78.555984 1.895264
v -41.315186 89.892578 -4.884521
v -40.134277 89.462173 2.859375
v -41.315186 88.367950 10.537598
v -44.742920 86.717010 17.398438
v -50.081543 84.670975 22.770752
v -56.808350 82.430115 26.128174
v -64.265381 80.213776 27.142334
v -71.722412 78.238922 25.713867
v -78.449463 76.698853 21.982666
v -83.788086 75.744339 16.313721
v -87.215576 75.468796 9.262451
v -88.396729 75.899200 1.518555
v -87.215576 76.993423 -6.159668
v -83.788086 78.644363 -13.020508
v -78.449463 80.690399 -18.392822
v -71.722412 82.931259 -21.750244
v -64.265381 85.147598 -22.764404
v -56.808350 87.122452 -21.335938
v -50.081543 88.662521 -17.604736
v -44.742920 89.617035 -11.935791
v -50.177979 95.512634 -2.013916
v -49.340332 95.207336 3.478760
v -50.177979 94.431198 8.924805
v -52.609131 93.260193 13.791260
v -56.395752 91.808929 17.601807
v -61.167236 90.219482 19.983398
v -66.456543 88.647430 20.702637
v -71.745850 87.246658 19.689453
v -76.517334 86.154282 17.042725
v -80.303955 85.477234 13.021973
v -82.735107 85.281799 8.020264
v -83.572998 85.587082 2.527588
v -82.735107 86.363220 -2.918457
v -80.303955 87.534241 -7.785156
v -76.517334 88.985489 -11.595459
v -71.745850 90.574951 -13.977051
v -66.456543 92.147003 -14.696289
v -61.167236 93.547775 -13.683105
v -56.395752 94.640137 -11.036377
v -52.609131 95.317184 -7.015625
v -62.198975 63.146454 4.823975
v -10.455566 -3.517303 4.823975
v -54.192139 66.456238 4.823975
v -8.519287 9.218185 4.823975
v -54.192139 66.456223 -4.823975
v -8.519287 9.218185 -4.823975
v -62.198975 63.146454 -4.823975
v -10.455566 -3.517303 -4.823975
v -43.846924 12.855270 7.455322
v -43.846924 12.855270 -7.455322
v -35.849121 26.298035 -7.455322
v -35.849121 26.298035 7.455322
v -45.179932 10.614807 0.000000
v -6.062744 -7.212021 0.000000
v -65.737793 70.056961 0.000000
v -60.133301 71.298126 6.512207
v -54.529053 72.539276 0.000000
v -60.133301 71.298126 -6.512207
v -57.764160 42.515594 -6.512207
v -57.764160 42.515594 6.512207
v -47.553955 49.962570 -6.512207
v -47.553955 49.962570 6.512207
v -39.848145 19.576645 9.940430
v -23.524658 -1.854538 7.237549
v -5.336670 1.603378 6.512207
v -19.168701 14.681534 7.237549
v -34.516357 28.538483 0.000000
v -4.610596 10.418777 0.000000
v -19.168701 14.681534 -7.237549
v -39.848145 19.576645 -9.940430
v -5.336670 1.603378 -6.512207
v -23.524658 -1.854538 -7.237549
v -21.346680 6.413498 9.650146
v -18.442627 17.437546 0.000000
v -21.346680 6.413498 -9.650146
v -24.250732 -4.610550 0.000000
v 0.000000 0.000000 0.000000
v -62.624756 79.651154 0.000000
v -59.465820 41.274414 0.000000
v -52.658936 46.239075 -8.682861
v -45.852295 51.203735 0.000000
v -52.658936 46.239075 8.682861
vt 0.648603 0.107966
vt 0.626409 0.064408
vt 0.591842 0.029841
vt 0.548284 0.007647
vt 0.500000 -0.000000
vt 0.451716 0.007647
vt 0.408159 0.029841
vt 0.373591 0.064409
vt 0.351397 0.107966
vt 0.343750 0.156250
vt 0.351397 0.204534
vt 0.373591 0.248091
vt 0.408159 0.282659
vt 0.451716 0.304853
vt 0.500000 0.312500
vt 0.548284 0.304853
vt 0.591841 0.282659
vt 0.626409 0.248091
vt 0.648603 0.204534
vt 0.656250 0.156250
vt 0.375000 0.312500
vt 0.387500 0.312500
vt 0.400000 0.312500
vt 0.412500 0.312500
vt 0.425000 0.312500
vt 0.437500 0.312500
vt 0.450000 0.312500
vt 0.462500 0.312500
vt 0.475000 0.312500
vt 0.487500 0.312500
vt 0.500000 0.312500
vt 0.512500 0.312500
vt 0.525000 0.312500
vt 0.537500 0.312500
vt 0.550000 0.312500
vt 0.562500 0.312500
vt 0.575000 0.312500
vt 0.587500 0.312500
vt 0.600000 0.312500
vt 0.612500 0.312500
vt 0.625000 0.312500
vt 0.375000 0.688440
vt 0.387500 0.688440
vt 0.400000 0.688440
vt 0.412500 0.688440
vt 0.425000 0.688440
vt 0.437500 0.688440
vt 0.450000 0.688440
vt 0.462500 0.688440
vt 0.475000 0.688440
vt 0.487500 0.688440
vt 0.500000 0.688440
vt 0.512500 0.688440
vt 0.525000 0.688440
vt 0.537500 0.688440
vt 0.550000 0.688440
vt 0.562500 0.688440
vt 0.575000 0.688440
vt 0.587500 0.688440
vt 0.600000 0.688440
vt 0.612500 0.688440
vt 0.625000 0.688440
vt 0.648603 0.795466
vt 0.626409 0.751908
vt 0.591842 0.717341
vt 0.548284 0.695147
vt 0.500000 0.687500
vt 0.451716 0.695147
vt 0.408159 0.717341
vt 0.373591 0.751909
vt 0.351397 0.795466
vt 0.343750 0.843750
vt 0.351397 0.892034
vt 0.373591 0.935591
vt 0.408159 0.970159
vt 0.451716 0.992353
vt 0.500000 1.000000
vt 0.548284 0.992353
vt 0.591841 0.970159
vt 0.626409 0.935591
vt 0.648603 0.892034
vt 0.656250 0.843750
vt 0.500000 0.150000
vt 0.500000 0.837500
vt 0.625000 0.341882
vt 0.375000 0.341882
vt 0.387500 0.341882
vt 0.400000 0.341882
vt 0.412500 0.341882
vt 0.425000 0.341882
vt 0.437500 0.341882
vt 0.450000 0.341882
vt 0.462500 0.341882
vt 0.475000 0.341882
vt 0.487500 0.341882
vt 0.500000 0.341882
vt 0.512500 0.341882
vt 0.525000 0.341882
vt 0.537500 0.341882
vt 0.550000 0.341882
vt 0.562500 0.341882
vt 0.575000 0.341882
vt 0.587500 0.341882
vt 0.600000 0.341882
vt 0.612500 0.341882
vt 0.625000 0.395001
vt 0.375000 0.395001
vt 0.612500 0.395001
vt 0.600000 0.395001
vt 0.587500 0.395001
vt 0.575000 0.395001
vt 0.562500 0.395001
vt 0.550000 0.395001
vt 0.537500 0.395001
vt 0.525000 0.395001
vt 0.512500 0.395001
vt 0.500000 0.395001
vt 0.487500 0.395001
vt 0.475000 0.395001
vt 0.462500 0.395001
vt 0.450000 0.395001
vt 0.437500 0.395001
vt 0.425000 0.395001
vt 0.412500 0.395001
vt 0.400000 0.395001
vt 0.387500 0.395001
vt 0.625000 0.534639
vt 0.375000 0.534639
vt 0.612500 0.534639
vt 0.600000 0.534639
vt 0.587500 0.534639
vt 0.575000 0.534639
vt 0.562500 0.534639
vt 0.550000 0.534639
vt 0.537500 0.534639
vt 0.525000 0.534639
vt 0.512500 0.534639
vt 0.500000 0.534639
vt 0.487500 0.534639
vt 0.475000 0.534639
vt 0.462500 0.534639
vt 0.450000 0.534639
vt 0.437500 0.534639
vt 0.425000 0.534639
vt 0.412500 0.534639
vt 0.400000 0.534639
vt 0.387500 0.534639
vt 0.502756 0.250000
vt 0.502756 0.125000
vt 0.564337 0.125000
vt 0.564337 0.250000
vt 0.503675 0.000000
vt 0.564337 0.000000
vt 0.625000 0.000000
vt 0.641084 0.125000
vt 0.625000 0.250000
vt 0.502756 0.500000
vt 0.502756 0.375000
vt 0.564337 0.375000
vt 0.564337 0.500000
vt 0.625000 0.375000
vt 0.625000 0.500000
vt 0.502756 0.750000
vt 0.502756 0.625000
vt 0.564337 0.625000
vt 0.564337 0.750000
vt 0.625000 0.625000
vt 0.625000 0.750000
vt 0.503675 1.000000
vt 0.502756 0.875000
vt 0.564337 0.875000
vt 0.564337 1.000000
vt 0.625000 0.875000
vt 0.625000 1.000000
vt 0.750000 0.000000
vt 0.750000 0.125000
vt 0.875000 0.000000
vt 0.875000 0.125000
vt 0.875000 0.250000
vt 0.750000 0.250000
vt 0.125000 0.000000
vt 0.250000 0.000000
vt 0.250000 0.125000
vt 0.125000 0.125000
vt 0.375000 0.000000
vt 0.359834 0.125000
vt 0.375000 0.250000
vt 0.250000 0.250000
vt 0.125000 0.250000
vt 0.375000 0.750000
vt 0.439337 0.750000
vt 0.439337 0.875000
vt 0.375000 0.875000
vt 0.439337 1.000000
vt 0.375000 1.000000
vt 0.375000 0.500000
vt 0.439337 0.500000
vt 0.439337 0.625000
vt 0.375000 0.625000
vt 0.439337 0.250000
vt 0.439337 0.375000
vt 0.375000 0.375000
vt 0.439337 0.000000
vt 0.439337 0.125000
vn 0.945588 0.145361 -0.291090
vn 0.810324 0.136941 -0.569757
vn 0.624402 0.608402 -0.489867
vn 0.751141 0.619437 -0.228221
vn 0.599264 0.101154 -0.794135
vn 0.426677 0.572344 -0.700264
vn 0.333055 0.041463 -0.941995
vn 0.177306 0.514790 -0.838781
vn 0.037933 -0.036255 -0.998622
vn -0.099262 0.441387 -0.891810
vn -0.256967 -0.124346 -0.958387
vn -0.375920 0.359324 -0.854149
vn -0.522532 -0.214100 -0.825301
vn -0.625542 0.276641 -0.729497
vn -0.732591 -0.296662 -0.612619
vn -0.823662 0.201457 -0.530092
vn -0.866593 -0.363912 -0.341445
vn -0.950881 0.141129 -0.275514
vn -0.911595 -0.409281 -0.038525
vn -0.994786 0.101559 0.009304
vn -0.863429 -0.428406 0.266380
vn -0.951113 0.086607 0.296450
vn -0.727077 -0.419476 0.543506
vn -0.824191 0.097728 0.557816
vn -0.516026 -0.383451 0.765952
vn -0.626459 0.133817 0.767882
vn -0.250936 -0.323880 0.912213
vn -0.377281 0.191342 0.906117
vn 0.042402 -0.246584 0.968193
vn -0.101017 0.264667 0.959034
vn 0.335516 -0.159070 0.928507
vn 0.175324 0.346630 0.921471
vn 0.599987 -0.069813 0.796958
vn 0.424752 0.429234 0.797084
vn 0.810061 0.012506 0.586213
vn 0.622866 0.504387 0.598023
vn 0.945183 0.079864 0.316625
vn 0.750286 0.564740 0.343714
vn 0.991968 0.125668 0.014362
vn 0.794499 0.604392 0.059014
vn 0.271769 -0.957694 -0.094677
vn 0.271767 -0.957694 -0.094681
vn 0.271767 -0.957694 -0.094678
vn 0.271768 -0.957694 -0.094677
vn 0.271766 -0.957695 -0.094679
vn 0.271767 -0.957694 -0.094679
vn 0.271766 -0.957695 -0.094678
vn 0.271767 -0.957694 -0.094681
vn 0.271769 -0.957694 -0.094681
vn 0.271766 -0.957695 -0.094675
vn 0.271766 -0.957695 -0.094679
vn 0.271766 -0.957694 -0.094682
vn 0.271769 -0.957694 -0.094676
vn 0.271768 -0.957695 -0.094676
vn 0.271766 -0.957695 -0.094678
vn 0.271767 -0.957695 -0.094678
vn 0.271766 -0.957695 -0.094678
vn 0.271768 -0.957694 -0.094680
vn 0.271769 -0.957694 -0.094679
vn 0.271767 -0.957695 -0.094676
vn 0.271767 -0.957694 -0.094679
vn -0.271758 0.957697 0.094680
vn -0.271770 0.957693 0.094681
vn -0.271766 0.957695 0.094679
vn -0.271778 0.957693 0.094658
vn -0.271753 0.957699 0.094670
vn -0.271745 0.957701 0.094676
vn -0.271758 0.957697 0.094677
vn -0.271780 0.957690 0.094692
vn -0.271775 0.957692 0.094682
vn -0.271768 0.957693 0.094686
vn -0.271777 0.957691 0.094682
vn -0.271767 0.957694 0.094681
vn -0.271777 0.957691 0.094684
vn -0.271787 0.957690 0.094662
vn -0.271763 0.957696 0.094675
vn -0.271741 0.957702 0.094682
vn -0.271754 0.957697 0.094688
vn -0.271781 0.957689 0.094695
vn -0.271769 0.957694 0.094679
vn -0.271761 0.957696 0.094682
vn -0.271769 0.957694 0.094677
vn 0.850805 -0.449131 -0.272787
vn 0.754011 -0.449183 -0.479273
vn 0.599337 -0.470771 -0.647434
vn 0.401943 -0.512042 -0.759114
vn 0.182158 -0.568890 -0.801987
vn -0.036969 -0.635394 -0.771303
vn -0.232437 -0.704522 -0.670538
vn -0.384152 -0.769032 -0.510899
vn -0.477295 -0.822363 -0.309689
vn -0.503736 -0.859365 -0.087988
vn -0.462453 -0.876772 0.131936
vn -0.359036 -0.873405 0.329024
vn -0.204534 -0.850061 0.485348
vn -0.014050 -0.809269 0.587270
vn 0.194765 -0.754945 0.626199
vn 0.403002 -0.692058 0.598870
vn 0.591837 -0.626255 0.507478
vn 0.743714 -0.563504 0.359657
vn 0.843750 -0.509693 0.168222
vn 0.881196 -0.470152 -0.049512
vn 0.333883 0.937895 -0.094206
vn 0.363960 0.926898 0.091610
vn 0.337206 0.899831 0.276761
vn 0.255850 0.859246 0.442987
vn 0.127616 0.809089 0.573663
vn -0.034963 0.754306 0.655592
vn -0.215721 0.700371 0.680401
vn -0.396582 0.652682 0.645546
vn -0.559446 0.616010 0.554573
vn -0.688125 0.593969 0.416755
vn -0.770031 0.588673 0.246000
vn -0.797401 0.600525 0.059343
vn -0.767924 0.628262 -0.124822
vn -0.684889 0.669052 -0.288612
vn -0.556640 0.718895 -0.416344
vn -0.395733 0.772947 -0.495933
vn -0.217686 0.826023 -0.519903
vn -0.039548 0.873044 -0.486035
vn 0.121630 0.909506 -0.397498
vn 0.250302 0.931865 -0.262632
vn 0.024296 0.999699 0.003415
vn 0.040453 0.994282 0.098826
vn 0.027374 0.980549 0.194359
vn -0.014060 0.959743 0.280526
vn -0.080041 0.933873 0.348532
vn -0.164121 0.905511 0.391299
vn -0.257833 0.877538 0.404289
vn -0.351607 0.852820 0.386096
vn -0.435845 0.833882 0.338644
vn -0.502044 0.822608 0.266961
vn -0.543746 0.820049 0.178491
vn -0.557126 0.826347 0.082222
vn -0.541266 0.840762 -0.012302
vn -0.498112 0.861785 -0.095976
vn -0.432124 0.887333 -0.160966
vn -0.349741 0.914955 -0.201341
vn -0.258806 0.942045 -0.213473
vn -0.167829 0.966077 -0.196290
vn -0.085317 0.984794 -0.151334
vn -0.019122 0.996394 -0.082667
vn 0.491958 0.418621 0.763370
vn -0.079724 -0.020592 0.996604
vn 0.051357 -0.062137 0.996745
vn 0.369497 0.513290 0.774600
vn -0.592792 -0.456618 0.663399
vn -0.277383 -0.639041 0.717416
vn 0.103375 -0.654130 0.749285
vn 0.458452 -0.074641 0.885579
vn 0.464102 0.497110 0.733138
vn 0.491958 0.418622 -0.763370
vn 0.781676 0.623684 0.000000
vn 0.545565 0.838069 0.000000
vn 0.369497 0.513290 -0.774600
vn 0.729459 0.684024 0.000000
vn 0.464102 0.497110 -0.733138
vn -0.592792 -0.456619 -0.663399
vn -0.079724 -0.020592 -0.996604
vn 0.051357 -0.062137 -0.996745
vn -0.277383 -0.639041 -0.717416
vn 0.458452 -0.074641 -0.885579
vn 0.103375 -0.654130 -0.749285
vn -0.778025 -0.628233 0.000000
vn -0.431131 -0.902290 -0.000000
vn 0.306148 -0.951984 -0.000000
vn 0.985430 -0.170084 -0.000000
vn -0.754884 -0.097914 -0.648508
vn -0.998911 0.046647 -0.000000
vn -0.327464 0.944864 -0.000000
vn -0.122890 0.350615 -0.928422
vn -0.754884 -0.097914 0.648508
vn -0.122891 0.350615 0.928422
vn 0.645681 0.344780 0.681339
vn 0.803359 0.595495 -0.000000
vn 0.645681 0.344780 -0.681339
vn -0.717233 -0.239578 -0.654354
vn -0.938497 -0.345288 0.000000
vn -0.717233 -0.239578 0.654354
vn 0.644530 0.329744 -0.689819
vn -0.064226 0.045478 -0.996899
vn 0.644530 0.329744 0.689819
vn 0.904825 0.425783 -0.000000
vn -0.064226 0.045478 0.996899
s 1
g mushroom03
usemtl initialShadingGroup
f 43/86/1 44/87/2 82/126/3 63/107/4
f 44/87/2 45/88/5 81/125/6 82/126/3
f 45/88/5 46/89/7 80/124/8 81/125/6
f 46/89/7 47/90/9 79/123/10 80/124/8
f 47/90/9 48/91/11 78/122/12 79/123/10
f 48/91/11 49/92/13 77/121/14 78/122/12
f 49/92/13 50/93/15 76/120/16 77/121/14
f 50/93/15 51/94/17 75/119/18 76/120/16
f 51/94/17 52/95/19 74/118/20 75/119/18
f 52/95/19 53/96/21 73/117/22 74/118/20
f 53/96/21 54/97/23 72/116/24 73/117/22
f 54/97/23 55/98/25 71/115/26 72/116/24
f 55/98/25 56/99/27 70/114/28 71/115/26
f 56/99/27 57/100/29 69/113/30 70/114/28
f 57/100/29 58/101/31 68/112/32 69/113/30
f 58/101/31 59/102/33 67/111/34 68/112/32
f 59/102/33 60/103/35 66/110/36 67/111/34
f 60/103/35 61/104/37 65/109/38 66/110/36
f 61/104/37 62/105/39 64/108/40 65/109/38
f 62/105/39 43/85/1 63/106/4 64/108/40
s 2
f 2/2/41 1/1/42 41/83/43
f 3/3/44 2/2/41 41/83/43
f 4/4/45 3/3/44 41/83/43
f 5/5/46 4/4/45 41/83/43
f 6/6/47 5/5/46 41/83/43
f 7/7/48 6/6/47 41/83/43
f 8/8/49 7/7/48 41/83/43
f 9/9/50 8/8/49 41/83/43
f 10/10/51 9/9/50 41/83/43
f 11/11/52 10/10/51 41/83/43
f 12/12/53 11/11/52 41/83/43
f 13/13/54 12/12/53 41/83/43
f 14/14/55 13/13/54 41/83/43
f 15/15/56 14/14/55 41/83/43
f 16/16/57 15/15/56 41/83/43
f 17/17/58 16/16/57 41/83/43
f 18/18/59 17/17/58 41/83/43
f 19/19/60 18/18/59 41/83/43
f 20/20/61 19/19/60 41/83/43
f 1/1/42 20/20/61 41/83/43
s 3
f 21/81/62 22/80/63 42/84/64
f 22/80/63 23/79/65 42/84/64
f 23/79/65 24/78/66 42/84/64
f 24/78/66 25/77/67 42/84/64
f 25/77/67 26/76/68 42/84/64
f 26/76/68 27/75/69 42/84/64
f 27/75/69 28/74/70 42/84/64
f 28/74/70 29/73/71 42/84/64
f 29/73/71 30/72/72 42/84/64
f 30/72/72 31/71/73 42/84/64
f 31/71/73 32/70/74 42/84/64
f 32/70/74 33/69/75 42/84/64
f 33/69/75 34/68/76 42/84/64
f 34/68/76 35/67/77 42/84/64
f 35/67/77 36/66/78 42/84/64
f 36/66/78 37/65/79 42/84/64
f 37/65/79 38/64/80 42/84/64
f 38/64/80 39/63/81 42/84/64
f 39/63/81 40/82/82 42/84/64
f 40/82/82 21/81/62 42/84/64
s 1
f 1/21/83 2/22/84 44/87/2 43/86/1
f 2/22/84 3/23/85 45/88/5 44/87/2
f 3/23/85 4/24/86 46/89/7 45/88/5
f 4/24/86 5/25/87 47/90/9 46/89/7
f 5/25/87 6/26/88 48/91/11 47/90/9
f 6/26/88 7/27/89 49/92/13 48/91/11
f 7/27/89 8/28/90 50/93/15 49/92/13
f 8/28/90 9/29/91 51/94/17 50/93/15
f 9/29/91 10/30/92 52/95/19 51/94/17
f 10/30/92 11/31/93 53/96/21 52/95/19
f 11/31/93 12/32/94 54/97/23 53/96/21
f 12/32/94 13/33/95 55/98/25 54/97/23
f 13/33/95 14/34/96 56/99/27 55/98/25
f 14/34/96 15/35/97 57/100/29 56/99/27
f 15/35/97 16/36/98 58/101/31 57/100/29
f 16/36/98 17/37/99 59/102/33 58/101/31
f 17/37/99 18/38/100 60/103/35 59/102/33
f 18/38/100 19/39/101 61/104/37 60/103/35
f 19/39/101 20/40/102 62/105/39 61/104/37
f 20/40/102 1/41/83 43/85/1 62/105/39
f 64/108/40 63/106/4 83/127/103 84/129/104
f 65/109/38 64/108/40 84/129/104 85/130/105
f 66/110/36 65/109/38 85/130/105 86/131/106
f 67/111/34 66/110/36 86/131/106 87/132/107
f 68/112/32 67/111/34 87/132/107 88/133/108
f 69/113/30 68/112/32 88/133/108 89/134/109
f 70/114/28 69/113/30 89/134/109 90/135/110
f 71/115/26 70/114/28 90/135/110 91/136/111
f 72/116/24 71/115/26 91/136/111 92/137/112
f 73/117/22 72/116/24 92/137/112 93/138/113
f 74/118/20 73/117/22 93/138/113 94/139/114
f 75/119/18 74/118/20 94/139/114 95/140/115
f 76/120/16 75/119/18 95/140/115 96/141/116
f 77/121/14 76/120/16 96/141/116 97/142/117
f 78/122/12 77/121/14 97/142/117 98/143/118
f 79/123/10 78/122/12 98/143/118 99/144/119
f 80/124/8 79/123/10 99/144/119 100/145/120
f 81/125/6 80/124/8 100/145/120 101/146/121
f 82/126/3 81/125/6 101/146/121 102/147/122
f 63/107/4 82/126/3 102/147/122 83/128/103
f 84/129/104 83/127/103 21/62/123 40/61/124
f 85/130/105 84/129/104 40/61/124 39/60/125
f 86/131/106 85/130/105 39/60/125 38/59/126
f 87/132/107 86/131/106 38/59/126 37/58/127
f 88/133/108 87/132/107 37/58/127 36/57/128
f 89/134/109 88/133/108 36/57/128 35/56/129
f 90/135/110 89/134/109 35/56/129 34/55/130
f 91/136/111 90/135/110 34/55/130 33/54/131
f 92/137/112 91/136/111 33/54/131 32/53/132
f 93/138/113 92/137/112 32/53/132 31/52/133
f 94/139/114 93/138/113 31/52/133 30/51/134
f 95/140/115 94/139/114 30/51/134 29/50/135
f 96/141/116 95/140/115 29/50/135 28/49/136
f 97/142/117 96/141/116 28/49/136 27/48/137
f 98/143/118 97/142/117 27/48/137 26/47/138
f 99/144/119 98/143/118 26/47/138 25/46/139
f 100/145/120 99/144/119 25/46/139 24/45/140
f 101/146/121 100/145/120 24/45/140 23/44/141
f 102/147/122 101/146/121 23/44/141 22/43/142
f 83/128/103 102/147/122 22/43/142 21/42/123
s 4
f 114/148/143 125/149/144 135/150/145 128/151/146
f 125/149/144 111/152/147 126/153/148 135/150/145
f 135/150/145 126/153/148 104/154/149 127/155/150
f 128/151/146 135/150/145 127/155/150 106/156/151
f 113/157/152 129/158/153 136/159/154 131/160/155
f 129/158/153 114/148/143 128/151/146 136/159/154
f 136/159/154 128/151/146 106/156/151 130/161/156
f 131/160/155 136/159/154 130/161/156 108/162/157
f 112/163/158 132/164/159 137/165/160 134/166/161
f 132/164/159 113/157/152 131/160/155 137/165/160
f 137/165/160 131/160/155 108/162/157 133/167/162
f 134/166/161 137/165/160 133/167/162 110/168/163
f 111/169/147 115/170/164 138/171/165 126/172/148
f 115/170/164 112/163/158 134/166/161 138/171/165
f 138/171/165 134/166/161 110/168/163 116/173/166
f 126/172/148 138/171/165 116/173/166 104/174/149
f 104/154/149 116/175/166 139/176/167 127/155/150
f 116/175/166 110/177/163 133/178/162 139/176/167
f 139/176/167 133/178/162 108/179/157 130/180/156
f 127/155/150 139/176/167 130/180/156 106/156/151
f 109/181/168 117/182/169 140/183/170 120/184/171
f 117/182/169 103/185/172 118/186/173 140/183/170
f 140/183/170 118/186/173 105/187/174 119/188/175
f 120/184/171 140/183/170 119/188/175 107/189/176
f 109/190/168 121/191/177 141/192/178 117/193/169
f 121/191/177 112/163/158 115/170/164 141/192/178
f 141/192/178 115/170/164 111/169/147 122/194/179
f 117/193/169 141/192/178 122/194/179 103/195/172
f 107/196/176 123/197/180 142/198/181 120/199/171
f 123/197/180 113/157/152 132/164/159 142/198/181
f 142/198/181 132/164/159 112/163/158 121/191/177
f 120/199/171 142/198/181 121/191/177 109/190/168
f 105/187/174 124/200/182 143/201/183 119/202/175
f 124/200/182 114/148/143 129/158/153 143/201/183
f 143/201/183 129/158/153 113/157/152 123/197/180
f 119/202/175 143/201/183 123/197/180 107/196/176
f 103/185/172 122/203/179 144/204/184 118/186/173
f 122/203/179 111/152/147 125/149/144 144/204/184
f 144/204/184 125/149/144 114/148/143 124/200/182
f 118/186/173 144/204/184 124/200/182 105/187/174
