# This file uses centimeters as units for non-parametric coordinates.

mtllib wall_corner_inner_tile.mtl
g default
v 0.000000 300.000000 -150.000000
v 0.000000 300.000000 0.000000
v 0.000000 0.000000 -150.000000
v -0.000000 0.000000 0.000000
v 150.000015 300.000000 0.000000
v 150.000015 0.000000 0.000000
vt 0.000000 0.000000
vt 1.000000 0.000000
vt 0.000000 1.000000
vt 1.000000 1.000000
vt 0.000000 0.000000
vt 1.000000 0.000000
vt 1.000000 1.000000
vt 0.000000 1.000000
vn -1.000000 0.000000 -0.000000
vn -1.000000 0.000000 -0.000000
vn -1.000000 0.000000 -0.000000
vn -1.000000 0.000000 -0.000000
vn -0.000000 0.000000 1.000000
vn -0.000000 0.000000 1.000000
vn -0.000000 0.000000 1.000000
vn -0.000000 0.000000 1.000000
s off
g corner_inner_tile
usemtl initialShadingGroup
f 1/1/1 2/2/2 4/4/3 3/3/4
f 4/5/5 2/6/6 5/7/7 6/8/8
