14
14
11111001111111
10000000001111
10000000001111
10000000000001
10000000000001
10000000000001
00000000000000
00000000000000
10000000000001
10000000000001
10000000000001
10000000000111
10000000000111
11111100111111