14
14
11111111111111
10000000002221
10000000002221
10000000002221
10000000000001
10000000000001
00000011000001
00000011000001
11111100000001
11111100000001
11111100000001
11111100000001
11111100000001
11111100111111