14
14
11111100111111
10000000000001
10000000000001
10011100000001
10011100000001
10011100000001
00000000000001
00000000000001
10000000011111
10000000001111
10000000000011
11100000000011
11100000010011
11111111111111