# This file uses meters as units for non-parametric coordinates.

mtllib barrel_mesh.mtl
g default
v 24.879204 0.000000 -8.083771
v 21.163494 0.000000 -15.376194
v 15.376194 0.000000 -21.163494
v 8.083736 0.000000 -24.879169
v 0.000000 0.000000 -26.159515
v -8.083736 0.000000 -24.879169
v -15.376194 0.000000 -21.163494
v -21.163494 0.000000 -15.376194
v -24.879204 0.000000 -8.083771
v -26.159515 0.000000 0.000000
v -24.879204 0.000000 8.083771
v -21.163494 0.000000 15.376194
v -15.376194 0.000000 21.163494
v -8.083736 0.000000 24.879169
v 0.000000 0.000000 26.159515
v 8.083736 0.000000 24.879169
v 15.376194 0.000000 21.163494
v 21.163494 0.000000 15.376194
v 24.879169 0.000000 8.083771
v 26.159515 0.000000 0.000000
v 24.879204 101.440552 -8.083771
v 21.163494 101.440552 -15.376194
v 15.376194 101.440552 -21.163494
v 8.083736 101.440552 -24.879169
v 0.000000 101.440552 -26.159515
v -8.083736 101.440552 -24.879169
v -15.376194 101.440552 -21.163494
v -21.163494 101.440552 -15.376194
v -24.879204 101.440552 -8.083771
v -26.159515 101.440552 0.000000
v -24.879204 101.440552 8.083771
v -21.163494 101.440552 15.376194
v -15.376194 101.440552 21.163494
v -8.083736 101.440552 24.879169
v 0.000000 101.440552 26.159515
v 8.083736 101.440552 24.879169
v 15.376194 101.440552 21.163494
v 21.163494 101.440552 15.376194
v 24.879169 101.440552 8.083771
v 26.159515 101.440552 0.000000
v 0.000000 70.987549 31.359169
v -9.690535 70.987549 29.824341
v -18.432461 70.987549 25.370117
v -25.370117 70.987549 18.432495
v -29.824371 70.987549 9.690535
v -31.359207 70.987549 0.000000
v -29.824371 70.987549 -9.690535
v -25.370117 70.987549 -18.432495
v -18.432461 70.987549 -25.370117
v -9.690535 70.987549 -29.824409
v 0.000000 70.987549 -31.359238
v 9.690535 70.987549 -29.824409
v 18.432461 70.987549 -25.370117
v 25.370117 70.987549 -18.432495
v 29.824371 70.987549 -9.690535
v 31.359207 70.987549 0.000000
v 29.824371 70.987549 9.690535
v 25.370117 70.987549 18.432495
v 18.432461 70.987549 25.370117
v 9.690535 70.987549 29.824341
v 0.000000 30.452995 31.359169
v -9.690535 30.452995 29.824341
v -18.432461 30.452995 25.370117
v -25.370117 30.452995 18.432495
v -29.824371 30.452995 9.690535
v -31.359207 30.452995 0.000000
v -29.824371 30.452995 -9.690535
v -25.370117 30.452995 -18.432495
v -18.432461 30.452995 -25.370117
v -9.690535 30.452995 -29.824409
v 0.000000 30.452995 -31.359238
v 9.690535 30.452995 -29.824409
v 18.432461 30.452995 -25.370117
v 25.370117 30.452995 -18.432495
v 29.824371 30.452995 -9.690535
v 31.359207 30.452995 0.000000
v 29.824371 30.452995 9.690535
v 25.370117 30.452995 18.432495
v 18.432461 30.452995 25.370117
v 9.690535 30.452995 29.824341
v 21.363400 0.000000 -6.941448
v 18.172760 0.000000 -13.203346
v 13.203312 0.000000 -18.172794
v 6.941414 0.000000 -21.363434
v 0.000000 0.000000 -22.462902
v -6.941380 0.000000 -21.363434
v -13.203312 0.000000 -18.172794
v -18.172794 0.000000 -13.203346
v -21.363400 0.000000 -6.941448
v -22.462833 0.000000 0.000000
v -21.363400 0.000000 6.941448
v -18.172760 0.000000 13.203346
v -13.203312 0.000000 18.172794
v -6.941380 0.000000 21.363365
v 0.000000 0.000000 22.462765
v 6.941414 0.000000 21.363365
v 13.203312 0.000000 18.172794
v 18.172829 0.000000 13.203346
v 21.363400 0.000000 6.941448
v 22.462833 0.000000 0.000000
v 21.363400 101.440552 -6.941448
v 18.172760 101.440552 -13.203346
v 13.203312 101.440552 -18.172794
v 6.941414 101.440552 -21.363434
v 0.000000 101.440552 -22.462902
v -6.941380 101.440552 -21.363434
v -13.203312 101.440552 -18.172794
v -18.172794 101.440552 -13.203346
v -21.363400 101.440552 -6.941448
v -22.462833 101.440552 0.000000
v -21.363400 101.440552 6.941448
v -18.172760 101.440552 13.203346
v -13.203312 101.440552 18.172794
v -6.941380 101.440552 21.363365
v 0.000000 101.440552 22.462765
v 6.941414 101.440552 21.363365
v 13.203312 101.440552 18.172794
v 18.172829 101.440552 13.203346
v 21.363400 101.440552 6.941448
v 22.462833 101.440552 0.000000
v 20.727852 2.590073 -6.734968
v 17.632107 2.590073 -12.810562
v 0.000000 2.590073 0.000000
v 12.810493 2.590073 -17.632107
v 6.734898 2.590073 -20.727852
v 0.000000 2.590073 -21.794624
v -6.734863 2.590073 -20.727852
v -12.810493 2.590073 -17.632107
v -17.632141 2.590073 -12.810562
v -20.727852 2.590073 -6.734968
v -21.794556 2.590073 0.000000
v -20.727852 2.590073 6.734968
v -17.632107 2.590073 12.810562
v -12.810493 2.590073 17.632175
v -6.734863 2.590073 20.727783
v 0.000000 2.590073 21.794483
v 6.734898 2.590073 20.727783
v 12.810493 2.590073 17.632175
v 17.632175 2.590073 12.810562
v 20.727852 2.590073 6.734968
v 21.794556 2.590073 0.000000
v 20.727852 98.850464 -6.734968
v 17.632107 98.850464 -12.810562
v 0.000000 98.850479 0.000000
v 12.810493 98.850464 -17.632107
v 6.734898 98.850464 -20.727852
v 0.000000 98.850464 -21.794624
v -6.734863 98.850464 -20.727852
v -12.810493 98.850464 -17.632107
v -17.632141 98.850464 -12.810562
v -20.727852 98.850464 -6.734968
v -21.794556 98.850464 0.000000
v -20.727852 98.850464 6.734968
v -17.632107 98.850464 12.810562
v -12.810493 98.850464 17.632175
v -6.734863 98.850464 20.727783
v 0.000000 98.850464 21.794483
v 6.734898 98.850464 20.727783
v 12.810493 98.850464 17.632175
v 17.632175 98.850464 12.810562
v 20.727852 98.850464 6.734968
v 21.794556 98.850464 0.000000
vt 0.648603 0.107966
vt 0.626409 0.064408
vt 0.591842 0.029841
vt 0.548284 0.007647
vt 0.500000 -0.000000
vt 0.451716 0.007647
vt 0.408159 0.029841
vt 0.373591 0.064409
vt 0.351397 0.107966
vt 0.343750 0.156250
vt 0.351397 0.204534
vt 0.373591 0.248091
vt 0.408159 0.282659
vt 0.451716 0.304853
vt 0.500000 0.312500
vt 0.548284 0.304853
vt 0.591841 0.282659
vt 0.626409 0.248091
vt 0.648603 0.204534
vt 0.656250 0.156250
vt 0.375000 0.312500
vt 0.387500 0.312500
vt 0.400000 0.312500
vt 0.412500 0.312500
vt 0.425000 0.312500
vt 0.437500 0.312500
vt 0.450000 0.312500
vt 0.462500 0.312500
vt 0.475000 0.312500
vt 0.487500 0.312500
vt 0.500000 0.312500
vt 0.512500 0.312500
vt 0.525000 0.312500
vt 0.537500 0.312500
vt 0.550000 0.312500
vt 0.562500 0.312500
vt 0.575000 0.312500
vt 0.587500 0.312500
vt 0.600000 0.312500
vt 0.612500 0.312500
vt 0.625000 0.312500
vt 0.375000 0.688440
vt 0.387500 0.688440
vt 0.400000 0.688440
vt 0.412500 0.688440
vt 0.425000 0.688440
vt 0.437500 0.688440
vt 0.450000 0.688440
vt 0.462500 0.688440
vt 0.475000 0.688440
vt 0.487500 0.688440
vt 0.500000 0.688440
vt 0.512500 0.688440
vt 0.525000 0.688440
vt 0.537500 0.688440
vt 0.550000 0.688440
vt 0.562500 0.688440
vt 0.575000 0.688440
vt 0.587500 0.688440
vt 0.600000 0.688440
vt 0.612500 0.688440
vt 0.625000 0.688440
vt 0.648603 0.795466
vt 0.626409 0.751908
vt 0.591842 0.717341
vt 0.548284 0.695147
vt 0.500000 0.687500
vt 0.451716 0.695147
vt 0.408159 0.717341
vt 0.373591 0.751909
vt 0.351397 0.795466
vt 0.343750 0.843750
vt 0.351397 0.892034
vt 0.373591 0.935591
vt 0.408159 0.970159
vt 0.451716 0.992353
vt 0.500000 1.000000
vt 0.548284 0.992353
vt 0.591841 0.970159
vt 0.626409 0.935591
vt 0.648603 0.892034
vt 0.656250 0.843750
vt 0.500000 0.150000
vt 0.500000 0.837500
vt 0.550000 0.563127
vt 0.537500 0.563127
vt 0.525000 0.563127
vt 0.512500 0.563127
vt 0.500000 0.563127
vt 0.487500 0.563127
vt 0.475000 0.563127
vt 0.462500 0.563127
vt 0.450000 0.563127
vt 0.437500 0.563127
vt 0.425000 0.563127
vt 0.412500 0.563127
vt 0.400000 0.563127
vt 0.387500 0.563127
vt 0.625000 0.563127
vt 0.375000 0.563127
vt 0.612500 0.563127
vt 0.600000 0.563127
vt 0.587500 0.563127
vt 0.575000 0.563127
vt 0.562500 0.563127
vt 0.550000 0.437813
vt 0.537500 0.437813
vt 0.525000 0.437813
vt 0.512500 0.437813
vt 0.500000 0.437813
vt 0.487500 0.437813
vt 0.475000 0.437813
vt 0.462500 0.437813
vt 0.450000 0.437813
vt 0.437500 0.437813
vt 0.425000 0.437813
vt 0.412500 0.437813
vt 0.400000 0.437813
vt 0.387500 0.437813
vt 0.625000 0.437813
vt 0.375000 0.437813
vt 0.612500 0.437813
vt 0.600000 0.437813
vt 0.587500 0.437813
vt 0.575000 0.437813
vt 0.562500 0.437813
vt 0.626409 0.064408
vt 0.648603 0.107966
vt 0.591842 0.029841
vt 0.548284 0.007647
vt 0.500000 -0.000000
vt 0.451716 0.007647
vt 0.408159 0.029841
vt 0.373591 0.064409
vt 0.351397 0.107966
vt 0.343750 0.156250
vt 0.351397 0.204534
vt 0.373591 0.248091
vt 0.408159 0.282659
vt 0.451716 0.304853
vt 0.500000 0.312500
vt 0.548284 0.304853
vt 0.591841 0.282659
vt 0.626409 0.248091
vt 0.648603 0.204534
vt 0.656250 0.156250
vt 0.648603 0.892034
vt 0.626409 0.935591
vt 0.591841 0.970159
vt 0.548284 0.992353
vt 0.500000 1.000000
vt 0.451716 0.992353
vt 0.408159 0.970159
vt 0.373591 0.935591
vt 0.351397 0.892034
vt 0.343750 0.843750
vt 0.351397 0.795466
vt 0.373591 0.751909
vt 0.408159 0.717341
vt 0.451716 0.695147
vt 0.500000 0.687500
vt 0.548284 0.695147
vt 0.591842 0.717341
vt 0.626409 0.751908
vt 0.648603 0.795466
vt 0.656250 0.843750
vt 0.626409 0.064408
vt 0.648603 0.107966
vt 0.591842 0.029841
vt 0.548284 0.007647
vt 0.500000 -0.000000
vt 0.451716 0.007647
vt 0.408159 0.029841
vt 0.373591 0.064409
vt 0.351397 0.107966
vt 0.343750 0.156250
vt 0.351397 0.204534
vt 0.373591 0.248091
vt 0.408159 0.282659
vt 0.451716 0.304853
vt 0.500000 0.312500
vt 0.548284 0.304853
vt 0.591841 0.282659
vt 0.626409 0.248091
vt 0.648603 0.204534
vt 0.656250 0.156250
vt 0.648603 0.892034
vt 0.626409 0.935591
vt 0.591841 0.970159
vt 0.548284 0.992353
vt 0.500000 1.000000
vt 0.451716 0.992353
vt 0.408159 0.970159
vt 0.373591 0.935591
vt 0.351397 0.892034
vt 0.343750 0.843750
vt 0.351397 0.795466
vt 0.373591 0.751909
vt 0.408159 0.717341
vt 0.451716 0.695147
vt 0.500000 0.687500
vt 0.548284 0.695147
vt 0.591842 0.717341
vt 0.626409 0.751908
vt 0.648603 0.795466
vt 0.656250 0.843750
vn 0.937489 -0.168308 -0.304609
vn 0.797475 -0.168308 -0.579401
vn 0.807100 -0.068793 -0.586394
vn 0.948803 -0.068793 -0.308285
vn 0.579400 -0.168309 -0.797476
vn 0.586393 -0.068793 -0.807100
vn 0.304610 -0.168310 -0.937489
vn 0.308287 -0.068793 -0.948803
vn 0.000000 -0.168310 -0.985734
vn 0.000000 -0.068794 -0.997631
vn -0.304610 -0.168310 -0.937489
vn -0.308287 -0.068793 -0.948803
vn -0.579400 -0.168309 -0.797476
vn -0.586393 -0.068793 -0.807100
vn -0.797475 -0.168308 -0.579401
vn -0.807100 -0.068793 -0.586394
vn -0.937489 -0.168308 -0.304609
vn -0.948803 -0.068793 -0.308285
vn -0.985734 -0.168308 0.000000
vn -0.997631 -0.068793 0.000000
vn -0.937489 -0.168308 0.304609
vn -0.948803 -0.068793 0.308285
vn -0.797475 -0.168308 0.579401
vn -0.807100 -0.068793 0.586394
vn -0.579399 -0.168308 0.797477
vn -0.586392 -0.068793 0.807101
vn -0.304608 -0.168308 0.937489
vn -0.308284 -0.068793 0.948804
vn 0.000000 -0.168308 0.985734
vn 0.000000 -0.068793 0.997631
vn 0.304608 -0.168308 0.937489
vn 0.308284 -0.068793 0.948804
vn 0.579399 -0.168308 0.797477
vn 0.586392 -0.068793 0.807101
vn 0.797475 -0.168308 0.579401
vn 0.807100 -0.068793 0.586394
vn 0.937489 -0.168309 0.304609
vn 0.948803 -0.068793 0.308285
vn 0.985734 -0.168309 0.000001
vn 0.997631 -0.068793 0.000000
vn 0.000000 -1.000000 0.000000
vn 0.000000 -1.000000 0.000000
vn 0.000000 -1.000000 -0.000000
vn 0.000000 -1.000000 -0.000000
vn 0.000000 -1.000000 -0.000000
vn 0.000000 -1.000000 0.000000
vn 0.000000 -1.000000 0.000000
vn 0.000000 -1.000000 0.000000
vn 0.000000 -1.000000 0.000000
vn 0.000000 -1.000000 0.000000
vn 0.000000 -1.000000 0.000000
vn 0.000000 -1.000000 0.000000
vn 0.000000 -1.000000 0.000000
vn 0.000000 -1.000000 0.000000
vn 0.000000 -1.000000 0.000000
vn 0.000000 -1.000000 0.000000
vn 0.000000 -1.000000 0.000000
vn 0.000000 -1.000000 0.000000
vn 0.000000 -1.000000 -0.000000
vn 0.000000 -1.000000 -0.000000
vn 0.000000 -1.000000 0.000000
vn 0.000001 1.000000 -0.000002
vn 0.000001 1.000000 -0.000001
vn -0.000000 1.000000 -0.000000
vn 0.000000 1.000000 -0.000000
vn 0.000000 1.000000 -0.000001
vn 0.000000 1.000000 -0.000000
vn -0.000000 1.000000 -0.000001
vn -0.000000 1.000000 -0.000001
vn -0.000001 1.000000 -0.000001
vn -0.000001 1.000000 -0.000001
vn -0.000001 1.000000 0.000000
vn -0.000001 1.000000 0.000002
vn -0.000001 1.000000 0.000001
vn -0.000000 1.000000 -0.000000
vn -0.000000 1.000000 0.000001
vn 0.000000 1.000000 0.000000
vn 0.000000 1.000000 0.000001
vn 0.000000 1.000000 0.000001
vn 0.000001 1.000000 0.000001
vn 0.000001 1.000000 0.000001
vn 0.000001 1.000000 0.000000
vn -0.308284 0.068793 0.948804
vn 0.000000 0.068793 0.997631
vn 0.000000 0.168308 0.985734
vn -0.304608 0.168308 0.937489
vn -0.586392 0.068793 0.807101
vn -0.579399 0.168308 0.797477
vn -0.807100 0.068793 0.586394
vn -0.797475 0.168308 0.579401
vn -0.948803 0.068793 0.308285
vn -0.937489 0.168308 0.304609
vn -0.997631 0.068793 -0.000000
vn -0.985734 0.168308 -0.000000
vn -0.948803 0.068793 -0.308285
vn -0.937489 0.168308 -0.304609
vn -0.807100 0.068793 -0.586394
vn -0.797475 0.168308 -0.579401
vn -0.586393 0.068793 -0.807100
vn -0.579400 0.168309 -0.797476
vn -0.308287 0.068793 -0.948803
vn -0.304610 0.168310 -0.937489
vn 0.000000 0.068794 -0.997631
vn 0.000000 0.168310 -0.985734
vn 0.308287 0.068793 -0.948803
vn 0.304610 0.168310 -0.937489
vn 0.586393 0.068793 -0.807100
vn 0.579400 0.168309 -0.797476
vn 0.807100 0.068793 -0.586394
vn 0.797475 0.168308 -0.579401
vn 0.948803 0.068793 -0.308285
vn 0.937489 0.168308 -0.304609
vn 0.997631 0.068793 0.000000
vn 0.985734 0.168309 0.000001
vn 0.948803 0.068793 0.308285
vn 0.937489 0.168309 0.304609
vn 0.807100 0.068793 0.586394
vn 0.797476 0.168308 0.579401
vn 0.586392 0.068793 0.807101
vn 0.579399 0.168308 0.797477
vn 0.308284 0.068793 0.948804
vn 0.304608 0.168308 0.937489
vn 0.000000 -1.000000 0.000000
vn 0.000000 -1.000000 0.000000
vn 0.000000 -1.000000 0.000000
vn 0.000000 -1.000000 0.000000
vn 0.000000 -1.000000 0.000000
vn 0.000000 -1.000000 0.000000
vn 0.000000 -1.000000 0.000000
vn 0.000000 -1.000000 0.000000
vn 0.000000 -1.000000 0.000000
vn 0.000000 -1.000000 0.000000
vn 0.000000 -1.000000 0.000000
vn 0.000000 -1.000000 0.000000
vn 0.000000 -1.000000 0.000000
vn 0.000000 -1.000000 0.000000
vn 0.000000 -1.000000 0.000000
vn 0.000000 -1.000000 0.000000
vn 0.000000 -1.000000 0.000000
vn 0.000000 -1.000000 0.000000
vn 0.000000 -1.000000 0.000000
vn 0.000000 -1.000000 0.000000
vn 0.000000 -1.000000 0.000000
vn 0.000000 -1.000000 0.000000
vn 0.000000 -1.000000 0.000000
vn 0.000000 -1.000000 0.000000
vn 0.000000 -1.000000 0.000000
vn 0.000000 -1.000000 0.000000
vn 0.000000 -1.000000 0.000000
vn 0.000000 -1.000000 0.000000
vn 0.000000 -1.000000 0.000000
vn 0.000000 -1.000000 0.000000
vn 0.000000 -1.000000 0.000000
vn 0.000000 -1.000000 0.000000
vn 0.000000 -1.000000 0.000000
vn 0.000000 -1.000000 0.000000
vn 0.000000 -1.000000 0.000000
vn 0.000000 -1.000000 0.000000
vn 0.000000 -1.000000 0.000000
vn 0.000000 -1.000000 0.000000
vn 0.000000 -1.000000 0.000000
vn 0.000000 -1.000000 0.000000
vn 0.000000 1.000000 0.000000
vn 0.000000 1.000000 -0.000001
vn 0.000000 1.000000 -0.000001
vn 0.000000 1.000000 0.000000
vn 0.000000 1.000000 -0.000001
vn 0.000000 1.000000 -0.000001
vn 0.000000 1.000000 -0.000001
vn 0.000000 1.000000 -0.000001
vn 0.000000 1.000000 -0.000000
vn 0.000000 1.000000 -0.000000
vn 0.000000 1.000000 0.000000
vn 0.000000 1.000000 0.000000
vn 0.000000 1.000000 0.000000
vn 0.000000 1.000000 0.000000
vn 0.000000 1.000000 -0.000000
vn 0.000000 1.000000 -0.000000
vn 0.000000 1.000000 0.000000
vn 0.000000 1.000000 0.000000
vn 0.000000 1.000000 0.000000
vn 0.000000 1.000000 0.000000
vn 0.000000 1.000000 0.000000
vn 0.000000 1.000000 0.000000
vn 0.000000 1.000000 0.000001
vn 0.000000 1.000000 0.000001
vn 0.000000 1.000000 0.000001
vn 0.000000 1.000000 0.000001
vn 0.000000 1.000000 0.000001
vn 0.000000 1.000000 0.000001
vn 0.000000 1.000000 0.000000
vn 0.000000 1.000000 0.000000
vn 0.000000 1.000000 -0.000000
vn 0.000000 1.000000 -0.000000
vn 0.000000 1.000000 0.000000
vn 0.000000 1.000000 0.000000
vn 0.000000 1.000000 0.000000
vn 0.000000 1.000000 0.000000
vn 0.000000 1.000000 0.000000
vn 0.000000 1.000000 -0.000000
vn 0.000000 1.000000 0.000001
vn 0.000000 1.000000 0.000001
vn -0.783360 -0.249832 0.569149
vn -0.920898 -0.249827 0.299220
vn -0.920898 -0.249827 0.299222
vn -0.783359 -0.249832 0.569151
vn -0.569145 -0.249841 0.783360
vn -0.569146 -0.249841 0.783360
vn -0.299224 -0.249839 0.920894
vn -0.299225 -0.249839 0.920894
vn -0.000000 -0.249836 0.968288
vn 0.000000 -0.249836 0.968288
vn 0.299225 -0.249839 0.920894
vn 0.299225 -0.249839 0.920894
vn 0.569143 -0.249840 0.783362
vn 0.569144 -0.249840 0.783362
vn 0.783360 -0.249832 0.569149
vn 0.783359 -0.249832 0.569150
vn 0.920899 -0.249827 0.299218
vn 0.920898 -0.249827 0.299220
vn 0.968290 -0.249829 0.000000
vn 0.968290 -0.249829 0.000000
vn 0.920898 -0.249827 -0.299220
vn 0.920898 -0.249827 -0.299222
vn 0.783362 -0.249828 -0.569149
vn 0.783361 -0.249828 -0.569150
vn 0.569144 -0.249831 -0.783364
vn 0.569142 -0.249831 -0.783366
vn 0.299214 -0.249834 -0.920898
vn 0.299214 -0.249834 -0.920899
vn 0.000000 -0.249836 -0.968288
vn 0.000000 -0.249836 -0.968288
vn -0.299214 -0.249834 -0.920898
vn -0.299214 -0.249834 -0.920899
vn -0.569143 -0.249831 -0.783365
vn -0.569141 -0.249831 -0.783367
vn -0.783362 -0.249828 -0.569149
vn -0.783361 -0.249828 -0.569150
vn -0.920900 -0.249827 -0.299216
vn -0.920899 -0.249827 -0.299217
vn -0.968290 -0.249829 0.000000
vn -0.968290 -0.249829 0.000000
vn -0.920899 0.249826 0.299220
vn -0.783361 0.249831 0.569149
vn -0.783360 0.249831 0.569150
vn -0.920898 0.249826 0.299221
vn -0.569145 0.249839 0.783361
vn -0.569146 0.249839 0.783361
vn -0.299224 0.249837 0.920894
vn -0.299224 0.249837 0.920894
vn 0.000000 0.249834 0.968289
vn 0.000000 0.249834 0.968289
vn 0.299225 0.249838 0.920894
vn 0.299225 0.249838 0.920894
vn 0.569143 0.249839 0.783362
vn 0.569144 0.249839 0.783362
vn 0.783361 0.249831 0.569149
vn 0.783360 0.249831 0.569150
vn 0.920899 0.249826 0.299218
vn 0.920899 0.249826 0.299219
vn 0.968290 0.249827 -0.000000
vn 0.968291 0.249827 0.000000
vn 0.920899 0.249826 -0.299220
vn 0.920898 0.249826 -0.299221
vn 0.783362 0.249827 -0.569149
vn 0.783361 0.249827 -0.569150
vn 0.569144 0.249830 -0.783365
vn 0.569142 0.249830 -0.783366
vn 0.299214 0.249833 -0.920899
vn 0.299214 0.249832 -0.920899
vn -0.000000 0.249835 -0.968289
vn -0.000000 0.249835 -0.968288
vn -0.299214 0.249832 -0.920899
vn -0.299213 0.249832 -0.920899
vn -0.569142 0.249829 -0.783366
vn -0.569140 0.249829 -0.783368
vn -0.783362 0.249827 -0.569149
vn -0.783361 0.249827 -0.569150
vn -0.920900 0.249826 -0.299215
vn -0.920900 0.249826 -0.299217
vn -0.968290 0.249827 0.000000
vn -0.968291 0.249827 0.000000
s 1
g barrel
usemtl initialShadingGroup
f 1/21/1 2/22/2 74/119/3 75/121/4
f 2/22/2 3/23/5 73/118/6 74/119/3
f 3/23/5 4/24/7 72/117/8 73/118/6
f 4/24/7 5/25/9 71/116/10 72/117/8
f 5/25/9 6/26/11 70/115/12 71/116/10
f 6/26/11 7/27/13 69/114/14 70/115/12
f 7/27/13 8/28/15 68/113/16 69/114/14
f 8/28/15 9/29/17 67/112/18 68/113/16
f 9/29/17 10/30/19 66/111/20 67/112/18
f 10/30/19 11/31/21 65/110/22 66/111/20
f 11/31/21 12/32/23 64/109/24 65/110/22
f 12/32/23 13/33/25 63/108/26 64/109/24
f 13/33/25 14/34/27 62/107/28 63/108/26
f 14/34/27 15/35/29 61/106/30 62/107/28
f 15/35/29 16/36/31 80/126/32 61/106/30
f 16/36/31 17/37/33 79/125/34 80/126/32
f 17/37/33 18/38/35 78/124/36 79/125/34
f 18/38/35 19/39/37 77/123/38 78/124/36
f 19/39/37 20/40/39 76/122/40 77/123/38
f 20/40/39 1/41/1 75/120/4 76/122/40
s 2
f 122/167/41 121/168/42 123/83/43
f 124/169/44 122/167/41 123/83/43
f 125/170/45 124/169/44 123/83/43
f 126/171/46 125/170/45 123/83/43
f 127/172/47 126/171/46 123/83/43
f 128/173/48 127/172/47 123/83/43
f 129/174/49 128/173/48 123/83/43
f 130/175/50 129/174/49 123/83/43
f 131/176/51 130/175/50 123/83/43
f 132/177/52 131/176/51 123/83/43
f 133/178/53 132/177/52 123/83/43
f 134/179/54 133/178/53 123/83/43
f 135/180/55 134/179/54 123/83/43
f 136/181/56 135/180/55 123/83/43
f 137/182/57 136/181/56 123/83/43
f 138/183/58 137/182/57 123/83/43
f 139/184/59 138/183/58 123/83/43
f 140/185/60 139/184/59 123/83/43
f 141/186/61 140/185/60 123/83/43
f 121/168/42 141/186/61 123/83/43
s 3
f 142/187/62 143/188/63 144/84/64
f 143/188/63 145/189/65 144/84/64
f 145/189/65 146/190/66 144/84/64
f 146/190/66 147/191/67 144/84/64
f 147/191/67 148/192/68 144/84/64
f 148/192/68 149/193/69 144/84/64
f 149/193/69 150/194/70 144/84/64
f 150/194/70 151/195/71 144/84/64
f 151/195/71 152/196/72 144/84/64
f 152/196/72 153/197/73 144/84/64
f 153/197/73 154/198/74 144/84/64
f 154/198/74 155/199/75 144/84/64
f 155/199/75 156/200/76 144/84/64
f 156/200/76 157/201/77 144/84/64
f 157/201/77 158/202/78 144/84/64
f 158/202/78 159/203/79 144/84/64
f 159/203/79 160/204/80 144/84/64
f 160/204/80 161/205/81 144/84/64
f 161/205/81 162/206/82 144/84/64
f 162/206/82 142/187/62 144/84/64
s 1
f 42/86/83 41/85/84 35/56/85 34/55/86
f 43/87/87 42/86/83 34/55/86 33/54/88
f 44/88/89 43/87/87 33/54/88 32/53/90
f 45/89/91 44/88/89 32/53/90 31/52/92
f 46/90/93 45/89/91 31/52/92 30/51/94
f 47/91/95 46/90/93 30/51/94 29/50/96
f 48/92/97 47/91/95 29/50/96 28/49/98
f 49/93/99 48/92/97 28/49/98 27/48/100
f 50/94/101 49/93/99 27/48/100 26/47/102
f 51/95/103 50/94/101 26/47/102 25/46/104
f 52/96/105 51/95/103 25/46/104 24/45/106
f 53/97/107 52/96/105 24/45/106 23/44/108
f 54/98/109 53/97/107 23/44/108 22/43/110
f 55/100/111 54/98/109 22/43/110 21/42/112
f 56/101/113 55/99/111 21/62/112 40/61/114
f 57/102/115 56/101/113 40/61/114 39/60/116
f 58/103/117 57/102/115 39/60/116 38/59/118
f 59/104/119 58/103/117 38/59/118 37/58/120
f 60/105/121 59/104/119 37/58/120 36/57/122
f 41/85/84 60/105/121 36/57/122 35/56/85
f 62/107/28 61/106/30 41/85/84 42/86/83
f 63/108/26 62/107/28 42/86/83 43/87/87
f 64/109/24 63/108/26 43/87/87 44/88/89
f 65/110/22 64/109/24 44/88/89 45/89/91
f 66/111/20 65/110/22 45/89/91 46/90/93
f 67/112/18 66/111/20 46/90/93 47/91/95
f 68/113/16 67/112/18 47/91/95 48/92/97
f 69/114/14 68/113/16 48/92/97 49/93/99
f 70/115/12 69/114/14 49/93/99 50/94/101
f 71/116/10 70/115/12 50/94/101 51/95/103
f 72/117/8 71/116/10 51/95/103 52/96/105
f 73/118/6 72/117/8 52/96/105 53/97/107
f 74/119/3 73/118/6 53/97/107 54/98/109
f 75/121/4 74/119/3 54/98/109 55/100/111
f 76/122/40 75/120/4 55/99/111 56/101/113
f 77/123/38 76/122/40 56/101/113 57/102/115
f 78/124/36 77/123/38 57/102/115 58/103/117
f 79/125/34 78/124/36 58/103/117 59/104/119
f 80/126/32 79/125/34 59/104/119 60/105/121
f 61/106/30 80/126/32 60/105/121 41/85/84
s 4
f 2/2/123 1/1/124 81/128/125 82/127/126
f 3/3/127 2/2/123 82/127/126 83/129/128
f 4/4/129 3/3/127 83/129/128 84/130/130
f 5/5/131 4/4/129 84/130/130 85/131/132
f 6/6/133 5/5/131 85/131/132 86/132/134
f 7/7/135 6/6/133 86/132/134 87/133/136
f 8/8/137 7/7/135 87/133/136 88/134/138
f 9/9/139 8/8/137 88/134/138 89/135/140
f 10/10/141 9/9/139 89/135/140 90/136/142
f 11/11/143 10/10/141 90/136/142 91/137/144
f 12/12/145 11/11/143 91/137/144 92/138/146
f 13/13/147 12/12/145 92/138/146 93/139/148
f 14/14/149 13/13/147 93/139/148 94/140/150
f 15/15/151 14/14/149 94/140/150 95/141/152
f 16/16/153 15/15/151 95/141/152 96/142/154
f 17/17/155 16/16/153 96/142/154 97/143/156
f 18/18/157 17/17/155 97/143/156 98/144/158
f 19/19/159 18/18/157 98/144/158 99/145/160
f 20/20/161 19/19/159 99/145/160 100/146/162
f 1/1/124 20/20/161 100/146/162 81/128/125
s 5
f 21/81/163 22/80/164 102/148/165 101/147/166
f 22/80/164 23/79/167 103/149/168 102/148/165
f 23/79/167 24/78/169 104/150/170 103/149/168
f 24/78/169 25/77/171 105/151/172 104/150/170
f 25/77/171 26/76/173 106/152/174 105/151/172
f 26/76/173 27/75/175 107/153/176 106/152/174
f 27/75/175 28/74/177 108/154/178 107/153/176
f 28/74/177 29/73/179 109/155/180 108/154/178
f 29/73/179 30/72/181 110/156/182 109/155/180
f 30/72/181 31/71/183 111/157/184 110/156/182
f 31/71/183 32/70/185 112/158/186 111/157/184
f 32/70/185 33/69/187 113/159/188 112/158/186
f 33/69/187 34/68/189 114/160/190 113/159/188
f 34/68/189 35/67/191 115/161/192 114/160/190
f 35/67/191 36/66/193 116/162/194 115/161/192
f 36/66/193 37/65/195 117/163/196 116/162/194
f 37/65/195 38/64/197 118/164/198 117/163/196
f 38/64/197 39/63/199 119/165/200 118/164/198
f 39/63/199 40/82/201 120/166/202 119/165/200
f 40/82/201 21/81/163 101/147/166 120/166/202
s 6
f 82/127/203 81/128/204 121/168/205 122/167/206
f 83/129/207 82/127/203 122/167/206 124/169/208
f 84/130/209 83/129/207 124/169/208 125/170/210
f 85/131/211 84/130/209 125/170/210 126/171/212
f 86/132/213 85/131/211 126/171/212 127/172/214
f 87/133/215 86/132/213 127/172/214 128/173/216
f 88/134/217 87/133/215 128/173/216 129/174/218
f 89/135/219 88/134/217 129/174/218 130/175/220
f 90/136/221 89/135/219 130/175/220 131/176/222
f 91/137/223 90/136/221 131/176/222 132/177/224
f 92/138/225 91/137/223 132/177/224 133/178/226
f 93/139/227 92/138/225 133/178/226 134/179/228
f 94/140/229 93/139/227 134/179/228 135/180/230
f 95/141/231 94/140/229 135/180/230 136/181/232
f 96/142/233 95/141/231 136/181/232 137/182/234
f 97/143/235 96/142/233 137/182/234 138/183/236
f 98/144/237 97/143/235 138/183/236 139/184/238
f 99/145/239 98/144/237 139/184/238 140/185/240
f 100/146/241 99/145/239 140/185/240 141/186/242
f 81/128/204 100/146/241 141/186/242 121/168/205
s 7
f 101/147/243 102/148/244 143/188/245 142/187/246
f 102/148/244 103/149/247 145/189/248 143/188/245
f 103/149/247 104/150/249 146/190/250 145/189/248
f 104/150/249 105/151/251 147/191/252 146/190/250
f 105/151/251 106/152/253 148/192/254 147/191/252
f 106/152/253 107/153/255 149/193/256 148/192/254
f 107/153/255 108/154/257 150/194/258 149/193/256
f 108/154/257 109/155/259 151/195/260 150/194/258
f 109/155/259 110/156/261 152/196/262 151/195/260
f 110/156/261 111/157/263 153/197/264 152/196/262
f 111/157/263 112/158/265 154/198/266 153/197/264
f 112/158/265 113/159/267 155/199/268 154/198/266
f 113/159/267 114/160/269 156/200/270 155/199/268
f 114/160/269 115/161/271 157/201/272 156/200/270
f 115/161/271 116/162/273 158/202/274 157/201/272
f 116/162/273 117/163/275 159/203/276 158/202/274
f 117/163/275 118/164/277 160/204/278 159/203/276
f 118/164/277 119/165/279 161/205/280 160/204/278
f 119/165/279 120/166/281 162/206/282 161/205/280
f 120/166/281 101/147/243 142/187/246 162/206/282
