# This file uses meters as units for non-parametric coordinates.

mtllib fern_ver03_mesh.mtl
g default
v -55.791229 93.699852 0.183685
v -56.577057 94.034653 -0.246918
v -57.226166 94.624321 1.450409
v -56.480530 94.306648 1.859009
v -62.902924 97.834358 7.080475
v -56.813446 95.240028 10.417267
v -64.459778 96.207947 16.890381
v -59.858124 96.537186 8.748871
v -56.853333 94.465485 1.654663
v -56.184143 93.867256 -0.031616
v -59.998474 96.010887 13.939636
v -61.974670 96.852821 12.856689
v -63.950897 97.694756 11.773834
v -57.085999 94.989639 1.478577
v -56.436920 94.399971 -0.218719
v -56.713135 94.830803 1.682861
v -56.043945 94.232567 -0.003418
v -62.762695 98.199677 7.108643
v -59.717957 96.902504 8.777039
v -61.834473 97.218132 12.884888
v -63.810669 98.060066 11.802002
v -64.319580 96.573265 16.918640
v -59.858276 96.376198 13.967834
v -56.340302 94.671967 1.887177
v -56.673279 95.605347 10.445496
v -55.651062 94.065170 0.211914
v -61.365814 97.111198 3.789886
v -61.225616 97.476517 3.818085
v -58.209259 96.191429 5.470978
v -55.192871 94.906334 7.123901
v -55.333038 94.541016 7.095673
v -58.349426 95.826111 5.442749
v -56.595428 94.043549 0.211334
v -55.842224 93.721748 -0.282776
v -56.479492 94.661682 -1.819031
v -57.194214 94.967026 -1.350220
v -56.745880 97.066414 -10.087860
v -62.582672 99.560005 -6.259003
v -64.291656 99.769135 -16.175690
v -59.664246 98.313210 -8.173466
v -56.836884 94.814354 -1.584686
v -56.218811 93.882652 -0.035706
v -63.647156 100.312576 -10.890015
v -61.752960 99.503334 -12.132538
v -59.858765 98.694099 -13.375183
v -56.308319 95.013245 -1.787140
v -55.671051 94.073311 -0.250824
v -56.665710 95.165916 -1.552734
v -56.047699 94.234207 -0.003754
v -56.574707 97.417969 -10.055908
v -59.493134 98.664772 -8.141514
v -61.581787 99.854889 -12.100651
v -59.687622 99.045647 -13.343204
v -64.120483 100.120689 -16.143738
v -63.476044 100.664124 -10.858002
v -57.023071 95.318581 -1.318298
v -62.411499 99.911560 -6.227051
v -56.424316 94.395103 0.243286
v -55.325470 95.688011 -6.958099
v -55.154297 96.039566 -6.926147
v -58.045532 97.274757 -5.029541
v -60.936798 98.509949 -3.132904
v -61.107910 98.158386 -3.164856
v -58.216705 96.923195 -5.061493
v -15.617706 51.885201 -2.323212
v -14.878632 50.592552 -2.139863
v -14.381592 50.502293 -5.093231
v -15.082855 51.728832 -5.267182
v -10.357758 45.213741 -16.858185
v -16.084686 55.230434 -18.279114
v -15.498230 46.917702 -31.685551
v -13.221222 50.222092 -17.568636
v -14.732239 51.115562 -5.180207
v -15.248138 51.238876 -2.231539
v -15.514771 52.211155 -25.170410
v -13.656219 48.960457 -24.709261
v -11.797699 45.709766 -24.248169
v -13.846466 50.799389 -5.155762
v -14.343475 50.889648 -2.202363
v -14.197083 51.412655 -5.242737
v -14.713013 51.535965 -2.294007
v -9.822632 45.510826 -16.920715
v -12.686096 50.519184 -17.631136
v -13.121094 49.257549 -24.771793
v -11.262543 46.006855 -24.310669
v -14.963104 47.214790 -31.748049
v -14.979614 52.508240 -25.232941
v -14.547729 52.025921 -5.329713
v -15.549530 55.527519 -18.341644
v -15.082550 52.182285 -2.385773
v -10.711639 45.890945 -11.100922
v -10.176514 46.188038 -11.163423
v -13.013275 51.149750 -11.867279
v -15.850098 56.111492 -12.571107
v -16.385223 55.814396 -12.508575
v -13.548431 50.852661 -11.804779
v -22.260956 65.918594 -2.003632
v -21.561584 64.678154 -2.158447
v -21.470734 65.124191 -4.982758
v -22.134308 66.301201 -4.835907
v -19.263641 62.291050 -17.373810
v -24.683044 71.903275 -16.174133
v -25.992004 66.505188 -30.184784
v -21.973328 67.097160 -16.773926
v -21.802521 65.712692 -4.909334
v -21.911285 65.298378 -2.081024
v -25.079376 70.306061 -23.187744
v -23.320648 67.186615 -23.577028
v -21.561890 64.067169 -23.966370
v -20.967133 65.417389 -5.057037
v -21.058044 64.971352 -2.232727
v -21.298889 66.005890 -4.983583
v -21.407684 65.591568 -2.155306
v -18.760071 62.584240 -17.448090
v -21.469757 67.390350 -16.848236
v -22.817047 67.479805 -23.651308
v -21.058319 64.360367 -24.040649
v -25.488434 66.798378 -30.259096
v -24.575806 70.599251 -23.261963
v -21.630707 66.594398 -4.910126
v -24.179443 72.196465 -16.248413
v -21.757355 66.211792 -2.077911
v -18.850006 61.895519 -11.858276
v -18.346405 62.188717 -11.932556
v -21.030884 66.950111 -11.338320
v -23.715363 71.711464 -10.744049
v -24.218964 71.418266 -10.669769
v -21.534485 66.656914 -11.264038
v -38.055389 83.327293 1.823822
v -39.321350 83.750282 1.794495
v -39.211151 84.154648 4.427704
v -38.009949 83.753288 4.455505
v -43.402222 86.699165 15.407104
v -33.592285 83.421417 15.634033
v -39.669006 82.435493 28.260681
v -38.497253 85.060295 15.520569
v -38.610596 83.953972 4.441589
v -38.688385 83.538788 1.809113
v -35.673157 83.365341 22.017761
v -38.856750 84.429062 21.944092
v -42.040344 85.492783 21.870422
v -39.039001 84.672798 4.468384
v -39.149170 84.268433 1.835144
v -38.438385 84.472122 4.482330
v -38.516174 84.056946 1.849854
v -43.230042 87.217323 15.447754
v -38.325073 85.578445 15.561218
v -38.684570 84.947205 21.984802
v -41.868164 86.010925 21.911133
v -39.496826 82.953644 28.301331
v -35.500977 83.883484 22.058411
v -37.837799 84.271439 4.496185
v -33.420105 83.939568 15.674744
v -37.883209 83.845451 1.864471
v -43.286987 86.534340 10.242615
v -43.114807 87.052490 10.283325
v -38.255493 85.428879 10.395752
v -33.396210 83.805260 10.508148
v -33.568420 83.287109 10.467468
v -38.427673 84.910721 10.355042
v -49.142761 90.145889 -1.758240
v -48.018555 89.643547 -1.758240
v -47.698608 90.436745 -4.063904
v -48.765320 90.913399 -4.063904
v -42.658081 91.454910 -13.889587
v -51.369507 95.347557 -13.889587
v -47.128906 93.143532 -25.931824
v -47.013794 93.401237 -13.889587
v -48.231934 90.675072 -4.063904
v -48.580627 89.894722 -1.758240
v -49.629700 95.137184 -19.829285
v -46.802551 93.873909 -19.829285
v -43.975464 92.610634 -19.829285
v -47.494141 90.894310 -4.001892
v -47.814056 90.101112 -1.696259
v -48.027466 91.132637 -4.001892
v -48.376190 90.352287 -1.696259
v -42.453583 91.912468 -13.827667
v -46.809296 93.858803 -13.827667
v -46.598083 94.331467 -19.767277
v -43.770996 93.068192 -19.767273
v -46.924469 93.601097 -25.869904
v -49.425232 95.594742 -19.767273
v -48.560852 91.370964 -4.001892
v -51.165070 95.805115 -13.827667
v -48.938263 90.603455 -1.696259
v -43.124084 90.520821 -9.238586
v -42.919678 90.978386 -9.176636
v -47.234802 92.906593 -9.176636
v -51.549988 94.834801 -9.176636
v -51.754456 94.377235 -9.238586
v -47.439270 92.449028 -9.238586
v -30.281128 76.070381 -2.014223
v -29.223450 75.292885 -2.014221
v -28.893494 75.798378 -4.565432
v -29.897095 76.536125 -4.565432
v -24.187408 74.664673 -15.351959
v -32.383392 80.689537 -15.351959
v -29.395294 76.167252 -28.056093
v -28.285370 77.677101 -15.351959
v -29.395264 76.167252 -4.565432
v -29.752258 75.681633 -2.014221
v -31.080994 79.447655 -21.704010
v -28.421173 77.492409 -21.704010
v -25.761353 75.537170 -21.704012
v -28.574646 76.232147 -4.565430
v -28.904541 75.726646 -2.014221
v -29.076416 76.601013 -4.565430
v -29.433411 76.115395 -2.014223
v -23.868561 75.098434 -15.351959
v -27.966522 78.110863 -15.351961
v -28.102295 77.926163 -21.704010
v -25.442474 75.970924 -21.704010
v -29.076416 76.601013 -28.056091
v -30.762146 79.881416 -21.704012
v -29.578247 76.969887 -4.565430
v -32.064545 81.123299 -15.351959
v -29.962219 76.504150 -2.014221
v -24.518799 74.293808 -10.294617
v -24.199890 74.727577 -10.294617
v -28.259766 77.711983 -10.294617
v -32.319580 80.696358 -10.294617
v -32.638428 80.262596 -10.294617
v -28.578613 77.278214 -10.294619
v -14.490082 50.568497 2.224639
v -15.643951 51.517918 2.090789
v -15.781189 51.711594 5.077636
v -14.686310 50.810730 5.204619
v -20.877014 55.270214 17.075256
v -11.935547 47.913082 18.112488
v -20.617493 48.403946 31.286743
v -16.406311 51.591660 17.593872
v -15.233765 51.261162 5.141173
v -15.066986 51.043205 2.157744
v -15.119385 48.230553 24.945740
v -18.021057 50.618122 24.609192
v -20.922791 53.005688 24.272583
v -15.407837 52.183460 5.206115
v -15.270569 51.989777 2.219237
v -14.860382 51.733025 5.269561
v -14.693634 51.515068 2.286162
v -20.503662 55.742081 17.203735
v -16.032959 52.063519 17.722351
v -17.647705 51.089985 24.737610
v -20.549438 53.477554 24.401001
v -20.244141 48.875809 31.415222
v -14.746033 48.702415 25.074219
v -14.312958 51.282593 5.333098
v -11.562195 48.384941 18.240906
v -14.116699 51.040356 2.353087
v -20.019623 55.417168 11.332976
v -19.646271 55.889034 11.461455
v -15.217194 52.244736 11.975249
v -10.788147 48.600449 12.489013
v -11.161438 48.128590 12.360534
v -15.590546 51.772869 11.846770
v -53.470703 94.391846 -0.900757
v -53.470703 94.391846 0.900757
v 0.007904 6.767654 -2.080720
v 0.007904 6.767654 2.080718
v -20.128204 66.431274 -1.623199
v -20.128204 66.431274 1.623199
v -37.583954 85.279785 1.391022
v -37.584015 85.279785 -1.391083
v -7.533478 35.320740 1.822082
v -7.533478 35.320740 -1.822053
v -22.566803 64.822021 -1.623199
v -10.360809 34.360474 -1.822053
v -22.566803 64.822021 1.623199
v -10.360840 34.360474 1.822082
v -3.098572 5.948761 2.080718
v -3.098572 5.948761 -2.080720
v -54.603943 92.484741 -0.900757
v -39.407318 82.957886 -1.391083
v -54.603943 92.484741 0.900757
v -39.407318 82.957886 1.391022
v 1.884521 1.431633 -0.000001
v -2.440155 16.674713 -1.913209
v -47.550842 91.667480 -1.266663
v -55.286255 95.804443 0.000000
v -47.550842 91.667480 1.266663
v -37.280090 85.666748 0.000000
v -28.330872 77.163696 1.510681
v -28.330872 77.163696 -1.510681
v -8.947144 34.840637 -2.429444
v -21.347504 65.626587 -2.164276
v -21.347504 65.626587 2.164276
v -8.947144 34.840637 2.429381
v -0.217865 0.896507 2.843139
v -0.217865 0.896507 -2.843141
v -38.495636 84.118896 -1.854767
v -56.027222 94.499268 -1.182190
v -56.027222 94.499268 1.182190
v -38.495636 84.118896 1.854767
v -10.832062 34.200439 -0.000001
v -15.985474 50.948002 1.726195
v -22.973267 64.553711 0.000000
v -15.985474 50.948002 -1.726196
v -5.338104 15.871124 -1.913209
v -2.320251 0.361374 -0.000001
v -5.338104 15.871124 1.913207
v -39.711182 82.570923 0.000000
v -49.152588 89.146484 1.266663
v -56.768250 93.194092 0.000000
v -49.152588 89.146484 -1.266663
v -30.459717 75.170898 -1.510681
v -30.459717 75.170898 1.510681
v -13.312622 52.194946 -1.726197
v -19.721802 66.699463 0.000000
v -13.312622 52.194946 1.726195
v -7.062256 35.480835 -0.000001
v -2.440155 16.674713 1.913207
v -16.430969 50.740170 0.000000
v -5.821075 15.737182 -0.000001
v -49.419556 88.726318 0.000000
v -30.814514 74.838745 0.000000
v -12.867126 52.402771 -0.000001
v -1.957184 16.808624 -0.000001
v -47.283936 92.087646 0.000000
v -27.976074 77.495850 -0.000002
v -14.649017 51.571468 -2.301605
v -14.649017 51.571468 2.301604
v -3.889130 16.272919 2.550933
v 0.000000 -0.000002 -0.000001
v -3.889130 16.272919 -2.550874
v -48.351746 90.406982 -1.688904
v -58.585693 95.863403 0.000000
v -48.351746 90.406982 1.688904
v -29.395294 76.167236 2.014252
v -29.395294 76.167236 -2.014313
v -48.017975 89.644836 1.609039
v -49.142181 90.147171 1.609039
v -49.022888 90.336899 4.057983
v -47.956177 89.860245 4.057983
v -52.718079 92.329651 14.322693
v -44.006531 88.436951 14.322693
v -49.758484 87.258736 25.871826
v -48.362305 90.383301 14.322693
v -48.489563 90.098572 4.057983
v -48.580048 89.896004 1.609039
v -45.965210 88.157776 20.190979
v -48.792297 89.421051 20.190979
v -51.619446 90.684334 20.190979
v -48.818970 90.793327 4.129272
v -48.938202 90.603600 1.680328
v -48.285583 90.555000 4.129272
v -48.376129 90.352432 1.680328
v -52.514160 92.786079 14.393982
v -48.158386 90.839729 14.393982
v -48.588318 89.877472 20.262207
v -51.415466 91.140755 20.262207
v -49.554565 87.715164 25.943115
v -45.761230 88.614204 20.262207
v -47.752258 90.316673 4.129272
v -43.802612 88.893387 14.393982
v -47.813995 90.101265 1.680328
v -52.591858 92.503189 9.560791
v -52.387909 92.959618 9.632050
v -48.072723 91.031403 9.632050
v -43.757538 89.103203 9.632050
v -43.961487 88.646774 9.560791
v -48.276672 90.574974 9.560791
v -21.399872 64.655815 2.180145
v -22.305573 65.762703 2.259552
v -21.497284 66.182220 4.971466
v -20.637909 65.131927 4.896148
v -21.822449 71.372154 16.778015
v -14.804199 62.794746 16.162964
v -18.490112 65.937416 30.434998
v -18.313293 67.083450 16.470520
v -21.067566 65.657074 4.933838
v -21.852692 65.209259 2.219877
v -15.530884 64.216934 23.187805
v -17.808472 67.000519 23.387390
v -20.086060 69.784111 23.586975
v -21.045990 66.555016 4.921783
v -21.854340 66.135506 2.209808
v -20.616333 66.029869 4.884154
v -21.401459 65.582054 2.170134
v -21.371155 71.744949 16.728333
v -17.862000 67.456245 16.420776
v -17.357178 67.373314 23.337708
v -19.634827 70.156906 23.537292
v -18.038879 66.310211 30.385254
v -15.079590 64.589729 23.138062
v -20.186615 65.504723 4.846465
v -14.352905 63.167538 16.113281
v -20.948639 65.028610 2.130463
v -22.759613 70.928986 11.330657
v -22.308319 71.301788 11.280974
v -18.831909 67.053062 10.976256
v -15.355469 62.804298 10.671630
v -15.806763 62.431503 10.721313
v -19.283203 66.680267 11.025939
v -39.390625 84.002205 -1.773132
v -38.295410 83.238770 -1.773132
v -38.173462 83.473396 -4.426331
v -39.212708 84.197792 -4.426331
v -34.204315 81.229485 -15.552704
v -42.691376 87.145340 -15.552704
v -40.511292 81.227158 -28.104675
v -38.447845 84.187416 -15.552704
v -38.693054 83.835594 -4.426331
v -38.843018 83.620491 -1.773132
v -41.825928 85.212395 -21.924438
v -39.071594 83.292526 -21.924438
v -36.317322 81.372643 -21.924438
v -37.863159 83.918571 -4.499207
v -37.985077 83.683952 -1.845978
v -38.382751 84.280769 -4.499207
v -38.532684 84.065666 -1.845978
v -33.894012 81.674660 -15.625580
v -38.137543 84.632599 -15.625580
v -38.761322 83.737694 -21.997345
v -36.006989 81.817818 -21.997345
v -40.200989 81.672333 -28.177555
v -41.515656 85.657570 -21.997345
v -38.902405 84.642975 -4.499207
v -42.381073 87.590523 -15.625580
v -39.080353 84.447388 -1.845978
v -34.137726 81.409195 -10.387909
v -33.827393 81.854378 -10.460815
v -38.031433 84.784790 -10.460815
v -42.235535 87.715202 -10.460815
v -42.545807 87.270020 -10.387909
v -38.341766 84.339615 -10.387909
v -29.389343 75.276176 2.014221
v -30.283630 76.237091 2.014221
v -29.819580 76.623138 4.565430
v -28.971008 75.711365 4.565430
v -31.488708 81.167038 15.351929
v -24.558472 73.720810 15.351928
v -29.395264 76.167252 28.056091
v -28.023560 77.443924 15.351928
v -29.395264 76.167252 4.565428
v -29.836487 75.756630 2.014221
v -25.942322 74.871262 21.703979
v -28.191345 77.287750 21.703979
v -30.440430 79.704247 21.703979
v -29.425537 76.989914 4.565428
v -29.889587 76.603867 2.014219
v -29.001221 76.534027 4.565428
v -29.442383 76.123405 2.014219
v -31.094604 81.533813 15.351928
v -27.629456 77.810699 15.351928
v -27.797302 77.654518 21.703979
v -30.046326 80.071022 21.703979
v -29.001221 76.534027 28.056091
v -25.548279 75.238037 21.703979
v -28.576904 76.078140 4.565430
v -24.164368 74.087585 15.351928
v -28.995239 75.642944 2.014221
v -31.818817 80.795052 10.294586
v -31.424713 81.161827 10.294586
v -27.991852 77.473412 10.294584
v -24.559052 73.784973 10.294585
v -24.953094 73.418198 10.294585
v -28.385956 77.106636 10.294584
vt 1.000000 0.000000
vt 1.000000 1.000000
vt 0.902033 1.000000
vt 0.902033 0.000000
vt 0.487834 1.000000
vt 0.487834 0.000000
vt 0.000000 0.500000
vt 0.487834 0.500000
vt 0.902033 0.500000
vt 1.000000 0.500000
vt 0.243917 0.000000
vt 0.243917 0.500000
vt 0.243917 1.000000
vt 1.000000 1.000000
vt 0.902033 1.000000
vt 0.902033 0.500000
vt 1.000000 0.500000
vt 0.487834 1.000000
vt 0.487834 0.500000
vt 0.243917 0.500000
vt 0.243917 1.000000
vt 0.000000 0.500000
vt 0.243917 0.000000
vt 0.902033 0.000000
vt 0.487834 0.000000
vt 1.000000 0.000000
vt 1.000000 1.000000
vt 0.902033 1.000000
vt 1.000000 0.500000
vt 0.487834 1.000000
vt 0.243917 1.000000
vt 0.000000 0.500000
vt 0.243917 0.000000
vt 0.487834 0.000000
vt 0.902033 0.000000
vt 1.000000 0.000000
vt 0.682035 1.000000
vt 0.682035 1.000000
vt 0.682035 1.000000
vt 0.682035 0.500000
vt 0.682035 0.000000
vt 0.682035 0.000000
vt 0.682035 0.000000
vt 0.682035 0.500000
vt 1.000000 1.000000
vt 0.902033 1.000000
vt 0.902033 0.500000
vt 1.000000 0.500000
vt 0.682035 1.000000
vt 0.682035 0.500000
vt 0.243917 0.500000
vt 0.243917 1.000000
vt 0.000000 0.500000
vt 0.243917 0.000000
vt 0.902033 0.000000
vt 0.682035 0.000000
vt 1.000000 0.000000
vt 0.487834 0.000000
vt 0.487834 0.500000
vt 0.487834 1.000000
vt 1.000000 1.000000
vt 1.000000 0.500000
vt 0.902033 0.500000
vt 0.902033 1.000000
vt 0.682035 0.500000
vt 0.682035 1.000000
vt 0.243917 0.500000
vt 0.000000 0.500000
vt 0.243917 1.000000
vt 0.243917 0.000000
vt 0.902033 0.000000
vt 0.682035 0.000000
vt 1.000000 0.000000
vt 0.487834 0.000000
vt 0.487834 0.500000
vt 0.487834 1.000000
vt 1.000000 1.000000
vt 0.902033 1.000000
vt 1.000000 0.500000
vt 0.682035 1.000000
vt 0.243917 1.000000
vt 0.000000 0.500000
vt 0.243917 0.000000
vt 0.682035 0.000000
vt 0.902033 0.000000
vt 1.000000 0.000000
vt 0.487834 0.000000
vt 0.487834 1.000000
vt 1.000000 1.000000
vt 0.902033 1.000000
vt 0.902033 0.500000
vt 1.000000 0.500000
vt 0.682035 1.000000
vt 0.682035 0.500000
vt 0.243917 0.500000
vt 0.243917 1.000000
vt 0.000000 0.500000
vt 0.243917 0.000000
vt 0.902033 0.000000
vt 0.682035 0.000000
vt 1.000000 0.000000
vt 0.487834 0.000000
vt 0.487834 0.500000
vt 0.487834 1.000000
vt 1.000000 1.000000
vt 1.000000 0.500000
vt 0.902033 0.500000
vt 0.902033 1.000000
vt 0.682035 0.500000
vt 0.682035 1.000000
vt 0.243917 0.500000
vt 0.000000 0.500000
vt 0.243917 1.000000
vt 0.243917 0.000000
vt 0.902033 0.000000
vt 0.682035 0.000000
vt 1.000000 0.000000
vt 0.487834 0.000000
vt 0.487834 0.500000
vt 0.487834 1.000000
vt 1.000000 1.000000
vt 0.902033 1.000000
vt 1.000000 0.500000
vt 0.682035 1.000000
vt 0.243917 1.000000
vt 0.000000 0.500000
vt 0.243917 0.000000
vt 0.682035 0.000000
vt 0.902033 0.000000
vt 1.000000 0.000000
vt 0.487834 0.000000
vt 0.487834 1.000000
vt 1.000000 1.000000
vt 0.902033 1.000000
vt 0.902033 0.500000
vt 1.000000 0.500000
vt 0.682035 1.000000
vt 0.682035 0.500000
vt 0.243917 0.500000
vt 0.243917 1.000000
vt 0.000000 0.500000
vt 0.243917 0.000000
vt 0.902033 0.000000
vt 0.682035 0.000000
vt 1.000000 0.000000
vt 0.487834 0.000000
vt 0.487834 0.500000
vt 0.487834 1.000000
vt 1.000000 1.000000
vt 1.000000 0.500000
vt 0.902033 0.500000
vt 0.902033 1.000000
vt 0.682035 0.500000
vt 0.682035 1.000000
vt 0.243917 0.500000
vt 0.000000 0.500000
vt 0.243917 1.000000
vt 0.243917 0.000000
vt 0.902033 0.000000
vt 0.682035 0.000000
vt 1.000000 0.000000
vt 0.487834 0.000000
vt 0.487834 0.500000
vt 0.487834 1.000000
vt 1.000000 1.000000
vt 0.902033 1.000000
vt 1.000000 0.500000
vt 0.682035 1.000000
vt 0.243917 1.000000
vt 0.000000 0.500000
vt 0.243917 0.000000
vt 0.682035 0.000000
vt 0.902033 0.000000
vt 1.000000 0.000000
vt 0.487834 0.000000
vt 0.487834 1.000000
vt 1.000000 1.000000
vt 0.902033 1.000000
vt 0.902033 0.500000
vt 1.000000 0.500000
vt 0.682035 1.000000
vt 0.682035 0.500000
vt 0.243917 0.500000
vt 0.243917 1.000000
vt 0.000000 0.500000
vt 0.243917 0.000000
vt 0.902033 0.000000
vt 0.682035 0.000000
vt 1.000000 0.000000
vt 0.487834 0.000000
vt 0.487834 0.500000
vt 0.487834 1.000000
vt 1.000000 1.000000
vt 1.000000 0.500000
vt 0.902033 0.500000
vt 0.902033 1.000000
vt 0.682035 0.500000
vt 0.682035 1.000000
vt 0.243917 0.500000
vt 0.000000 0.500000
vt 0.243917 1.000000
vt 0.243917 0.000000
vt 0.902033 0.000000
vt 0.682035 0.000000
vt 1.000000 0.000000
vt 0.487834 0.000000
vt 0.487834 0.500000
vt 0.487834 1.000000
vt 1.000000 1.000000
vt 0.902033 1.000000
vt 1.000000 0.500000
vt 0.682035 1.000000
vt 0.243917 1.000000
vt 0.000000 0.500000
vt 0.243917 0.000000
vt 0.682035 0.000000
vt 0.902033 0.000000
vt 1.000000 0.000000
vt 0.487834 0.000000
vt 0.487834 1.000000
vt 1.000000 1.000000
vt 0.902033 1.000000
vt 0.902033 0.500000
vt 1.000000 0.500000
vt 0.682035 1.000000
vt 0.682035 0.500000
vt 0.243917 0.500000
vt 0.243917 1.000000
vt 0.000000 0.500000
vt 0.243917 0.000000
vt 0.902033 0.000000
vt 0.682035 0.000000
vt 1.000000 0.000000
vt 0.487834 0.000000
vt 0.487834 0.500000
vt 0.487834 1.000000
vt 1.000000 1.000000
vt 1.000000 0.500000
vt 0.902033 0.500000
vt 0.902033 1.000000
vt 0.682035 0.500000
vt 0.682035 1.000000
vt 0.243917 0.500000
vt 0.000000 0.500000
vt 0.243917 1.000000
vt 0.243917 0.000000
vt 0.902033 0.000000
vt 0.682035 0.000000
vt 1.000000 0.000000
vt 0.487834 0.000000
vt 0.487834 0.500000
vt 0.487834 1.000000
vt 1.000000 1.000000
vt 0.902033 1.000000
vt 1.000000 0.500000
vt 0.682035 1.000000
vt 0.243917 1.000000
vt 0.000000 0.500000
vt 0.243917 0.000000
vt 0.682035 0.000000
vt 0.902033 0.000000
vt 1.000000 0.000000
vt 0.487834 0.000000
vt 0.487834 1.000000
vt 1.000000 1.000000
vt 0.902033 1.000000
vt 0.902033 0.500000
vt 1.000000 0.500000
vt 0.682035 1.000000
vt 0.682035 0.500000
vt 0.243917 0.500000
vt 0.243917 1.000000
vt 0.000000 0.500000
vt 0.243917 0.000000
vt 0.902033 0.000000
vt 0.682035 0.000000
vt 1.000000 0.000000
vt 0.487834 0.000000
vt 0.487834 0.500000
vt 0.487834 1.000000
vt 1.000000 1.000000
vt 1.000000 0.500000
vt 0.902033 0.500000
vt 0.902033 1.000000
vt 0.682035 0.500000
vt 0.682035 1.000000
vt 0.243917 0.500000
vt 0.000000 0.500000
vt 0.243917 1.000000
vt 0.243917 0.000000
vt 0.902033 0.000000
vt 0.682035 0.000000
vt 1.000000 0.000000
vt 0.487834 0.000000
vt 0.487834 0.500000
vt 0.487834 1.000000
vt 1.000000 1.000000
vt 0.902033 1.000000
vt 1.000000 0.500000
vt 0.682035 1.000000
vt 0.243917 1.000000
vt 0.000000 0.500000
vt 0.243917 0.000000
vt 0.682035 0.000000
vt 0.902033 0.000000
vt 1.000000 0.000000
vt 0.487834 0.000000
vt 0.487834 1.000000
vt 1.000000 1.000000
vt 0.902033 1.000000
vt 0.902033 0.500000
vt 1.000000 0.500000
vt 0.682035 1.000000
vt 0.682035 0.500000
vt 0.243917 0.500000
vt 0.243917 1.000000
vt 0.000000 0.500000
vt 0.243917 0.000000
vt 0.902033 0.000000
vt 0.682035 0.000000
vt 1.000000 0.000000
vt 0.487834 0.000000
vt 0.487834 0.500000
vt 0.487834 1.000000
vt 1.000000 1.000000
vt 1.000000 0.500000
vt 0.902033 0.500000
vt 0.902033 1.000000
vt 0.682035 0.500000
vt 0.682035 1.000000
vt 0.243917 0.500000
vt 0.000000 0.500000
vt 0.243917 1.000000
vt 0.243917 0.000000
vt 0.902033 0.000000
vt 0.682035 0.000000
vt 1.000000 0.000000
vt 0.487834 0.000000
vt 0.487834 0.500000
vt 0.487834 1.000000
vt 1.000000 1.000000
vt 0.902033 1.000000
vt 1.000000 0.500000
vt 0.682035 1.000000
vt 0.243917 1.000000
vt 0.000000 0.500000
vt 0.243917 0.000000
vt 0.682035 0.000000
vt 0.902033 0.000000
vt 1.000000 0.000000
vt 0.487834 0.000000
vt 0.487834 1.000000
vt 0.125000 0.794080
vt 0.500000 0.794080
vt 0.500000 0.691121
vt 0.125000 0.691121
vt 0.875000 0.794080
vt 0.875000 0.691121
vt 0.875000 0.577141
vt 0.500000 0.577141
vt 0.125000 0.577141
vt 0.125000 0.897040
vt 0.500000 0.897040
vt 0.222222 0.954240
vt 0.500000 0.974260
vt 0.777778 0.954240
vt 0.875000 0.897040
vt 0.125000 0.294080
vt 0.500000 0.294080
vt 0.500000 0.147040
vt 0.125000 0.147040
vt 0.875000 0.294080
vt 0.875000 0.147040
vt 0.777778 0.065351
vt 0.500000 0.036760
vt 0.222222 0.065351
vt 0.125000 0.441121
vt 0.500000 0.441121
vt 0.875000 0.441121
vt 0.000000 0.794080
vt 0.000000 0.691121
vt 0.500000 0.691121
vt 0.500000 0.794080
vt 0.000000 0.588161
vt 0.500000 0.577141
vt 1.000000 0.588161
vt 1.000000 0.691121
vt 1.000000 0.794080
vt 0.500000 0.897040
vt 0.000000 0.897040
vt 1.000000 0.897040
vt 1.000000 1.000000
vt 0.500000 1.000000
vt 0.000000 1.000000
vt 0.000000 0.294080
vt 0.000000 0.147040
vt 0.500000 0.147040
vt 0.500000 0.294080
vt 0.000000 0.000000
vt 0.500000 0.000000
vt 1.000000 0.000000
vt 1.000000 0.147040
vt 1.000000 0.294080
vt 0.500000 0.441121
vt 0.000000 0.441121
vt 1.000000 0.441121
vt 0.000000 0.794080
vt 0.000000 0.794080
vt 0.000000 0.691121
vt 0.000000 0.691121
vt 0.000000 0.577141
vt 0.000000 0.588161
vt 1.000000 0.588161
vt 1.000000 0.577141
vt 1.000000 0.691121
vt 1.000000 0.691121
vt 1.000000 0.794080
vt 1.000000 0.794080
vt 1.000000 0.897040
vt 1.000000 0.897040
vt 0.875000 0.974260
vt 1.000000 1.000000
vt 0.500000 1.000000
vt 0.500000 1.000000
vt 0.125000 0.974260
vt 0.000000 1.000000
vt 0.000000 0.897040
vt 0.000000 0.897040
vt 0.000000 0.294080
vt 0.000000 0.294080
vt 0.000000 0.147040
vt 0.000000 0.147040
vt 0.125000 0.036760
vt 0.000000 0.000000
vt 0.500000 0.000000
vt 0.500000 0.000000
vt 0.875000 0.036760
vt 1.000000 0.000000
vt 1.000000 0.147040
vt 1.000000 0.147040
vt 1.000000 0.294080
vt 1.000000 0.294080
vt 1.000000 0.441121
vt 1.000000 0.441121
vt 0.000000 0.441121
vt 0.000000 0.441121
vt 1.000000 1.000000
vt 0.902033 1.000000
vt 0.902033 0.500000
vt 1.000000 0.500000
vt 0.682035 1.000000
vt 0.682035 0.500000
vt 0.243917 0.500000
vt 0.243917 1.000000
vt 0.000000 0.500000
vt 0.243917 0.000000
vt 0.902033 0.000000
vt 0.682035 0.000000
vt 1.000000 0.000000
vt 0.487834 0.000000
vt 0.487834 0.500000
vt 0.487834 1.000000
vt 1.000000 1.000000
vt 1.000000 0.500000
vt 0.902033 0.500000
vt 0.902033 1.000000
vt 0.682035 0.500000
vt 0.682035 1.000000
vt 0.243917 0.500000
vt 0.000000 0.500000
vt 0.243917 1.000000
vt 0.243917 0.000000
vt 0.902033 0.000000
vt 0.682035 0.000000
vt 1.000000 0.000000
vt 0.487834 0.000000
vt 0.487834 0.500000
vt 0.487834 1.000000
vt 1.000000 1.000000
vt 0.902033 1.000000
vt 1.000000 0.500000
vt 0.682035 1.000000
vt 0.243917 1.000000
vt 0.000000 0.500000
vt 0.243917 0.000000
vt 0.682035 0.000000
vt 0.902033 0.000000
vt 1.000000 0.000000
vt 0.487834 0.000000
vt 0.487834 1.000000
vt 1.000000 1.000000
vt 0.902033 1.000000
vt 0.902033 0.500000
vt 1.000000 0.500000
vt 0.682035 1.000000
vt 0.682035 0.500000
vt 0.243917 0.500000
vt 0.243917 1.000000
vt 0.000000 0.500000
vt 0.243917 0.000000
vt 0.902033 0.000000
vt 0.682035 0.000000
vt 1.000000 0.000000
vt 0.487834 0.000000
vt 0.487834 0.500000
vt 0.487834 1.000000
vt 1.000000 1.000000
vt 1.000000 0.500000
vt 0.902033 0.500000
vt 0.902033 1.000000
vt 0.682035 0.500000
vt 0.682035 1.000000
vt 0.243917 0.500000
vt 0.000000 0.500000
vt 0.243917 1.000000
vt 0.243917 0.000000
vt 0.902033 0.000000
vt 0.682035 0.000000
vt 1.000000 0.000000
vt 0.487834 0.000000
vt 0.487834 0.500000
vt 0.487834 1.000000
vt 1.000000 1.000000
vt 0.902033 1.000000
vt 1.000000 0.500000
vt 0.682035 1.000000
vt 0.243917 1.000000
vt 0.000000 0.500000
vt 0.243917 0.000000
vt 0.682035 0.000000
vt 0.902033 0.000000
vt 1.000000 0.000000
vt 0.487834 0.000000
vt 0.487834 1.000000
vt 1.000000 1.000000
vt 0.902033 1.000000
vt 0.902033 0.500000
vt 1.000000 0.500000
vt 0.682035 1.000000
vt 0.682035 0.500000
vt 0.243917 0.500000
vt 0.243917 1.000000
vt 0.000000 0.500000
vt 0.243917 0.000000
vt 0.902033 0.000000
vt 0.682035 0.000000
vt 1.000000 0.000000
vt 0.487834 0.000000
vt 0.487834 0.500000
vt 0.487834 1.000000
vt 1.000000 1.000000
vt 1.000000 0.500000
vt 0.902033 0.500000
vt 0.902033 1.000000
vt 0.682035 0.500000
vt 0.682035 1.000000
vt 0.243917 0.500000
vt 0.000000 0.500000
vt 0.243917 1.000000
vt 0.243917 0.000000
vt 0.902033 0.000000
vt 0.682035 0.000000
vt 1.000000 0.000000
vt 0.487834 0.000000
vt 0.487834 0.500000
vt 0.487834 1.000000
vt 1.000000 1.000000
vt 0.902033 1.000000
vt 1.000000 0.500000
vt 0.682035 1.000000
vt 0.243917 1.000000
vt 0.000000 0.500000
vt 0.243917 0.000000
vt 0.682035 0.000000
vt 0.902033 0.000000
vt 1.000000 0.000000
vt 0.487834 0.000000
vt 0.487834 1.000000
vt 1.000000 1.000000
vt 0.902033 1.000000
vt 0.902033 0.500000
vt 1.000000 0.500000
vt 0.682035 1.000000
vt 0.682035 0.500000
vt 0.243917 0.500000
vt 0.243917 1.000000
vt 0.000000 0.500000
vt 0.243917 0.000000
vt 0.902033 0.000000
vt 0.682035 0.000000
vt 1.000000 0.000000
vt 0.487834 0.000000
vt 0.487834 0.500000
vt 0.487834 1.000000
vt 1.000000 1.000000
vt 1.000000 0.500000
vt 0.902033 0.500000
vt 0.902033 1.000000
vt 0.682035 0.500000
vt 0.682035 1.000000
vt 0.243917 0.500000
vt 0.000000 0.500000
vt 0.243917 1.000000
vt 0.243917 0.000000
vt 0.902033 0.000000
vt 0.682035 0.000000
vt 1.000000 0.000000
vt 0.487834 0.000000
vt 0.487834 0.500000
vt 0.487834 1.000000
vt 1.000000 1.000000
vt 0.902033 1.000000
vt 1.000000 0.500000
vt 0.682035 1.000000
vt 0.243917 1.000000
vt 0.000000 0.500000
vt 0.243917 0.000000
vt 0.682035 0.000000
vt 0.902033 0.000000
vt 1.000000 0.000000
vt 0.487834 0.000000
vt 0.487834 1.000000
vn 0.449884 0.882875 -0.134673
vn 0.451283 0.881628 -0.138118
vn 0.451250 0.881659 -0.138024
vn 0.449910 0.882862 -0.134666
vn 0.414181 0.908863 -0.049220
vn 0.420522 0.905039 -0.063764
vn 0.311806 0.936705 0.159251
vn 0.321418 0.936319 0.141413
vn 0.234544 0.926995 0.292694
vn 0.321416 0.936320 0.141411
vn 0.451288 0.881626 -0.138109
vn 0.414182 0.908863 -0.049217
vn 0.449937 0.882850 -0.134659
vn 0.372991 0.926971 0.040028
vn 0.370311 0.927790 0.045557
vn 0.372991 0.926971 0.040029
vn -0.449911 -0.882863 0.134660
vn -0.449924 -0.882858 0.134653
vn -0.451254 -0.881657 0.138027
vn -0.451284 -0.881627 0.138117
vn -0.420522 -0.905039 0.063766
vn -0.414177 -0.908865 0.049219
vn -0.311804 -0.936705 -0.159253
vn -0.234542 -0.926995 -0.292697
vn -0.321414 -0.936320 -0.141415
vn -0.321416 -0.936319 -0.141414
vn -0.451294 -0.881622 0.138117
vn -0.414184 -0.908862 0.049221
vn -0.449937 -0.882852 0.134647
vn -0.372992 -0.926971 -0.040029
vn -0.370309 -0.927791 -0.045558
vn -0.372987 -0.926973 -0.040029
vn -0.827316 0.351213 -0.438404
vn -0.546631 0.270856 -0.792359
vn -0.492285 0.253131 -0.832815
vn -0.827316 0.351213 -0.438404
vn 0.444360 -0.101782 -0.890048
vn 0.444328 -0.101777 -0.890064
vn 0.444328 -0.101777 -0.890064
vn 0.444360 -0.101782 -0.890048
vn -0.568580 0.277932 -0.774255
vn -0.611305 0.291368 -0.735807
vn -0.928607 0.362532 -0.079113
vn -0.933822 0.357568 0.011024
vn -0.933822 0.357568 0.011024
vn -0.926760 0.363140 -0.096150
vn 0.524014 -0.263680 0.809865
vn 0.591713 -0.285320 0.753969
vn 0.604010 -0.289162 0.742669
vn 0.524014 -0.263680 0.809865
vn 0.925544 -0.363395 0.106360
vn 0.931319 -0.361079 0.047619
vn 0.932976 -0.359468 0.018397
vn 0.933696 -0.354355 -0.051420
vn 0.815574 -0.348645 0.461828
vn 0.815574 -0.348645 0.461828
vn 0.444391 -0.101786 -0.890032
vn 0.444391 -0.101786 -0.890032
vn 0.746745 -0.331099 0.576841
vn 0.743578 -0.330237 0.581409
vn -0.878163 0.361258 -0.313564
vn -0.879926 0.361527 -0.308266
vn 0.524666 0.805589 0.275232
vn 0.525948 0.803668 0.278382
vn 0.525916 0.803717 0.278300
vn 0.524675 0.805587 0.275221
vn 0.491178 0.848715 0.196028
vn 0.497191 0.841942 0.209608
vn 0.391215 0.920294 -0.002972
vn 0.400793 0.916056 0.014383
vn 0.313164 0.940078 -0.134837
vn 0.400788 0.916058 0.014384
vn 0.525950 0.803666 0.278383
vn 0.491179 0.848714 0.196031
vn 0.524684 0.805584 0.275210
vn 0.451547 0.885210 0.111845
vn 0.448936 0.887185 0.106579
vn 0.451547 0.885210 0.111844
vn -0.524678 -0.805588 -0.275212
vn -0.524694 -0.805582 -0.275198
vn -0.525920 -0.803718 -0.278290
vn -0.525943 -0.803673 -0.278378
vn -0.497193 -0.841941 -0.209605
vn -0.491177 -0.848715 -0.196031
vn -0.391218 -0.920293 0.002973
vn -0.313168 -0.940077 0.134838
vn -0.400791 -0.916057 -0.014380
vn -0.400791 -0.916057 -0.014381
vn -0.525963 -0.803663 -0.278368
vn -0.491183 -0.848713 -0.196026
vn -0.524709 -0.805577 -0.275184
vn -0.451547 -0.885210 -0.111844
vn -0.448938 -0.887184 -0.106579
vn -0.451548 -0.885209 -0.111844
vn 0.781585 -0.332621 -0.527720
vn 0.898414 -0.428837 -0.094613
vn 0.899702 -0.435796 -0.024892
vn 0.781585 -0.332621 -0.527720
vn 0.435489 -0.289453 0.852389
vn 0.435500 -0.289475 0.852376
vn 0.435500 -0.289475 0.852376
vn 0.435489 -0.289453 0.852389
vn 0.896574 -0.425290 -0.123628
vn 0.890519 -0.417059 -0.181763
vn 0.563546 -0.201527 -0.801126
vn 0.497869 -0.164977 -0.851416
vn 0.497869 -0.164977 -0.851416
vn 0.575488 -0.208276 -0.790845
vn -0.899527 0.431963 0.065266
vn -0.893747 0.421004 0.154830
vn -0.891824 0.418534 0.171696
vn -0.899527 0.431963 0.065266
vn -0.582566 0.212308 0.784565
vn -0.541065 0.188933 0.819484
vn -0.519775 0.177084 0.835748
vn -0.467074 0.148163 0.871717
vn -0.793097 0.340146 0.505270
vn -0.793097 0.340146 0.505270
vn 0.435478 -0.289431 0.852402
vn 0.435478 -0.289431 0.852402
vn -0.843176 0.375487 0.384791
vn -0.844923 0.376807 0.379633
vn 0.714346 -0.289893 -0.636924
vn 0.711270 -0.288005 -0.641208
vn 0.853038 0.505883 0.128094
vn 0.852359 0.506037 0.131949
vn 0.852374 0.506037 0.131849
vn 0.853032 0.505894 0.128096
vn 0.865638 0.499586 0.032941
vn 0.864062 0.500983 0.049126
vn 0.862733 0.465110 -0.198404
vn 0.864867 0.469135 -0.178655
vn 0.834860 0.428259 -0.345838
vn 0.864870 0.469130 -0.178654
vn 0.852354 0.506045 0.131949
vn 0.865636 0.499590 0.032941
vn 0.853025 0.505905 0.128097
vn 0.870242 0.488150 -0.066246
vn 0.870241 0.487279 -0.072383
vn 0.870241 0.488151 -0.066246
vn -0.853039 -0.505880 -0.128098
vn -0.853035 -0.505888 -0.128097
vn -0.852376 -0.506036 -0.131846
vn -0.852356 -0.506042 -0.131946
vn -0.864061 -0.500984 -0.049126
vn -0.865636 -0.499589 -0.032942
vn -0.862732 -0.465111 0.198405
vn -0.834860 -0.428261 0.345836
vn -0.864868 -0.469133 0.178657
vn -0.864867 -0.469134 0.178656
vn -0.852359 -0.506038 -0.131946
vn -0.865637 -0.499587 -0.032941
vn -0.853030 -0.505896 -0.128097
vn -0.870241 -0.488152 0.066246
vn -0.870240 -0.487281 0.072384
vn -0.870241 -0.488151 0.066245
vn 0.492207 -0.863598 0.109227
vn 0.456037 -0.707939 0.539308
vn 0.441724 -0.670120 0.596506
vn 0.492207 -0.863598 0.109227
vn 0.028503 0.156357 0.987289
vn 0.028500 0.156311 0.987297
vn 0.028500 0.156311 0.987297
vn 0.028503 0.156357 0.987289
vn 0.461364 -0.722734 0.514587
vn 0.470888 -0.750651 0.463452
vn 0.445032 -0.856581 -0.261182
vn 0.423963 -0.836640 -0.346827
vn 0.423963 -0.836640 -0.346827
vn 0.448618 -0.859573 -0.244694
vn -0.450265 0.692434 -0.563735
vn -0.466657 0.738032 -0.487381
vn -0.469334 0.745997 -0.472455
vn -0.450265 0.692434 -0.563735
vn -0.450706 0.861246 0.234774
vn -0.438063 0.850394 0.291430
vn -0.431220 0.843908 0.319168
vn -0.413369 0.825470 0.384351
vn -0.492951 0.859487 -0.135208
vn -0.492951 0.859487 -0.135208
vn 0.028505 0.156404 0.987282
vn 0.028505 0.156404 0.987282
vn -0.491416 0.829022 -0.266895
vn -0.491157 0.827425 -0.272273
vn 0.482983 -0.875269 -0.025130
vn 0.482407 -0.875408 -0.030715
vn 0.871902 0.478585 0.103648
vn 0.871727 0.478051 0.107517
vn 0.871728 0.478072 0.107415
vn 0.871889 0.478609 0.103649
vn 0.871499 0.490330 0.008170
vn 0.872131 0.488664 0.024395
vn 0.836987 0.499725 -0.222998
vn 0.841824 0.499995 -0.203316
vn 0.788928 0.490925 -0.369573
vn 0.841822 0.499997 -0.203317
vn 0.871720 0.478064 0.107514
vn 0.871497 0.490334 0.008173
vn 0.871876 0.478633 0.103650
vn 0.862560 0.497684 -0.091105
vn 0.861722 0.497976 -0.097241
vn 0.862561 0.497683 -0.091106
vn -0.871876 -0.478634 -0.103640
vn -0.871879 -0.478628 -0.103640
vn -0.871727 -0.478074 -0.107415
vn -0.871723 -0.478059 -0.107516
vn -0.872131 -0.488664 -0.024397
vn -0.871498 -0.490331 -0.008175
vn -0.836987 -0.499725 0.222997
vn -0.788931 -0.490922 0.369573
vn -0.841822 -0.499998 0.203317
vn -0.841825 -0.499994 0.203315
vn -0.871722 -0.478060 -0.107515
vn -0.871496 -0.490334 -0.008174
vn -0.871883 -0.478622 -0.103641
vn -0.862560 -0.497684 0.091104
vn -0.861721 -0.497977 0.097239
vn -0.862561 -0.497684 0.091104
vn 0.486069 -0.865497 -0.121047
vn 0.510747 -0.793296 0.331390
vn 0.504935 -0.766945 0.396026
vn 0.486069 -0.865497 -0.121047
vn 0.163448 -0.030918 0.986067
vn 0.163462 -0.030933 0.986065
vn 0.163462 -0.030933 0.986065
vn 0.163448 -0.030918 0.986067
vn 0.512430 -0.803176 0.303850
vn 0.514494 -0.820973 0.247589
vn 0.389840 -0.789622 -0.473837
vn 0.357856 -0.754155 -0.550627
vn 0.357856 -0.754155 -0.550627
vn 0.395546 -0.795620 -0.458839
vn -0.508603 0.782671 -0.358816
vn -0.513757 0.813069 -0.273811
vn -0.514260 0.818088 -0.257425
vn -0.508603 0.782671 -0.358816
vn -0.398917 0.799100 0.449783
vn -0.379014 0.777926 0.501178
vn -0.368639 0.766399 0.526058
vn -0.342588 0.736227 0.583613
vn -0.490351 0.866320 0.095104
vn -0.490351 0.866320 0.095104
vn 0.163435 -0.030903 0.986070
vn 0.163435 -0.030903 0.986070
vn -0.507037 0.861044 -0.038936
vn -0.507531 0.860484 -0.044500
vn 0.458710 -0.851889 -0.252726
vn 0.457390 -0.850985 -0.258107
vn 0.316243 0.935613 -0.156905
vn 0.316125 0.934997 -0.160768
vn 0.316129 0.935012 -0.160668
vn 0.316245 0.935612 -0.156903
vn 0.317583 0.946246 -0.061310
vn 0.317563 0.945058 -0.077588
vn 0.308586 0.935482 0.172187
vn 0.310043 0.938462 0.152191
vn 0.293339 0.900207 0.321837
vn 0.310044 0.938462 0.152190
vn 0.316127 0.934996 -0.160770
vn 0.317584 0.946246 -0.061309
vn 0.316247 0.935612 -0.156900
vn 0.315865 0.948018 0.038609
vn 0.315653 0.947816 0.044801
vn 0.315864 0.948019 0.038609
vn -0.316251 -0.935609 0.156909
vn -0.316247 -0.935611 0.156907
vn -0.316131 -0.935012 0.160667
vn -0.316128 -0.934996 0.160768
vn -0.317564 -0.945057 0.077587
vn -0.317584 -0.946246 0.061308
vn -0.308585 -0.935483 -0.172186
vn -0.293336 -0.900210 -0.321833
vn -0.310042 -0.938462 -0.152192
vn -0.310043 -0.938462 -0.152191
vn -0.316127 -0.934996 0.160767
vn -0.317585 -0.946246 0.061310
vn -0.316243 -0.935613 0.156905
vn -0.315865 -0.948018 -0.038608
vn -0.315653 -0.947816 -0.044801
vn -0.315863 -0.948019 -0.038609
vn -0.948741 0.315931 -0.008819
vn -0.834671 0.312932 -0.453208
vn -0.800969 0.306531 -0.514283
vn -0.948741 0.315931 -0.008819
vn 0.044336 0.063569 -0.996992
vn 0.044336 0.063569 -0.996992
vn 0.044336 0.063569 -0.996992
vn 0.044336 0.063569 -0.996992
vn -0.847552 0.315162 -0.426999
vn -0.871312 0.318822 -0.373052
vn -0.894247 0.269079 0.357658
vn -0.861820 0.251818 0.440289
vn -0.861820 0.251818 0.440289
vn -0.899570 0.272103 0.341664
vn 0.820969 -0.310404 0.479229
vn 0.860660 -0.317249 0.398267
vn 0.867397 -0.318255 0.382539
vn 0.820968 -0.310404 0.479229
vn 0.902633 -0.273890 -0.332022
vn 0.883716 -0.263289 -0.386943
vn 0.873184 -0.257667 -0.413713
vn 0.844977 -0.243391 -0.476208
vn 0.947577 -0.317600 0.035053
vn 0.947577 -0.317600 0.035053
vn 0.044336 0.063568 -0.996992
vn 0.044336 0.063568 -0.996992
vn 0.931251 -0.322745 0.169139
vn 0.930202 -0.322829 0.174661
vn -0.944357 0.303934 0.125754
vn -0.943802 0.303315 0.131293
vn 0.382530 0.856066 0.347594
vn 0.381976 0.854819 0.351254
vn 0.381987 0.854853 0.351159
vn 0.382528 0.856068 0.347593
vn 0.394387 0.882598 0.255891
vn 0.392628 0.878669 0.271633
vn 0.407844 0.912728 0.024310
vn 0.407564 0.912089 0.044566
vn 0.404504 0.905253 -0.129978
vn 0.407555 0.912092 0.044568
vn 0.381969 0.854822 0.351254
vn 0.394381 0.882601 0.255888
vn 0.382525 0.856069 0.347592
vn 0.402830 0.901515 0.158111
vn 0.403226 0.902391 0.151987
vn 0.402838 0.901511 0.158113
vn -0.382549 -0.856060 -0.347588
vn -0.382528 -0.856070 -0.347586
vn -0.381985 -0.854853 -0.351160
vn -0.381973 -0.854819 -0.351256
vn -0.392627 -0.878669 -0.271634
vn -0.394384 -0.882599 -0.255890
vn -0.407846 -0.912727 -0.024312
vn -0.404505 -0.905252 0.129977
vn -0.407563 -0.912089 -0.044569
vn -0.407559 -0.912091 -0.044568
vn -0.381967 -0.854822 -0.351255
vn -0.394383 -0.882600 -0.255890
vn -0.382508 -0.856080 -0.347584
vn -0.402834 -0.901513 -0.158111
vn -0.403227 -0.902390 -0.151987
vn -0.402836 -0.901512 -0.158111
vn 0.913560 -0.406494 -0.013079
vn 0.800425 -0.416102 0.431485
vn 0.767534 -0.409724 0.492969
vn 0.913560 -0.406494 -0.013079
vn -0.050073 -0.112060 0.992439
vn -0.050074 -0.112060 0.992439
vn -0.050074 -0.112060 0.992439
vn -0.050073 -0.112060 0.992439
vn 0.813040 -0.418147 0.405116
vn 0.836313 -0.421210 0.350946
vn 0.863820 -0.335056 -0.376235
vn 0.833219 -0.310331 -0.457647
vn 0.833219 -0.310331 -0.457647
vn 0.868831 -0.339439 -0.360436
vn -0.787047 0.413654 -0.457655
vn -0.825871 0.419977 -0.376239
vn -0.832477 0.420790 -0.360441
vn -0.787047 0.413654 -0.457655
vn -0.871717 0.341987 0.350933
vn -0.853906 0.326691 0.405114
vn -0.843950 0.318691 0.431492
vn -0.817264 0.298435 0.492968
vn -0.912242 0.409444 -0.013037
vn -0.912242 0.409444 -0.013037
vn -0.050072 -0.112060 0.992439
vn -0.050072 -0.112060 0.992439
vn -0.895558 0.420040 -0.146770
vn -0.894506 0.420318 -0.152289
vn 0.910354 -0.386929 -0.146770
vn 0.909858 -0.385961 -0.152290
vn 0.576417 0.784146 0.229911
vn 0.575886 0.783411 0.233716
vn 0.575899 0.783431 0.233617
vn 0.576421 0.784142 0.229912
vn 0.586840 0.798312 0.135338
vn 0.585453 0.796427 0.151491
vn 0.589406 0.801804 -0.098540
vn 0.590470 0.803248 -0.078351
vn 0.573381 0.780004 -0.250654
vn 0.590466 0.803250 -0.078351
vn 0.575884 0.783412 0.233717
vn 0.586838 0.798313 0.135339
vn 0.576426 0.784139 0.229913
vn 0.591909 0.805212 0.035756
vn 0.592030 0.805374 0.029560
vn 0.591911 0.805210 0.035757
vn -0.576444 -0.784123 -0.229919
vn -0.576420 -0.784141 -0.229918
vn -0.575902 -0.783429 -0.233616
vn -0.575893 -0.783406 -0.233714
vn -0.585455 -0.796425 -0.151492
vn -0.586844 -0.798309 -0.135341
vn -0.589407 -0.801804 0.098541
vn -0.573383 -0.780004 0.250653
vn -0.590469 -0.803248 0.078353
vn -0.590468 -0.803249 0.078352
vn -0.575883 -0.783413 -0.233714
vn -0.586839 -0.798313 -0.135339
vn -0.576397 -0.784159 -0.229918
vn -0.591910 -0.805211 -0.035756
vn -0.592031 -0.805373 -0.029560
vn -0.591913 -0.805209 -0.035758
vn 0.805639 -0.592261 -0.013161
vn 0.725578 -0.533400 0.434766
vn 0.699279 -0.514066 0.496734
vn 0.805639 -0.592261 -0.013161
vn -0.000000 0.000001 1.000000
vn -0.000000 0.000002 1.000000
vn -0.000000 0.000002 1.000000
vn -0.000000 0.000001 1.000000
vn 0.735530 -0.540715 0.408195
vn 0.753660 -0.554044 0.353598
vn 0.745572 -0.548096 -0.379096
vn 0.714929 -0.525579 -0.461133
vn 0.714929 -0.525579 -0.461133
vn 0.750696 -0.551861 -0.363186
vn -0.714937 0.525558 -0.461144
vn -0.745585 0.548074 -0.379102
vn -0.750709 0.551839 -0.363193
vn -0.714937 0.525558 -0.461144
vn -0.753681 0.554012 0.353604
vn -0.735553 0.540686 0.408193
vn -0.725594 0.533383 0.434761
vn -0.699295 0.514046 0.496732
vn -0.805640 0.592259 -0.013140
vn -0.805641 0.592259 -0.013140
vn 0.000000 0.000000 1.000000
vn 0.000000 0.000000 1.000000
vn -0.796876 0.585762 -0.147889
vn -0.796195 0.585261 -0.153438
vn 0.796855 -0.585791 -0.147893
vn 0.796173 -0.585289 -0.153442
vn 0.636665 0.770862 -0.020730
vn 0.636884 0.770566 -0.024633
vn 0.636881 0.770572 -0.024530
vn 0.636671 0.770857 -0.020730
vn 0.628381 0.774278 0.075039
vn 0.630200 0.774202 0.058820
vn 0.584110 0.752711 0.303715
vn 0.589245 0.756235 0.284428
vn 0.537186 0.715771 0.446209
vn 0.589248 0.756233 0.284428
vn 0.636888 0.770563 -0.024630
vn 0.628381 0.774278 0.075040
vn 0.636677 0.770852 -0.020730
vn 0.613607 0.770245 0.173808
vn 0.612487 0.769741 0.179885
vn 0.613606 0.770246 0.173808
vn -0.636667 -0.770861 0.020728
vn -0.636670 -0.770858 0.020729
vn -0.636878 -0.770574 0.024530
vn -0.636887 -0.770564 0.024632
vn -0.630198 -0.774204 -0.058820
vn -0.628381 -0.774278 -0.075039
vn -0.584110 -0.752710 -0.303716
vn -0.537187 -0.715768 -0.446213
vn -0.589244 -0.756236 -0.284427
vn -0.589249 -0.756232 -0.284428
vn -0.636881 -0.770569 0.024632
vn -0.628377 -0.774282 -0.075040
vn -0.636674 -0.770855 0.020729
vn -0.613605 -0.770247 -0.173809
vn -0.612486 -0.769742 -0.179885
vn -0.613606 -0.770246 -0.173807
vn -0.771682 0.631403 -0.076402
vn -0.605423 0.616196 -0.503752
vn -0.567878 0.602131 -0.561207
vn -0.771682 0.631403 -0.076402
vn 0.200527 0.106409 -0.973892
vn 0.200538 0.106399 -0.973891
vn 0.200538 0.106399 -0.973891
vn 0.200527 0.106409 -0.973892
vn -0.620248 0.621175 -0.478994
vn -0.648512 0.629605 -0.427820
vn -0.787740 0.545251 0.286647
vn -0.774945 0.512455 0.369933
vn -0.774945 0.512455 0.369933
vn -0.789441 0.550970 0.270582
vn 0.589976 -0.610639 0.528251
vn 0.635680 -0.625964 0.451753
vn 0.643758 -0.628292 0.436835
vn 0.589976 -0.610639 0.528251
vn 0.790378 -0.554278 -0.260917
vn 0.784019 -0.534221 -0.316105
vn 0.779842 -0.523602 -0.343057
vn 0.767164 -0.496333 -0.406340
vn 0.766404 -0.634205 0.102023
vn 0.766404 -0.634205 0.102023
vn 0.200516 0.106419 -0.973893
vn 0.200516 0.106419 -0.973893
vn 0.731015 -0.641612 0.232276
vn 0.729253 -0.641668 0.237597
vn -0.790326 0.610141 0.055791
vn -0.790789 0.609013 0.061280
vn -0.737934 -0.219901 -0.638041
vn -0.957421 -0.288697 -0.000004
vn -0.929489 -0.368849 -0.000002
vn -0.700279 -0.274826 -0.658847
vn -0.737933 -0.219899 0.638044
vn -0.700277 -0.274825 0.658850
vn -0.628259 -0.366131 0.686468
vn -0.861237 -0.508203 -0.000000
vn -0.628261 -0.366133 -0.686466
vn -0.760030 -0.186729 -0.622484
vn -0.969826 -0.243799 -0.000002
vn -0.763986 -0.188221 -0.617169
vn -0.858323 -0.513109 -0.000000
vn -0.763990 -0.188223 0.617164
vn -0.760032 -0.186729 0.622482
vn -0.410951 -0.532669 -0.739854
vn -0.602284 -0.798282 0.000000
vn -0.535147 -0.844759 -0.000001
vn -0.360696 -0.544666 -0.757124
vn -0.410948 -0.532668 0.739856
vn -0.360694 -0.544666 0.757125
vn -0.371719 -0.519754 0.769208
vn -0.718439 -0.695591 0.000001
vn -0.371719 -0.519754 -0.769208
vn -0.520859 -0.470473 -0.712292
vn -0.736381 -0.676567 -0.000000
vn -0.520855 -0.470469 0.712298
vn 0.744032 0.230343 -0.627183
vn 0.712370 0.291001 -0.638629
vn 0.926945 0.375198 0.000000
vn 0.956145 0.292894 0.000000
vn 0.648569 0.392426 -0.652196
vn 0.857673 0.514196 -0.000001
vn 0.648568 0.392425 0.652198
vn 0.712368 0.291001 0.638631
vn 0.744030 0.230342 0.627185
vn 0.966853 0.255333 -0.000000
vn 0.759166 0.204676 -0.617879
vn 0.759168 0.204677 0.617877
vn 0.766470 0.176322 0.617604
vn 0.998036 -0.062647 0.000000
vn 0.766466 0.176322 -0.617609
vn 0.417375 0.560851 -0.715013
vn 0.318226 0.583408 -0.747240
vn 0.496529 0.868020 -0.000003
vn 0.604111 0.796900 -0.000006
vn 0.228698 0.602779 -0.764431
vn 0.184397 0.982852 -0.000000
vn 0.228698 0.602779 0.764431
vn 0.318226 0.583407 0.747240
vn 0.417376 0.560849 0.715015
vn 0.735352 0.677685 -0.000004
vn 0.536461 0.500910 -0.679189
vn 0.536458 0.500907 0.679194
vn 0.006971 0.008294 -0.999941
vn 0.012629 0.012208 -0.999846
vn 0.018345 0.020405 -0.999624
vn 0.018344 0.020405 0.999624
vn 0.012628 0.012207 0.999846
vn 0.006970 0.008295 0.999941
vn 0.000498 0.011772 0.999931
vn 0.095816 -0.377180 0.921170
vn 0.247214 -0.968961 0.000000
vn 0.095816 -0.377180 -0.921170
vn 0.000498 0.011771 -0.999931
vn 0.000674 0.020658 -0.999786
vn -0.022803 0.023055 -0.999474
vn -0.211793 0.123421 -0.969490
vn -0.872618 0.488404 0.000002
vn -0.211793 0.123419 0.969490
vn -0.022801 0.023055 0.999474
vn 0.000676 0.020658 0.999786
vn 0.010422 0.023909 0.999660
vn 0.010424 0.023909 -0.999660
vn 0.406299 0.909274 -0.090232
vn 0.406154 0.908944 -0.094124
vn 0.406158 0.908953 -0.094023
vn 0.406299 0.909275 -0.090228
vn 0.407959 0.912981 0.005883
vn 0.407944 0.912947 -0.010439
vn 0.396240 0.886756 0.238028
vn 0.398126 0.890979 0.218295
vn 0.376553 0.842698 0.384796
vn 0.398128 0.890978 0.218294
vn 0.406156 0.908944 -0.094124
vn 0.407958 0.912982 0.005883
vn 0.406299 0.909275 -0.090224
vn 0.405681 0.907885 0.105675
vn 0.405407 0.907269 0.111838
vn 0.405682 0.907885 0.105676
vn -0.406299 -0.909275 0.090227
vn -0.406299 -0.909275 0.090229
vn -0.406159 -0.908953 0.094019
vn -0.406158 -0.908943 0.094121
vn -0.407944 -0.912947 0.010439
vn -0.407961 -0.912981 -0.005882
vn -0.396241 -0.886755 -0.238030
vn -0.376553 -0.842696 -0.384801
vn -0.398126 -0.890978 -0.218296
vn -0.398129 -0.890977 -0.218296
vn -0.406152 -0.908946 0.094119
vn -0.407958 -0.912982 -0.005882
vn -0.406299 -0.909274 0.090231
vn -0.405682 -0.907885 -0.105675
vn -0.405407 -0.907269 -0.111838
vn -0.405682 -0.907885 -0.105676
vn -0.913679 0.406229 0.013025
vn -0.797170 0.423398 -0.430411
vn -0.763794 0.418064 -0.491773
vn -0.913679 0.406229 0.013025
vn 0.057593 0.128891 -0.989985
vn 0.057595 0.128895 -0.989984
vn 0.057595 0.128895 -0.989984
vn 0.057593 0.128891 -0.989985
vn -0.809980 0.425006 -0.404108
vn -0.833658 0.427149 -0.350083
vn -0.866667 0.328670 0.375319
vn -0.836670 0.302585 0.456537
vn -0.836670 0.302585 0.456537
vn -0.871560 0.333317 0.359560
vn 0.783575 -0.421404 0.456541
vn 0.823017 -0.426347 0.375328
vn 0.829745 -0.426892 0.359564
vn 0.783575 -0.421404 0.456541
vn 0.874383 -0.336006 -0.350078
vn 0.856990 -0.319798 -0.404101
vn 0.847237 -0.311341 -0.430414
vn 0.821004 -0.290036 -0.491763
vn 0.912163 -0.409621 0.013023
vn 0.912163 -0.409621 0.013023
vn 0.057592 0.128888 -0.989986
vn 0.057592 0.128888 -0.989986
vn 0.894451 -0.422515 0.146417
vn 0.893359 -0.422886 0.151913
vn -0.911476 0.384415 0.146411
vn -0.911023 0.383356 0.151905
vn 0.724491 0.615094 -0.311083
vn 0.723408 0.614480 -0.314795
vn 0.723434 0.614498 -0.314698
vn 0.724486 0.615099 -0.311084
vn 0.747505 0.627296 -0.218485
vn 0.744084 0.625633 -0.234358
vn 0.774351 0.632605 0.013831
vn 0.773695 0.633526 -0.006406
vn 0.768861 0.617098 0.167459
vn 0.773702 0.633517 -0.006409
vn 0.723404 0.614484 -0.314794
vn 0.747507 0.627293 -0.218485
vn 0.724481 0.615105 -0.311085
vn 0.764098 0.633814 -0.120139
vn 0.764874 0.634014 -0.113990
vn 0.764093 0.633821 -0.120136
vn -0.724469 -0.615121 0.311080
vn -0.724481 -0.615107 0.311080
vn -0.723434 -0.614499 0.314697
vn -0.723402 -0.614487 0.314793
vn -0.744084 -0.625633 0.234357
vn -0.747504 -0.627298 0.218484
vn -0.774354 -0.632602 -0.013826
vn -0.768865 -0.617095 -0.167451
vn -0.773700 -0.633520 0.006412
vn -0.773702 -0.633518 0.006410
vn -0.723410 -0.614479 0.314793
vn -0.747508 -0.627293 0.218485
vn -0.724492 -0.615093 0.311081
vn -0.764098 -0.633815 0.120139
vn -0.764875 -0.634013 0.113992
vn -0.764095 -0.633819 0.120140
vn -0.630907 0.772829 0.068497
vn -0.613087 0.691163 -0.382647
vn -0.598672 0.665258 -0.446121
vn -0.630907 0.772829 0.068497
vn -0.100585 -0.010960 -0.994868
vn -0.100591 -0.010994 -0.994867
vn -0.100591 -0.010994 -0.994867
vn -0.100585 -0.010960 -0.994868
vn -0.618215 0.700999 -0.355543
vn -0.626956 0.718986 -0.299974
vn -0.546980 0.719208 0.428430
vn -0.514688 0.690717 0.507944
vn -0.514688 0.690716 0.507944
vn -0.552599 0.723947 0.412959
vn 0.607429 -0.680628 0.409605
vn 0.623203 -0.710928 0.325882
vn 0.625621 -0.716022 0.309696
vn 0.607429 -0.680628 0.409605
vn 0.555869 -0.726710 -0.403612
vn 0.536149 -0.709911 -0.456695
vn 0.525682 -0.700653 -0.482435
vn 0.498804 -0.676099 -0.542296
vn 0.633550 -0.772544 -0.042316
vn 0.633550 -0.772544 -0.042316
vn -0.100580 -0.010926 -0.994869
vn -0.100580 -0.010926 -0.994869
vn 0.640172 -0.762662 0.092334
vn 0.640196 -0.761947 0.097909
vn -0.610457 0.765878 0.201924
vn -0.609363 0.765284 0.207407
vn 0.569075 0.816384 0.098342
vn 0.568842 0.816068 0.102235
vn 0.568842 0.816080 0.102134
vn 0.569057 0.816396 0.098343
vn 0.571834 0.820366 0.002270
vn 0.571734 0.820228 0.018591
vn 0.556488 0.798357 -0.230105
vn 0.559041 0.802018 -0.210334
vn 0.529576 0.759750 -0.377265
vn 0.559040 0.802019 -0.210335
vn 0.568831 0.816076 0.102236
vn 0.571829 0.820370 0.002272
vn 0.569039 0.816408 0.098345
vn 0.569104 0.816457 -0.097566
vn 0.568748 0.815944 -0.103734
vn 0.569106 0.816455 -0.097565
vn -0.569078 -0.816380 -0.098351
vn -0.569066 -0.816389 -0.098349
vn -0.568845 -0.816079 -0.102132
vn -0.568843 -0.816068 -0.102231
vn -0.571736 -0.820227 -0.018591
vn -0.571835 -0.820366 -0.002271
vn -0.556489 -0.798355 0.230105
vn -0.529579 -0.759748 0.377266
vn -0.559045 -0.802015 0.210334
vn -0.559039 -0.802019 0.210335
vn -0.568835 -0.816073 -0.102235
vn -0.571832 -0.820368 -0.002272
vn -0.569054 -0.816398 -0.098347
vn -0.569105 -0.816457 0.097564
vn -0.568749 -0.815944 0.103732
vn -0.569108 -0.816454 0.097563
vn 0.819291 -0.573230 -0.013038
vn 0.771870 -0.467489 0.430895
vn 0.749807 -0.442053 0.492319
vn 0.819291 -0.573230 -0.013038
vn 0.076079 0.109145 0.991110
vn 0.076080 0.109144 0.991110
vn 0.076080 0.109144 0.991110
vn 0.076079 0.109145 0.991110
vn 0.779976 -0.477450 0.404572
vn 0.794285 -0.496287 0.350444
vn 0.730268 -0.570567 -0.375714
vn 0.692825 -0.557781 -0.457028
vn 0.692825 -0.557781 -0.457028
vn 0.736694 -0.572465 -0.359953
vn -0.763060 0.457022 -0.457022
vn -0.788012 0.487729 -0.375710
vn -0.792016 0.493100 -0.359950
vn -0.763061 0.457022 -0.457022
vn -0.740476 0.573484 0.350444
vn -0.717849 0.566577 0.404579
vn -0.705699 0.562418 0.430901
vn -0.674198 0.550520 0.492326
vn -0.821321 0.570317 -0.013037
vn -0.821321 0.570317 -0.013037
vn 0.076078 0.109147 0.991110
vn 0.076078 0.109147 0.991110
vn -0.822625 0.549368 -0.146572
vn -0.822353 0.548278 -0.152073
vn 0.800082 -0.581709 -0.146571
vn 0.798965 -0.581832 -0.152072
vn 0.712382 0.663062 -0.229912
vn 0.711734 0.662427 -0.233721
vn 0.711756 0.662439 -0.233620
vn 0.712394 0.663050 -0.229913
vn 0.725275 0.675025 -0.135342
vn 0.723565 0.673426 -0.151494
vn 0.728453 0.677972 0.098542
vn 0.729764 0.679194 0.078353
vn 0.708649 0.659538 0.250651
vn 0.729766 0.679192 0.078355
vn 0.711743 0.662418 -0.233718
vn 0.725283 0.675017 -0.135340
vn 0.712406 0.663037 -0.229914
vn 0.731550 0.680850 -0.035755
vn 0.731695 0.680991 -0.029559
vn 0.731544 0.680856 -0.035756
vn -0.712404 -0.663037 0.229919
vn -0.712415 -0.663025 0.229920
vn -0.711758 -0.662437 0.233618
vn -0.711737 -0.662425 0.233716
vn -0.723565 -0.673428 0.151491
vn -0.725276 -0.675025 0.135339
vn -0.728451 -0.677975 -0.098538
vn -0.708645 -0.659543 -0.250652
vn -0.729759 -0.679200 -0.078351
vn -0.729767 -0.679192 -0.078348
vn -0.711744 -0.662417 0.233718
vn -0.725281 -0.675020 0.135337
vn -0.712426 -0.663013 0.229921
vn -0.731548 -0.680852 0.035757
vn -0.731694 -0.680992 0.029561
vn -0.731543 -0.680858 0.035757
vn -0.681269 0.731915 0.013165
vn -0.613548 0.659191 -0.434770
vn -0.591304 0.635298 -0.496745
vn -0.681269 0.731915 0.013165
vn -0.000001 -0.000002 -1.000000
vn -0.000003 -0.000002 -1.000000
vn -0.000003 -0.000002 -1.000000
vn -0.000001 -0.000002 -1.000000
vn -0.621945 0.668254 -0.408192
vn -0.637270 0.684726 -0.353607
vn -0.630433 0.677377 0.379098
vn -0.604537 0.649527 0.461139
vn -0.604537 0.649527 0.461139
vn -0.634762 0.682033 0.363191
vn 0.604559 -0.649504 0.461143
vn 0.630458 -0.677352 0.379100
vn 0.634787 -0.682008 0.363194
vn 0.604559 -0.649504 0.461143
vn 0.637281 -0.684711 -0.353615
vn 0.621954 -0.668243 -0.408198
vn 0.613529 -0.659213 -0.434765
vn 0.591291 -0.635313 -0.496742
vn 0.681208 -0.731971 0.013161
vn 0.681208 -0.731971 0.013161
vn -0.000000 -0.000002 -1.000000
vn -0.000000 -0.000002 -1.000000
vn 0.673807 -0.723955 0.147895
vn 0.673231 -0.723336 0.153443
vn -0.673779 0.723982 0.147890
vn -0.673203 0.723363 0.153439
s 1
g plant02
usemtl initialShadingGroup
f 15/27/1 14/28/2 16/9/3 17/29/4
f 16/9/3 14/28/2 28/39/5 29/40/6
f 20/12/7 21/31/8 22/32/9
f 23/33/10 20/12/7 22/32/9
f 24/35/11 16/9/3 29/40/6 30/41/12
f 17/29/4 16/9/3 24/35/11 26/36/13
f 25/34/14 19/8/15 20/12/7 23/33/10
f 19/8/15 18/30/16 21/31/8 20/12/7
s 3
f 2/14/17 10/17/18 9/16/19 3/15/20
f 9/16/19 32/44/21 27/37/22 3/15/20
f 12/20/23 7/22/24 13/21/25
f 11/23/26 7/22/24 12/20/23
f 4/24/27 31/43/28 32/44/21 9/16/19
f 10/17/18 1/26/29 4/24/27 9/16/19
f 6/25/30 11/23/26 12/20/23 8/19/31
f 8/19/31 12/20/23 13/21/25 5/18/32
s 5
f 2/2/33 3/3/34 14/28/35 15/27/36
s 6
f 10/10/37 2/2/38 15/27/39 17/29/40
s 5
f 3/3/34 27/38/41 28/39/42 14/28/35
f 13/13/43 7/7/44 22/32/45 21/31/46
s 8
f 7/7/47 11/11/48 23/33/49 22/32/50
f 30/41/51 31/42/52 4/4/53 24/35/54
f 4/4/53 1/1/55 26/36/56 24/35/54
s 6
f 1/1/57 10/10/37 17/29/40 26/36/58
s 8
f 11/11/48 6/6/59 25/34/60 23/33/49
s 5
f 5/5/61 13/13/43 21/31/46 18/30/62
f 28/39/42 27/38/41 5/5/61 18/30/62
s 1
f 29/40/6 28/39/5 18/30/16 19/8/15
f 30/41/12 29/40/6 19/8/15 25/34/14
s 8
f 6/6/59 31/42/52 30/41/51 25/34/60
s 3
f 32/44/21 31/43/28 6/25/30 8/19/31
f 27/37/22 32/44/21 8/19/31 5/18/32
s 10
f 47/45/63 46/46/64 48/47/65 49/48/66
f 48/47/65 46/46/64 60/49/67 61/50/68
f 52/51/69 53/52/70 54/53/71
f 55/54/72 52/51/69 54/53/71
f 56/55/73 48/47/65 61/50/68 62/56/74
f 49/48/66 48/47/65 56/55/73 58/57/75
f 57/58/76 51/59/77 52/51/69 55/54/72
f 51/59/77 50/60/78 53/52/70 52/51/69
s 12
f 34/61/79 42/62/80 41/63/81 35/64/82
f 41/63/81 64/65/83 59/66/84 35/64/82
f 44/67/85 39/68/86 45/69/87
f 43/70/88 39/68/86 44/67/85
f 36/71/89 63/72/90 64/65/83 41/63/81
f 42/62/80 33/73/91 36/71/89 41/63/81
f 38/74/92 43/70/88 44/67/85 40/75/93
f 40/75/93 44/67/85 45/69/87 37/76/94
s 14
f 34/77/95 35/78/96 46/46/97 47/45/98
s 15
f 42/79/99 34/77/100 47/45/101 49/48/102
s 14
f 35/78/96 59/80/103 60/49/104 46/46/97
f 45/81/105 39/82/106 54/53/107 53/52/108
s 17
f 39/82/109 43/83/110 55/54/111 54/53/112
f 62/56/113 63/84/114 36/85/115 56/55/116
f 36/85/115 33/86/117 58/57/118 56/55/116
s 15
f 33/86/119 42/79/99 49/48/102 58/57/120
s 17
f 43/83/110 38/87/121 57/58/122 55/54/111
s 14
f 37/88/123 45/81/105 53/52/108 50/60/124
f 60/49/104 59/80/103 37/88/123 50/60/124
s 10
f 61/50/68 60/49/67 50/60/78 51/59/77
f 62/56/74 61/50/68 51/59/77 57/58/76
s 17
f 38/87/121 63/84/114 62/56/113 57/58/122
s 12
f 64/65/83 63/72/90 38/74/92 40/75/93
f 59/66/84 64/65/83 40/75/93 37/76/94
s 19
f 79/89/125 78/90/126 80/91/127 81/92/128
f 80/91/127 78/90/126 92/93/129 93/94/130
f 84/95/131 85/96/132 86/97/133
f 87/98/134 84/95/131 86/97/133
f 88/99/135 80/91/127 93/94/130 94/100/136
f 81/92/128 80/91/127 88/99/135 90/101/137
f 89/102/138 83/103/139 84/95/131 87/98/134
f 83/103/139 82/104/140 85/96/132 84/95/131
s 21
f 66/105/141 74/106/142 73/107/143 67/108/144
f 73/107/143 96/109/145 91/110/146 67/108/144
f 76/111/147 71/112/148 77/113/149
f 75/114/150 71/112/148 76/111/147
f 68/115/151 95/116/152 96/109/145 73/107/143
f 74/106/142 65/117/153 68/115/151 73/107/143
f 70/118/154 75/114/150 76/111/147 72/119/155
f 72/119/155 76/111/147 77/113/149 69/120/156
s 23
f 66/121/157 67/122/158 78/90/159 79/89/160
s 24
f 74/123/161 66/121/162 79/89/163 81/92/164
s 23
f 67/122/158 91/124/165 92/93/166 78/90/159
f 77/125/167 71/126/168 86/97/169 85/96/170
s 26
f 71/126/171 75/127/172 87/98/173 86/97/174
f 94/100/175 95/128/176 68/129/177 88/99/178
f 68/129/177 65/130/179 90/101/180 88/99/178
s 24
f 65/130/181 74/123/161 81/92/164 90/101/182
s 26
f 75/127/172 70/131/183 89/102/184 87/98/173
s 23
f 69/132/185 77/125/167 85/96/170 82/104/186
f 92/93/166 91/124/165 69/132/185 82/104/186
s 19
f 93/94/130 92/93/129 82/104/140 83/103/139
f 94/100/136 93/94/130 83/103/139 89/102/138
s 26
f 70/131/183 95/128/176 94/100/175 89/102/184
s 21
f 96/109/145 95/116/152 70/118/154 72/119/155
f 91/110/146 96/109/145 72/119/155 69/120/156
s 28
f 111/133/187 110/134/188 112/135/189 113/136/190
f 112/135/189 110/134/188 124/137/191 125/138/192
f 116/139/193 117/140/194 118/141/195
f 119/142/196 116/139/193 118/141/195
f 120/143/197 112/135/189 125/138/192 126/144/198
f 113/136/190 112/135/189 120/143/197 122/145/199
f 121/146/200 115/147/201 116/139/193 119/142/196
f 115/147/201 114/148/202 117/140/194 116/139/193
s 30
f 98/149/203 106/150/204 105/151/205 99/152/206
f 105/151/205 128/153/207 123/154/208 99/152/206
f 108/155/209 103/156/210 109/157/211
f 107/158/212 103/156/210 108/155/209
f 100/159/213 127/160/214 128/153/207 105/151/205
f 106/150/204 97/161/215 100/159/213 105/151/205
f 102/162/216 107/158/212 108/155/209 104/163/217
f 104/163/217 108/155/209 109/157/211 101/164/218
s 32
f 98/165/219 99/166/220 110/134/221 111/133/222
s 33
f 106/167/223 98/165/224 111/133/225 113/136/226
s 32
f 99/166/220 123/168/227 124/137/228 110/134/221
f 109/169/229 103/170/230 118/141/231 117/140/232
s 35
f 103/170/233 107/171/234 119/142/235 118/141/236
f 126/144/237 127/172/238 100/173/239 120/143/240
f 100/173/239 97/174/241 122/145/242 120/143/240
s 33
f 97/174/243 106/167/223 113/136/226 122/145/244
s 35
f 107/171/234 102/175/245 121/146/246 119/142/235
s 32
f 101/176/247 109/169/229 117/140/232 114/148/248
f 124/137/228 123/168/227 101/176/247 114/148/248
s 28
f 125/138/192 124/137/191 114/148/202 115/147/201
f 126/144/198 125/138/192 115/147/201 121/146/200
s 35
f 102/175/245 127/172/238 126/144/237 121/146/246
s 30
f 128/153/207 127/160/214 102/162/216 104/163/217
f 123/154/208 128/153/207 104/163/217 101/164/218
s 37
f 143/177/249 142/178/250 144/179/251 145/180/252
f 144/179/251 142/178/250 156/181/253 157/182/254
f 148/183/255 149/184/256 150/185/257
f 151/186/258 148/183/255 150/185/257
f 152/187/259 144/179/251 157/182/254 158/188/260
f 145/180/252 144/179/251 152/187/259 154/189/261
f 153/190/262 147/191/263 148/183/255 151/186/258
f 147/191/263 146/192/264 149/184/256 148/183/255
s 39
f 130/193/265 138/194/266 137/195/267 131/196/268
f 137/195/267 160/197/269 155/198/270 131/196/268
f 140/199/271 135/200/272 141/201/273
f 139/202/274 135/200/272 140/199/271
f 132/203/275 159/204/276 160/197/269 137/195/267
f 138/194/266 129/205/277 132/203/275 137/195/267
f 134/206/278 139/202/274 140/199/271 136/207/279
f 136/207/279 140/199/271 141/201/273 133/208/280
s 41
f 130/209/281 131/210/282 142/178/283 143/177/284
s 42
f 138/211/285 130/209/286 143/177/287 145/180/288
s 41
f 131/210/282 155/212/289 156/181/290 142/178/283
f 141/213/291 135/214/292 150/185/293 149/184/294
s 44
f 135/214/295 139/215/296 151/186/297 150/185/298
f 158/188/299 159/216/300 132/217/301 152/187/302
f 132/217/301 129/218/303 154/189/304 152/187/302
s 42
f 129/218/305 138/211/285 145/180/288 154/189/306
s 44
f 139/215/296 134/219/307 153/190/308 151/186/297
s 41
f 133/220/309 141/213/291 149/184/294 146/192/310
f 156/181/290 155/212/289 133/220/309 146/192/310
s 37
f 157/182/254 156/181/253 146/192/264 147/191/263
f 158/188/260 157/182/254 147/191/263 153/190/262
s 44
f 134/219/307 159/216/300 158/188/299 153/190/308
s 39
f 160/197/269 159/204/276 134/206/278 136/207/279
f 155/198/270 160/197/269 136/207/279 133/208/280
s 46
f 175/221/311 174/222/312 176/223/313 177/224/314
f 176/223/313 174/222/312 188/225/315 189/226/316
f 180/227/317 181/228/318 182/229/319
f 183/230/320 180/227/317 182/229/319
f 184/231/321 176/223/313 189/226/316 190/232/322
f 177/224/314 176/223/313 184/231/321 186/233/323
f 185/234/324 179/235/325 180/227/317 183/230/320
f 179/235/325 178/236/326 181/228/318 180/227/317
s 48
f 162/237/327 170/238/328 169/239/329 163/240/330
f 169/239/329 192/241/331 187/242/332 163/240/330
f 172/243/333 167/244/334 173/245/335
f 171/246/336 167/244/334 172/243/333
f 164/247/337 191/248/338 192/241/331 169/239/329
f 170/238/328 161/249/339 164/247/337 169/239/329
f 166/250/340 171/246/336 172/243/333 168/251/341
f 168/251/341 172/243/333 173/245/335 165/252/342
s 50
f 162/253/343 163/254/344 174/222/345 175/221/346
s 51
f 170/255/347 162/253/348 175/221/349 177/224/350
s 50
f 163/254/344 187/256/351 188/225/352 174/222/345
f 173/257/353 167/258/354 182/229/355 181/228/356
s 53
f 167/258/357 171/259/358 183/230/359 182/229/360
f 190/232/361 191/260/362 164/261/363 184/231/364
f 164/261/363 161/262/365 186/233/366 184/231/364
s 51
f 161/262/367 170/255/347 177/224/350 186/233/368
s 53
f 171/259/358 166/263/369 185/234/370 183/230/359
s 50
f 165/264/371 173/257/353 181/228/356 178/236/372
f 188/225/352 187/256/351 165/264/371 178/236/372
s 46
f 189/226/316 188/225/315 178/236/326 179/235/325
f 190/232/322 189/226/316 179/235/325 185/234/324
s 53
f 166/263/369 191/260/362 190/232/361 185/234/370
s 48
f 192/241/331 191/248/338 166/250/340 168/251/341
f 187/242/332 192/241/331 168/251/341 165/252/342
s 55
f 207/265/373 206/266/374 208/267/375 209/268/376
f 208/267/375 206/266/374 220/269/377 221/270/378
f 212/271/379 213/272/380 214/273/381
f 215/274/382 212/271/379 214/273/381
f 216/275/383 208/267/375 221/270/378 222/276/384
f 209/268/376 208/267/375 216/275/383 218/277/385
f 217/278/386 211/279/387 212/271/379 215/274/382
f 211/279/387 210/280/388 213/272/380 212/271/379
s 57
f 194/281/389 202/282/390 201/283/391 195/284/392
f 201/283/391 224/285/393 219/286/394 195/284/392
f 204/287/395 199/288/396 205/289/397
f 203/290/398 199/288/396 204/287/395
f 196/291/399 223/292/400 224/285/393 201/283/391
f 202/282/390 193/293/401 196/291/399 201/283/391
f 198/294/402 203/290/398 204/287/395 200/295/403
f 200/295/403 204/287/395 205/289/397 197/296/404
s 59
f 194/297/405 195/298/406 206/266/407 207/265/408
s 60
f 202/299/409 194/297/410 207/265/411 209/268/412
s 59
f 195/298/406 219/300/413 220/269/414 206/266/407
f 205/301/415 199/302/416 214/273/417 213/272/418
s 62
f 199/302/419 203/303/420 215/274/421 214/273/422
f 222/276/423 223/304/424 196/305/425 216/275/426
f 196/305/425 193/306/427 218/277/428 216/275/426
s 60
f 193/306/429 202/299/409 209/268/412 218/277/430
s 62
f 203/303/420 198/307/431 217/278/432 215/274/421
s 59
f 197/308/433 205/301/415 213/272/418 210/280/434
f 220/269/414 219/300/413 197/308/433 210/280/434
s 55
f 221/270/378 220/269/377 210/280/388 211/279/387
f 222/276/384 221/270/378 211/279/387 217/278/386
s 62
f 198/307/431 223/304/424 222/276/423 217/278/432
s 57
f 224/285/393 223/292/400 198/294/402 200/295/403
f 219/286/394 224/285/393 200/295/403 197/296/404
s 64
f 239/309/435 238/310/436 240/311/437 241/312/438
f 240/311/437 238/310/436 252/313/439 253/314/440
f 244/315/441 245/316/442 246/317/443
f 247/318/444 244/315/441 246/317/443
f 248/319/445 240/311/437 253/314/440 254/320/446
f 241/312/438 240/311/437 248/319/445 250/321/447
f 249/322/448 243/323/449 244/315/441 247/318/444
f 243/323/449 242/324/450 245/316/442 244/315/441
s 66
f 226/325/451 234/326/452 233/327/453 227/328/454
f 233/327/453 256/329/455 251/330/456 227/328/454
f 236/331/457 231/332/458 237/333/459
f 235/334/460 231/332/458 236/331/457
f 228/335/461 255/336/462 256/329/455 233/327/453
f 234/326/452 225/337/463 228/335/461 233/327/453
f 230/338/464 235/334/460 236/331/457 232/339/465
f 232/339/465 236/331/457 237/333/459 229/340/466
s 68
f 226/341/467 227/342/468 238/310/469 239/309/470
s 69
f 234/343/471 226/341/472 239/309/473 241/312/474
s 68
f 227/342/468 251/344/475 252/313/476 238/310/469
f 237/345/477 231/346/478 246/317/479 245/316/480
s 71
f 231/346/481 235/347/482 247/318/483 246/317/484
f 254/320/485 255/348/486 228/349/487 248/319/488
f 228/349/487 225/350/489 250/321/490 248/319/488
s 69
f 225/350/491 234/343/471 241/312/474 250/321/492
s 71
f 235/347/482 230/351/493 249/322/494 247/318/483
s 68
f 229/352/495 237/345/477 245/316/480 242/324/496
f 252/313/476 251/344/475 229/352/495 242/324/496
s 64
f 253/314/440 252/313/439 242/324/450 243/323/449
f 254/320/446 253/314/440 243/323/449 249/322/448
s 71
f 230/351/493 255/348/486 254/320/485 249/322/494
s 66
f 256/329/455 255/336/462 230/338/464 232/339/465
f 251/330/456 256/329/455 232/339/465 229/340/466
s 73
f 268/353/497 295/354/498 313/355/499 298/356/500
f 295/354/498 270/357/501 296/358/502 313/355/499
f 313/355/499 296/358/502 269/359/503 297/360/504
f 298/356/500 313/355/499 297/360/504 267/361/505
f 268/353/497 299/362/506 314/363/507 295/354/498
f 299/362/506 272/364/508 300/365/509 314/363/507
f 314/363/507 300/365/509 271/366/510 301/367/511
f 295/354/498 314/363/507 301/367/511 270/357/501
f 274/368/512 302/369/513 315/370/514 305/371/515
f 302/369/513 276/372/516 303/373/517 315/370/514
f 315/370/514 303/373/517 275/374/518 304/375/519
f 305/371/515 315/370/514 304/375/519 273/376/520
f 274/368/512 306/377/521 316/378/522 302/369/513
f 306/377/521 267/361/505 297/360/504 316/378/522
f 316/378/522 297/360/504 269/359/503 307/379/523
f 302/369/513 316/378/522 307/379/523 276/372/516
f 266/380/524 308/381/525 317/382/526 311/383/527
f 308/381/525 261/384/528 309/385/529 317/382/526
f 317/382/526 309/385/529 262/386/530 310/387/531
f 311/383/527 317/382/526 310/387/531 265/388/532
f 266/380/524 311/383/527 318/389/533 278/390/534
f 311/383/527 265/388/532 312/391/535 318/389/533
f 318/389/533 312/391/535 260/392/536 277/393/537
f 278/390/534 318/389/533 277/393/537 259/394/538
f 264/395/539 279/396/540 319/397/541 282/398/542
f 279/396/540 257/399/543 280/400/544 319/397/541
f 319/397/541 280/400/544 258/401/545 281/402/546
f 282/398/542 319/397/541 281/402/546 263/403/547
f 264/395/539 282/398/542 320/404/548 284/405/549
f 282/398/542 263/403/547 283/406/550 320/404/548
f 320/404/548 283/406/550 262/386/530 309/385/529
f 284/405/549 320/404/548 309/385/529 261/384/528
f 266/407/524 285/408/551 321/409/552 308/410/525
f 285/408/551 268/353/497 298/356/500 321/409/552
f 321/409/552 298/356/500 267/361/505 286/411/553
f 308/410/525 321/409/552 286/411/553 261/412/528
f 262/413/530 287/414/554 322/415/555 310/416/531
f 287/414/554 269/359/503 296/358/502 322/415/555
f 322/415/555 296/358/502 270/357/501 288/417/556
f 310/416/531 322/415/555 288/417/556 265/418/532
f 265/418/532 288/417/556 323/419/557 312/420/535
f 288/417/556 270/357/501 301/367/511 323/419/557
f 323/419/557 301/367/511 271/366/510 289/421/558
f 312/420/535 323/419/557 289/421/558 260/422/536
f 260/422/536 289/421/558 324/423/559 277/424/537
f 289/421/558 271/366/510 300/365/509 324/423/559
f 324/423/559 300/365/509 272/364/508 290/425/560
f 277/424/537 324/423/559 290/425/560 259/426/538
f 259/426/538 290/425/560 325/427/561 278/428/534
f 290/425/560 272/364/508 299/362/506 325/427/561
f 325/427/561 299/362/506 268/353/497 285/408/551
f 278/428/534 325/427/561 285/408/551 266/407/524
f 264/429/539 291/430/562 326/431/563 279/432/540
f 291/430/562 274/368/512 305/371/515 326/431/563
f 326/431/563 305/371/515 273/376/520 292/433/564
f 279/432/540 326/431/563 292/433/564 257/434/543
f 257/434/543 292/433/564 327/435/565 280/436/544
f 292/433/564 273/376/520 304/375/519 327/435/565
f 327/435/565 304/375/519 275/374/518 293/437/566
f 280/436/544 327/435/565 293/437/566 258/438/545
f 258/438/545 293/437/566 328/439/567 281/440/546
f 293/437/566 275/374/518 303/373/517 328/439/567
f 328/439/567 303/373/517 276/372/516 294/441/568
f 281/440/546 328/439/567 294/441/568 263/442/547
f 263/442/547 294/441/568 329/443/569 283/444/550
f 294/441/568 276/372/516 307/379/523 329/443/569
f 329/443/569 307/379/523 269/359/503 287/414/554
f 283/444/550 329/443/569 287/414/554 262/413/530
f 261/412/528 286/411/553 330/445/570 284/446/549
f 286/411/553 267/361/505 306/377/521 330/445/570
f 330/445/570 306/377/521 274/368/512 291/430/562
f 284/446/549 330/445/570 291/430/562 264/429/539
s 77
f 345/447/571 344/448/572 346/449/573 347/450/574
f 346/449/573 344/448/572 358/451/575 359/452/576
f 350/453/577 351/454/578 352/455/579
f 353/456/580 350/453/577 352/455/579
f 354/457/581 346/449/573 359/452/576 360/458/582
f 347/450/574 346/449/573 354/457/581 356/459/583
f 355/460/584 349/461/585 350/453/577 353/456/580
f 349/461/585 348/462/586 351/454/578 350/453/577
s 79
f 332/463/587 340/464/588 339/465/589 333/466/590
f 339/465/589 362/467/591 357/468/592 333/466/590
f 342/469/593 337/470/594 343/471/595
f 341/472/596 337/470/594 342/469/593
f 334/473/597 361/474/598 362/467/591 339/465/589
f 340/464/588 331/475/599 334/473/597 339/465/589
f 336/476/600 341/472/596 342/469/593 338/477/601
f 338/477/601 342/469/593 343/471/595 335/478/602
s 81
f 332/479/603 333/480/604 344/448/605 345/447/606
s 82
f 340/481/607 332/479/608 345/447/609 347/450/610
s 81
f 333/480/604 357/482/611 358/451/612 344/448/605
f 343/483/613 337/484/614 352/455/615 351/454/616
s 84
f 337/484/617 341/485/618 353/456/619 352/455/620
f 360/458/621 361/486/622 334/487/623 354/457/624
f 334/487/623 331/488/625 356/459/626 354/457/624
s 82
f 331/488/627 340/481/607 347/450/610 356/459/628
s 84
f 341/485/618 336/489/629 355/460/630 353/456/619
s 81
f 335/490/631 343/483/613 351/454/616 348/462/632
f 358/451/612 357/482/611 335/490/631 348/462/632
s 77
f 359/452/576 358/451/575 348/462/586 349/461/585
f 360/458/582 359/452/576 349/461/585 355/460/584
s 84
f 336/489/629 361/486/622 360/458/621 355/460/630
s 79
f 362/467/591 361/474/598 336/476/600 338/477/601
f 357/468/592 362/467/591 338/477/601 335/478/602
s 86
f 377/491/633 376/492/634 378/493/635 379/494/636
f 378/493/635 376/492/634 390/495/637 391/496/638
f 382/497/639 383/498/640 384/499/641
f 385/500/642 382/497/639 384/499/641
f 386/501/643 378/493/635 391/496/638 392/502/644
f 379/494/636 378/493/635 386/501/643 388/503/645
f 387/504/646 381/505/647 382/497/639 385/500/642
f 381/505/647 380/506/648 383/498/640 382/497/639
s 88
f 364/507/649 372/508/650 371/509/651 365/510/652
f 371/509/651 394/511/653 389/512/654 365/510/652
f 374/513/655 369/514/656 375/515/657
f 373/516/658 369/514/656 374/513/655
f 366/517/659 393/518/660 394/511/653 371/509/651
f 372/508/650 363/519/661 366/517/659 371/509/651
f 368/520/662 373/516/658 374/513/655 370/521/663
f 370/521/663 374/513/655 375/515/657 367/522/664
s 90
f 364/523/665 365/524/666 376/492/667 377/491/668
s 91
f 372/525/669 364/523/670 377/491/671 379/494/672
s 90
f 365/524/666 389/526/673 390/495/674 376/492/667
f 375/527/675 369/528/676 384/499/677 383/498/678
s 93
f 369/528/679 373/529/680 385/500/681 384/499/682
f 392/502/683 393/530/684 366/531/685 386/501/686
f 366/531/685 363/532/687 388/503/688 386/501/686
s 91
f 363/532/689 372/525/669 379/494/672 388/503/690
s 93
f 373/529/680 368/533/691 387/504/692 385/500/681
s 90
f 367/534/693 375/527/675 383/498/678 380/506/694
f 390/495/674 389/526/673 367/534/693 380/506/694
s 86
f 391/496/638 390/495/637 380/506/648 381/505/647
f 392/502/644 391/496/638 381/505/647 387/504/646
s 93
f 368/533/691 393/530/684 392/502/683 387/504/692
s 88
f 394/511/653 393/518/660 368/520/662 370/521/663
f 389/512/654 394/511/653 370/521/663 367/522/664
s 95
f 409/535/695 408/536/696 410/537/697 411/538/698
f 410/537/697 408/536/696 422/539/699 423/540/700
f 414/541/701 415/542/702 416/543/703
f 417/544/704 414/541/701 416/543/703
f 418/545/705 410/537/697 423/540/700 424/546/706
f 411/538/698 410/537/697 418/545/705 420/547/707
f 419/548/708 413/549/709 414/541/701 417/544/704
f 413/549/709 412/550/710 415/542/702 414/541/701
s 97
f 396/551/711 404/552/712 403/553/713 397/554/714
f 403/553/713 426/555/715 421/556/716 397/554/714
f 406/557/717 401/558/718 407/559/719
f 405/560/720 401/558/718 406/557/717
f 398/561/721 425/562/722 426/555/715 403/553/713
f 404/552/712 395/563/723 398/561/721 403/553/713
f 400/564/724 405/560/720 406/557/717 402/565/725
f 402/565/725 406/557/717 407/559/719 399/566/726
s 99
f 396/567/727 397/568/728 408/536/729 409/535/730
s 100
f 404/569/731 396/567/732 409/535/733 411/538/734
s 99
f 397/568/728 421/570/735 422/539/736 408/536/729
f 407/571/737 401/572/738 416/543/739 415/542/740
s 102
f 401/572/741 405/573/742 417/544/743 416/543/744
f 424/546/745 425/574/746 398/575/747 418/545/748
f 398/575/747 395/576/749 420/547/750 418/545/748
s 100
f 395/576/751 404/569/731 411/538/734 420/547/752
s 102
f 405/573/742 400/577/753 419/548/754 417/544/743
s 99
f 399/578/755 407/571/737 415/542/740 412/550/756
f 422/539/736 421/570/735 399/578/755 412/550/756
s 95
f 423/540/700 422/539/699 412/550/710 413/549/709
f 424/546/706 423/540/700 413/549/709 419/548/708
s 102
f 400/577/753 425/574/746 424/546/745 419/548/754
s 97
f 426/555/715 425/562/722 400/564/724 402/565/725
f 421/556/716 426/555/715 402/565/725 399/566/726
s 104
f 441/579/757 440/580/758 442/581/759 443/582/760
f 442/581/759 440/580/758 454/583/761 455/584/762
f 446/585/763 447/586/764 448/587/765
f 449/588/766 446/585/763 448/587/765
f 450/589/767 442/581/759 455/584/762 456/590/768
f 443/582/760 442/581/759 450/589/767 452/591/769
f 451/592/770 445/593/771 446/585/763 449/588/766
f 445/593/771 444/594/772 447/586/764 446/585/763
s 106
f 428/595/773 436/596/774 435/597/775 429/598/776
f 435/597/775 458/599/777 453/600/778 429/598/776
f 438/601/779 433/602/780 439/603/781
f 437/604/782 433/602/780 438/601/779
f 430/605/783 457/606/784 458/599/777 435/597/775
f 436/596/774 427/607/785 430/605/783 435/597/775
f 432/608/786 437/604/782 438/601/779 434/609/787
f 434/609/787 438/601/779 439/603/781 431/610/788
s 108
f 428/611/789 429/612/790 440/580/791 441/579/792
s 109
f 436/613/793 428/611/794 441/579/795 443/582/796
s 108
f 429/612/790 453/614/797 454/583/798 440/580/791
f 439/615/799 433/616/800 448/587/801 447/586/802
s 111
f 433/616/803 437/617/804 449/588/805 448/587/806
f 456/590/807 457/618/808 430/619/809 450/589/810
f 430/619/809 427/620/811 452/591/812 450/589/810
s 109
f 427/620/813 436/613/793 443/582/796 452/591/814
s 111
f 437/617/804 432/621/815 451/592/816 449/588/805
s 108
f 431/622/817 439/615/799 447/586/802 444/594/818
f 454/583/798 453/614/797 431/622/817 444/594/818
s 104
f 455/584/762 454/583/761 444/594/772 445/593/771
f 456/590/768 455/584/762 445/593/771 451/592/770
s 111
f 432/621/815 457/618/808 456/590/807 451/592/816
s 106
f 458/599/777 457/606/784 432/608/786 434/609/787
f 453/600/778 458/599/777 434/609/787 431/610/788
