# This file uses meters as units for non-parametric coordinates.

mtllib fern_ver02_mesh.mtl
g default
v -40.277069 52.867550 -1.814056
v -39.118500 52.102512 -1.789734
v -38.817139 52.536797 -4.512146
v -39.916443 53.262711 -4.535217
v -33.871643 51.094555 -15.908203
v -42.849426 57.022827 -16.096619
v -39.554779 51.825954 -29.348145
v -38.360565 54.058697 -16.002380
v -39.366821 52.899754 -4.523682
v -39.697784 52.485039 -1.801941
v -41.458557 55.490135 -22.766541
v -38.545044 53.566246 -22.705383
v -35.631500 51.642353 -22.644257
v -38.503265 53.011398 -4.535065
v -38.804626 52.577114 -1.812653
v -39.052917 53.374355 -4.546600
v -39.383911 52.959633 -1.824829
v -33.557800 51.569157 -15.931091
v -38.046692 54.533298 -16.025330
v -38.231171 54.040855 -22.728271
v -35.317627 52.116966 -22.667114
v -39.240906 52.300556 -29.371037
v -41.144684 55.964745 -22.789459
v -39.602570 53.737309 -4.558136
v -42.535553 57.497440 -16.119537
v -39.963196 53.342152 -1.836975
v -34.161652 50.916897 -10.543488
v -33.847809 51.391487 -10.566345
v -38.294861 54.328030 -10.659729
v -42.741974 57.264584 -10.753052
v -43.055817 56.789993 -10.730194
v -38.608734 53.853428 -10.636841
v -98.485809 57.499554 0.375854
v -99.427979 57.589699 -0.193909
v -100.547302 57.560886 1.707214
v -99.653320 57.475357 2.247803
v -108.552399 57.206554 7.605438
v -101.251617 56.508011 12.020538
v -110.360596 52.757462 18.190674
v -104.901978 56.857281 9.812988
v -100.100281 57.518124 1.977539
v -98.956909 57.544624 0.090973
v -105.296112 55.156700 15.582153
v -107.665405 55.383385 14.149384
v -110.034729 55.610073 12.716553
v -100.573242 57.999050 1.819458
v -99.453918 58.027859 -0.081665
v -100.126251 57.956291 2.089722
v -98.982849 57.982784 0.203217
v -108.578308 57.644699 7.717712
v -104.927948 57.295441 9.925232
v -107.691345 55.821548 14.261597
v -110.060638 56.048244 12.828766
v -110.386536 53.195625 18.302856
v -105.322052 55.594868 15.694427
v -99.679260 57.913517 2.360046
v -101.277588 56.946182 12.132751
v -98.511780 57.937710 0.488098
v -106.285522 57.825287 4.032227
v -106.311493 58.263439 4.144470
v -102.695129 57.917439 6.331451
v -99.078705 57.571434 8.518433
v -99.052765 57.133274 8.406189
v -102.669159 57.479279 6.219177
v -61.314728 58.764366 -1.781830
v -59.955414 58.780228 -1.757050
v -59.940521 58.760674 -4.472347
v -61.230286 58.745636 -4.495850
v -55.103851 58.055187 -15.699829
v -65.636963 57.932312 -15.891724
v -60.087616 52.993046 -28.116940
v -60.370422 57.993752 -15.795742
v -60.585388 58.753159 -4.484066
v -60.635071 58.772297 -1.769470
v -63.652435 56.165642 -22.192322
v -60.234161 56.205509 -22.130035
v -56.815887 56.245377 -22.067749
v -59.944427 59.302364 -4.604427
v -59.959351 59.321915 -1.889160
v -60.589294 59.294849 -4.616150
v -60.638977 59.313988 -1.901550
v -55.107788 58.596863 -15.831905
v -60.374329 58.535435 -15.927856
v -60.238098 56.747211 -22.262150
v -56.819794 56.787079 -22.199856
v -60.091522 53.534740 -28.249054
v -63.656342 56.707348 -22.324436
v -61.234192 59.287334 -4.627930
v -65.640869 58.474014 -16.023804
v -61.318634 59.306068 -1.913940
v -55.256500 58.796574 -10.491207
v -55.260406 59.338253 -10.623322
v -60.477905 59.277405 -10.718414
v -65.695465 59.216553 -10.813446
v -65.691528 58.674873 -10.681335
v -60.473999 58.735718 -10.586277
v -20.881836 39.906487 1.927917
v -22.216827 40.590786 1.910583
v -22.152435 40.708012 4.903900
v -20.885712 40.058716 4.920319
v -26.907501 42.929798 17.354889
v -16.562683 37.627132 17.489044
v -24.070801 36.072460 31.287170
v -21.735077 40.278458 17.421936
v -21.519073 40.383369 4.912109
v -21.549316 40.248638 1.919250
v -19.184814 37.162590 24.548737
v -22.541992 38.883427 24.505249
v -25.899170 40.604286 24.461670
v -21.877869 41.246559 5.018463
v -21.942261 41.129333 2.025208
v -21.244507 40.921909 5.026672
v -21.274780 40.787182 2.033813
v -26.632904 43.468315 17.469482
v -21.460510 40.817001 17.536560
v -22.267426 39.421974 24.619812
v -25.624603 41.142841 24.576263
v -23.796234 36.611008 31.401733
v -18.910248 37.701141 24.663330
v -20.611176 40.597260 5.034882
v -16.288116 38.165691 17.603638
v -20.607269 40.445030 2.042542
v -26.562408 43.337933 11.571808
v -26.287842 43.876469 11.686371
v -21.163635 41.249863 11.752808
v -16.039368 38.623219 11.819244
v -16.313934 38.084686 11.704681
v -21.438202 40.711319 11.638245
v -22.191467 40.636169 -1.829742
v -20.907196 39.861115 -1.803619
v -20.571259 40.393349 -4.733032
v -21.789856 41.128761 -4.757813
v -15.043732 39.265015 -17.011017
v -24.995605 45.270912 -17.213350
v -21.063232 40.051308 -31.582428
v -20.019684 42.267967 -17.112181
v -21.180542 40.761055 -4.745422
v -21.549347 40.248642 -1.816711
v -23.353027 43.800926 -24.429443
v -20.123383 41.851852 -24.363770
v -16.893738 39.902760 -24.298128
v -20.253235 40.919891 -4.745544
v -20.589172 40.387661 -1.816162
v -20.862518 41.287598 -4.757935
v -21.231323 40.775185 -1.829193
v -14.725739 39.791561 -17.023529
v -19.701660 42.794510 -17.124695
v -19.805359 42.378395 -24.376284
v -16.575714 40.429314 -24.310671
v -20.745209 40.577850 -31.594940
v -23.034973 44.327480 -24.441986
v -21.471832 41.655304 -4.770325
v -24.677551 45.797466 -17.225863
v -21.873444 41.162716 -1.842285
v -15.407837 38.961578 -11.222595
v -15.089813 39.488110 -11.235137
v -20.019379 42.463104 -11.335388
v -24.948975 45.438103 -11.435608
v -25.266998 44.911575 -11.423096
v -20.337402 41.936554 -11.322845
v -80.642059 59.570030 1.487671
v -81.859985 59.373276 1.438904
v -81.923584 59.354084 3.903931
v -80.767944 59.540783 3.950195
v -86.361115 57.974838 14.006714
v -76.923309 59.499500 14.384613
v -81.361145 54.221622 25.394714
v -81.642212 58.737171 14.195648
v -81.345764 59.447441 3.927063
v -81.251007 59.471657 1.463287
v -78.548126 57.612209 20.073059
v -81.610962 57.117413 19.950439
v -84.673767 56.622612 19.827759
v -82.006714 59.839417 4.021973
v -81.943146 59.858601 1.556976
v -81.428894 59.932762 4.045135
v -81.334167 59.956985 1.581360
v -86.444214 58.460159 14.124817
v -81.725342 59.222496 14.313721
v -81.694092 57.602737 20.068481
v -84.756927 57.107944 19.945862
v -81.444275 54.706947 25.512756
v -78.631256 58.097546 20.191162
v -80.851074 60.026108 4.068237
v -77.006439 59.984840 14.502686
v -80.725189 60.055359 1.605774
v -86.237366 58.660706 9.278076
v -86.320526 59.146015 9.396118
v -81.645569 59.901260 9.583313
v -76.970581 60.656513 9.770508
v -76.887451 60.171192 9.652466
v -81.562469 59.415936 9.465240
v -59.993164 58.548855 1.315277
v -61.276978 58.995747 1.290588
v -61.262726 59.080620 4.004639
v -60.044586 58.656590 4.028015
v -65.929047 60.360111 15.253418
v -55.980682 56.897156 15.444519
v -62.656769 54.429295 27.853699
v -60.954834 58.628632 15.348938
v -60.653656 58.868607 4.016327
v -60.635071 58.772301 1.302948
v -58.343658 56.084381 21.809448
v -61.572144 57.208191 21.747498
v -64.800690 58.332001 21.685425
v -61.085022 59.597301 4.115784
v -61.099274 59.512424 1.401794
v -60.475952 59.385281 4.127502
v -60.457336 59.288979 1.414124
v -65.751312 60.876770 15.364624
v -60.777130 59.145302 15.460144
v -61.394440 57.724876 21.858582
v -64.622986 58.848701 21.796570
v -62.479034 54.945969 27.964844
v -58.165924 56.601070 21.920624
v -59.866852 59.173275 4.139160
v -55.802948 57.413845 15.555664
v -59.815430 59.065540 1.426453
v -65.614868 60.824566 10.020142
v -65.437164 61.341236 10.131256
v -60.509308 59.625919 10.225891
v -55.581421 57.910568 10.320526
v -55.759125 57.393898 10.209381
v -60.687042 59.109241 10.114746
v -99.198059 57.571800 -0.033569
v -98.293457 57.517441 -0.665375
v -99.496704 58.172237 -2.394958
v -100.355011 58.223812 -1.795441
v -101.455597 60.184532 -11.940125
v -108.465149 60.605751 -7.044067
v -111.163910 59.560829 -18.301750
v -104.960388 60.395138 -9.492065
v -99.925842 58.198029 -2.095154
v -98.745758 57.544624 -0.349487
v -110.289429 60.708141 -12.291077
v -108.014648 60.571438 -13.879944
v -105.739868 60.434734 -15.468872
v -99.460541 58.623661 -2.382019
v -98.257324 57.968868 -0.652496
v -99.889709 58.649452 -2.082275
v -98.709625 57.996048 -0.336548
v -101.419495 60.635956 -11.927185
v -104.924255 60.846565 -9.479187
v -107.978516 61.022861 -13.867004
v -105.703705 60.886162 -15.455933
v -111.127747 60.012253 -18.288811
v -110.253296 61.159569 -12.278137
v -100.318848 58.675240 -1.782532
v -108.428986 61.057178 -7.031158
v -99.161926 58.023228 -0.020630
v -99.102020 59.477955 -8.440002
v -99.065887 59.929363 -8.427063
v -102.537994 60.138035 -6.001892
v -106.010162 60.346680 -3.576630
v -106.046295 59.895275 -3.589569
v -102.574127 59.686611 -6.014801
v -81.863861 59.545292 -1.474365
v -80.638184 59.398026 -1.452148
v -80.601685 59.595821 -3.909851
v -81.764679 59.735554 -3.930908
v -76.223938 59.293114 -14.127686
v -85.721741 60.434227 -14.299805
v -81.188110 56.330139 -25.761719
v -80.972839 59.863670 -14.213745
v -81.183197 59.665688 -3.920349
v -81.251038 59.471657 -1.463257
v -84.082489 59.120457 -20.143372
v -81.000214 58.750134 -20.087524
v -77.917908 58.379799 -20.031677
v -80.540619 60.092716 -3.985718
v -80.577118 59.894920 -1.528076
v -81.122131 60.162579 -3.996277
v -81.189941 59.968548 -1.539154
v -76.162872 59.790005 -14.203583
v -80.911774 60.360561 -14.289642
v -80.939148 59.247036 -20.163391
v -77.856812 58.876705 -20.107544
v -81.127045 56.827034 -25.837585
v -84.021393 59.617363 -20.219269
v -81.703613 60.232449 -4.006805
v -85.660675 60.931133 -14.375671
v -81.802795 60.042179 -1.550293
v -76.323303 59.559597 -9.356415
v -76.262238 60.056477 -9.432312
v -80.966888 60.621731 -9.517578
v -85.671570 61.186989 -9.602844
v -85.732635 60.690105 -9.526947
v -81.027954 60.124840 -9.441681
v -2.905792 2.370911 -2.190582
v -2.905792 2.370911 2.190582
v -98.640991 56.840305 -0.843414
v -98.640991 56.840305 0.843414
v -22.739929 39.038486 -1.879303
v -22.739929 39.038486 1.879303
v -60.927124 57.433640 -1.327087
v -60.927124 57.433636 1.327087
v -60.342987 60.110962 -1.327087
v -60.342987 60.110962 1.327087
v -98.953278 58.509602 0.843414
v -98.953247 58.509602 -0.843414
v 0.260468 3.802094 -2.190582
v 0.260468 3.802094 2.190582
v -20.358734 41.458782 1.879303
v -20.358734 41.458778 -1.879303
v -2.882874 0.800278 0.000000
v -10.811584 20.705826 2.156921
v -23.136810 38.635109 -0.000031
v -10.811584 20.705826 -2.156921
v -40.433350 51.143360 1.595184
v -40.433350 51.143360 -1.595184
v -60.635071 58.772301 1.769470
v -100.069885 57.544624 1.110596
v -100.069885 57.544624 -1.110596
v -60.635071 58.772301 -1.769470
v -0.743988 1.736145 -2.953125
v -0.743988 1.736145 2.953125
v -21.549347 40.248646 2.505737
v -21.549347 40.248642 -2.505737
v -81.245483 60.620766 -1.097473
v -100.296143 58.637432 0.000000
v -81.245483 60.620766 1.097473
v -60.245636 60.557186 0.000000
v -7.788239 22.697990 -2.156921
v -19.961884 41.862175 -0.000031
v -7.788239 22.697990 2.156921
v 1.394897 2.672012 0.000000
v -38.962189 53.826714 -1.595184
v -38.962189 53.826714 1.595184
v -61.024506 56.987415 0.000000
v -81.256561 58.322548 1.097473
v -99.843658 56.451809 0.000000
v -81.256561 58.322548 -1.097473
v -81.243652 61.003803 0.000000
v -7.284363 23.030006 0.000000
v -38.717010 54.273933 -0.000031
v -81.258392 57.939510 0.000000
v -11.315460 20.373802 0.000000
v -40.678558 50.696129 0.000000
v -81.251038 59.471657 1.463287
v -101.706329 57.377056 0.000000
v -81.251007 59.471657 -1.463287
v 0.000000 0.000000 0.000000
v -9.299927 21.701904 2.875916
v -9.299927 21.701904 -2.875916
v -39.697784 52.485031 2.126923
v -39.697784 52.485031 -2.126953
v -39.020660 52.331997 1.799500
v -40.374878 52.638062 1.775818
v -40.220215 53.367771 4.446899
v -38.935242 53.077358 4.469330
v -44.474701 56.831623 15.685547
v -33.980774 54.459892 15.868835
v -39.769257 54.293175 29.282654
v -39.227722 55.645752 15.777191
v -39.577728 53.222569 4.458130
v -39.697784 52.485031 1.787659
v -35.927551 54.929279 22.559204
v -39.333069 55.698975 22.499756
v -42.738647 56.468647 22.440277
v -40.094391 53.922688 4.423920
v -40.249084 53.192978 1.752869
v -39.451904 53.777481 4.435150
v -39.571960 53.039944 1.764709
v -44.348846 57.386524 15.662659
v -39.101898 56.200672 15.754242
v -39.207245 56.253887 22.476776
v -42.612823 57.023575 22.417297
v -39.643433 54.848087 29.259644
v -35.801727 55.484219 22.536255
v -38.809418 53.632278 4.446350
v -33.854980 55.014824 15.845856
v -38.894836 52.886913 1.776550
v -44.500244 56.079762 10.363037
v -44.374451 56.634666 10.340027
v -39.176392 55.459873 10.430817
v -33.978271 54.285053 10.521545
v -34.104065 53.730152 10.544556
v -39.302185 54.904957 10.453766
vt 1.000000 1.000000
vt 0.902033 1.000000
vt 0.902033 0.500000
vt 1.000000 0.500000
vt 0.682035 1.000000
vt 0.682035 0.500000
vt 0.243917 0.500000
vt 0.243917 1.000000
vt 0.000000 0.500000
vt 0.243917 0.000000
vt 0.902033 0.000000
vt 0.682035 0.000000
vt 1.000000 0.000000
vt 0.487834 0.000000
vt 0.487834 0.500000
vt 0.487834 1.000000
vt 1.000000 1.000000
vt 1.000000 0.500000
vt 0.902033 0.500000
vt 0.902033 1.000000
vt 0.682035 0.500000
vt 0.682035 1.000000
vt 0.243917 0.500000
vt 0.000000 0.500000
vt 0.243917 1.000000
vt 0.243917 0.000000
vt 0.902033 0.000000
vt 0.682035 0.000000
vt 1.000000 0.000000
vt 0.487834 0.000000
vt 0.487834 0.500000
vt 0.487834 1.000000
vt 1.000000 1.000000
vt 0.902033 1.000000
vt 1.000000 0.500000
vt 0.682035 1.000000
vt 0.243917 1.000000
vt 0.000000 0.500000
vt 0.243917 0.000000
vt 0.682035 0.000000
vt 0.902033 0.000000
vt 1.000000 0.000000
vt 0.487834 0.000000
vt 0.487834 1.000000
vt 1.000000 1.000000
vt 0.902033 1.000000
vt 0.902033 0.500000
vt 1.000000 0.500000
vt 0.682035 1.000000
vt 0.682035 0.500000
vt 0.243917 0.500000
vt 0.243917 1.000000
vt 0.000000 0.500000
vt 0.243917 0.000000
vt 0.902033 0.000000
vt 0.682035 0.000000
vt 1.000000 0.000000
vt 0.487834 0.000000
vt 0.487834 0.500000
vt 0.487834 1.000000
vt 1.000000 1.000000
vt 1.000000 0.500000
vt 0.902033 0.500000
vt 0.902033 1.000000
vt 0.682035 0.500000
vt 0.682035 1.000000
vt 0.243917 0.500000
vt 0.000000 0.500000
vt 0.243917 1.000000
vt 0.243917 0.000000
vt 0.902033 0.000000
vt 0.682035 0.000000
vt 1.000000 0.000000
vt 0.487834 0.000000
vt 0.487834 0.500000
vt 0.487834 1.000000
vt 1.000000 1.000000
vt 0.902033 1.000000
vt 1.000000 0.500000
vt 0.682035 1.000000
vt 0.243917 1.000000
vt 0.000000 0.500000
vt 0.243917 0.000000
vt 0.682035 0.000000
vt 0.902033 0.000000
vt 1.000000 0.000000
vt 0.487834 0.000000
vt 0.487834 1.000000
vt 1.000000 1.000000
vt 0.902033 1.000000
vt 0.902033 0.500000
vt 1.000000 0.500000
vt 0.682035 1.000000
vt 0.682035 0.500000
vt 0.243917 0.500000
vt 0.243917 1.000000
vt 0.000000 0.500000
vt 0.243917 0.000000
vt 0.902033 0.000000
vt 0.682035 0.000000
vt 1.000000 0.000000
vt 0.487834 0.000000
vt 0.487834 0.500000
vt 0.487834 1.000000
vt 1.000000 1.000000
vt 1.000000 0.500000
vt 0.902033 0.500000
vt 0.902033 1.000000
vt 0.682035 0.500000
vt 0.682035 1.000000
vt 0.243917 0.500000
vt 0.000000 0.500000
vt 0.243917 1.000000
vt 0.243917 0.000000
vt 0.902033 0.000000
vt 0.682035 0.000000
vt 1.000000 0.000000
vt 0.487834 0.000000
vt 0.487834 0.500000
vt 0.487834 1.000000
vt 1.000000 1.000000
vt 0.902033 1.000000
vt 1.000000 0.500000
vt 0.682035 1.000000
vt 0.243917 1.000000
vt 0.000000 0.500000
vt 0.243917 0.000000
vt 0.682035 0.000000
vt 0.902033 0.000000
vt 1.000000 0.000000
vt 0.487834 0.000000
vt 0.487834 1.000000
vt 1.000000 1.000000
vt 0.902033 1.000000
vt 0.902033 0.500000
vt 1.000000 0.500000
vt 0.682035 1.000000
vt 0.682035 0.500000
vt 0.243917 0.500000
vt 0.243917 1.000000
vt 0.000000 0.500000
vt 0.243917 0.000000
vt 0.902033 0.000000
vt 0.682035 0.000000
vt 1.000000 0.000000
vt 0.487834 0.000000
vt 0.487834 0.500000
vt 0.487834 1.000000
vt 1.000000 1.000000
vt 1.000000 0.500000
vt 0.902033 0.500000
vt 0.902033 1.000000
vt 0.682035 0.500000
vt 0.682035 1.000000
vt 0.243917 0.500000
vt 0.000000 0.500000
vt 0.243917 1.000000
vt 0.243917 0.000000
vt 0.902033 0.000000
vt 0.682035 0.000000
vt 1.000000 0.000000
vt 0.487834 0.000000
vt 0.487834 0.500000
vt 0.487834 1.000000
vt 1.000000 1.000000
vt 0.902033 1.000000
vt 1.000000 0.500000
vt 0.682035 1.000000
vt 0.243917 1.000000
vt 0.000000 0.500000
vt 0.243917 0.000000
vt 0.682035 0.000000
vt 0.902033 0.000000
vt 1.000000 0.000000
vt 0.487834 0.000000
vt 0.487834 1.000000
vt 1.000000 1.000000
vt 0.902033 1.000000
vt 0.902033 0.500000
vt 1.000000 0.500000
vt 0.682035 1.000000
vt 0.682035 0.500000
vt 0.243917 0.500000
vt 0.243917 1.000000
vt 0.000000 0.500000
vt 0.243917 0.000000
vt 0.902033 0.000000
vt 0.682035 0.000000
vt 1.000000 0.000000
vt 0.487834 0.000000
vt 0.487834 0.500000
vt 0.487834 1.000000
vt 1.000000 1.000000
vt 1.000000 0.500000
vt 0.902033 0.500000
vt 0.902033 1.000000
vt 0.682035 0.500000
vt 0.682035 1.000000
vt 0.243917 0.500000
vt 0.000000 0.500000
vt 0.243917 1.000000
vt 0.243917 0.000000
vt 0.902033 0.000000
vt 0.682035 0.000000
vt 1.000000 0.000000
vt 0.487834 0.000000
vt 0.487834 0.500000
vt 0.487834 1.000000
vt 1.000000 1.000000
vt 0.902033 1.000000
vt 1.000000 0.500000
vt 0.682035 1.000000
vt 0.243917 1.000000
vt 0.000000 0.500000
vt 0.243917 0.000000
vt 0.682035 0.000000
vt 0.902033 0.000000
vt 1.000000 0.000000
vt 0.487834 0.000000
vt 0.487834 1.000000
vt 1.000000 1.000000
vt 0.902033 1.000000
vt 0.902033 0.500000
vt 1.000000 0.500000
vt 0.682035 1.000000
vt 0.682035 0.500000
vt 0.243917 0.500000
vt 0.243917 1.000000
vt 0.000000 0.500000
vt 0.243917 0.000000
vt 0.902033 0.000000
vt 0.682035 0.000000
vt 1.000000 0.000000
vt 0.487834 0.000000
vt 0.487834 0.500000
vt 0.487834 1.000000
vt 1.000000 1.000000
vt 1.000000 0.500000
vt 0.902033 0.500000
vt 0.902033 1.000000
vt 0.682035 0.500000
vt 0.682035 1.000000
vt 0.243917 0.500000
vt 0.000000 0.500000
vt 0.243917 1.000000
vt 0.243917 0.000000
vt 0.902033 0.000000
vt 0.682035 0.000000
vt 1.000000 0.000000
vt 0.487834 0.000000
vt 0.487834 0.500000
vt 0.487834 1.000000
vt 1.000000 1.000000
vt 0.902033 1.000000
vt 1.000000 0.500000
vt 0.682035 1.000000
vt 0.243917 1.000000
vt 0.000000 0.500000
vt 0.243917 0.000000
vt 0.682035 0.000000
vt 0.902033 0.000000
vt 1.000000 0.000000
vt 0.487834 0.000000
vt 0.487834 1.000000
vt 1.000000 1.000000
vt 0.902033 1.000000
vt 0.902033 0.500000
vt 1.000000 0.500000
vt 0.682035 1.000000
vt 0.682035 0.500000
vt 0.243917 0.500000
vt 0.243917 1.000000
vt 0.000000 0.500000
vt 0.243917 0.000000
vt 0.902033 0.000000
vt 0.682035 0.000000
vt 1.000000 0.000000
vt 0.487834 0.000000
vt 0.487834 0.500000
vt 0.487834 1.000000
vt 1.000000 1.000000
vt 1.000000 0.500000
vt 0.902033 0.500000
vt 0.902033 1.000000
vt 0.682035 0.500000
vt 0.682035 1.000000
vt 0.243917 0.500000
vt 0.000000 0.500000
vt 0.243917 1.000000
vt 0.243917 0.000000
vt 0.902033 0.000000
vt 0.682035 0.000000
vt 1.000000 0.000000
vt 0.487834 0.000000
vt 0.487834 0.500000
vt 0.487834 1.000000
vt 1.000000 1.000000
vt 0.902033 1.000000
vt 1.000000 0.500000
vt 0.682035 1.000000
vt 0.243917 1.000000
vt 0.000000 0.500000
vt 0.243917 0.000000
vt 0.682035 0.000000
vt 0.902033 0.000000
vt 1.000000 0.000000
vt 0.487834 0.000000
vt 0.487834 1.000000
vt 1.000000 1.000000
vt 0.902033 1.000000
vt 0.902033 0.500000
vt 1.000000 0.500000
vt 0.682035 1.000000
vt 0.682035 0.500000
vt 0.243917 0.500000
vt 0.243917 1.000000
vt 0.000000 0.500000
vt 0.243917 0.000000
vt 0.902033 0.000000
vt 0.682035 0.000000
vt 1.000000 0.000000
vt 0.487834 0.000000
vt 0.487834 0.500000
vt 0.487834 1.000000
vt 1.000000 1.000000
vt 1.000000 0.500000
vt 0.902033 0.500000
vt 0.902033 1.000000
vt 0.682035 0.500000
vt 0.682035 1.000000
vt 0.243917 0.500000
vt 0.000000 0.500000
vt 0.243917 1.000000
vt 0.243917 0.000000
vt 0.902033 0.000000
vt 0.682035 0.000000
vt 1.000000 0.000000
vt 0.487834 0.000000
vt 0.487834 0.500000
vt 0.487834 1.000000
vt 1.000000 1.000000
vt 0.902033 1.000000
vt 1.000000 0.500000
vt 0.682035 1.000000
vt 0.243917 1.000000
vt 0.000000 0.500000
vt 0.243917 0.000000
vt 0.682035 0.000000
vt 0.902033 0.000000
vt 1.000000 0.000000
vt 0.487834 0.000000
vt 0.487834 1.000000
vt 1.000000 1.000000
vt 0.902033 1.000000
vt 0.902033 0.500000
vt 1.000000 0.500000
vt 0.682035 1.000000
vt 0.682035 0.500000
vt 0.243917 0.500000
vt 0.243917 1.000000
vt 0.000000 0.500000
vt 0.243917 0.000000
vt 0.902033 0.000000
vt 0.682035 0.000000
vt 1.000000 0.000000
vt 0.487834 0.000000
vt 0.487834 0.500000
vt 0.487834 1.000000
vt 1.000000 1.000000
vt 1.000000 0.500000
vt 0.902033 0.500000
vt 0.902033 1.000000
vt 0.682035 0.500000
vt 0.682035 1.000000
vt 0.243917 0.500000
vt 0.000000 0.500000
vt 0.243917 1.000000
vt 0.243917 0.000000
vt 0.902033 0.000000
vt 0.682035 0.000000
vt 1.000000 0.000000
vt 0.487834 0.000000
vt 0.487834 0.500000
vt 0.487834 1.000000
vt 1.000000 1.000000
vt 0.902033 1.000000
vt 1.000000 0.500000
vt 0.682035 1.000000
vt 0.243917 1.000000
vt 0.000000 0.500000
vt 0.243917 0.000000
vt 0.682035 0.000000
vt 0.902033 0.000000
vt 1.000000 0.000000
vt 0.487834 0.000000
vt 0.487834 1.000000
vt 0.004545 0.786353
vt 0.004545 0.893377
vt 0.018182 0.893377
vt 0.018182 0.786353
vt 0.005677 0.984836
vt 0.018182 0.991470
vt 0.030687 0.984836
vt 0.031818 0.893377
vt 0.031818 0.786353
vt 0.005677 0.040554
vt 0.004545 0.285146
vt 0.018182 0.285146
vt 0.018182 0.022812
vt 0.004545 0.526063
vt 0.018182 0.526063
vt 0.031818 0.526063
vt 0.031818 0.285146
vt 0.030687 0.040554
vt 0.004545 0.678523
vt 0.018182 0.678523
vt 0.031818 0.678523
vt 0.000000 0.786755
vt 0.018182 0.786353
vt 0.018182 0.893377
vt 0.000000 0.893377
vt 0.036364 0.786755
vt 0.036364 0.893377
vt 0.036364 1.000000
vt 0.018182 1.000000
vt 0.000000 1.000000
vt 0.000000 0.000000
vt 0.018182 0.000000
vt 0.018182 0.285146
vt 0.000000 0.285146
vt 0.036364 0.000000
vt 0.036364 0.285146
vt 0.036364 0.570292
vt 0.018182 0.526063
vt 0.000000 0.570292
vt 0.018182 0.678523
vt 0.000000 0.678523
vt 0.036364 0.678523
vt 0.036364 0.786755
vt 0.036364 0.786353
vt 0.036364 0.893377
vt 0.036364 0.893377
vt 0.034909 0.991470
vt 0.036364 1.000000
vt 0.018182 1.000000
vt 0.018182 1.000000
vt 0.001455 0.991470
vt 0.000000 1.000000
vt 0.000000 0.893377
vt 0.000000 0.893377
vt 0.000000 0.786353
vt 0.000000 0.786755
vt 0.000000 0.000000
vt 0.001455 0.022812
vt 0.018182 0.000000
vt 0.018182 0.000000
vt 0.034909 0.022812
vt 0.036364 0.000000
vt 0.036364 0.285146
vt 0.036364 0.285146
vt 0.036364 0.526063
vt 0.036364 0.570292
vt 0.000000 0.570292
vt 0.000000 0.526063
vt 0.000000 0.285146
vt 0.000000 0.285146
vt 0.036364 0.678523
vt 0.036364 0.678523
vt 0.000000 0.678523
vt 0.000000 0.678523
vt 1.000000 1.000000
vt 0.902033 1.000000
vt 0.902033 0.500000
vt 1.000000 0.500000
vt 0.682035 1.000000
vt 0.682035 0.500000
vt 0.243917 0.500000
vt 0.243917 1.000000
vt 0.000000 0.500000
vt 0.243917 0.000000
vt 0.902033 0.000000
vt 0.682035 0.000000
vt 1.000000 0.000000
vt 0.487834 0.000000
vt 0.487834 0.500000
vt 0.487834 1.000000
vt 1.000000 1.000000
vt 1.000000 0.500000
vt 0.902033 0.500000
vt 0.902033 1.000000
vt 0.682035 0.500000
vt 0.682035 1.000000
vt 0.243917 0.500000
vt 0.000000 0.500000
vt 0.243917 1.000000
vt 0.243917 0.000000
vt 0.902033 0.000000
vt 0.682035 0.000000
vt 1.000000 0.000000
vt 0.487834 0.000000
vt 0.487834 0.500000
vt 0.487834 1.000000
vt 1.000000 1.000000
vt 0.902033 1.000000
vt 1.000000 0.500000
vt 0.682035 1.000000
vt 0.243917 1.000000
vt 0.000000 0.500000
vt 0.243917 0.000000
vt 0.682035 0.000000
vt 0.902033 0.000000
vt 1.000000 0.000000
vt 0.487834 0.000000
vt 0.487834 1.000000
vn 0.538150 0.821028 0.190544
vn 0.537682 0.820436 0.194380
vn 0.537693 0.820452 0.194280
vn 0.538152 0.821027 0.190545
vn 0.547130 0.831599 0.095356
vn 0.545961 0.830346 0.111586
vn 0.547748 0.825104 -0.138472
vn 0.548887 0.827472 -0.118375
vn 0.531685 0.795981 -0.289353
vn 0.548891 0.827470 -0.118375
vn 0.537679 0.820438 0.194379
vn 0.547129 0.831599 0.095356
vn 0.538154 0.821025 0.190547
vn 0.551095 0.834431 -0.004473
vn 0.551159 0.834332 -0.010672
vn 0.551094 0.834431 -0.004474
vn -0.538141 -0.821035 -0.190542
vn -0.538152 -0.821027 -0.190543
vn -0.537693 -0.820452 -0.194279
vn -0.537676 -0.820440 -0.194379
vn -0.545961 -0.830347 -0.111586
vn -0.547126 -0.831601 -0.095356
vn -0.547747 -0.825105 0.138473
vn -0.531684 -0.795982 0.289353
vn -0.548886 -0.827473 0.118376
vn -0.548890 -0.827470 0.118375
vn -0.537685 -0.820434 -0.194378
vn -0.547131 -0.831598 -0.095354
vn -0.538164 -0.821019 -0.190544
vn -0.551095 -0.834430 0.004476
vn -0.551158 -0.834333 0.010674
vn -0.551091 -0.834433 0.004475
vn 0.834185 -0.551468 0.004372
vn 0.754662 -0.477368 0.450116
vn 0.727892 -0.456704 0.511463
vn 0.834185 -0.551468 0.004372
vn 0.007561 0.043212 0.999037
vn 0.007524 0.043236 0.999037
vn 0.007524 0.043236 0.999037
vn 0.007561 0.043212 0.999037
vn 0.764776 -0.485310 0.423782
vn 0.783127 -0.500053 0.369673
vn 0.769223 -0.526175 -0.362540
vn 0.736869 -0.508776 -0.445165
vn 0.736869 -0.508776 -0.445165
vn 0.774653 -0.528992 -0.346526
vn -0.743837 0.468939 -0.476238
vn -0.774950 0.493433 -0.394938
vn -0.780135 0.497622 -0.379158
vn -0.743837 0.468939 -0.476238
vn -0.777790 0.530608 0.336895
vn -0.758613 0.520575 0.391801
vn -0.748099 0.514925 0.418570
vn -0.720393 0.499614 0.481062
vn -0.834382 0.550333 -0.030660
vn -0.834382 0.550333 -0.030660
vn 0.007597 0.043188 0.999038
vn 0.007597 0.043188 0.999038
vn -0.826311 0.538481 -0.165074
vn -0.825646 0.537775 -0.170605
vn 0.824085 -0.551246 -0.130430
vn 0.823338 -0.551020 -0.135985
vn 0.063580 0.996593 0.052536
vn 0.065606 0.996632 0.049189
vn 0.065555 0.996632 0.049277
vn 0.063585 0.996593 0.052536
vn 0.013489 0.990828 0.134454
vn 0.022007 0.992454 0.120627
vn -0.108146 0.938697 0.327341
vn -0.097769 0.945292 0.311229
vn -0.185548 0.875899 0.445391
vn -0.097771 0.945293 0.311227
vn 0.065609 0.996632 0.049190
vn 0.013490 0.990828 0.134453
vn 0.063590 0.996592 0.052536
vn -0.038685 0.975127 0.218246
vn -0.041913 0.973830 0.223378
vn -0.038685 0.975127 0.218247
vn -0.063578 -0.996593 -0.052536
vn -0.063581 -0.996593 -0.052535
vn -0.065555 -0.996632 -0.049276
vn -0.065608 -0.996632 -0.049187
vn -0.022008 -0.992454 -0.120626
vn -0.013492 -0.990828 -0.134453
vn 0.108144 -0.938697 -0.327344
vn 0.185542 -0.875898 -0.445396
vn 0.097769 -0.945292 -0.311230
vn 0.097767 -0.945292 -0.311230
vn -0.065608 -0.996632 -0.049191
vn -0.013490 -0.990828 -0.134455
vn -0.063583 -0.996593 -0.052533
vn 0.038684 -0.975127 -0.218247
vn 0.041911 -0.973830 -0.223379
vn 0.038683 -0.975127 -0.218247
vn -0.859599 0.078447 -0.504911
vn -0.542370 0.178206 -0.821022
vn -0.482367 0.190466 -0.855012
vn -0.859599 0.078447 -0.504911
vn 0.519013 0.240835 -0.820137
vn 0.519021 0.240825 -0.820134
vn 0.519021 0.240825 -0.820134
vn 0.519013 0.240835 -0.820136
vn -0.566681 0.172826 -0.805608
vn -0.614218 0.161514 -0.772431
vn -0.985949 -0.015709 -0.166310
vn -0.996095 -0.038591 -0.079413
vn -0.996095 -0.038591 -0.079413
vn -0.983113 -0.011353 -0.182645
vn 0.517409 -0.183451 0.835843
vn 0.592426 -0.166799 0.788168
vn 0.606104 -0.163488 0.778402
vn 0.517409 -0.183451 0.835843
vn 0.981271 0.008816 0.192429
vn 0.990417 0.023794 0.136048
vn 0.993675 0.031187 0.107881
vn 0.998000 0.048773 0.040215
vn 0.845942 -0.084769 0.526494
vn 0.845942 -0.084769 0.526494
vn 0.519005 0.240845 -0.820139
vn 0.519005 0.240845 -0.820139
vn 0.766705 -0.116308 0.631377
vn 0.763105 -0.117575 0.635489
vn -0.920224 0.045167 -0.388778
vn -0.922386 0.043761 -0.383783
vn -0.011525 0.999907 -0.007260
vn -0.011599 0.999927 -0.003350
vn -0.011597 0.999927 -0.003453
vn -0.011522 0.999907 -0.007260
vn -0.009717 0.994604 -0.103292
vn -0.010032 0.996154 -0.087048
vn -0.004963 0.943443 -0.331497
vn -0.005389 0.949965 -0.312311
vn -0.001660 0.881143 -0.472847
vn -0.005388 0.949965 -0.312311
vn -0.011599 0.999927 -0.003352
vn -0.009718 0.994604 -0.103292
vn -0.011519 0.999907 -0.007260
vn -0.007741 0.979345 -0.202049
vn -0.007615 0.978075 -0.208116
vn -0.007741 0.979345 -0.202050
vn 0.011528 -0.999907 0.007262
vn 0.011531 -0.999907 0.007261
vn 0.011599 -0.999927 0.003453
vn 0.011601 -0.999927 0.003352
vn 0.010033 -0.996154 0.087048
vn 0.009719 -0.994604 0.103292
vn 0.004964 -0.943442 0.331499
vn 0.001661 -0.881143 0.472846
vn 0.005391 -0.949964 0.312314
vn 0.005389 -0.949964 0.312313
vn 0.011600 -0.999927 0.003350
vn 0.009718 -0.994604 0.103293
vn 0.011533 -0.999907 0.007259
vn 0.007741 -0.979344 0.202051
vn 0.007617 -0.978074 0.208117
vn 0.007743 -0.979345 0.202051
vn 0.999949 0.008564 0.005428
vn 0.891434 0.113424 0.438725
vn 0.857538 0.127709 0.498317
vn 0.999949 0.008564 0.005428
vn -0.020469 0.236724 0.971361
vn -0.020492 0.236724 0.971361
vn -0.020492 0.236724 0.971361
vn -0.020469 0.236724 0.971361
vn 0.904325 0.107280 0.413143
vn 0.927939 0.094621 0.360522
vn 0.932894 -0.078953 -0.351390
vn 0.896553 -0.098832 -0.431769
vn 0.896553 -0.098832 -0.431769
vn 0.938926 -0.075110 -0.335821
vn -0.877684 -0.119523 -0.464096
vn -0.917383 -0.100534 -0.385098
vn -0.924066 -0.096840 -0.369762
vn -0.877684 -0.119523 -0.464096
vn -0.942412 0.072779 0.326439
vn -0.921032 0.085966 0.379882
vn -0.909224 0.092410 0.405920
vn -0.877864 0.107455 0.466699
vn -0.999411 -0.014764 -0.030993
vn -0.999411 -0.014764 -0.030993
vn -0.020447 0.236724 0.971362
vn -0.020447 0.236724 0.971362
vn -0.985745 -0.046546 -0.161681
vn -0.984788 -0.047846 -0.167046
vn 0.991797 -0.023459 -0.125648
vn 0.991067 -0.024781 -0.131046
vn 0.456157 0.888780 -0.044622
vn 0.456113 0.888598 -0.048528
vn 0.456116 0.888602 -0.048427
vn 0.456159 0.888779 -0.044622
vn 0.455017 0.888989 0.051565
vn 0.455508 0.889533 0.035259
vn 0.434721 0.855227 0.282144
vn 0.437441 0.860037 0.262643
vn 0.408188 0.807117 0.426550
vn 0.437438 0.860039 0.262643
vn 0.456116 0.888596 -0.048530
vn 0.455018 0.888988 0.051564
vn 0.456161 0.888778 -0.044621
vn 0.449372 0.880492 0.150991
vn 0.448874 0.879674 0.157117
vn 0.449373 0.880492 0.150992
vn -0.456146 -0.888786 0.044621
vn -0.456154 -0.888782 0.044622
vn -0.456114 -0.888603 0.048428
vn -0.456112 -0.888598 0.048530
vn -0.455508 -0.889533 -0.035260
vn -0.455018 -0.888988 -0.051565
vn -0.434721 -0.855226 -0.282144
vn -0.408187 -0.807118 -0.426550
vn -0.437440 -0.860038 -0.262643
vn -0.437441 -0.860038 -0.262642
vn -0.456113 -0.888597 0.048528
vn -0.455017 -0.888989 -0.051566
vn -0.456162 -0.888777 0.044623
vn -0.449372 -0.880492 -0.150994
vn -0.448874 -0.879674 -0.157118
vn -0.449374 -0.880491 -0.150993
vn -0.891017 0.453969 0.001389
vn -0.760023 0.480557 -0.437528
vn -0.725092 0.475618 -0.498026
vn -0.891017 0.453969 0.001389
vn 0.095068 0.160580 -0.982434
vn 0.095032 0.160598 -0.982434
vn 0.095032 0.160598 -0.982434
vn 0.095068 0.160580 -0.982434
vn -0.773534 0.481938 -0.411560
vn -0.798735 0.483440 -0.358203
vn -0.859446 0.361214 0.361770
vn -0.833408 0.330685 0.442808
vn -0.833408 0.330685 0.442808
vn -0.863591 0.366670 0.346068
vn 0.745752 -0.478769 0.463286
vn 0.787390 -0.482943 0.383123
vn 0.794560 -0.483289 0.367568
vn 0.745752 -0.478769 0.463286
vn 0.865961 -0.369877 -0.336606
vn 0.851131 -0.350853 -0.390486
vn 0.842663 -0.340941 -0.416749
vn 0.819509 -0.316108 -0.477997
vn 0.888523 -0.458179 0.024464
vn 0.888523 -0.458179 0.024464
vn 0.095104 0.160561 -0.982433
vn 0.095104 0.160561 -0.982433
vn 0.866001 -0.474852 0.156711
vn 0.864720 -0.475358 0.162154
vn -0.894100 0.427388 0.133884
vn -0.893875 0.426110 0.139349
vn 0.502039 0.838961 0.210004
vn 0.501557 0.838284 0.213822
vn 0.501568 0.838303 0.213723
vn 0.502038 0.838961 0.210004
vn 0.511546 0.851511 0.115106
vn 0.510265 0.849935 0.131300
vn 0.514808 0.849037 -0.118778
vn 0.515644 0.851107 -0.098635
vn 0.501488 0.821860 -0.270288
vn 0.515649 0.851103 -0.098634
vn 0.501554 0.838286 0.213823
vn 0.511545 0.851512 0.115106
vn 0.502037 0.838962 0.210004
vn 0.516408 0.856205 0.015385
vn 0.516538 0.856215 0.009186
vn 0.516405 0.856206 0.015384
vn -0.502034 -0.838964 -0.210003
vn -0.502038 -0.838962 -0.210003
vn -0.501568 -0.838303 -0.213723
vn -0.501555 -0.838286 -0.213821
vn -0.510264 -0.849936 -0.131299
vn -0.511544 -0.851513 -0.115105
vn -0.514806 -0.849038 0.118780
vn -0.501486 -0.821861 0.270288
vn -0.515645 -0.851106 0.098636
vn -0.515644 -0.851107 0.098635
vn -0.501556 -0.838285 -0.213823
vn -0.511546 -0.851512 -0.115104
vn -0.502041 -0.838960 -0.210003
vn -0.516405 -0.856206 -0.015383
vn -0.516536 -0.856216 -0.009185
vn -0.516404 -0.856207 -0.015384
vn 0.856023 -0.516920 0.004250
vn 0.768994 -0.453749 0.450289
vn 0.740783 -0.435251 0.511662
vn 0.856023 -0.516920 0.004250
vn -0.004396 0.026409 0.999642
vn -0.004396 0.026409 0.999642
vn -0.004396 0.026409 0.999642
vn -0.004396 0.026409 0.999642
vn 0.779685 -0.460826 0.423946
vn 0.799188 -0.473892 0.369763
vn 0.793806 -0.488062 -0.362860
vn 0.761605 -0.470593 -0.445534
vn 0.761605 -0.470593 -0.445534
vn 0.799180 -0.490925 -0.346848
vn -0.757557 0.446238 -0.476423
vn -0.790468 0.468060 -0.395070
vn -0.795980 0.471766 -0.379280
vn -0.757557 0.446238 -0.476423
vn -0.802277 0.492590 0.337205
vn -0.783261 0.482409 0.392152
vn -0.772803 0.476720 0.418943
vn -0.745136 0.461496 0.481450
vn -0.855906 0.516228 -0.030552
vn -0.855906 0.516228 -0.030552
vn -0.004396 0.026409 0.999642
vn -0.004396 0.026409 0.999642
vn -0.845962 0.507054 -0.165060
vn -0.845215 0.506471 -0.170586
vn 0.847284 -0.514827 -0.130627
vn 0.846585 -0.514537 -0.136183
vn -0.159622 0.987172 0.003567
vn -0.159470 0.987203 -0.000341
vn -0.159474 0.987202 -0.000240
vn -0.159618 0.987172 0.003567
vn -0.162574 0.981661 0.099553
vn -0.162179 0.983238 0.083314
vn -0.163448 0.930498 0.327809
vn -0.163725 0.936991 0.308613
vn -0.159113 0.868586 0.469299
vn -0.163732 0.936990 0.308611
vn -0.159470 0.987203 -0.000341
vn -0.162575 0.981661 0.099554
vn -0.159615 0.987173 0.003567
vn -0.164051 0.966314 0.198307
vn -0.164087 0.965042 0.204374
vn -0.164047 0.966314 0.198308
vn 0.159630 -0.987171 -0.003565
vn 0.159623 -0.987172 -0.003565
vn 0.159474 -0.987202 0.000243
vn 0.159471 -0.987203 0.000345
vn 0.162178 -0.983238 -0.083315
vn 0.162573 -0.981661 -0.099556
vn 0.163448 -0.930498 -0.327810
vn 0.159113 -0.868586 -0.469299
vn 0.163730 -0.936991 -0.308611
vn 0.163726 -0.936992 -0.308611
vn 0.159469 -0.987203 0.000344
vn 0.162574 -0.981661 -0.099556
vn 0.159616 -0.987173 -0.003564
vn 0.164048 -0.966314 -0.198309
vn 0.164086 -0.965042 -0.204377
vn 0.164048 -0.966313 -0.198310
vn -0.986349 -0.162487 -0.026707
vn -0.888012 -0.040729 -0.458014
vn -0.855779 -0.020878 -0.516920
vn -0.986349 -0.162487 -0.026707
vn 0.000708 0.236518 -0.971627
vn 0.000696 0.236500 -0.971631
vn 0.000696 0.236500 -0.971631
vn 0.000708 0.236518 -0.971627
vn -0.900220 -0.048970 -0.432672
vn -0.922447 -0.065456 -0.380536
vn -0.913063 -0.237134 0.331788
vn -0.875607 -0.250481 0.413003
vn -0.875607 -0.250481 0.413003
vn -0.919324 -0.234384 0.316082
vn 0.874965 0.032334 0.483106
vn 0.912538 0.057794 0.404888
vn 0.918821 0.062568 0.389685
vn 0.874965 0.032334 0.483106
vn 0.922950 0.232667 -0.306642
vn 0.900804 0.241987 -0.360547
vn 0.888627 0.246309 -0.386877
vn 0.856481 0.255758 -0.448361
vn 0.986337 0.156228 0.052278
vn 0.986337 0.156228 0.052278
vn 0.000719 0.236535 -0.971623
vn 0.000719 0.236535 -0.971623
vn 0.975482 0.122611 0.182763
vn 0.974644 0.121165 0.188116
vn -0.975687 -0.192584 0.104628
vn -0.974855 -0.193763 0.110061
vn 0.329122 0.943770 -0.031240
vn 0.329141 0.943626 -0.035151
vn 0.329139 0.943631 -0.035048
vn 0.329112 0.943774 -0.031241
vn 0.326936 0.942814 0.064920
vn 0.327520 0.943592 0.048629
vn 0.309061 0.904155 0.294931
vn 0.311297 0.909499 0.275509
vn 0.287912 0.851329 0.438571
vn 0.311294 0.909501 0.275507
vn 0.329139 0.943627 -0.035149
vn 0.326937 0.942814 0.064922
vn 0.329103 0.943777 -0.031242
vn 0.321466 0.932577 0.164194
vn 0.321021 0.931634 0.170305
vn 0.321467 0.932577 0.164194
vn -0.329121 -0.943771 0.031241
vn -0.329124 -0.943770 0.031243
vn -0.329141 -0.943630 0.035050
vn -0.329142 -0.943626 0.035151
vn -0.327521 -0.943592 -0.048629
vn -0.326938 -0.942813 -0.064921
vn -0.309062 -0.904154 -0.294933
vn -0.287913 -0.851327 -0.438575
vn -0.311292 -0.909501 -0.275509
vn -0.311300 -0.909499 -0.275508
vn -0.329141 -0.943626 0.035152
vn -0.326937 -0.942814 -0.064922
vn -0.329128 -0.943768 0.031244
vn -0.321469 -0.932576 -0.164196
vn -0.321022 -0.931633 -0.170306
vn -0.321466 -0.932577 -0.164196
vn -0.945275 0.326232 -0.005239
vn -0.814572 0.375292 -0.442300
vn -0.778648 0.375869 -0.502423
vn -0.945275 0.326232 -0.005239
vn 0.082356 0.182501 -0.979750
vn 0.082372 0.182515 -0.979747
vn 0.082372 0.182515 -0.979747
vn 0.082356 0.182501 -0.979750
vn -0.828417 0.374520 -0.416485
vn -0.854145 0.371961 -0.363430
vn -0.904989 0.234985 0.354651
vn -0.875834 0.207521 0.435719
vn -0.875834 0.207521 0.435719
vn -0.909685 0.239978 0.338944
vn 0.799896 -0.375822 0.467894
vn 0.842561 -0.373349 0.388203
vn 0.849874 -0.372536 0.372734
vn 0.799896 -0.375822 0.467894
vn 0.912368 -0.242942 -0.329492
vn 0.895618 -0.225589 -0.383377
vn 0.886139 -0.216686 -0.409640
vn 0.860419 -0.194648 -0.470947
vn 0.943090 -0.331088 0.031026
vn 0.943090 -0.331089 0.031026
vn 0.082341 0.182488 -0.979754
vn 0.082341 0.182488 -0.979754
vn 0.921698 -0.352075 0.162839
vn 0.920444 -0.352809 0.168255
vn -0.946055 0.298098 0.126957
vn -0.945712 0.296804 0.132425
vn 0.208332 0.953865 0.216195
vn 0.210421 0.952700 0.219285
vn 0.210366 0.952730 0.219207
vn 0.208329 0.953865 0.216197
vn 0.155972 0.977909 0.139165
vn 0.164966 0.974463 0.152340
vn 0.023361 0.998350 -0.052448
vn 0.034979 0.998745 -0.035846
vn -0.065270 0.981877 -0.177924
vn 0.034982 0.998745 -0.035847
vn 0.210418 0.952699 0.219290
vn 0.155970 0.977909 0.139167
vn 0.208326 0.953865 0.216199
vn 0.100044 0.993304 0.057772
vn 0.096537 0.993933 0.052697
vn 0.100044 0.993305 0.057771
vn -0.208336 -0.953865 -0.216190
vn -0.208325 -0.953865 -0.216200
vn -0.210366 -0.952729 -0.219209
vn -0.210424 -0.952699 -0.219286
vn -0.164966 -0.974463 -0.152340
vn -0.155971 -0.977909 -0.139165
vn -0.023362 -0.998350 0.052447
vn 0.065270 -0.981877 0.177924
vn -0.034980 -0.998745 0.035847
vn -0.034982 -0.998745 0.035845
vn -0.210418 -0.952699 -0.219293
vn -0.155969 -0.977909 -0.139165
vn -0.208313 -0.953865 -0.216209
vn -0.100043 -0.993305 -0.057770
vn -0.096536 -0.993934 -0.052697
vn -0.100042 -0.993305 -0.057770
vn 0.811273 -0.048286 -0.582670
vn 0.984542 -0.074294 -0.158611
vn 0.993039 -0.076962 -0.089167
vn 0.811273 -0.048286 -0.582670
vn 0.568465 -0.068970 0.819812
vn 0.568465 -0.068942 0.819814
vn 0.568465 -0.068942 0.819814
vn 0.568465 -0.068970 0.819812
vn 0.979550 -0.073035 -0.187478
vn 0.966949 -0.070371 -0.245066
vn 0.542182 -0.019336 -0.840038
vn 0.464404 -0.011819 -0.885545
vn 0.464404 -0.011819 -0.885545
vn 0.556444 -0.020745 -0.830626
vn -0.988711 0.075476 0.129441
vn -0.973212 0.071684 0.218450
vn -0.969372 0.070899 0.235140
vn -0.988711 0.075476 0.129441
vn -0.564906 0.021623 0.824872
vn -0.515464 0.016751 0.856747
vn -0.490235 0.014306 0.871473
vn -0.428290 0.008427 0.903602
vn -0.826239 0.050097 0.561088
vn -0.826239 0.050097 0.561087
vn 0.568465 -0.068999 0.819809
vn 0.568465 -0.068999 0.819809
vn -0.893896 0.058862 0.444393
vn -0.896354 0.059203 0.439368
vn 0.725753 -0.038387 -0.686884
vn 0.721907 -0.037963 -0.690948
vn 0.117434 0.989739 0.081401
vn 0.117330 0.989423 0.085297
vn 0.117334 0.989431 0.085196
vn 0.117439 0.989739 0.081400
vn 0.119539 0.992720 -0.014722
vn 0.119261 0.992862 0.001595
vn 0.120010 0.961665 -0.246572
vn 0.120229 0.966472 -0.226884
vn 0.116713 0.912149 -0.392890
vn 0.120232 0.966472 -0.226883
vn 0.117333 0.989423 0.085297
vn 0.119541 0.992720 -0.014723
vn 0.117443 0.989738 0.081399
vn 0.120550 0.986088 -0.114447
vn 0.120572 0.985351 -0.120603
vn 0.120549 0.986088 -0.114447
vn -0.117440 -0.989739 -0.081397
vn -0.117442 -0.989738 -0.081397
vn -0.117334 -0.989431 -0.085195
vn -0.117330 -0.989423 -0.085297
vn -0.119260 -0.992862 -0.001594
vn -0.119538 -0.992721 0.014723
vn -0.120008 -0.961665 0.246573
vn -0.116711 -0.912150 0.392888
vn -0.120230 -0.966472 0.226884
vn -0.120229 -0.966472 0.226883
vn -0.117333 -0.989423 -0.085296
vn -0.119540 -0.992720 0.014725
vn -0.117445 -0.989738 -0.081397
vn -0.120549 -0.986088 0.114449
vn -0.120572 -0.985351 0.120604
vn -0.120548 -0.986088 0.114448
vn 0.992612 -0.121229 0.004985
vn 0.894060 -0.041766 0.445996
vn 0.861678 -0.028522 0.506653
vn 0.992612 -0.121229 0.004985
vn 0.000224 0.150997 0.988534
vn 0.000247 0.150995 0.988535
vn 0.000247 0.150995 0.988534
vn 0.000224 0.150997 0.988534
vn 0.906318 -0.047249 0.419946
vn 0.928642 -0.058171 0.366389
vn 0.918513 -0.167592 -0.358117
vn 0.880744 -0.175434 -0.439902
vn 0.880744 -0.175434 -0.439902
vn 0.924832 -0.165949 -0.342266
vn -0.880947 0.036240 -0.471826
vn -0.918682 0.053159 -0.391405
vn -0.924990 0.056318 -0.375794
vn -0.880947 0.036240 -0.471826
vn -0.928489 0.164929 0.332726
vn -0.906140 0.170488 0.387097
vn -0.893874 0.173026 0.413584
vn -0.861454 0.178489 0.475435
vn -0.992618 0.117254 -0.030995
vn -0.992618 0.117254 -0.030995
vn 0.000200 0.151000 0.988534
vn 0.000200 0.151000 0.988534
vn -0.981814 0.095632 -0.163999
vn -0.980978 0.094696 -0.169457
vn 0.981751 -0.140277 -0.128403
vn 0.980910 -0.141014 -0.133904
vn 0.116243 0.715106 -0.689283
vn -0.032958 0.707017 -0.706428
vn -0.037905 0.999281 -0.000001
vn 0.169305 0.985564 0.000000
vn -0.103523 0.695326 -0.711199
vn -0.260234 0.965546 -0.000002
vn -0.103523 0.695328 0.711198
vn -0.032958 0.707017 0.706428
vn 0.116244 0.715108 0.689281
vn 0.727872 0.262439 -0.633505
vn 0.682178 0.374154 -0.628206
vn 0.878159 0.478370 0.000000
vn 0.970982 0.239152 0.000000
vn 0.546800 0.541496 -0.638586
vn 0.714849 0.699279 0.000000
vn 0.546803 0.541500 0.638580
vn 0.682179 0.374155 0.628204
vn 0.727872 0.262439 0.633505
vn 0.317127 0.674676 -0.666516
vn 0.433712 0.901052 0.000000
vn 0.317130 0.674680 0.666510
vn -0.135325 -0.670481 -0.729481
vn -0.187031 -0.982354 -0.000000
vn 0.005719 -0.999984 0.000001
vn -0.002484 -0.686447 -0.727176
vn -0.135324 -0.670479 0.729483
vn -0.002484 -0.686446 0.727177
vn 0.038492 -0.694490 0.718472
vn -0.053838 -0.998550 0.000001
vn 0.038492 -0.694491 -0.718471
vn -0.689052 -0.347022 -0.636226
vn -0.841278 -0.540603 -0.000000
vn -0.883185 -0.469025 0.000000
vn -0.668330 -0.351331 -0.655669
vn -0.689052 -0.347022 0.636225
vn -0.668331 -0.351332 0.655667
vn -0.526233 -0.483593 0.699440
vn -0.729670 -0.683800 -0.000000
vn -0.526231 -0.483592 -0.699443
vn -0.447318 -0.894375 0.000000
vn -0.320526 -0.622043 -0.714371
vn -0.320526 -0.622042 0.714372
vn -0.010820 0.030715 0.999470
vn -0.017249 0.014438 0.999747
vn -0.152170 -0.018628 0.988179
vn -0.988597 -0.150586 -0.000003
vn -0.152170 -0.018630 -0.988179
vn -0.017249 0.014438 -0.999747
vn -0.010820 0.030715 -0.999470
vn 0.081332 -0.185915 -0.979194
vn 0.404912 -0.914356 0.000000
vn 0.081332 -0.185915 0.979194
vn 0.016950 0.017279 0.999707
vn 0.022671 0.043193 0.998810
vn 0.022672 0.043193 -0.998810
vn 0.016950 0.017279 -0.999707
vn -0.000422 0.038959 0.999241
vn -0.000422 0.038960 -0.999241
vn 0.216797 0.938444 -0.268929
vn 0.216621 0.937396 -0.272697
vn 0.216624 0.937424 -0.272598
vn 0.216791 0.938444 -0.268931
vn 0.219948 0.959657 -0.175160
vn 0.219555 0.956680 -0.191202
vn 0.219103 0.973957 0.058322
vn 0.219655 0.974834 0.038080
vn 0.211952 0.954145 0.211385
vn 0.219655 0.974834 0.038080
vn 0.216618 0.937398 -0.272695
vn 0.219948 0.959657 -0.175161
vn 0.216785 0.938445 -0.268934
vn 0.221073 0.972290 -0.076019
vn 0.221069 0.972754 -0.069836
vn 0.221072 0.972290 -0.076018
vn -0.216796 -0.938444 0.268928
vn -0.216794 -0.938444 0.268928
vn -0.216624 -0.937424 0.272600
vn -0.216619 -0.937397 0.272698
vn -0.219556 -0.956680 0.191202
vn -0.219949 -0.959657 0.175159
vn -0.219105 -0.973957 -0.058322
vn -0.211954 -0.954145 -0.211382
vn -0.219654 -0.974834 -0.038080
vn -0.219659 -0.974833 -0.038080
vn -0.216620 -0.937396 0.272698
vn -0.219949 -0.959657 0.175158
vn -0.216793 -0.938445 0.268928
vn -0.221074 -0.972290 0.076016
vn -0.221071 -0.972754 0.069834
vn -0.221073 -0.972290 0.076017
vn -0.975277 0.220951 -0.003885
vn -0.874919 0.179724 -0.449685
vn -0.842612 0.169858 -0.511032
vn -0.975277 0.220951 -0.003885
vn 0.007736 -0.043071 -0.999042
vn 0.007736 -0.043070 -0.999042
vn 0.007736 -0.043070 -0.999042
vn 0.007736 -0.043071 -0.999042
vn -0.887170 0.183606 -0.423342
vn -0.909522 0.190919 -0.369215
vn -0.905373 0.220326 0.362984
vn -0.868915 0.215480 0.445596
vn -0.868915 0.215480 0.445596
vn -0.911453 0.221042 0.346978
vn 0.861819 -0.175706 0.475810
vn 0.899542 -0.187616 0.394492
vn 0.905866 -0.189701 0.378709
vn 0.861819 -0.175706 0.475810
vn 0.914970 -0.221406 -0.337356
vn 0.893460 -0.218807 -0.392241
vn 0.881607 -0.217249 -0.419014
vn 0.850252 -0.212727 -0.481476
vn 0.975069 -0.219841 0.030179
vn 0.975069 -0.219841 0.030179
vn 0.007736 -0.043071 -0.999042
vn 0.007736 -0.043071 -0.999042
vn 0.963400 -0.211588 0.164596
vn 0.962533 -0.211163 0.170120
vn -0.965670 0.224387 0.130894
vn -0.964884 0.224440 0.136475
s 1
g plant037
usemtl initialShadingGroup
f 15/1/1 14/2/2 16/3/3 17/4/4
f 16/3/3 14/2/2 28/5/5 29/6/6
f 20/7/7 21/8/8 22/9/9
f 23/10/10 20/7/7 22/9/9
f 24/11/11 16/3/3 29/6/6 30/12/12
f 17/4/4 16/3/3 24/11/11 26/13/13
f 25/14/14 19/15/15 20/7/7 23/10/10
f 19/15/15 18/16/16 21/8/8 20/7/7
s 3
f 2/17/17 10/18/18 9/19/19 3/20/20
f 9/19/19 32/21/21 27/22/22 3/20/20
f 12/23/23 7/24/24 13/25/25
f 11/26/26 7/24/24 12/23/23
f 4/27/27 31/28/28 32/21/21 9/19/19
f 10/18/18 1/29/29 4/27/27 9/19/19
f 6/30/30 11/26/26 12/23/23 8/31/31
f 8/31/31 12/23/23 13/25/25 5/32/32
s 5
f 2/33/33 3/34/34 14/2/35 15/1/36
s 6
f 10/35/37 2/33/38 15/1/39 17/4/40
s 5
f 3/34/34 27/36/41 28/5/42 14/2/35
f 13/37/43 7/38/44 22/9/45 21/8/46
s 8
f 7/38/47 11/39/48 23/10/49 22/9/50
f 30/12/51 31/40/52 4/41/53 24/11/54
f 4/41/53 1/42/55 26/13/56 24/11/54
s 6
f 1/42/57 10/35/37 17/4/40 26/13/58
s 8
f 11/39/48 6/43/59 25/14/60 23/10/49
s 5
f 5/44/61 13/37/43 21/8/46 18/16/62
f 28/5/42 27/36/41 5/44/61 18/16/62
s 1
f 29/6/6 28/5/5 18/16/16 19/15/15
f 30/12/12 29/6/6 19/15/15 25/14/14
s 8
f 6/43/59 31/40/52 30/12/51 25/14/60
s 3
f 32/21/21 31/28/28 6/30/30 8/31/31
f 27/22/22 32/21/21 8/31/31 5/32/32
s 10
f 47/45/63 46/46/64 48/47/65 49/48/66
f 48/47/65 46/46/64 60/49/67 61/50/68
f 52/51/69 53/52/70 54/53/71
f 55/54/72 52/51/69 54/53/71
f 56/55/73 48/47/65 61/50/68 62/56/74
f 49/48/66 48/47/65 56/55/73 58/57/75
f 57/58/76 51/59/77 52/51/69 55/54/72
f 51/59/77 50/60/78 53/52/70 52/51/69
s 12
f 34/61/79 42/62/80 41/63/81 35/64/82
f 41/63/81 64/65/83 59/66/84 35/64/82
f 44/67/85 39/68/86 45/69/87
f 43/70/88 39/68/86 44/67/85
f 36/71/89 63/72/90 64/65/83 41/63/81
f 42/62/80 33/73/91 36/71/89 41/63/81
f 38/74/92 43/70/88 44/67/85 40/75/93
f 40/75/93 44/67/85 45/69/87 37/76/94
s 14
f 34/77/95 35/78/96 46/46/97 47/45/98
s 15
f 42/79/99 34/77/100 47/45/101 49/48/102
s 14
f 35/78/96 59/80/103 60/49/104 46/46/97
f 45/81/105 39/82/106 54/53/107 53/52/108
s 17
f 39/82/109 43/83/110 55/54/111 54/53/112
f 62/56/113 63/84/114 36/85/115 56/55/116
f 36/85/115 33/86/117 58/57/118 56/55/116
s 15
f 33/86/119 42/79/99 49/48/102 58/57/120
s 17
f 43/83/110 38/87/121 57/58/122 55/54/111
s 14
f 37/88/123 45/81/105 53/52/108 50/60/124
f 60/49/104 59/80/103 37/88/123 50/60/124
s 10
f 61/50/68 60/49/67 50/60/78 51/59/77
f 62/56/74 61/50/68 51/59/77 57/58/76
s 17
f 38/87/121 63/84/114 62/56/113 57/58/122
s 12
f 64/65/83 63/72/90 38/74/92 40/75/93
f 59/66/84 64/65/83 40/75/93 37/76/94
s 19
f 79/89/125 78/90/126 80/91/127 81/92/128
f 80/91/127 78/90/126 92/93/129 93/94/130
f 84/95/131 85/96/132 86/97/133
f 87/98/134 84/95/131 86/97/133
f 88/99/135 80/91/127 93/94/130 94/100/136
f 81/92/128 80/91/127 88/99/135 90/101/137
f 89/102/138 83/103/139 84/95/131 87/98/134
f 83/103/139 82/104/140 85/96/132 84/95/131
s 21
f 66/105/141 74/106/142 73/107/143 67/108/144
f 73/107/143 96/109/145 91/110/146 67/108/144
f 76/111/147 71/112/148 77/113/149
f 75/114/150 71/112/148 76/111/147
f 68/115/151 95/116/152 96/109/145 73/107/143
f 74/106/142 65/117/153 68/115/151 73/107/143
f 70/118/154 75/114/150 76/111/147 72/119/155
f 72/119/155 76/111/147 77/113/149 69/120/156
s 23
f 66/121/157 67/122/158 78/90/159 79/89/160
s 24
f 74/123/161 66/121/162 79/89/163 81/92/164
s 23
f 67/122/158 91/124/165 92/93/166 78/90/159
f 77/125/167 71/126/168 86/97/169 85/96/170
s 26
f 71/126/171 75/127/172 87/98/173 86/97/174
f 94/100/175 95/128/176 68/129/177 88/99/178
f 68/129/177 65/130/179 90/101/180 88/99/178
s 24
f 65/130/181 74/123/161 81/92/164 90/101/182
s 26
f 75/127/172 70/131/183 89/102/184 87/98/173
s 23
f 69/132/185 77/125/167 85/96/170 82/104/186
f 92/93/166 91/124/165 69/132/185 82/104/186
s 19
f 93/94/130 92/93/129 82/104/140 83/103/139
f 94/100/136 93/94/130 83/103/139 89/102/138
s 26
f 70/131/183 95/128/176 94/100/175 89/102/184
s 21
f 96/109/145 95/116/152 70/118/154 72/119/155
f 91/110/146 96/109/145 72/119/155 69/120/156
s 28
f 111/133/187 110/134/188 112/135/189 113/136/190
f 112/135/189 110/134/188 124/137/191 125/138/192
f 116/139/193 117/140/194 118/141/195
f 119/142/196 116/139/193 118/141/195
f 120/143/197 112/135/189 125/138/192 126/144/198
f 113/136/190 112/135/189 120/143/197 122/145/199
f 121/146/200 115/147/201 116/139/193 119/142/196
f 115/147/201 114/148/202 117/140/194 116/139/193
s 30
f 98/149/203 106/150/204 105/151/205 99/152/206
f 105/151/205 128/153/207 123/154/208 99/152/206
f 108/155/209 103/156/210 109/157/211
f 107/158/212 103/156/210 108/155/209
f 100/159/213 127/160/214 128/153/207 105/151/205
f 106/150/204 97/161/215 100/159/213 105/151/205
f 102/162/216 107/158/212 108/155/209 104/163/217
f 104/163/217 108/155/209 109/157/211 101/164/218
s 32
f 98/165/219 99/166/220 110/134/221 111/133/222
s 33
f 106/167/223 98/165/224 111/133/225 113/136/226
s 32
f 99/166/220 123/168/227 124/137/228 110/134/221
f 109/169/229 103/170/230 118/141/231 117/140/232
s 35
f 103/170/233 107/171/234 119/142/235 118/141/236
f 126/144/237 127/172/238 100/173/239 120/143/240
f 100/173/239 97/174/241 122/145/242 120/143/240
s 33
f 97/174/243 106/167/223 113/136/226 122/145/244
s 35
f 107/171/234 102/175/245 121/146/246 119/142/235
s 32
f 101/176/247 109/169/229 117/140/232 114/148/248
f 124/137/228 123/168/227 101/176/247 114/148/248
s 28
f 125/138/192 124/137/191 114/148/202 115/147/201
f 126/144/198 125/138/192 115/147/201 121/146/200
s 35
f 102/175/245 127/172/238 126/144/237 121/146/246
s 30
f 128/153/207 127/160/214 102/162/216 104/163/217
f 123/154/208 128/153/207 104/163/217 101/164/218
s 37
f 143/177/249 142/178/250 144/179/251 145/180/252
f 144/179/251 142/178/250 156/181/253 157/182/254
f 148/183/255 149/184/256 150/185/257
f 151/186/258 148/183/255 150/185/257
f 152/187/259 144/179/251 157/182/254 158/188/260
f 145/180/252 144/179/251 152/187/259 154/189/261
f 153/190/262 147/191/263 148/183/255 151/186/258
f 147/191/263 146/192/264 149/184/256 148/183/255
s 39
f 130/193/265 138/194/266 137/195/267 131/196/268
f 137/195/267 160/197/269 155/198/270 131/196/268
f 140/199/271 135/200/272 141/201/273
f 139/202/274 135/200/272 140/199/271
f 132/203/275 159/204/276 160/197/269 137/195/267
f 138/194/266 129/205/277 132/203/275 137/195/267
f 134/206/278 139/202/274 140/199/271 136/207/279
f 136/207/279 140/199/271 141/201/273 133/208/280
s 41
f 130/209/281 131/210/282 142/178/283 143/177/284
s 42
f 138/211/285 130/209/286 143/177/287 145/180/288
s 41
f 131/210/282 155/212/289 156/181/290 142/178/283
f 141/213/291 135/214/292 150/185/293 149/184/294
s 44
f 135/214/295 139/215/296 151/186/297 150/185/298
f 158/188/299 159/216/300 132/217/301 152/187/302
f 132/217/301 129/218/303 154/189/304 152/187/302
s 42
f 129/218/305 138/211/285 145/180/288 154/189/306
s 44
f 139/215/296 134/219/307 153/190/308 151/186/297
s 41
f 133/220/309 141/213/291 149/184/294 146/192/310
f 156/181/290 155/212/289 133/220/309 146/192/310
s 37
f 157/182/254 156/181/253 146/192/264 147/191/263
f 158/188/260 157/182/254 147/191/263 153/190/262
s 44
f 134/219/307 159/216/300 158/188/299 153/190/308
s 39
f 160/197/269 159/204/276 134/206/278 136/207/279
f 155/198/270 160/197/269 136/207/279 133/208/280
s 46
f 175/221/311 174/222/312 176/223/313 177/224/314
f 176/223/313 174/222/312 188/225/315 189/226/316
f 180/227/317 181/228/318 182/229/319
f 183/230/320 180/227/317 182/229/319
f 184/231/321 176/223/313 189/226/316 190/232/322
f 177/224/314 176/223/313 184/231/321 186/233/323
f 185/234/324 179/235/325 180/227/317 183/230/320
f 179/235/325 178/236/326 181/228/318 180/227/317
s 48
f 162/237/327 170/238/328 169/239/329 163/240/330
f 169/239/329 192/241/331 187/242/332 163/240/330
f 172/243/333 167/244/334 173/245/335
f 171/246/336 167/244/334 172/243/333
f 164/247/337 191/248/338 192/241/331 169/239/329
f 170/238/328 161/249/339 164/247/337 169/239/329
f 166/250/340 171/246/336 172/243/333 168/251/341
f 168/251/341 172/243/333 173/245/335 165/252/342
s 50
f 162/253/343 163/254/344 174/222/345 175/221/346
s 51
f 170/255/347 162/253/348 175/221/349 177/224/350
s 50
f 163/254/344 187/256/351 188/225/352 174/222/345
f 173/257/353 167/258/354 182/229/355 181/228/356
s 53
f 167/258/357 171/259/358 183/230/359 182/229/360
f 190/232/361 191/260/362 164/261/363 184/231/364
f 164/261/363 161/262/365 186/233/366 184/231/364
s 51
f 161/262/367 170/255/347 177/224/350 186/233/368
s 53
f 171/259/358 166/263/369 185/234/370 183/230/359
s 50
f 165/264/371 173/257/353 181/228/356 178/236/372
f 188/225/352 187/256/351 165/264/371 178/236/372
s 46
f 189/226/316 188/225/315 178/236/326 179/235/325
f 190/232/322 189/226/316 179/235/325 185/234/324
s 53
f 166/263/369 191/260/362 190/232/361 185/234/370
s 48
f 192/241/331 191/248/338 166/250/340 168/251/341
f 187/242/332 192/241/331 168/251/341 165/252/342
s 55
f 207/265/373 206/266/374 208/267/375 209/268/376
f 208/267/375 206/266/374 220/269/377 221/270/378
f 212/271/379 213/272/380 214/273/381
f 215/274/382 212/271/379 214/273/381
f 216/275/383 208/267/375 221/270/378 222/276/384
f 209/268/376 208/267/375 216/275/383 218/277/385
f 217/278/386 211/279/387 212/271/379 215/274/382
f 211/279/387 210/280/388 213/272/380 212/271/379
s 57
f 194/281/389 202/282/390 201/283/391 195/284/392
f 201/283/391 224/285/393 219/286/394 195/284/392
f 204/287/395 199/288/396 205/289/397
f 203/290/398 199/288/396 204/287/395
f 196/291/399 223/292/400 224/285/393 201/283/391
f 202/282/390 193/293/401 196/291/399 201/283/391
f 198/294/402 203/290/398 204/287/395 200/295/403
f 200/295/403 204/287/395 205/289/397 197/296/404
s 59
f 194/297/405 195/298/406 206/266/407 207/265/408
s 60
f 202/299/409 194/297/410 207/265/411 209/268/412
s 59
f 195/298/406 219/300/413 220/269/414 206/266/407
f 205/301/415 199/302/416 214/273/417 213/272/418
s 62
f 199/302/419 203/303/420 215/274/421 214/273/422
f 222/276/423 223/304/424 196/305/425 216/275/426
f 196/305/425 193/306/427 218/277/428 216/275/426
s 60
f 193/306/429 202/299/409 209/268/412 218/277/430
s 62
f 203/303/420 198/307/431 217/278/432 215/274/421
s 59
f 197/308/433 205/301/415 213/272/418 210/280/434
f 220/269/414 219/300/413 197/308/433 210/280/434
s 55
f 221/270/378 220/269/377 210/280/388 211/279/387
f 222/276/384 221/270/378 211/279/387 217/278/386
s 62
f 198/307/431 223/304/424 222/276/423 217/278/432
s 57
f 224/285/393 223/292/400 198/294/402 200/295/403
f 219/286/394 224/285/393 200/295/403 197/296/404
s 64
f 239/309/435 238/310/436 240/311/437 241/312/438
f 240/311/437 238/310/436 252/313/439 253/314/440
f 244/315/441 245/316/442 246/317/443
f 247/318/444 244/315/441 246/317/443
f 248/319/445 240/311/437 253/314/440 254/320/446
f 241/312/438 240/311/437 248/319/445 250/321/447
f 249/322/448 243/323/449 244/315/441 247/318/444
f 243/323/449 242/324/450 245/316/442 244/315/441
s 66
f 226/325/451 234/326/452 233/327/453 227/328/454
f 233/327/453 256/329/455 251/330/456 227/328/454
f 236/331/457 231/332/458 237/333/459
f 235/334/460 231/332/458 236/331/457
f 228/335/461 255/336/462 256/329/455 233/327/453
f 234/326/452 225/337/463 228/335/461 233/327/453
f 230/338/464 235/334/460 236/331/457 232/339/465
f 232/339/465 236/331/457 237/333/459 229/340/466
s 68
f 226/341/467 227/342/468 238/310/469 239/309/470
s 69
f 234/343/471 226/341/472 239/309/473 241/312/474
s 68
f 227/342/468 251/344/475 252/313/476 238/310/469
f 237/345/477 231/346/478 246/317/479 245/316/480
s 71
f 231/346/481 235/347/482 247/318/483 246/317/484
f 254/320/485 255/348/486 228/349/487 248/319/488
f 228/349/487 225/350/489 250/321/490 248/319/488
s 69
f 225/350/491 234/343/471 241/312/474 250/321/492
s 71
f 235/347/482 230/351/493 249/322/494 247/318/483
s 68
f 229/352/495 237/345/477 245/316/480 242/324/496
f 252/313/476 251/344/475 229/352/495 242/324/496
s 64
f 253/314/440 252/313/439 242/324/450 243/323/449
f 254/320/446 253/314/440 243/323/449 249/322/448
s 71
f 230/351/493 255/348/486 254/320/485 249/322/494
s 66
f 256/329/455 255/336/462 230/338/464 232/339/465
f 251/330/456 256/329/455 232/339/465 229/340/466
s 73
f 271/353/497 270/354/498 272/355/499 273/356/500
f 272/355/499 270/354/498 284/357/501 285/358/502
f 276/359/503 277/360/504 278/361/505
f 279/362/506 276/359/503 278/361/505
f 280/363/507 272/355/499 285/358/502 286/364/508
f 273/356/500 272/355/499 280/363/507 282/365/509
f 281/366/510 275/367/511 276/359/503 279/362/506
f 275/367/511 274/368/512 277/360/504 276/359/503
s 75
f 258/369/513 266/370/514 265/371/515 259/372/516
f 265/371/515 288/373/517 283/374/518 259/372/516
f 268/375/519 263/376/520 269/377/521
f 267/378/522 263/376/520 268/375/519
f 260/379/523 287/380/524 288/373/517 265/371/515
f 266/370/514 257/381/525 260/379/523 265/371/515
f 262/382/526 267/378/522 268/375/519 264/383/527
f 264/383/527 268/375/519 269/377/521 261/384/528
s 77
f 258/385/529 259/386/530 270/354/531 271/353/532
s 78
f 266/387/533 258/385/534 271/353/535 273/356/536
s 77
f 259/386/530 283/388/537 284/357/538 270/354/531
f 269/389/539 263/390/540 278/361/541 277/360/542
s 80
f 263/390/543 267/391/544 279/362/545 278/361/546
f 286/364/547 287/392/548 260/393/549 280/363/550
f 260/393/549 257/394/551 282/365/552 280/363/550
s 78
f 257/394/553 266/387/533 273/356/536 282/365/554
s 80
f 267/391/544 262/395/555 281/366/556 279/362/545
s 77
f 261/396/557 269/389/539 277/360/542 274/368/558
f 284/357/538 283/388/537 261/396/557 274/368/558
s 73
f 285/358/502 284/357/501 274/368/512 275/367/511
f 286/364/508 285/358/502 275/367/511 281/366/510
s 80
f 262/395/555 287/392/548 286/364/547 281/366/556
s 75
f 288/373/517 287/380/524 262/382/526 264/383/527
f 283/374/518 288/373/517 264/383/527 261/384/528
s 82
f 297/397/559 319/398/560 333/399/561 322/400/562
f 319/398/560 300/401/563 320/402/564 333/399/561
f 333/399/561 320/402/564 299/403/565 321/404/566
f 322/400/562 333/399/561 321/404/566 298/405/567
f 301/406/568 323/407/569 334/408/570 326/409/571
f 323/407/569 304/410/572 324/411/573 334/408/570
f 334/408/570 324/411/573 303/412/574 325/413/575
f 326/409/571 334/408/570 325/413/575 302/414/576
f 304/410/572 327/415/577 335/416/578 324/411/573
f 327/415/577 297/397/559 322/400/562 335/416/578
f 335/416/578 322/400/562 298/405/567 328/417/579
f 324/411/573 335/416/578 328/417/579 303/412/574
f 295/418/580 329/419/581 336/420/582 332/421/583
f 329/419/581 296/422/584 330/423/585 336/420/582
f 336/420/582 330/423/585 292/424/586 331/425/587
f 332/421/583 336/420/582 331/425/587 291/426/588
f 289/427/589 305/428/590 337/429/591 308/430/592
f 305/428/590 290/431/593 306/432/594 337/429/591
f 337/429/591 306/432/594 294/433/595 307/434/596
f 308/430/592 337/429/591 307/434/596 293/435/597
f 293/435/597 307/434/596 338/436/598 310/437/599
f 307/434/596 294/433/595 309/438/600 338/436/598
f 338/436/598 309/438/600 296/422/584 329/419/581
f 310/437/599 338/436/598 329/419/581 295/418/580
f 296/439/584 311/440/601 339/441/602 330/442/585
f 311/440/601 298/405/567 321/404/566 339/441/602
f 339/441/602 321/404/566 299/403/565 312/443/603
f 330/442/585 339/441/602 312/443/603 292/444/586
f 292/444/586 312/443/603 340/445/604 331/446/587
f 312/443/603 299/403/565 320/402/564 340/445/604
f 340/445/604 320/402/564 300/401/563 313/447/605
f 331/446/587 340/445/604 313/447/605 291/448/588
f 291/448/588 313/447/605 341/449/606 332/450/583
f 313/447/605 300/401/563 319/398/560 341/449/606
f 341/449/606 319/398/560 297/397/559 314/451/607
f 332/450/583 341/449/606 314/451/607 295/452/580
f 289/453/589 315/454/608 342/455/609 305/456/590
f 315/454/608 301/406/568 326/409/571 342/455/609
f 342/455/609 326/409/571 302/414/576 316/457/610
f 305/456/590 342/455/609 316/457/610 290/458/593
f 290/458/593 316/457/610 343/459/611 306/460/594
f 316/457/610 302/414/576 325/413/575 343/459/611
f 343/459/611 325/413/575 303/412/574 317/461/612
f 306/460/594 343/459/611 317/461/612 294/462/595
f 293/463/597 318/464/613 344/465/614 308/466/592
f 318/464/613 304/410/572 323/407/569 344/465/614
f 344/465/614 323/407/569 301/406/568 315/454/608
f 308/466/592 344/465/614 315/454/608 289/453/589
f 294/462/595 317/461/612 345/467/615 309/468/600
f 317/461/612 303/412/574 328/417/579 345/467/615
f 345/467/615 328/417/579 298/405/567 311/440/601
f 309/468/600 345/467/615 311/440/601 296/439/584
f 295/452/580 314/451/607 346/469/616 310/470/599
f 314/451/607 297/397/559 327/415/577 346/469/616
f 346/469/616 327/415/577 304/410/572 318/464/613
f 310/470/599 346/469/616 318/464/613 293/463/597
s 86
f 361/471/617 360/472/618 362/473/619 363/474/620
f 362/473/619 360/472/618 374/475/621 375/476/622
f 366/477/623 367/478/624 368/479/625
f 369/480/626 366/477/623 368/479/625
f 370/481/627 362/473/619 375/476/622 376/482/628
f 363/474/620 362/473/619 370/481/627 372/483/629
f 371/484/630 365/485/631 366/477/623 369/480/626
f 365/485/631 364/486/632 367/478/624 366/477/623
s 88
f 348/487/633 356/488/634 355/489/635 349/490/636
f 355/489/635 378/491/637 373/492/638 349/490/636
f 358/493/639 353/494/640 359/495/641
f 357/496/642 353/494/640 358/493/639
f 350/497/643 377/498/644 378/491/637 355/489/635
f 356/488/634 347/499/645 350/497/643 355/489/635
f 352/500/646 357/496/642 358/493/639 354/501/647
f 354/501/647 358/493/639 359/495/641 351/502/648
s 90
f 348/503/649 349/504/650 360/472/651 361/471/652
s 91
f 356/505/653 348/503/654 361/471/655 363/474/656
s 90
f 349/504/650 373/506/657 374/475/658 360/472/651
f 359/507/659 353/508/660 368/479/661 367/478/662
s 93
f 353/508/663 357/509/664 369/480/665 368/479/666
f 376/482/667 377/510/668 350/511/669 370/481/670
f 350/511/669 347/512/671 372/483/672 370/481/670
s 91
f 347/512/673 356/505/653 363/474/656 372/483/674
s 93
f 357/509/664 352/513/675 371/484/676 369/480/665
s 90
f 351/514/677 359/507/659 367/478/662 364/486/678
f 374/475/658 373/506/657 351/514/677 364/486/678
s 86
f 375/476/622 374/475/621 364/486/632 365/485/631
f 376/482/628 375/476/622 365/485/631 371/484/630
s 93
f 352/513/675 377/510/668 376/482/667 371/484/676
s 88
f 378/491/637 377/498/644 352/500/646 354/501/647
f 373/492/638 378/491/637 354/501/647 351/502/648
