# This file uses meters as units for non-parametric coordinates.

mtllib mushroom02_mesh.mtl
g default
v -25.458252 32.570450 -1.701660
v -5.274902 -0.484039 2.077881
v -22.544678 33.774750 -1.701660
v -4.570557 5.478149 2.077881
v -22.544922 33.774750 -5.212158
v -4.570557 5.478149 -2.384033
v -25.458252 32.570450 -5.212158
v -5.274902 -0.484039 -2.384033
v -21.135254 10.751831 1.436523
v -21.135254 10.751831 -3.531982
v -18.225098 15.963287 -3.531982
v -18.225098 15.963287 1.436523
v -21.620117 9.883255 -1.047852
v -3.033203 -2.870331 -0.086182
v -26.271973 35.462967 -3.802979
v -24.232666 35.914581 -1.433350
v -22.193604 36.366196 -3.802979
v -24.232666 35.914581 -6.172363
v -25.198486 23.983551 -4.837891
v -25.198486 23.983551 -0.098877
v -21.483398 26.693192 -4.837891
v -21.483398 26.693192 -0.098877
v -19.680176 13.357559 2.264404
v -11.868408 1.969574 2.483887
v -2.769043 1.404587 3.048096
v -10.283447 9.267181 2.483887
v -17.740234 16.831863 -1.047852
v -2.504883 5.679520 -0.086182
v -10.283447 9.267181 -3.173096
v -19.680176 13.357559 -4.360107
v -2.769043 1.404587 -3.220459
v -11.868408 1.969574 -3.173096
v -11.075928 5.618378 3.426514
v -10.019287 10.483459 -0.344482
v -11.075928 5.618378 -4.115723
v -12.132568 0.753296 -0.344482
v 0.000000 0.000000 0.000000
v -24.530029 39.439987 -4.247803
v -25.817627 23.531937 -2.468506
v -23.341064 25.338364 -5.627686
v -20.864258 27.144806 -2.468506
v -23.341064 25.338364 0.690918
v -17.712891 33.080185 -5.953369
v -18.730957 32.842682 -7.937500
v -20.316650 32.654205 -9.511963
v -22.314941 32.533188 -10.522949
v -24.529785 32.491501 -10.871338
v -26.744873 32.533188 -10.522949
v -28.743164 32.654205 -9.511963
v -30.328857 32.842682 -7.937500
v -31.346924 33.080185 -5.953369
v -31.697754 33.343445 -3.754150
v -31.346924 33.606720 -1.554932
v -30.328857 33.844223 0.429199
v -28.743164 34.032700 2.003662
v -26.744873 34.153717 3.014404
v -24.529785 34.195419 3.362793
v -22.314941 34.153717 3.014404
v -20.316650 34.032700 2.003662
v -18.730957 33.844223 0.429199
v -17.712891 33.606720 -1.554932
v -17.362061 33.343445 -3.754150
v -22.807373 49.017334 -6.194092
v -23.064697 48.957336 -6.695313
v -23.465332 48.909714 -7.093262
v -23.970215 48.879135 -7.348633
v -24.529785 48.868607 -7.436768
v -25.089600 48.879135 -7.348633
v -25.594482 48.909714 -7.093262
v -25.995117 48.957336 -6.695313
v -26.252197 49.017334 -6.194092
v -26.340820 49.083862 -5.638428
v -26.252197 49.150375 -5.082764
v -25.995117 49.210388 -4.581543
v -25.594482 49.258011 -4.183594
v -25.089600 49.288574 -3.928223
v -24.529785 49.299103 -3.840088
v -23.970215 49.288574 -3.928223
v -23.465332 49.258011 -4.183594
v -23.064697 49.210388 -4.581543
v -22.807373 49.150375 -5.082764
v -22.718750 49.083862 -5.638428
v -24.529785 33.343445 -3.754150
v -24.529785 49.083862 -5.638428
v -16.358154 35.030334 -6.537842
v -17.578613 34.745636 -8.916260
v -19.479492 34.519699 -10.803467
v -21.874756 34.374634 -12.015381
v -24.529785 34.324646 -12.432861
v -27.185059 34.374634 -12.015381
v -29.580322 34.519699 -10.803467
v -31.481201 34.745636 -8.916260
v -32.701660 35.030334 -6.537842
v -33.122314 35.345917 -3.901367
v -32.701660 35.661514 -1.265137
v -31.481201 35.946198 1.113281
v -29.580322 36.172150 3.000488
v -27.185059 36.317200 4.212402
v -24.529785 36.367188 4.629883
v -21.874756 36.317200 4.212402
v -19.479492 36.172150 3.000488
v -17.578613 35.946198 1.113281
v -16.358154 35.661514 -1.265137
v -15.937500 35.345917 -3.901367
v -17.765137 40.972488 -6.881104
v -17.416992 41.233734 -4.698730
v -17.765137 41.494980 -2.516357
v -18.775391 41.730667 -0.547607
v -20.349121 41.917709 1.014893
v -22.332031 42.037796 2.018066
v -24.529785 42.079163 2.363770
v -26.727783 42.037796 2.018066
v -28.710693 41.917709 1.014893
v -30.284424 41.730667 -0.547607
v -31.294678 41.494980 -2.516357
v -31.642822 41.233734 -4.698730
v -31.294678 40.972488 -6.881104
v -30.284424 40.736801 -8.850098
v -28.710693 40.549774 -10.412354
v -26.727783 40.429688 -11.415527
v -24.529785 40.388306 -11.761230
v -22.332031 40.429688 -11.415527
v -20.349121 40.549774 -10.412354
v -18.775391 40.736801 -8.850098
v -19.072754 44.758606 -6.906494
v -18.791992 44.969360 -5.145996
v -19.072754 45.180115 -3.385498
v -19.887939 45.370224 -1.797119
v -21.157227 45.521103 -0.536865
v -22.756836 45.617966 0.272461
v -24.529785 45.651352 0.551270
v -26.302979 45.617966 0.272461
v -27.902588 45.521103 -0.536865
v -29.171875 45.370224 -1.797119
v -29.986816 45.180115 -3.385498
v -30.267822 44.969360 -5.145996
v -29.986816 44.758606 -6.906494
v -29.171875 44.568497 -8.494629
v -27.902588 44.417603 -9.754883
v -26.302979 44.320740 -10.564209
v -24.529785 44.287369 -10.843018
v -22.756836 44.320740 -10.564209
v -21.157227 44.417603 -9.754883
v -19.887939 44.568497 -8.494629
vt 0.375000 0.000000
vt 0.375000 1.000000
vt 0.625000 0.000000
vt 0.625000 1.000000
vt 0.375000 0.250000
vt 0.625000 0.250000
vt 0.125000 0.250000
vt 0.375000 0.500000
vt 0.625000 0.500000
vt 0.875000 0.250000
vt 0.125000 0.000000
vt 0.375000 0.750000
vt 0.625000 0.750000
vt 0.875000 0.000000
vt 0.503675 0.000000
vt 0.503675 1.000000
vt 0.502756 0.750000
vt 0.502756 0.500000
vt 0.502756 0.250000
vt 0.564337 0.125000
vt 0.564337 0.375000
vt 0.564337 0.625000
vt 0.564337 0.875000
vt 0.750000 0.125000
vt 0.250000 0.125000
vt 0.439337 0.875000
vt 0.439337 0.625000
vt 0.439337 0.375000
vt 0.439337 0.125000
vt 0.502756 0.125000
vt 0.564337 0.000000
vt 0.564337 1.000000
vt 0.641084 0.125000
vt 0.564337 0.250000
vt 0.502756 0.375000
vt 0.625000 0.375000
vt 0.750000 0.250000
vt 0.564337 0.500000
vt 0.502756 0.625000
vt 0.625000 0.625000
vt 0.875000 0.125000
vt 0.564337 0.750000
vt 0.502756 0.875000
vt 0.625000 0.875000
vt 0.750000 0.000000
vt 0.250000 0.000000
vt 0.375000 0.875000
vt 0.359834 0.125000
vt 0.250000 0.250000
vt 0.375000 0.375000
vt 0.125000 0.125000
vt 0.375000 0.625000
vt 0.439337 0.750000
vt 0.439337 1.000000
vt 0.439337 0.000000
vt 0.439337 0.500000
vt 0.439337 0.250000
vt 0.375000 0.341882
vt 0.387500 0.341882
vt 0.387500 0.395001
vt 0.375000 0.395001
vt 0.400000 0.341882
vt 0.400000 0.395001
vt 0.412500 0.341882
vt 0.412500 0.395001
vt 0.425000 0.341882
vt 0.425000 0.395001
vt 0.437500 0.341882
vt 0.437500 0.395001
vt 0.450000 0.341882
vt 0.450000 0.395001
vt 0.462500 0.341882
vt 0.462500 0.395001
vt 0.475000 0.341882
vt 0.475000 0.395001
vt 0.487500 0.341882
vt 0.487500 0.395001
vt 0.500000 0.341882
vt 0.500000 0.395001
vt 0.512500 0.341882
vt 0.512500 0.395001
vt 0.525000 0.341882
vt 0.525000 0.395001
vt 0.537500 0.341882
vt 0.537500 0.395001
vt 0.550000 0.341882
vt 0.550000 0.395001
vt 0.562500 0.341882
vt 0.562500 0.395001
vt 0.575000 0.341882
vt 0.575000 0.395001
vt 0.587500 0.341882
vt 0.587500 0.395001
vt 0.600000 0.341882
vt 0.600000 0.395001
vt 0.612500 0.341882
vt 0.612500 0.395001
vt 0.625000 0.341882
vt 0.625000 0.395001
vt 0.626409 0.064408
vt 0.648603 0.107966
vt 0.500000 0.150000
vt 0.591842 0.029841
vt 0.548284 0.007647
vt 0.500000 -0.000000
vt 0.451716 0.007647
vt 0.408159 0.029841
vt 0.373591 0.064409
vt 0.351397 0.107966
vt 0.343750 0.156250
vt 0.351397 0.204534
vt 0.373591 0.248091
vt 0.408159 0.282659
vt 0.451716 0.304853
vt 0.500000 0.312500
vt 0.548284 0.304853
vt 0.591841 0.282659
vt 0.626409 0.248091
vt 0.648603 0.204534
vt 0.656250 0.156250
vt 0.648603 0.892034
vt 0.626409 0.935591
vt 0.500000 0.837500
vt 0.591841 0.970159
vt 0.548284 0.992353
vt 0.500000 1.000000
vt 0.451716 0.992353
vt 0.408159 0.970159
vt 0.373591 0.935591
vt 0.351397 0.892034
vt 0.343750 0.843750
vt 0.351397 0.795466
vt 0.373591 0.751909
vt 0.408159 0.717341
vt 0.451716 0.695147
vt 0.500000 0.687500
vt 0.548284 0.695147
vt 0.591842 0.717341
vt 0.626409 0.751908
vt 0.648603 0.795466
vt 0.656250 0.843750
vt 0.375000 0.312500
vt 0.387500 0.312500
vt 0.400000 0.312500
vt 0.412500 0.312500
vt 0.425000 0.312500
vt 0.437500 0.312500
vt 0.450000 0.312500
vt 0.462500 0.312500
vt 0.475000 0.312500
vt 0.487500 0.312500
vt 0.500000 0.312500
vt 0.512500 0.312500
vt 0.525000 0.312500
vt 0.537500 0.312500
vt 0.550000 0.312500
vt 0.562500 0.312500
vt 0.575000 0.312500
vt 0.587500 0.312500
vt 0.600000 0.312500
vt 0.612500 0.312500
vt 0.625000 0.312500
vt 0.625000 0.534639
vt 0.612500 0.534639
vt 0.600000 0.534639
vt 0.587500 0.534639
vt 0.575000 0.534639
vt 0.562500 0.534639
vt 0.550000 0.534639
vt 0.537500 0.534639
vt 0.525000 0.534639
vt 0.512500 0.534639
vt 0.500000 0.534639
vt 0.487500 0.534639
vt 0.475000 0.534639
vt 0.462500 0.534639
vt 0.450000 0.534639
vt 0.437500 0.534639
vt 0.425000 0.534639
vt 0.412500 0.534639
vt 0.400000 0.534639
vt 0.387500 0.534639
vt 0.375000 0.534639
vt 0.625000 0.688440
vt 0.612500 0.688440
vt 0.600000 0.688440
vt 0.587500 0.688440
vt 0.575000 0.688440
vt 0.562500 0.688440
vt 0.550000 0.688440
vt 0.537500 0.688440
vt 0.525000 0.688440
vt 0.512500 0.688440
vt 0.500000 0.688440
vt 0.487500 0.688440
vt 0.475000 0.688440
vt 0.462500 0.688440
vt 0.450000 0.688440
vt 0.437500 0.688440
vt 0.425000 0.688440
vt 0.412500 0.688440
vt 0.400000 0.688440
vt 0.387500 0.688440
vt 0.375000 0.688440
vn 0.446625 0.418648 0.790734
vn -0.171894 0.046553 0.984015
vn -0.062800 -0.012534 0.997947
vn 0.318810 0.497811 0.806563
vn -0.657914 -0.343618 0.670131
vn -0.406053 -0.541929 0.735822
vn -0.110560 -0.611185 0.783728
vn 0.377897 -0.048048 0.924600
vn 0.431365 0.484573 0.760995
vn 0.581230 0.306552 -0.753789
vn 0.845604 0.533799 0.003542
vn 0.607147 0.794569 0.005744
vn 0.402715 0.468531 -0.786320
vn 0.772738 0.634723 0.001593
vn 0.469295 0.471947 -0.746343
vn -0.599163 -0.407210 -0.689336
vn -0.015331 -0.051851 -0.998537
vn 0.031282 -0.042007 -0.998628
vn -0.355621 -0.572100 -0.739077
vn 0.421654 -0.054006 -0.905147
vn -0.068414 -0.619105 -0.782322
vn -0.835637 -0.549273 0.003159
vn -0.558685 -0.829365 0.004881
vn 0.125287 -0.992121 -0.000029
vn 0.976370 -0.215975 0.007569
vn -0.764309 -0.044444 -0.643317
vn -0.980199 0.198016 -0.000467
vn -0.249314 0.966476 -0.061371
vn -0.079910 0.236730 -0.968284
vn -0.793393 0.096656 0.600986
vn -0.145847 0.433817 0.889118
vn 0.690938 0.265185 0.672519
vn 0.914525 0.404519 -0.002914
vn 0.747043 0.092772 -0.658270
vn -0.710977 -0.197895 -0.674795
vn -0.978979 -0.203945 -0.002562
vn -0.777427 -0.079372 0.623945
vn 0.745842 0.112992 -0.656470
vn 0.038477 -0.057872 -0.997582
vn 0.671602 0.277448 0.687004
vn 0.971771 0.235909 -0.003015
vn -0.139454 0.135966 0.980850
vn 0.951610 -0.024199 -0.306355
vn 0.809970 -0.057542 -0.583642
vn 0.778358 0.201423 -0.594632
vn 0.914591 0.235861 -0.328471
vn 0.588741 -0.084032 -0.803942
vn 0.565701 0.174068 -0.806029
vn 0.309647 -0.101041 -0.945468
vn 0.297511 0.156499 -0.941804
vn -0.000000 -0.106914 -0.994268
vn 0.000000 0.150440 -0.988619
vn -0.309633 -0.101041 -0.945473
vn -0.297495 0.156499 -0.941809
vn -0.588741 -0.084032 -0.803942
vn -0.565701 0.174068 -0.806029
vn -0.809970 -0.057541 -0.583642
vn -0.778362 0.201429 -0.594626
vn -0.951610 -0.024199 -0.306355
vn -0.914589 0.235869 -0.328471
vn -0.999919 0.012728 0.000623
vn -0.961134 0.274013 -0.033751
vn -0.950351 0.049611 0.307201
vn -0.913587 0.312112 0.260662
vn -0.807937 0.082856 0.583414
vn -0.776756 0.346441 0.525956
vn -0.586718 0.109212 0.802393
vn -0.564107 0.373657 0.736318
vn -0.308370 0.126098 0.942872
vn -0.296498 0.391121 0.871271
vn -0.000000 0.131909 0.991262
vn 0.000000 0.397135 0.917760
vn 0.308385 0.126097 0.942867
vn 0.296514 0.391120 0.871266
vn 0.586718 0.109212 0.802393
vn 0.564107 0.373657 0.736318
vn 0.807937 0.082856 0.583414
vn 0.776752 0.346437 0.525963
vn 0.950351 0.049611 0.307201
vn 0.913589 0.312104 0.260665
vn 0.999919 0.012728 0.000623
vn 0.961137 0.274002 -0.033749
vn 0.000000 -0.992912 0.118856
vn -0.000001 -0.992912 0.118855
vn 0.000000 -0.992911 0.118858
vn 0.000000 -0.992911 0.118857
vn -0.000004 -0.992912 0.118855
vn 0.000000 -0.992912 0.118854
vn 0.000004 -0.992912 0.118855
vn -0.000000 -0.992911 0.118858
vn -0.000000 -0.992912 0.118855
vn 0.000001 -0.992912 0.118855
vn 0.000000 -0.992911 0.118861
vn -0.000002 -0.992911 0.118859
vn -0.000001 -0.992911 0.118857
vn 0.000005 -0.992911 0.118863
vn 0.000004 -0.992911 0.118863
vn 0.000000 -0.992911 0.118862
vn -0.000004 -0.992911 0.118863
vn -0.000005 -0.992911 0.118862
vn 0.000001 -0.992911 0.118858
vn 0.000002 -0.992911 0.118860
vn 0.000000 -0.992911 0.118861
vn 0.000003 0.992911 -0.118864
vn 0.000013 0.992912 -0.118849
vn 0.000000 0.992912 -0.118855
vn 0.000002 0.992911 -0.118857
vn 0.000012 0.992911 -0.118857
vn -0.000000 0.992913 -0.118848
vn -0.000012 0.992911 -0.118857
vn -0.000002 0.992912 -0.118851
vn -0.000013 0.992912 -0.118851
vn -0.000003 0.992910 -0.118872
vn 0.000000 0.992911 -0.118862
vn -0.000005 0.992911 -0.118857
vn 0.000005 0.992911 -0.118859
vn 0.000013 0.992912 -0.118851
vn 0.000022 0.992913 -0.118846
vn 0.000000 0.992913 -0.118840
vn -0.000022 0.992913 -0.118846
vn -0.000013 0.992913 -0.118842
vn -0.000005 0.992911 -0.118857
vn 0.000005 0.992911 -0.118864
vn 0.000000 0.992911 -0.118862
vn 0.779776 -0.597614 -0.186567
vn 0.666612 -0.618017 -0.416754
vn 0.486197 -0.634317 -0.601044
vn 0.256259 -0.644838 -0.720080
vn 0.000000 -0.648470 -0.761240
vn -0.256246 -0.644839 -0.720084
vn -0.486197 -0.634317 -0.601045
vn -0.666612 -0.618016 -0.416754
vn -0.779776 -0.597614 -0.186567
vn -0.815362 -0.575182 0.065956
vn -0.771116 -0.552926 0.315678
vn -0.652610 -0.533020 0.538507
vn -0.472178 -0.517350 0.713721
vn -0.247572 -0.507377 0.825395
vn 0.000000 -0.503957 0.863729
vn 0.247584 -0.507377 0.825391
vn 0.472178 -0.517350 0.713721
vn 0.652610 -0.533020 0.538508
vn 0.771116 -0.552927 0.315678
vn 0.815362 -0.575182 0.065956
vn 0.822765 0.466245 -0.325076
vn 0.865113 0.498021 -0.059621
vn 0.822765 0.529803 0.205833
vn 0.699882 0.558465 0.445289
vn 0.508500 0.581212 0.635312
vn 0.267357 0.595815 0.757314
vn -0.000000 0.600859 0.799355
vn -0.267337 0.595819 0.757318
vn -0.508500 0.581212 0.635312
vn -0.699904 0.558464 0.445255
vn -0.822761 0.529816 0.205815
vn -0.865103 0.498038 -0.059623
vn -0.822761 0.466262 -0.325061
vn -0.699889 0.437601 -0.564500
vn -0.508487 0.414843 -0.754550
vn -0.267341 0.400239 -0.876549
vn -0.000000 0.395213 -0.918590
vn 0.267362 0.400236 -0.876544
vn 0.508487 0.414843 -0.754551
vn 0.699866 0.437595 -0.564534
vn 0.690320 0.656304 -0.304506
vn 0.725865 0.682961 -0.081759
vn 0.690326 0.709628 0.140986
vn 0.587237 0.733669 0.341881
vn 0.426660 0.752758 0.501316
vn 0.224333 0.765008 0.603686
vn 0.000002 0.769236 0.638965
vn -0.224309 0.765010 0.603693
vn -0.426660 0.752758 0.501315
vn -0.587274 0.733667 0.341822
vn -0.690343 0.709620 0.140946
vn -0.725849 0.682978 -0.081760
vn -0.690336 0.656306 -0.304465
vn -0.587260 0.632254 -0.505351
vn -0.426663 0.613157 -0.664829
vn -0.224318 0.600897 -0.767205
vn 0.000002 0.596678 -0.802481
vn 0.224342 0.600898 -0.767198
vn 0.426663 0.613156 -0.664829
vn 0.587223 0.632242 -0.505411
s 1
g mushroom02
usemtl initialShadingGroup
f 12/19/1 23/30/2 33/20/3 26/34/4
f 23/30/2 9/15/5 24/31/6 33/20/3
f 33/20/3 24/31/6 2/3/7 25/33/8
f 26/34/4 33/20/3 25/33/8 4/6/9
f 11/18/10 27/35/11 34/21/12 29/38/13
f 27/35/11 12/19/1 26/34/4 34/21/12
f 34/21/12 26/34/4 4/6/9 28/36/14
f 29/38/13 34/21/12 28/36/14 6/9/15
f 10/17/16 30/39/17 35/22/18 32/42/19
f 30/39/17 11/18/10 29/38/13 35/22/18
f 35/22/18 29/38/13 6/9/15 31/40/20
f 32/42/19 35/22/18 31/40/20 8/13/21
f 9/16/5 13/43/22 36/23/23 24/32/6
f 13/43/22 10/17/16 32/42/19 36/23/23
f 36/23/23 32/42/19 8/13/21 14/44/24
f 24/32/6 36/23/23 14/44/24 2/4/7
f 2/3/7 14/45/24 37/24/25 25/33/8
f 14/45/24 8/14/21 31/41/20 37/24/25
f 37/24/25 31/41/20 6/10/15 28/37/14
f 25/33/8 37/24/25 28/37/14 4/6/9
f 7/11/26 15/46/27 38/25/28 18/51/29
f 15/46/27 1/1/30 16/48/31 38/25/28
f 38/25/28 16/48/31 3/5/32 17/49/33
f 18/51/29 38/25/28 17/49/33 5/7/34
f 7/12/26 19/53/35 39/26/36 15/47/27
f 19/53/35 10/17/16 13/43/22 39/26/36
f 39/26/36 13/43/22 9/16/5 20/54/37
f 15/47/27 39/26/36 20/54/37 1/2/30
f 5/8/34 21/56/38 40/27/39 18/52/29
f 21/56/38 11/18/10 30/39/17 40/27/39
f 40/27/39 30/39/17 10/17/16 19/53/35
f 18/52/29 40/27/39 19/53/35 7/12/26
f 3/5/32 22/57/40 41/28/41 17/50/33
f 22/57/40 12/19/1 27/35/11 41/28/41
f 41/28/41 27/35/11 11/18/10 21/56/38
f 17/50/33 41/28/41 21/56/38 5/8/34
f 1/1/30 20/55/37 42/29/42 16/48/31
f 20/55/37 9/15/5 23/30/2 42/29/42
f 42/29/42 23/30/2 12/19/1 22/57/40
f 16/48/31 42/29/42 22/57/40 3/5/32
s 5
f 85/58/43 86/59/44 124/60/45 105/61/46
f 86/59/44 87/62/47 123/63/48 124/60/45
f 87/62/47 88/64/49 122/65/50 123/63/48
f 88/64/49 89/66/51 121/67/52 122/65/50
f 89/66/51 90/68/53 120/69/54 121/67/52
f 90/68/53 91/70/55 119/71/56 120/69/54
f 91/70/55 92/72/57 118/73/58 119/71/56
f 92/72/57 93/74/59 117/75/60 118/73/58
f 93/74/59 94/76/61 116/77/62 117/75/60
f 94/76/61 95/78/63 115/79/64 116/77/62
f 95/78/63 96/80/65 114/81/66 115/79/64
f 96/80/65 97/82/67 113/83/68 114/81/66
f 97/82/67 98/84/69 112/85/70 113/83/68
f 98/84/69 99/86/71 111/87/72 112/85/70
f 99/86/71 100/88/73 110/89/74 111/87/72
f 100/88/73 101/90/75 109/91/76 110/89/74
f 101/90/75 102/92/77 108/93/78 109/91/76
f 102/92/77 103/94/79 107/95/80 108/93/78
f 103/94/79 104/96/81 106/97/82 107/95/80
f 104/96/81 85/98/43 105/99/46 106/97/82
s 6
f 44/100/83 43/101/84 83/102/85
f 45/103/86 44/100/83 83/102/85
f 46/104/87 45/103/86 83/102/85
f 47/105/88 46/104/87 83/102/85
f 48/106/89 47/105/88 83/102/85
f 49/107/90 48/106/89 83/102/85
f 50/108/91 49/107/90 83/102/85
f 51/109/92 50/108/91 83/102/85
f 52/110/93 51/109/92 83/102/85
f 53/111/94 52/110/93 83/102/85
f 54/112/95 53/111/94 83/102/85
f 55/113/96 54/112/95 83/102/85
f 56/114/97 55/113/96 83/102/85
f 57/115/98 56/114/97 83/102/85
f 58/116/99 57/115/98 83/102/85
f 59/117/100 58/116/99 83/102/85
f 60/118/101 59/117/100 83/102/85
f 61/119/102 60/118/101 83/102/85
f 62/120/103 61/119/102 83/102/85
f 43/101/84 62/120/103 83/102/85
s 7
f 63/121/104 64/122/105 84/123/106
f 64/122/105 65/124/107 84/123/106
f 65/124/107 66/125/108 84/123/106
f 66/125/108 67/126/109 84/123/106
f 67/126/109 68/127/110 84/123/106
f 68/127/110 69/128/111 84/123/106
f 69/128/111 70/129/112 84/123/106
f 70/129/112 71/130/113 84/123/106
f 71/130/113 72/131/114 84/123/106
f 72/131/114 73/132/115 84/123/106
f 73/132/115 74/133/116 84/123/106
f 74/133/116 75/134/117 84/123/106
f 75/134/117 76/135/118 84/123/106
f 76/135/118 77/136/119 84/123/106
f 77/136/119 78/137/120 84/123/106
f 78/137/120 79/138/121 84/123/106
f 79/138/121 80/139/122 84/123/106
f 80/139/122 81/140/123 84/123/106
f 81/140/123 82/141/124 84/123/106
f 82/141/124 63/121/104 84/123/106
s 5
f 43/142/125 44/143/126 86/59/44 85/58/43
f 44/143/126 45/144/127 87/62/47 86/59/44
f 45/144/127 46/145/128 88/64/49 87/62/47
f 46/145/128 47/146/129 89/66/51 88/64/49
f 47/146/129 48/147/130 90/68/53 89/66/51
f 48/147/130 49/148/131 91/70/55 90/68/53
f 49/148/131 50/149/132 92/72/57 91/70/55
f 50/149/132 51/150/133 93/74/59 92/72/57
f 51/150/133 52/151/134 94/76/61 93/74/59
f 52/151/134 53/152/135 95/78/63 94/76/61
f 53/152/135 54/153/136 96/80/65 95/78/63
f 54/153/136 55/154/137 97/82/67 96/80/65
f 55/154/137 56/155/138 98/84/69 97/82/67
f 56/155/138 57/156/139 99/86/71 98/84/69
f 57/156/139 58/157/140 100/88/73 99/86/71
f 58/157/140 59/158/141 101/90/75 100/88/73
f 59/158/141 60/159/142 102/92/77 101/90/75
f 60/159/142 61/160/143 103/94/79 102/92/77
f 61/160/143 62/161/144 104/96/81 103/94/79
f 62/161/144 43/162/125 85/98/43 104/96/81
f 106/97/82 105/99/46 125/163/145 126/164/146
f 107/95/80 106/97/82 126/164/146 127/165/147
f 108/93/78 107/95/80 127/165/147 128/166/148
f 109/91/76 108/93/78 128/166/148 129/167/149
f 110/89/74 109/91/76 129/167/149 130/168/150
f 111/87/72 110/89/74 130/168/150 131/169/151
f 112/85/70 111/87/72 131/169/151 132/170/152
f 113/83/68 112/85/70 132/170/152 133/171/153
f 114/81/66 113/83/68 133/171/153 134/172/154
f 115/79/64 114/81/66 134/172/154 135/173/155
f 116/77/62 115/79/64 135/173/155 136/174/156
f 117/75/60 116/77/62 136/174/156 137/175/157
f 118/73/58 117/75/60 137/175/157 138/176/158
f 119/71/56 118/73/58 138/176/158 139/177/159
f 120/69/54 119/71/56 139/177/159 140/178/160
f 121/67/52 120/69/54 140/178/160 141/179/161
f 122/65/50 121/67/52 141/179/161 142/180/162
f 123/63/48 122/65/50 142/180/162 143/181/163
f 124/60/45 123/63/48 143/181/163 144/182/164
f 105/61/46 124/60/45 144/182/164 125/183/145
f 126/164/146 125/163/145 63/184/165 82/185/166
f 127/165/147 126/164/146 82/185/166 81/186/167
f 128/166/148 127/165/147 81/186/167 80/187/168
f 129/167/149 128/166/148 80/187/168 79/188/169
f 130/168/150 129/167/149 79/188/169 78/189/170
f 131/169/151 130/168/150 78/189/170 77/190/171
f 132/170/152 131/169/151 77/190/171 76/191/172
f 133/171/153 132/170/152 76/191/172 75/192/173
f 134/172/154 133/171/153 75/192/173 74/193/174
f 135/173/155 134/172/154 74/193/174 73/194/175
f 136/174/156 135/173/155 73/194/175 72/195/176
f 137/175/157 136/174/156 72/195/176 71/196/177
f 138/176/158 137/175/157 71/196/177 70/197/178
f 139/177/159 138/176/158 70/197/178 69/198/179
f 140/178/160 139/177/159 69/198/179 68/199/180
f 141/179/161 140/178/160 68/199/180 67/200/181
f 142/180/162 141/179/161 67/200/181 66/201/182
f 143/181/163 142/180/162 66/201/182 65/202/183
f 144/182/164 143/181/163 65/202/183 64/203/184
f 125/183/145 144/182/164 64/203/184 63/204/165
