# This file uses centimeters as units for non-parametric coordinates.

mtllib vase_tall_mesh.mtl
g default
v 7.591309 44.527184 -2.466553
v 6.457520 44.527184 -4.691650
v 4.691406 44.527184 -6.457764
v 2.466553 44.527184 -7.591553
v -0.000244 44.527184 -7.982178
v -2.466797 44.527184 -7.591553
v -4.692139 44.527184 -6.457764
v -6.458008 44.527184 -4.691650
v -7.591797 44.527184 -2.466553
v -7.982422 44.527184 0.000000
v -7.591797 44.527184 2.466797
v -6.458008 44.527184 4.691895
v -4.692139 44.527184 6.457764
v -2.466797 44.527184 7.591553
v -0.000244 44.527184 7.982178
v 2.466553 44.527184 7.591553
v 4.691406 44.527184 6.457764
v 6.457520 44.527184 4.691895
v 7.591309 44.527184 2.466797
v 7.981934 44.527184 0.000000
v 7.591309 45.356331 -2.466553
v 6.457520 45.356331 -4.691650
v 4.691406 45.356331 -6.457764
v 2.466553 45.356331 -7.591553
v -0.000244 45.356331 -7.982178
v -2.466797 45.356331 -7.591553
v -4.692139 45.356331 -6.457764
v -6.458008 45.356331 -4.691650
v -7.591797 45.356331 -2.466553
v -7.982422 45.356331 0.000000
v -7.591797 45.356331 2.466797
v -6.458008 45.356331 4.691895
v -4.692139 45.356331 6.457764
v -2.466797 45.356331 7.591553
v -0.000244 45.356331 7.982178
v 2.466553 45.356331 7.591553
v 4.691406 45.356331 6.457764
v 6.457520 45.356331 4.691895
v 7.591309 45.356331 2.466797
v 7.981934 45.356331 0.000000
v -0.000244 44.527184 0.000000
v 6.195068 46.516846 -2.012939
v 5.269775 46.516846 -3.828613
v 3.828369 46.516846 -5.269775
v 2.012695 46.516846 -6.195068
v -0.000244 46.516846 -6.513916
v -2.013184 46.516846 -6.195068
v -3.829102 46.516846 -5.269775
v -5.270264 46.516846 -3.828613
v -6.195313 46.516846 -2.012939
v -6.514404 46.516846 0.000000
v -6.195313 46.516846 2.012939
v -5.270264 46.516846 3.828857
v -3.829102 46.516846 5.269775
v -2.013184 46.516846 6.195068
v -0.000244 46.516846 6.513916
v 2.012695 46.516846 6.195068
v 3.828369 46.516846 5.269775
v 5.269775 46.516846 3.828857
v 6.195068 46.516846 2.012939
v 6.513672 46.516846 0.000000
v 1.410889 47.413818 -0.458496
v 1.200195 47.413818 -0.872070
v 0.871826 47.413818 -1.200439
v 0.458008 47.413818 -1.411377
v -0.000244 47.413818 -1.483887
v -0.458740 47.413818 -1.411377
v -0.872559 47.413818 -1.200439
v -1.200928 47.413818 -0.872070
v -1.411621 47.413818 -0.458496
v -1.484131 47.413818 0.000000
v -1.411621 47.413818 0.458496
v -1.200684 47.413818 0.872314
v -0.872559 47.413818 1.200439
v -0.458740 47.413818 1.411377
v -0.000244 47.413818 1.483887
v 0.458252 47.413818 1.411377
v 0.871826 47.413818 1.200439
v 1.200195 47.413818 0.872314
v 1.410889 47.413818 0.458740
v 1.483643 47.413818 0.000000
v 1.944336 48.160622 -0.631592
v 1.653809 48.160622 -1.201660
v 1.201416 48.160622 -1.654053
v 0.631348 48.160622 -1.944580
v -0.000244 48.160622 -2.044678
v -0.632324 48.160622 -1.944580
v -1.202393 48.160622 -1.654053
v -1.654541 48.160622 -1.201904
v -1.945068 48.160622 -0.631836
v -2.045166 48.160622 0.000000
v -1.944824 48.160622 0.631836
v -1.654541 48.160622 1.201904
v -1.202148 48.160622 1.654297
v -0.632324 48.160622 1.944824
v -0.000244 48.160622 2.044922
v 0.631592 48.160622 1.944824
v 1.201416 48.160622 1.654297
v 1.653809 48.160622 1.201904
v 1.944336 48.160622 0.631836
v 2.044434 48.160622 0.000000
v 0.633057 49.869568 -0.205566
v 0.538330 49.869568 -0.391357
v -0.000244 49.869568 0.000000
v 0.391113 49.869568 -0.538574
v 0.205322 49.869568 -0.633301
v -0.000244 49.869568 -0.665771
v -0.206299 49.869568 -0.633301
v -0.391846 49.869568 -0.538574
v -0.539063 49.869568 -0.391357
v -0.633789 49.869568 -0.205566
v -0.666260 49.869568 0.000000
v -0.633545 49.869568 0.205811
v -0.539063 49.869568 0.391602
v -0.391846 49.869568 0.538818
v -0.206299 49.869568 0.633545
v -0.000244 49.869568 0.666016
v 0.205322 49.869568 0.633545
v 0.391113 49.869568 0.538818
v 0.538330 49.869568 0.391602
v 0.633057 49.869568 0.205811
v 0.665527 49.869568 0.000000
v 10.312744 -0.000000 -3.350830
v 8.772705 -0.000000 -6.373779
v 6.373535 -0.000000 -8.772705
v 3.350830 -0.000000 -10.312988
v -0.000244 -0.000000 -10.843750
v -3.351074 -0.000000 -10.312988
v -6.374023 -0.000000 -8.772705
v -8.772949 -0.000000 -6.373779
v -10.313232 -0.000000 -3.350830
v -10.843994 -0.000000 0.000000
v -10.313232 -0.000000 3.350830
v -8.772949 -0.000000 6.373779
v -6.374023 -0.000000 8.772705
v -3.351074 -0.000000 10.312988
v -0.000244 -0.000000 10.843750
v 3.350830 -0.000000 10.312988
v 6.373535 -0.000000 8.772705
v 8.772705 -0.000000 6.373779
v 10.312744 -0.000000 3.350830
v 10.843506 -0.000000 0.000000
v 9.731689 1.348645 -3.350830
v 8.278076 1.348645 -6.373779
v 6.014404 1.348645 -8.772705
v 3.161865 1.348645 -10.312988
v -0.000244 1.348645 -10.843750
v -3.162109 1.348645 -10.312988
v -6.014648 1.348645 -8.772705
v -8.278564 1.348645 -6.373779
v -9.731934 1.348645 -3.350830
v -10.232666 1.348645 0.000000
v -9.731934 1.348645 3.350830
v -8.278564 1.348645 6.373779
v -6.014648 1.348645 8.772705
v -3.162109 1.348645 10.312988
v -0.000244 1.348645 10.843750
v 3.161865 1.348645 10.312988
v 6.014404 1.348645 8.772705
v 8.278076 1.348645 6.373779
v 9.731689 1.348645 3.350830
v 10.232422 1.348645 0.000000
v -0.000244 -0.000000 0.000000
v 7.500000 2.367026 -2.583984
v 6.372314 2.367026 -4.909180
v 4.623047 2.367026 -6.747314
v 2.427734 2.367026 -7.922852
v 0.000000 2.367026 -8.326904
v -2.427979 2.367026 -7.922607
v -4.623535 2.367026 -6.747070
v -6.372803 2.367026 -4.909180
v -7.500244 2.367026 -2.583984
v -7.889893 2.367026 0.000000
v -7.500244 2.367026 2.583984
v -6.372803 2.367026 4.909180
v -4.623535 2.367026 6.747070
v -2.427979 2.367026 7.922607
v 0.000000 2.367026 8.326904
v 2.427734 2.367026 7.922607
v 4.623047 2.367026 6.747070
v 6.372314 2.367026 4.909180
v 7.500000 2.367026 2.583984
v 7.889404 2.367026 0.000000
v 11.984375 23.039265 -4.127197
v 10.197266 23.039265 -7.852295
v 7.411133 23.039265 -10.811279
v 3.897217 23.039265 -12.712891
v 0.000000 23.039265 -13.368164
v -3.897461 23.039265 -12.712646
v -7.411621 23.039265 -10.811279
v -10.197754 23.039265 -7.852295
v -11.984375 23.039265 -4.126953
v -12.599854 23.039265 0.000000
v -11.984619 23.039265 4.126953
v -10.197754 23.039265 7.852295
v -7.411621 23.039265 10.811035
v -3.897461 23.039265 12.712646
v 0.000000 23.039265 13.368164
v 3.897217 23.039265 12.712646
v 7.411133 23.039265 10.811279
v 10.197510 23.039265 7.852295
v 11.984375 23.039265 4.126953
v 12.599609 23.039265 0.000000
v 12.438232 30.557674 -4.283447
v 10.583496 30.557674 -8.149658
v 7.691895 30.557674 -11.220947
v 4.044922 30.557674 -13.194336
v 0.000000 30.557671 -13.874512
v -4.045166 30.557674 -13.194336
v -7.692383 30.557674 -11.220703
v -10.583984 30.557674 -8.149658
v -12.438477 30.557674 -4.283447
v -13.077148 30.557674 0.000000
v -12.438477 30.557674 4.283203
v -10.583984 30.557674 8.149658
v -7.692383 30.557674 11.220703
v -4.045166 30.557674 13.194092
v 0.000000 30.557671 13.874512
v 4.044922 30.557674 13.194336
v 7.691895 30.557674 11.220947
v 10.583740 30.557674 8.149658
v 12.438232 30.557674 4.283447
v 13.076904 30.557674 0.000000
v 5.629883 39.142090 -1.943848
v 4.767090 39.142090 -3.680176
v 3.444092 39.142090 -5.036377
v 1.802246 39.142090 -5.893799
v -0.000244 39.142090 -6.186523
v -1.802734 39.142090 -5.893799
v -3.444336 39.142090 -5.036377
v -4.767334 39.142090 -3.679932
v -5.630127 39.142090 -1.943848
v -5.930420 39.142090 0.000000
v -5.630127 39.142090 1.943848
v -4.767334 39.142090 3.679932
v -3.444336 39.142090 5.036377
v -1.802734 39.142090 5.894043
v -0.000244 39.142090 6.186768
v 1.802246 39.142082 5.894043
v 3.444092 39.142090 5.036621
v 4.767090 39.142082 3.679932
v 5.629883 39.142090 1.943604
v 5.929932 39.142090 0.000000
v 8.671143 43.342995 -2.995117
v 7.349609 43.342995 -5.675781
v 5.316650 43.342987 -7.777100
v 2.784912 43.342987 -9.109863
v -0.000244 43.342987 -9.565674
v -2.785645 43.342995 -9.109863
v -5.316650 43.342995 -7.777100
v -7.350098 43.342995 -5.675781
v -8.671387 43.342995 -2.994873
v -9.130371 43.342987 0.000000
v -8.671387 43.342987 2.994873
v -7.350098 43.342995 5.675537
v -5.316650 43.342995 7.777100
v -2.785400 43.342995 9.109863
v -0.000244 43.342987 9.565674
v 2.784668 43.342979 9.110107
v 5.316406 43.342987 7.777344
v 7.349609 43.342987 5.675781
v 8.671143 43.342995 2.994629
v 9.129883 43.342995 0.000000
v 8.671143 44.527184 -2.995117
v 7.349609 44.527184 -5.675781
v -0.000244 44.527184 0.000000
v 5.316650 44.527184 -7.777100
v 2.784912 44.527184 -9.109863
v -0.000244 44.527184 -9.565674
v -2.785645 44.527184 -9.109863
v -5.316650 44.527184 -7.777100
v -7.350098 44.527184 -5.675781
v -8.671387 44.527184 -2.994873
v -9.130371 44.527176 0.000000
v -8.671387 44.527184 2.994873
v -7.350098 44.527184 5.675537
v -5.316650 44.527184 7.777100
v -2.785400 44.527184 9.109863
v -0.000244 44.527184 9.565674
v 2.784668 44.527176 9.110107
v 5.316406 44.527184 7.777344
v 7.349609 44.527184 5.675781
v 8.671143 44.527184 2.994629
v 9.129883 44.527184 0.000000
v 10.304688 35.805153 -3.551514
v 8.754883 35.805153 -6.746826
v 6.351563 35.805153 -9.272217
v 3.335205 35.805153 -10.887451
v -0.000244 35.805153 -11.442383
v -3.335449 35.805153 -10.887207
v -6.351807 35.805153 -9.272217
v -8.755371 35.805153 -6.746826
v -10.304688 35.805153 -3.551270
v -10.840088 35.805153 0.000000
v -10.304932 35.805153 3.551270
v -8.755371 35.805153 6.746582
v -6.351807 35.805153 9.272217
v -3.335449 35.805153 10.887451
v -0.000244 35.805153 11.442627
v 3.335205 35.805153 10.887451
v 6.351563 35.805153 9.272461
v 8.755127 35.805153 6.746826
v 10.304443 35.805153 3.551270
v 10.839844 35.805153 0.000000
v 6.147949 41.415558 -2.123047
v 5.208740 41.415558 -4.021973
v 3.765869 41.415550 -5.508057
v 1.971924 41.415550 -6.449707
v -0.000244 41.415550 -6.771484
v -1.972412 41.415558 -6.449707
v -3.766113 41.415558 -5.508057
v -5.208984 41.415558 -4.021973
v -6.148193 41.415558 -2.123047
v -6.474609 41.415550 0.000000
v -6.148193 41.415550 2.123047
v -5.209229 41.415558 4.021729
v -3.766113 41.415558 5.508301
v -1.972412 41.415558 6.449707
v -0.000244 41.415550 6.771484
v 1.971924 41.415550 6.449707
v 3.765869 41.415550 5.508301
v 5.208740 41.415550 4.021973
v 6.147949 41.415558 2.122803
v 6.474121 41.415558 0.000000
vt 0.648603 0.107966
vt 0.626409 0.064408
vt 0.591842 0.029841
vt 0.548284 0.007647
vt 0.500000 -0.000000
vt 0.451716 0.007647
vt 0.408159 0.029841
vt 0.373591 0.064409
vt 0.351397 0.107966
vt 0.343750 0.156250
vt 0.351397 0.204534
vt 0.373591 0.248091
vt 0.408159 0.282659
vt 0.451716 0.304853
vt 0.500000 0.312500
vt 0.548284 0.304853
vt 0.591841 0.282659
vt 0.626409 0.248091
vt 0.648603 0.204534
vt 0.656250 0.156250
vt 0.375000 0.312500
vt 0.387500 0.312500
vt 0.400000 0.312500
vt 0.412500 0.312500
vt 0.425000 0.312500
vt 0.437500 0.312500
vt 0.450000 0.312500
vt 0.462500 0.312500
vt 0.475000 0.312500
vt 0.487500 0.312500
vt 0.500000 0.312500
vt 0.512500 0.312500
vt 0.525000 0.312500
vt 0.537500 0.312500
vt 0.550000 0.312500
vt 0.562500 0.312500
vt 0.575000 0.312500
vt 0.587500 0.312500
vt 0.600000 0.312500
vt 0.612500 0.312500
vt 0.625000 0.312500
vt 0.375000 0.688440
vt 0.387500 0.688440
vt 0.400000 0.688440
vt 0.412500 0.688440
vt 0.425000 0.688440
vt 0.437500 0.688440
vt 0.450000 0.688440
vt 0.462500 0.688440
vt 0.475000 0.688440
vt 0.487500 0.688440
vt 0.500000 0.688440
vt 0.512500 0.688440
vt 0.525000 0.688440
vt 0.537500 0.688440
vt 0.550000 0.688440
vt 0.562500 0.688440
vt 0.575000 0.688440
vt 0.587500 0.688440
vt 0.600000 0.688440
vt 0.612500 0.688440
vt 0.625000 0.688440
vt 0.648603 0.795466
vt 0.626409 0.751908
vt 0.591842 0.717341
vt 0.548284 0.695147
vt 0.500000 0.687500
vt 0.451716 0.695147
vt 0.408159 0.717341
vt 0.373591 0.751909
vt 0.351397 0.795466
vt 0.343750 0.843750
vt 0.351397 0.892034
vt 0.373591 0.935591
vt 0.408159 0.970159
vt 0.451716 0.992353
vt 0.500000 1.000000
vt 0.548284 0.992353
vt 0.591841 0.970159
vt 0.626409 0.935591
vt 0.648603 0.892034
vt 0.656250 0.843750
vt 0.500000 0.150000
vt 0.500000 0.837500
vt 0.648603 0.892034
vt 0.626409 0.935591
vt 0.591841 0.970159
vt 0.548284 0.992353
vt 0.500000 1.000000
vt 0.451716 0.992353
vt 0.408159 0.970159
vt 0.373591 0.935591
vt 0.351397 0.892034
vt 0.343750 0.843750
vt 0.351397 0.795466
vt 0.373591 0.751909
vt 0.408159 0.717341
vt 0.451716 0.695147
vt 0.500000 0.687500
vt 0.548284 0.695147
vt 0.591842 0.717341
vt 0.626409 0.751908
vt 0.648603 0.795466
vt 0.656250 0.843750
vt 0.648603 0.892034
vt 0.626409 0.935591
vt 0.591841 0.970159
vt 0.548284 0.992353
vt 0.500000 1.000000
vt 0.451716 0.992353
vt 0.408159 0.970159
vt 0.373591 0.935591
vt 0.351397 0.892034
vt 0.343750 0.843750
vt 0.351397 0.795466
vt 0.373591 0.751909
vt 0.408159 0.717341
vt 0.451716 0.695147
vt 0.500000 0.687500
vt 0.548284 0.695147
vt 0.591842 0.717341
vt 0.626409 0.751908
vt 0.648603 0.795466
vt 0.656250 0.843750
vt 0.648603 0.892034
vt 0.626409 0.935591
vt 0.591841 0.970159
vt 0.548284 0.992353
vt 0.500000 1.000000
vt 0.451716 0.992353
vt 0.408159 0.970159
vt 0.373591 0.935591
vt 0.351397 0.892034
vt 0.343750 0.843750
vt 0.351397 0.795466
vt 0.373591 0.751909
vt 0.408159 0.717341
vt 0.451716 0.695147
vt 0.500000 0.687500
vt 0.548284 0.695147
vt 0.591842 0.717341
vt 0.626409 0.751908
vt 0.648603 0.795466
vt 0.656250 0.843750
vt 0.648603 0.892034
vt 0.626409 0.935591
vt 0.591841 0.970159
vt 0.548284 0.992353
vt 0.500000 1.000000
vt 0.451716 0.992353
vt 0.408159 0.970159
vt 0.373591 0.935591
vt 0.351397 0.892034
vt 0.343750 0.843750
vt 0.351397 0.795466
vt 0.373591 0.751909
vt 0.408159 0.717341
vt 0.451716 0.695147
vt 0.500000 0.687500
vt 0.548284 0.695147
vt 0.591842 0.717341
vt 0.626409 0.751908
vt 0.648603 0.795466
vt 0.656250 0.843750
vt 0.375000 0.312500
vt 0.387500 0.312500
vt 0.387500 0.688440
vt 0.375000 0.688440
vt 0.400000 0.312500
vt 0.400000 0.688440
vt 0.412500 0.312500
vt 0.412500 0.688440
vt 0.425000 0.312500
vt 0.425000 0.688440
vt 0.437500 0.312500
vt 0.437500 0.688440
vt 0.450000 0.312500
vt 0.450000 0.688440
vt 0.462500 0.312500
vt 0.462500 0.688440
vt 0.475000 0.312500
vt 0.475000 0.688440
vt 0.487500 0.312500
vt 0.487500 0.688440
vt 0.500000 0.312500
vt 0.500000 0.688440
vt 0.512500 0.312500
vt 0.512500 0.688440
vt 0.525000 0.312500
vt 0.525000 0.688440
vt 0.537500 0.312500
vt 0.537500 0.688440
vt 0.550000 0.312500
vt 0.550000 0.688440
vt 0.562500 0.312500
vt 0.562500 0.688440
vt 0.575000 0.312500
vt 0.575000 0.688440
vt 0.587500 0.312500
vt 0.587500 0.688440
vt 0.600000 0.312500
vt 0.600000 0.688440
vt 0.612500 0.312500
vt 0.612500 0.688440
vt 0.625000 0.312500
vt 0.625000 0.688440
vt 0.626409 0.064408
vt 0.648603 0.107966
vt 0.500000 0.150000
vt 0.591842 0.029841
vt 0.548284 0.007647
vt 0.500000 -0.000000
vt 0.451716 0.007647
vt 0.408159 0.029841
vt 0.373591 0.064409
vt 0.351397 0.107966
vt 0.343750 0.156250
vt 0.351397 0.204534
vt 0.373591 0.248091
vt 0.408159 0.282659
vt 0.451716 0.304853
vt 0.500000 0.312500
vt 0.548284 0.304853
vt 0.591841 0.282659
vt 0.626409 0.248091
vt 0.648603 0.204534
vt 0.656250 0.156250
vt 0.648603 0.892034
vt 0.626409 0.935591
vt 0.500000 0.837500
vt 0.591841 0.970159
vt 0.548284 0.992353
vt 0.500000 1.000000
vt 0.451716 0.992353
vt 0.408159 0.970159
vt 0.373591 0.935591
vt 0.351397 0.892034
vt 0.343750 0.843750
vt 0.351397 0.795466
vt 0.373591 0.751909
vt 0.408159 0.717341
vt 0.451716 0.695147
vt 0.500000 0.687500
vt 0.548284 0.695147
vt 0.591842 0.717341
vt 0.626409 0.751908
vt 0.648603 0.795466
vt 0.656250 0.843750
vt 0.648603 0.892034
vt 0.626409 0.935591
vt 0.626409 0.935591
vt 0.648603 0.892034
vt 0.591841 0.970159
vt 0.591841 0.970159
vt 0.548284 0.992353
vt 0.548284 0.992353
vt 0.500000 1.000000
vt 0.500000 1.000000
vt 0.451716 0.992353
vt 0.451716 0.992353
vt 0.408159 0.970159
vt 0.408159 0.970159
vt 0.373591 0.935591
vt 0.373591 0.935591
vt 0.351397 0.892034
vt 0.351397 0.892034
vt 0.343750 0.843750
vt 0.343750 0.843750
vt 0.351397 0.795466
vt 0.351397 0.795466
vt 0.373591 0.751909
vt 0.373591 0.751909
vt 0.408159 0.717341
vt 0.408159 0.717341
vt 0.451716 0.695147
vt 0.451716 0.695147
vt 0.500000 0.687500
vt 0.500000 0.687500
vt 0.548284 0.695147
vt 0.548284 0.695147
vt 0.591842 0.717341
vt 0.591842 0.717341
vt 0.626409 0.751908
vt 0.626409 0.751908
vt 0.648603 0.795466
vt 0.648603 0.795466
vt 0.656250 0.843750
vt 0.656250 0.843750
vt 0.626409 0.935591
vt 0.648603 0.892034
vt 0.591841 0.970159
vt 0.548284 0.992353
vt 0.500000 1.000000
vt 0.451716 0.992353
vt 0.408159 0.970159
vt 0.373591 0.935591
vt 0.351397 0.892034
vt 0.343750 0.843750
vt 0.351397 0.795466
vt 0.373591 0.751909
vt 0.408159 0.717341
vt 0.451716 0.695147
vt 0.500000 0.687500
vt 0.548284 0.695147
vt 0.591842 0.717341
vt 0.626409 0.751908
vt 0.648603 0.795466
vt 0.656250 0.843750
vt 0.626409 0.935591
vt 0.648603 0.892034
vt 0.591841 0.970159
vt 0.548284 0.992353
vt 0.500000 1.000000
vt 0.451716 0.992353
vt 0.408159 0.970159
vt 0.373591 0.935591
vt 0.351397 0.892034
vt 0.343750 0.843750
vt 0.351397 0.795466
vt 0.373591 0.751909
vt 0.408159 0.717341
vt 0.451716 0.695147
vt 0.500000 0.687500
vt 0.548284 0.695147
vt 0.591842 0.717341
vt 0.626409 0.751908
vt 0.648603 0.795466
vt 0.656250 0.843750
vt 0.648603 0.892034
vt 0.626409 0.935591
vt 0.626409 0.935591
vt 0.648603 0.892034
vt 0.591841 0.970159
vt 0.591841 0.970159
vt 0.548284 0.992353
vt 0.548284 0.992353
vt 0.500000 1.000000
vt 0.500000 1.000000
vt 0.451716 0.992353
vt 0.451716 0.992353
vt 0.408159 0.970159
vt 0.408159 0.970159
vt 0.373591 0.935591
vt 0.373591 0.935591
vt 0.351397 0.892034
vt 0.351397 0.892034
vt 0.343750 0.843750
vt 0.343750 0.843750
vt 0.351397 0.795466
vt 0.351397 0.795466
vt 0.373591 0.751909
vt 0.373591 0.751909
vt 0.408159 0.717341
vt 0.408159 0.717341
vt 0.451716 0.695147
vt 0.451716 0.695147
vt 0.500000 0.687500
vt 0.500000 0.687500
vt 0.548284 0.695147
vt 0.548284 0.695147
vt 0.591842 0.717341
vt 0.591842 0.717341
vt 0.626409 0.751909
vt 0.626409 0.751908
vt 0.648603 0.795466
vt 0.648603 0.795466
vt 0.656250 0.843750
vt 0.656250 0.843750
vt 0.648603 0.892034
vt 0.626409 0.935591
vt 0.626409 0.935591
vt 0.648603 0.892034
vt 0.591841 0.970159
vt 0.591841 0.970159
vt 0.548284 0.992353
vt 0.548284 0.992353
vt 0.500000 1.000000
vt 0.500000 1.000000
vt 0.451716 0.992353
vt 0.451716 0.992353
vt 0.408159 0.970159
vt 0.408159 0.970159
vt 0.373591 0.935591
vt 0.373591 0.935591
vt 0.351397 0.892034
vt 0.351397 0.892034
vt 0.343750 0.843750
vt 0.343750 0.843750
vt 0.351397 0.795466
vt 0.351397 0.795466
vt 0.373591 0.751909
vt 0.373591 0.751909
vt 0.408158 0.717341
vt 0.408159 0.717341
vt 0.451716 0.695147
vt 0.451716 0.695147
vt 0.500000 0.687500
vt 0.500000 0.687500
vt 0.548284 0.695147
vt 0.548284 0.695147
vt 0.591841 0.717341
vt 0.591842 0.717341
vt 0.626409 0.751908
vt 0.626409 0.751908
vt 0.648603 0.795466
vt 0.648603 0.795466
vt 0.656250 0.843750
vt 0.656250 0.843750
vn 0.951056 0.000000 -0.309018
vn 0.809006 0.000000 -0.587800
vn 0.668204 0.563715 -0.485519
vn 0.785554 0.563702 -0.255236
vn 0.587825 0.000000 -0.808988
vn 0.485501 0.563754 -0.668184
vn 0.309017 0.000000 -0.951056
vn 0.255240 0.563753 -0.785516
vn 0.000000 0.000000 -1.000000
vn 0.000000 0.563743 -0.825950
vn -0.309003 0.000000 -0.951061
vn -0.255224 0.563746 -0.785526
vn -0.587801 0.000000 -0.809006
vn -0.485492 0.563741 -0.668203
vn -0.809029 0.000000 -0.587768
vn -0.668222 0.563729 -0.485478
vn -0.951056 0.000000 -0.309018
vn -0.785544 0.563712 -0.255244
vn -1.000000 0.000000 -0.000000
vn -0.825969 0.563716 0.000000
vn -0.951061 0.000000 0.309004
vn -0.785540 0.563721 0.255235
vn -0.809012 0.000000 0.587792
vn -0.668206 0.563739 0.485487
vn -0.587768 0.000000 0.809029
vn -0.485464 0.563741 0.668222
vn -0.309003 0.000000 0.951061
vn -0.255224 0.563747 0.785526
vn 0.000000 0.000000 1.000000
vn 0.000000 0.563743 0.825950
vn 0.309017 0.000000 0.951056
vn 0.255240 0.563753 0.785516
vn 0.587792 0.000000 0.809012
vn 0.485473 0.563754 0.668204
vn 0.808989 0.000000 0.587824
vn 0.668188 0.563726 0.485528
vn 0.951061 0.000000 0.309004
vn 0.785550 0.563711 0.255228
vn 1.000000 0.000000 -0.000000
vn 0.825974 0.563708 0.000000
vn 0.000000 -1.000000 0.000000
vn 0.000000 -1.000000 0.000000
vn 0.000000 -1.000000 0.000000
vn 0.000000 -1.000000 0.000000
vn 0.000000 -1.000000 0.000000
vn 0.000000 -1.000000 0.000000
vn 0.000000 -1.000000 0.000001
vn 0.000000 -1.000000 0.000001
vn 0.000000 -1.000000 0.000000
vn 0.000000 -1.000000 0.000000
vn 0.000000 -1.000000 0.000000
vn 0.000000 -1.000000 0.000000
vn 0.000000 -1.000000 0.000001
vn 0.000000 -1.000000 0.000000
vn 0.000000 -1.000000 -0.000000
vn 0.000000 -1.000000 0.000000
vn 0.000000 -1.000000 0.000000
vn 0.000000 -1.000000 0.000000
vn 0.000000 -1.000000 0.000000
vn 0.000000 -1.000000 0.000000
vn 0.000000 -1.000000 0.000000
vn 0.000000 1.000000 0.000000
vn 0.000000 1.000000 0.000000
vn 0.000000 1.000000 0.000003
vn 0.000000 1.000000 0.000014
vn 0.000000 1.000000 0.000014
vn 0.000000 1.000000 0.000000
vn 0.000000 1.000000 -0.000007
vn 0.000000 1.000000 0.000007
vn 0.000000 1.000000 -0.000000
vn 0.000000 1.000000 -0.000014
vn 0.000000 1.000000 0.000028
vn 0.000000 1.000000 0.000028
vn 0.000000 1.000000 -0.000014
vn 0.000000 1.000000 0.000000
vn 0.000000 1.000000 0.000014
vn 0.000000 1.000000 0.000000
vn 0.000000 1.000000 -0.000007
vn 0.000000 1.000000 -0.000007
vn 0.000000 1.000000 0.000000
vn 0.000000 1.000000 0.000000
vn 0.000000 1.000000 0.000000
vn 0.310429 0.923447 -0.225567
vn 0.364959 0.923441 -0.118579
vn 0.225545 0.923456 -0.310416
vn 0.118586 0.923448 -0.364940
vn 0.000000 0.923443 -0.383737
vn -0.118580 0.923449 -0.364939
vn -0.225549 0.923451 -0.310429
vn -0.310450 0.923444 -0.225548
vn -0.364944 0.923447 -0.118586
vn -0.383748 0.923438 0.000000
vn -0.364931 0.923453 0.118574
vn -0.310446 0.923445 0.225551
vn -0.225536 0.923450 0.310441
vn -0.118580 0.923449 0.364939
vn -0.000000 0.923445 0.383732
vn 0.118585 0.923448 0.364940
vn 0.225534 0.923454 0.310432
vn 0.310430 0.923444 0.225577
vn 0.364954 0.923445 0.118565
vn 0.383713 0.923453 0.000000
vn 0.142014 0.984471 -0.103195
vn 0.166953 0.984471 -0.054248
vn 0.103193 0.984469 -0.142026
vn 0.054256 0.984470 -0.166960
vn 0.000001 0.984469 -0.175556
vn -0.054252 0.984470 -0.166963
vn -0.103194 0.984469 -0.142025
vn -0.142028 0.984470 -0.103188
vn -0.166965 0.984469 -0.054248
vn -0.175551 0.984470 0.000000
vn -0.166961 0.984470 0.054251
vn -0.142023 0.984470 0.103188
vn -0.103186 0.984469 0.142030
vn -0.054252 0.984470 0.166962
vn 0.000000 0.984469 0.175557
vn 0.054258 0.984470 0.166959
vn 0.103187 0.984469 0.142033
vn 0.142008 0.984471 0.103200
vn 0.166957 0.984471 0.054243
vn 0.175550 0.984471 -0.000001
vn 0.760476 -0.600465 -0.247219
vn 0.646942 -0.600430 -0.470053
vn 0.646941 -0.600430 -0.470055
vn 0.760491 -0.600465 -0.247174
vn 0.470082 -0.600407 -0.646942
vn 0.470079 -0.600407 -0.646944
vn 0.247201 -0.600419 -0.760519
vn 0.247210 -0.600419 -0.760516
vn 0.000002 -0.600428 -0.799679
vn -0.000003 -0.600428 -0.799679
vn -0.247091 -0.600467 -0.760517
vn -0.247143 -0.600467 -0.760500
vn -0.470010 -0.600507 -0.646902
vn -0.470035 -0.600507 -0.646884
vn -0.646905 -0.600529 -0.469979
vn -0.646883 -0.600529 -0.470008
vn -0.760453 -0.600560 -0.247062
vn -0.760451 -0.600560 -0.247067
vn -0.799585 -0.600554 0.000088
vn -0.799585 -0.600553 0.000078
vn -0.760486 -0.600489 0.247133
vn -0.760482 -0.600489 0.247144
vn -0.646925 -0.600512 0.469972
vn -0.646937 -0.600512 0.469956
vn -0.470052 -0.600560 0.646823
vn -0.470026 -0.600560 0.646842
vn -0.247090 -0.600610 0.760404
vn -0.247126 -0.600610 0.760392
vn -0.000000 -0.600594 0.799554
vn -0.000002 -0.600594 0.799554
vn 0.247172 -0.600587 0.760396
vn 0.247163 -0.600587 0.760399
vn 0.470075 -0.600503 0.646858
vn 0.470051 -0.600503 0.646876
vn 0.646886 -0.600465 0.470085
vn 0.646890 -0.600465 0.470080
vn 0.760492 -0.600467 0.247166
vn 0.760506 -0.600467 0.247124
vn 0.799621 -0.600505 -0.000000
vn 0.799621 -0.600505 0.000003
vn 0.740155 0.627924 -0.240585
vn 0.629646 0.627899 -0.457480
vn 0.629637 0.627899 -0.457494
vn 0.740154 0.627924 -0.240589
vn 0.457483 0.627899 -0.629645
vn 0.457496 0.627899 -0.629635
vn 0.240587 0.627925 -0.740154
vn 0.240590 0.627925 -0.740153
vn -0.000003 0.627924 -0.778274
vn 0.000008 0.627924 -0.778274
vn -0.240486 0.627942 -0.740173
vn -0.240490 0.627942 -0.740171
vn -0.457510 0.627927 -0.629597
vn -0.457522 0.627927 -0.629589
vn -0.629630 0.627939 -0.457449
vn -0.629629 0.627938 -0.457450
vn -0.740148 0.627944 -0.240555
vn -0.740153 0.627944 -0.240541
vn -0.778257 0.627945 0.000222
vn -0.778257 0.627945 0.000255
vn -0.740199 0.627894 0.240532
vn -0.740198 0.627894 0.240534
vn -0.629737 0.627913 0.457336
vn -0.629747 0.627913 0.457322
vn -0.457591 0.627890 0.629575
vn -0.457618 0.627890 0.629555
vn -0.240515 0.627938 0.740167
vn -0.240524 0.627938 0.740164
vn -0.000002 0.627926 0.778273
vn 0.000008 0.627926 0.778273
vn 0.240588 0.627940 0.740141
vn 0.240579 0.627940 0.740144
vn 0.457531 0.627902 0.629607
vn 0.457548 0.627902 0.629595
vn 0.629645 0.627899 0.457482
vn 0.629636 0.627899 0.457495
vn 0.740175 0.627927 0.240517
vn 0.740175 0.627927 0.240515
vn 0.778272 0.627927 -0.000003
vn 0.778272 0.627927 -0.000008
vn 0.887211 0.375485 -0.268081
vn 0.792683 0.291450 -0.535454
vn 0.774375 0.276800 -0.568969
vn 0.882550 0.370642 -0.289361
vn 0.606853 0.169456 -0.776540
vn 0.575560 0.152613 -0.803393
vn 0.329373 0.057033 -0.942476
vn 0.304039 0.050084 -0.951342
vn 0.000000 0.011418 -0.999935
vn 0.000000 0.011418 -0.999935
vn -0.329377 0.057057 -0.942473
vn -0.304046 0.050105 -0.951339
vn -0.606854 0.169477 -0.776535
vn -0.575538 0.152628 -0.803406
vn -0.792679 0.291447 -0.535461
vn -0.774379 0.276803 -0.568962
vn -0.887182 0.375565 -0.268066
vn -0.882524 0.370709 -0.289355
vn -0.914586 0.404391 0.000000
vn -0.914586 0.404391 0.000000
vn -0.887182 0.375565 0.268066
vn -0.882524 0.370709 0.289355
vn -0.792679 0.291447 0.535461
vn -0.774379 0.276803 0.568962
vn -0.606854 0.169477 0.776535
vn -0.575538 0.152628 0.803406
vn -0.329377 0.057057 0.942473
vn -0.304046 0.050105 0.951339
vn 0.000000 0.011418 0.999935
vn 0.000000 0.011418 0.999935
vn 0.329373 0.057033 0.942476
vn 0.304039 0.050084 0.951342
vn 0.606853 0.169456 0.776540
vn 0.575560 0.152613 0.803393
vn 0.792683 0.291450 0.535454
vn 0.774375 0.276800 0.568969
vn 0.887211 0.375485 0.268081
vn 0.882550 0.370642 0.289361
vn 0.914647 0.404252 0.000000
vn 0.914647 0.404252 0.000000
vn 0.000000 -1.000000 0.000000
vn 0.000000 -1.000000 0.000000
vn 0.000000 -1.000000 -0.000000
vn 0.000000 -1.000000 0.000000
vn 0.000000 -1.000000 0.000000
vn 0.000000 -1.000000 0.000000
vn 0.000000 -1.000000 0.000000
vn 0.000000 -1.000000 0.000000
vn 0.000000 -1.000000 0.000000
vn 0.000000 -1.000000 0.000000
vn 0.000000 -1.000000 0.000000
vn 0.000000 -1.000000 -0.000000
vn 0.000000 -1.000000 -0.000000
vn 0.000000 -1.000000 0.000000
vn 0.000000 -1.000000 0.000000
vn 0.000000 -1.000000 0.000000
vn 0.000000 -1.000000 0.000000
vn 0.000000 -1.000000 -0.000000
vn 0.000000 -1.000000 -0.000000
vn 0.000000 -1.000000 0.000000
vn 0.000000 -1.000000 0.000000
vn 0.000000 1.000000 0.000000
vn 0.000000 1.000000 0.000000
vn -0.000000 1.000000 -0.000000
vn 0.000000 1.000000 0.000000
vn 0.000000 1.000000 0.000000
vn 0.000000 1.000000 0.000000
vn 0.000000 1.000000 0.000000
vn 0.000000 1.000000 -0.000001
vn 0.000000 1.000000 -0.000001
vn -0.000000 1.000000 0.000001
vn -0.000001 1.000000 0.000000
vn -0.000000 1.000000 -0.000001
vn 0.000000 1.000000 0.000000
vn 0.000000 1.000000 -0.000001
vn 0.000000 1.000000 -0.000001
vn 0.000001 1.000000 0.000000
vn 0.000000 1.000000 0.000001
vn -0.000001 1.000000 0.000001
vn 0.000000 1.000000 0.000000
vn 0.000000 1.000000 0.000000
vn 0.000000 1.000000 0.000000
vn 0.378267 0.918184 -0.117695
vn 0.320458 0.920647 -0.222971
vn 0.322710 0.920559 -0.220068
vn 0.378999 0.918150 -0.115583
vn 0.231657 0.923631 -0.305355
vn 0.234746 0.923543 -0.303252
vn 0.121287 0.925995 -0.357522
vn 0.123533 0.925962 -0.356839
vn -0.000012 0.926892 -0.375328
vn -0.000006 0.926892 -0.375328
vn -0.121285 0.926003 -0.357503
vn -0.123532 0.925970 -0.356819
vn -0.231634 0.923635 -0.305359
vn -0.234730 0.923547 -0.303253
vn -0.320456 0.920648 -0.222969
vn -0.322709 0.920560 -0.220064
vn -0.378280 0.918179 -0.117692
vn -0.379013 0.918145 -0.115579
vn -0.398372 0.917224 0.000000
vn -0.398372 0.917224 0.000000
vn -0.378280 0.918179 0.117692
vn -0.379013 0.918145 0.115579
vn -0.320456 0.920648 0.222969
vn -0.322709 0.920560 0.220064
vn -0.231634 0.923635 0.305359
vn -0.234730 0.923547 0.303253
vn -0.121285 0.926003 0.357503
vn -0.123532 0.925970 0.356819
vn -0.000004 0.926896 0.375319
vn 0.000004 0.926896 0.375319
vn 0.121287 0.926004 0.357500
vn 0.123536 0.925971 0.356816
vn 0.231638 0.923639 0.305344
vn 0.234730 0.923551 0.303240
vn 0.320449 0.920650 0.222972
vn 0.322702 0.920561 0.220069
vn 0.378267 0.918184 0.117695
vn 0.378999 0.918150 0.115583
vn 0.398356 0.917231 -0.000000
vn 0.398356 0.917231 -0.000000
vn 0.802086 -0.227084 -0.552351
vn 0.931519 -0.223585 -0.286848
vn 0.931917 -0.223574 -0.285563
vn 0.803372 -0.227052 -0.550492
vn 0.591834 -0.231568 -0.772080
vn 0.593725 -0.231534 -0.770638
vn 0.315153 -0.235338 -0.919399
vn 0.316605 -0.235325 -0.918903
vn -0.000037 -0.236811 -0.971556
vn -0.000038 -0.236811 -0.971556
vn -0.315147 -0.235339 -0.919401
vn -0.316599 -0.235325 -0.918905
vn -0.591793 -0.231574 -0.772111
vn -0.593683 -0.231540 -0.770668
vn -0.802110 -0.227084 -0.552316
vn -0.803397 -0.227052 -0.550455
vn -0.931527 -0.223572 -0.286832
vn -0.931924 -0.223561 -0.285549
vn -0.974986 -0.222267 -0.000017
vn -0.974986 -0.222267 -0.000018
vn -0.931526 -0.223579 0.286831
vn -0.931923 -0.223567 0.285549
vn -0.802096 -0.227084 0.552336
vn -0.803383 -0.227052 0.550475
vn -0.591794 -0.231569 0.772111
vn -0.593683 -0.231535 0.770670
vn -0.315164 -0.235337 0.919396
vn -0.316616 -0.235323 0.918900
vn -0.000000 -0.236812 0.971556
vn 0.000000 -0.236812 0.971555
vn 0.315170 -0.235339 0.919393
vn 0.316623 -0.235325 0.918897
vn 0.591802 -0.231575 0.772103
vn 0.593692 -0.231541 0.770661
vn 0.802084 -0.227091 0.552350
vn 0.803370 -0.227058 0.550492
vn 0.931524 -0.223585 0.286831
vn 0.931921 -0.223574 0.285548
vn 0.974984 -0.222274 -0.000000
vn 0.974984 -0.222274 0.000000
vn 0.954365 -0.063682 -0.291773
vn 0.823790 -0.064599 -0.563203
vn 0.823400 -0.064602 -0.563773
vn 0.954246 -0.063683 -0.292164
vn 0.609814 -0.065795 -0.789809
vn 0.609234 -0.065798 -0.790256
vn 0.325622 -0.066800 -0.943137
vn 0.325180 -0.066801 -0.943290
vn -0.000015 -0.067199 -0.997740
vn -0.000015 -0.067199 -0.997740
vn -0.325618 -0.066808 -0.943138
vn -0.325173 -0.066809 -0.943292
vn -0.609788 -0.065789 -0.789829
vn -0.609212 -0.065792 -0.790273
vn -0.823810 -0.064605 -0.563172
vn -0.823420 -0.064607 -0.563742
vn -0.954373 -0.063701 -0.291744
vn -0.954252 -0.063702 -0.292139
vn -0.997991 -0.063356 -0.000015
vn -0.997991 -0.063356 -0.000015
vn -0.954374 -0.063681 0.291746
vn -0.954254 -0.063682 0.292138
vn -0.823804 -0.064599 0.563182
vn -0.823413 -0.064602 0.563753
vn -0.609780 -0.065795 0.789835
vn -0.609201 -0.065798 0.790281
vn -0.325631 -0.066800 0.943134
vn -0.325188 -0.066801 0.943287
vn -0.000015 -0.067200 0.997740
vn -0.000015 -0.067200 0.997740
vn 0.325623 -0.066815 0.943136
vn 0.325179 -0.066816 0.943289
vn 0.609789 -0.065802 0.789828
vn 0.609210 -0.065805 0.790274
vn 0.823794 -0.064603 0.563195
vn 0.823404 -0.064606 0.563766
vn 0.954374 -0.063686 0.291743
vn 0.954253 -0.063687 0.292140
vn 0.997992 -0.063348 0.000000
vn 0.997992 -0.063348 0.000000
vn 0.772506 0.588593 -0.238315
vn 0.661740 0.594766 -0.456458
vn 0.454827 0.833074 -0.314835
vn 0.534373 0.828909 -0.165396
vn 0.485080 0.602525 -0.633768
vn 0.330661 0.838236 -0.433617
vn 0.256899 0.608893 -0.750501
vn 0.173923 0.842415 -0.509988
vn -0.000017 0.611345 -0.791364
vn -0.000013 0.844004 -0.536337
vn -0.256909 0.608889 -0.750501
vn -0.173937 0.842407 -0.509997
vn -0.485062 0.602525 -0.633781
vn -0.330663 0.838237 -0.433614
vn -0.661749 0.594772 -0.456437
vn -0.454831 0.833079 -0.314814
vn -0.772505 0.588602 -0.238295
vn -0.534386 0.828898 -0.165409
vn -0.810121 0.586262 -0.000014
vn -0.561752 0.827306 -0.000012
vn -0.772510 0.588592 0.238303
vn -0.534375 0.828905 0.165410
vn -0.661746 0.594773 0.456439
vn -0.454826 0.833077 0.314827
vn -0.485080 0.602521 0.633771
vn -0.330692 0.838233 0.433599
vn -0.256931 0.608869 0.750510
vn -0.173962 0.842408 0.509987
vn -0.000012 0.611325 0.791380
vn 0.000000 0.844002 0.536340
vn 0.256902 0.608885 0.750507
vn 0.173925 0.842409 0.509998
vn 0.485075 0.602521 0.633775
vn 0.330671 0.838240 0.433602
vn 0.661755 0.594773 0.456427
vn 0.454844 0.833079 0.314794
vn 0.772503 0.588606 0.238291
vn 0.534383 0.828903 0.165391
vn 0.810120 0.586264 0.000014
vn 0.561744 0.827311 0.000013
vn 0.723473 -0.651966 -0.226995
vn 0.616951 -0.657189 -0.432982
vn 0.473764 -0.814223 -0.335542
vn 0.558099 -0.810732 -0.176743
vn 0.449580 -0.663661 -0.597856
vn 0.343314 -0.818469 -0.460699
vn 0.236950 -0.668908 -0.704569
vn 0.180128 -0.821833 -0.540504
vn -0.000001 -0.670912 -0.741537
vn -0.000002 -0.823103 -0.567892
vn -0.236964 -0.668912 -0.704560
vn -0.180142 -0.821835 -0.540496
vn -0.449610 -0.663657 -0.597838
vn -0.343328 -0.818465 -0.460695
vn -0.616934 -0.657207 -0.432979
vn -0.473755 -0.814229 -0.335539
vn -0.723463 -0.651965 -0.227031
vn -0.558099 -0.810731 -0.176753
vn -0.759962 -0.649967 -0.000001
vn -0.587280 -0.809384 -0.000001
vn -0.723473 -0.651956 0.227023
vn -0.558108 -0.810725 0.176751
vn -0.616955 -0.657193 0.432972
vn -0.473776 -0.814213 0.335549
vn -0.449621 -0.663653 0.597834
vn -0.343346 -0.818451 0.460707
vn -0.236966 -0.668883 0.704587
vn -0.180131 -0.821825 0.540515
vn -0.000012 -0.670888 0.741559
vn -0.000015 -0.823106 0.567888
vn 0.236933 -0.668890 0.704591
vn 0.180100 -0.821838 0.540505
vn 0.449595 -0.663664 0.597841
vn 0.343315 -0.818467 0.460703
vn 0.616977 -0.657188 0.432947
vn 0.473787 -0.814216 0.335525
vn 0.723475 -0.651963 0.227000
vn 0.558109 -0.810726 0.176741
vn 0.759970 -0.649959 -0.000000
vn 0.587285 -0.809380 -0.000001
vn 0.954164 0.000000 -0.299285
vn 0.818660 0.000000 -0.574278
vn 0.818660 0.000000 -0.574278
vn 0.954164 0.000000 -0.299285
vn 0.601182 0.000000 -0.799112
vn 0.601182 0.000000 -0.799112
vn 0.318837 0.000000 -0.947809
vn 0.318837 0.000000 -0.947809
vn 0.000001 0.000000 -1.000000
vn 0.000000 0.000000 -1.000000
vn -0.318864 0.000000 -0.947801
vn -0.318864 0.000000 -0.947801
vn -0.601203 0.000000 -0.799096
vn -0.601203 0.000000 -0.799096
vn -0.818654 0.000000 -0.574287
vn -0.818654 0.000000 -0.574287
vn -0.954164 0.000000 -0.299285
vn -0.954164 0.000000 -0.299285
vn -1.000000 0.000000 0.000000
vn -1.000000 0.000000 0.000000
vn -0.954160 0.000000 0.299296
vn -0.954160 0.000000 0.299297
vn -0.818655 0.000000 0.574286
vn -0.818654 0.000000 0.574286
vn -0.601210 0.000000 0.799091
vn -0.601210 0.000000 0.799091
vn -0.318863 0.000000 0.947801
vn -0.318864 0.000000 0.947801
vn -0.000043 0.000000 1.000000
vn -0.000044 0.000000 1.000000
vn 0.318812 0.000000 0.947818
vn 0.318812 0.000000 0.947818
vn 0.601190 0.000000 0.799106
vn 0.601190 0.000000 0.799106
vn 0.818682 0.000000 0.574247
vn 0.818682 0.000000 0.574247
vn 0.954164 0.000000 0.299285
vn 0.954164 0.000000 0.299285
vn 1.000000 0.000000 0.000000
vn 1.000000 0.000000 0.000000
vn 0.877734 0.395146 -0.271003
vn 0.753532 0.401854 -0.520291
vn 0.553833 0.410340 -0.724493
vn 0.293922 0.417350 -0.859901
vn -0.000011 0.420062 -0.907495
vn -0.293928 0.417358 -0.859894
vn -0.553813 0.410344 -0.724506
vn -0.753540 0.401870 -0.520268
vn -0.877733 0.395165 -0.270977
vn -0.919697 0.392629 -0.000014
vn -0.877740 0.395148 0.270982
vn -0.753537 0.401867 0.520275
vn -0.553826 0.410334 0.724502
vn -0.293950 0.417315 0.859908
vn -0.000010 0.420029 0.907511
vn 0.293925 0.417332 0.859908
vn 0.553825 0.410326 0.724507
vn 0.753545 0.401863 0.520266
vn 0.877733 0.395165 0.270977
vn 0.919697 0.392629 0.000014
vn 0.927291 -0.234545 -0.291754
vn 0.794208 -0.238399 -0.558927
vn 0.581939 -0.243280 -0.775991
vn 0.308123 -0.247329 -0.918634
vn -0.000000 -0.248898 -0.968530
vn -0.308143 -0.247330 -0.918627
vn -0.581986 -0.243296 -0.775951
vn -0.794207 -0.238426 -0.558917
vn -0.927268 -0.234555 -0.291817
vn -0.972455 -0.233091 -0.000000
vn -0.927272 -0.234566 0.291799
vn -0.794203 -0.238455 0.558910
vn -0.582014 -0.243314 0.775924
vn -0.308145 -0.247281 0.918640
vn -0.000000 -0.248800 0.968555
vn 0.308097 -0.247258 0.918662
vn 0.581980 -0.243278 0.775961
vn 0.794248 -0.238425 0.558860
vn 0.927286 -0.234556 0.291762
vn 0.972456 -0.233087 0.000000
s 1
g vase_tall
usemtl initialShadingGroup
f 1/21/1 2/22/2 22/43/3 21/42/4
f 2/22/2 3/23/5 23/44/6 22/43/3
f 3/23/5 4/24/7 24/45/8 23/44/6
f 4/24/7 5/25/9 25/46/10 24/45/8
f 5/25/9 6/26/11 26/47/12 25/46/10
f 6/26/11 7/27/13 27/48/14 26/47/12
f 7/27/13 8/28/15 28/49/16 27/48/14
f 8/28/15 9/29/17 29/50/18 28/49/16
f 9/29/17 10/30/19 30/51/20 29/50/18
f 10/30/19 11/31/21 31/52/22 30/51/20
f 11/31/21 12/32/23 32/53/24 31/52/22
f 12/32/23 13/33/25 33/54/26 32/53/24
f 13/33/25 14/34/27 34/55/28 33/54/26
f 14/34/27 15/35/29 35/56/30 34/55/28
f 15/35/29 16/36/31 36/57/32 35/56/30
f 16/36/31 17/37/33 37/58/34 36/57/32
f 17/37/33 18/38/35 38/59/36 37/58/34
f 18/38/35 19/39/37 39/60/38 38/59/36
f 19/39/37 20/40/39 40/61/40 39/60/38
f 20/40/39 1/41/1 21/62/4 40/61/40
s 2
f 2/2/41 1/1/42 41/83/43
f 3/3/44 2/2/41 41/83/43
f 4/4/45 3/3/44 41/83/43
f 5/5/46 4/4/45 41/83/43
f 6/6/47 5/5/46 41/83/43
f 7/7/48 6/6/47 41/83/43
f 8/8/49 7/7/48 41/83/43
f 9/9/50 8/8/49 41/83/43
f 10/10/51 9/9/50 41/83/43
f 11/11/52 10/10/51 41/83/43
f 12/12/53 11/11/52 41/83/43
f 13/13/54 12/12/53 41/83/43
f 14/14/55 13/13/54 41/83/43
f 15/15/56 14/14/55 41/83/43
f 16/16/57 15/15/56 41/83/43
f 17/17/58 16/16/57 41/83/43
f 18/18/59 17/17/58 41/83/43
f 19/19/60 18/18/59 41/83/43
f 20/20/61 19/19/60 41/83/43
f 1/1/42 20/20/61 41/83/43
s 3
f 102/145/62 103/146/63 104/84/64
f 103/146/63 105/147/65 104/84/64
f 105/147/65 106/148/66 104/84/64
f 106/148/66 107/149/67 104/84/64
f 107/149/67 108/150/68 104/84/64
f 108/150/68 109/151/69 104/84/64
f 109/151/69 110/152/70 104/84/64
f 110/152/70 111/153/71 104/84/64
f 111/153/71 112/154/72 104/84/64
f 112/154/72 113/155/73 104/84/64
f 113/155/73 114/156/74 104/84/64
f 114/156/74 115/157/75 104/84/64
f 115/157/75 116/158/76 104/84/64
f 116/158/76 117/159/77 104/84/64
f 117/159/77 118/160/78 104/84/64
f 118/160/78 119/161/79 104/84/64
f 119/161/79 120/162/80 104/84/64
f 120/162/80 121/163/81 104/84/64
f 121/163/81 122/164/82 104/84/64
f 122/164/82 102/145/62 104/84/64
s 1
f 21/81/4 22/80/3 43/86/83 42/85/84
f 22/80/3 23/79/6 44/87/85 43/86/83
f 23/79/6 24/78/8 45/88/86 44/87/85
f 24/78/8 25/77/10 46/89/87 45/88/86
f 25/77/10 26/76/12 47/90/88 46/89/87
f 26/76/12 27/75/14 48/91/89 47/90/88
f 27/75/14 28/74/16 49/92/90 48/91/89
f 28/74/16 29/73/18 50/93/91 49/92/90
f 29/73/18 30/72/20 51/94/92 50/93/91
f 30/72/20 31/71/22 52/95/93 51/94/92
f 31/71/22 32/70/24 53/96/94 52/95/93
f 32/70/24 33/69/26 54/97/95 53/96/94
f 33/69/26 34/68/28 55/98/96 54/97/95
f 34/68/28 35/67/30 56/99/97 55/98/96
f 35/67/30 36/66/32 57/100/98 56/99/97
f 36/66/32 37/65/34 58/101/99 57/100/98
f 37/65/34 38/64/36 59/102/100 58/101/99
f 38/64/36 39/63/38 60/103/101 59/102/100
f 39/63/38 40/82/40 61/104/102 60/103/101
f 40/82/40 21/81/4 42/85/84 61/104/102
f 42/85/84 43/86/83 63/106/103 62/105/104
f 43/86/83 44/87/85 64/107/105 63/106/103
f 44/87/85 45/88/86 65/108/106 64/107/105
f 45/88/86 46/89/87 66/109/107 65/108/106
f 46/89/87 47/90/88 67/110/108 66/109/107
f 47/90/88 48/91/89 68/111/109 67/110/108
f 48/91/89 49/92/90 69/112/110 68/111/109
f 49/92/90 50/93/91 70/113/111 69/112/110
f 50/93/91 51/94/92 71/114/112 70/113/111
f 51/94/92 52/95/93 72/115/113 71/114/112
f 52/95/93 53/96/94 73/116/114 72/115/113
f 53/96/94 54/97/95 74/117/115 73/116/114
f 54/97/95 55/98/96 75/118/116 74/117/115
f 55/98/96 56/99/97 76/119/117 75/118/116
f 56/99/97 57/100/98 77/120/118 76/119/117
f 57/100/98 58/101/99 78/121/119 77/120/118
f 58/101/99 59/102/100 79/122/120 78/121/119
f 59/102/100 60/103/101 80/123/121 79/122/120
f 60/103/101 61/104/102 81/124/122 80/123/121
f 61/104/102 42/85/84 62/105/104 81/124/122
s 4
f 62/105/123 63/106/124 83/126/125 82/125/126
f 63/106/124 64/107/127 84/127/128 83/126/125
f 64/107/127 65/108/129 85/128/130 84/127/128
f 65/108/129 66/109/131 86/129/132 85/128/130
f 66/109/131 67/110/133 87/130/134 86/129/132
f 67/110/133 68/111/135 88/131/136 87/130/134
f 68/111/135 69/112/137 89/132/138 88/131/136
f 69/112/137 70/113/139 90/133/140 89/132/138
f 70/113/139 71/114/141 91/134/142 90/133/140
f 71/114/141 72/115/143 92/135/144 91/134/142
f 72/115/143 73/116/145 93/136/146 92/135/144
f 73/116/145 74/117/147 94/137/148 93/136/146
f 74/117/147 75/118/149 95/138/150 94/137/148
f 75/118/149 76/119/151 96/139/152 95/138/150
f 76/119/151 77/120/153 97/140/154 96/139/152
f 77/120/153 78/121/155 98/141/156 97/140/154
f 78/121/155 79/122/157 99/142/158 98/141/156
f 79/122/157 80/123/159 100/143/160 99/142/158
f 80/123/159 81/124/161 101/144/162 100/143/160
f 81/124/161 62/105/123 82/125/126 101/144/162
s 5
f 82/125/163 83/126/164 103/146/165 102/145/166
f 83/126/164 84/127/167 105/147/168 103/146/165
f 84/127/167 85/128/169 106/148/170 105/147/168
f 85/128/169 86/129/171 107/149/172 106/148/170
f 86/129/171 87/130/173 108/150/174 107/149/172
f 87/130/173 88/131/175 109/151/176 108/150/174
f 88/131/175 89/132/177 110/152/178 109/151/176
f 89/132/177 90/133/179 111/153/180 110/152/178
f 90/133/179 91/134/181 112/154/182 111/153/180
f 91/134/181 92/135/183 113/155/184 112/154/182
f 92/135/183 93/136/185 114/156/186 113/155/184
f 93/136/185 94/137/187 115/157/188 114/156/186
f 94/137/187 95/138/189 116/158/190 115/157/188
f 95/138/189 96/139/191 117/159/192 116/158/190
f 96/139/191 97/140/193 118/160/194 117/159/192
f 97/140/193 98/141/195 119/161/196 118/160/194
f 98/141/195 99/142/197 120/162/198 119/161/196
f 99/142/197 100/143/199 121/163/200 120/162/198
f 100/143/199 101/144/201 122/164/202 121/163/200
f 101/144/201 82/125/163 102/145/166 122/164/202
s 6
f 123/165/203 124/166/204 144/167/205 143/168/206
f 124/166/204 125/169/207 145/170/208 144/167/205
f 125/169/207 126/171/209 146/172/210 145/170/208
f 126/171/209 127/173/211 147/174/212 146/172/210
f 127/173/211 128/175/213 148/176/214 147/174/212
f 128/175/213 129/177/215 149/178/216 148/176/214
f 129/177/215 130/179/217 150/180/218 149/178/216
f 130/179/217 131/181/219 151/182/220 150/180/218
f 131/181/219 132/183/221 152/184/222 151/182/220
f 132/183/221 133/185/223 153/186/224 152/184/222
f 133/185/223 134/187/225 154/188/226 153/186/224
f 134/187/225 135/189/227 155/190/228 154/188/226
f 135/189/227 136/191/229 156/192/230 155/190/228
f 136/191/229 137/193/231 157/194/232 156/192/230
f 137/193/231 138/195/233 158/196/234 157/194/232
f 138/195/233 139/197/235 159/198/236 158/196/234
f 139/197/235 140/199/237 160/200/238 159/198/236
f 140/199/237 141/201/239 161/202/240 160/200/238
f 141/201/239 142/203/241 162/204/242 161/202/240
f 142/203/241 123/205/203 143/206/206 162/204/242
s 7
f 124/207/243 123/208/244 163/209/245
f 125/210/246 124/207/243 163/209/245
f 126/211/247 125/210/246 163/209/245
f 127/212/248 126/211/247 163/209/245
f 128/213/249 127/212/248 163/209/245
f 129/214/250 128/213/249 163/209/245
f 130/215/251 129/214/250 163/209/245
f 131/216/252 130/215/251 163/209/245
f 132/217/253 131/216/252 163/209/245
f 133/218/254 132/217/253 163/209/245
f 134/219/255 133/218/254 163/209/245
f 135/220/256 134/219/255 163/209/245
f 136/221/257 135/220/256 163/209/245
f 137/222/258 136/221/257 163/209/245
f 138/223/259 137/222/258 163/209/245
f 139/224/260 138/223/259 163/209/245
f 140/225/261 139/224/260 163/209/245
f 141/226/262 140/225/261 163/209/245
f 142/227/263 141/226/262 163/209/245
f 123/208/244 142/227/263 163/209/245
s 8
f 264/228/264 265/229/265 266/230/266
f 265/229/265 267/231/267 266/230/266
f 267/231/267 268/232/268 266/230/266
f 268/232/268 269/233/269 266/230/266
f 269/233/269 270/234/270 266/230/266
f 270/234/270 271/235/271 266/230/266
f 271/235/271 272/236/272 266/230/266
f 272/236/272 273/237/273 266/230/266
f 273/237/273 274/238/274 266/230/266
f 274/238/274 275/239/275 266/230/266
f 275/239/275 276/240/276 266/230/266
f 276/240/276 277/241/277 266/230/266
f 277/241/277 278/242/278 266/230/266
f 278/242/278 279/243/279 266/230/266
f 279/243/279 280/244/280 266/230/266
f 280/244/280 281/245/281 266/230/266
f 281/245/281 282/246/282 266/230/266
f 282/246/282 283/247/283 266/230/266
f 283/247/283 284/248/284 266/230/266
f 284/248/284 264/228/264 266/230/266
s 9
f 143/249/285 144/250/286 165/251/287 164/252/288
f 144/250/286 145/253/289 166/254/290 165/251/287
f 145/253/289 146/255/291 167/256/292 166/254/290
f 146/255/291 147/257/293 168/258/294 167/256/292
f 147/257/293 148/259/295 169/260/296 168/258/294
f 148/259/295 149/261/297 170/262/298 169/260/296
f 149/261/297 150/263/299 171/264/300 170/262/298
f 150/263/299 151/265/301 172/266/302 171/264/300
f 151/265/301 152/267/303 173/268/304 172/266/302
f 152/267/303 153/269/305 174/270/306 173/268/304
f 153/269/305 154/271/307 175/272/308 174/270/306
f 154/271/307 155/273/309 176/274/310 175/272/308
f 155/273/309 156/275/311 177/276/312 176/274/310
f 156/275/311 157/277/313 178/278/314 177/276/312
f 157/277/313 158/279/315 179/280/316 178/278/314
f 158/279/315 159/281/317 180/282/318 179/280/316
f 159/281/317 160/283/319 181/284/320 180/282/318
f 160/283/319 161/285/321 182/286/322 181/284/320
f 161/285/321 162/287/323 183/288/324 182/286/322
f 162/287/323 143/249/285 164/252/288 183/288/324
s 10
f 185/289/325 184/290/326 164/252/327 165/251/328
f 186/291/329 185/289/325 165/251/328 166/254/330
f 187/292/331 186/291/329 166/254/330 167/256/332
f 188/293/333 187/292/331 167/256/332 168/258/334
f 189/294/335 188/293/333 168/258/334 169/260/336
f 190/295/337 189/294/335 169/260/336 170/262/338
f 191/296/339 190/295/337 170/262/338 171/264/340
f 192/297/341 191/296/339 171/264/340 172/266/342
f 193/298/343 192/297/341 172/266/342 173/268/344
f 194/299/345 193/298/343 173/268/344 174/270/346
f 195/300/347 194/299/345 174/270/346 175/272/348
f 196/301/349 195/300/347 175/272/348 176/274/350
f 197/302/351 196/301/349 176/274/350 177/276/352
f 198/303/353 197/302/351 177/276/352 178/278/354
f 199/304/355 198/303/353 178/278/354 179/280/356
f 200/305/357 199/304/355 179/280/356 180/282/358
f 201/306/359 200/305/357 180/282/358 181/284/360
f 202/307/361 201/306/359 181/284/360 182/286/362
f 203/308/363 202/307/361 182/286/362 183/288/364
f 164/252/327 184/290/326 203/308/363 183/288/364
s 11
f 184/290/365 185/289/366 205/309/367 204/310/368
f 185/289/366 186/291/369 206/311/370 205/309/367
f 186/291/369 187/292/371 207/312/372 206/311/370
f 187/292/371 188/293/373 208/313/374 207/312/372
f 188/293/373 189/294/375 209/314/376 208/313/374
f 189/294/375 190/295/377 210/315/378 209/314/376
f 190/295/377 191/296/379 211/316/380 210/315/378
f 191/296/379 192/297/381 212/317/382 211/316/380
f 192/297/381 193/298/383 213/318/384 212/317/382
f 193/298/383 194/299/385 214/319/386 213/318/384
f 194/299/385 195/300/387 215/320/388 214/319/386
f 195/300/387 196/301/389 216/321/390 215/320/388
f 196/301/389 197/302/391 217/322/392 216/321/390
f 197/302/391 198/303/393 218/323/394 217/322/392
f 198/303/393 199/304/395 219/324/396 218/323/394
f 199/304/395 200/305/397 220/325/398 219/324/396
f 200/305/397 201/306/399 221/326/400 220/325/398
f 201/306/399 202/307/401 222/327/402 221/326/400
f 202/307/401 203/308/403 223/328/404 222/327/402
f 203/308/403 184/290/365 204/310/368 223/328/404
s 12
f 285/329/405 286/330/406 225/331/407 224/332/408
f 286/330/406 287/333/409 226/334/410 225/331/407
f 287/333/409 288/335/411 227/336/412 226/334/410
f 288/335/411 289/337/413 228/338/414 227/336/412
f 289/337/413 290/339/415 229/340/416 228/338/414
f 290/339/415 291/341/417 230/342/418 229/340/416
f 291/341/417 292/343/419 231/344/420 230/342/418
f 292/343/419 293/345/421 232/346/422 231/344/420
f 293/345/421 294/347/423 233/348/424 232/346/422
f 294/347/423 295/349/425 234/350/426 233/348/424
f 295/349/425 296/351/427 235/352/428 234/350/426
f 296/351/427 297/353/429 236/354/430 235/352/428
f 297/353/429 298/355/431 237/356/432 236/354/430
f 298/355/431 299/357/433 238/358/434 237/356/432
f 299/357/433 300/359/435 239/360/436 238/358/434
f 300/359/435 301/361/437 240/362/438 239/360/436
f 301/361/437 302/363/439 241/364/440 240/362/438
f 302/363/439 303/365/441 242/366/442 241/364/440
f 303/365/441 304/367/443 243/368/444 242/366/442
f 304/367/443 285/329/405 224/332/408 243/368/444
s 13
f 305/369/445 306/370/446 245/371/447 244/372/448
f 306/370/446 307/373/449 246/374/450 245/371/447
f 307/373/449 308/375/451 247/376/452 246/374/450
f 308/375/451 309/377/453 248/378/454 247/376/452
f 309/377/453 310/379/455 249/380/456 248/378/454
f 310/379/455 311/381/457 250/382/458 249/380/456
f 311/381/457 312/383/459 251/384/460 250/382/458
f 312/383/459 313/385/461 252/386/462 251/384/460
f 313/385/461 314/387/463 253/388/464 252/386/462
f 314/387/463 315/389/465 254/390/466 253/388/464
f 315/389/465 316/391/467 255/392/468 254/390/466
f 316/391/467 317/393/469 256/394/470 255/392/468
f 317/393/469 318/395/471 257/396/472 256/394/470
f 318/395/471 319/397/473 258/398/474 257/396/472
f 319/397/473 320/399/475 259/400/476 258/398/474
f 320/399/475 321/401/477 260/402/478 259/400/476
f 321/401/477 322/403/479 261/404/480 260/402/478
f 322/403/479 323/405/481 262/406/482 261/404/480
f 323/405/481 324/407/483 263/408/484 262/406/482
f 324/407/483 305/369/445 244/372/448 263/408/484
s 14
f 244/372/485 245/371/486 265/229/487 264/228/488
f 245/371/486 246/374/489 267/231/490 265/229/487
f 246/374/489 247/376/491 268/232/492 267/231/490
f 247/376/491 248/378/493 269/233/494 268/232/492
f 248/378/493 249/380/495 270/234/496 269/233/494
f 249/380/495 250/382/497 271/235/498 270/234/496
f 250/382/497 251/384/499 272/236/500 271/235/498
f 251/384/499 252/386/501 273/237/502 272/236/500
f 252/386/501 253/388/503 274/238/504 273/237/502
f 253/388/503 254/390/505 275/239/506 274/238/504
f 254/390/505 255/392/507 276/240/508 275/239/506
f 255/392/507 256/394/509 277/241/510 276/240/508
f 256/394/509 257/396/511 278/242/512 277/241/510
f 257/396/511 258/398/513 279/243/514 278/242/512
f 258/398/513 259/400/515 280/244/516 279/243/514
f 259/400/515 260/402/517 281/245/518 280/244/516
f 260/402/517 261/404/519 282/246/520 281/245/518
f 261/404/519 262/406/521 283/247/522 282/246/520
f 262/406/521 263/408/523 284/248/524 283/247/522
f 263/408/523 244/372/485 264/228/488 284/248/524
s 12
f 204/310/525 205/309/526 286/330/406 285/329/405
f 205/309/526 206/311/527 287/333/409 286/330/406
f 206/311/527 207/312/528 288/335/411 287/333/409
f 207/312/528 208/313/529 289/337/413 288/335/411
f 208/313/529 209/314/530 290/339/415 289/337/413
f 209/314/530 210/315/531 291/341/417 290/339/415
f 210/315/531 211/316/532 292/343/419 291/341/417
f 211/316/532 212/317/533 293/345/421 292/343/419
f 212/317/533 213/318/534 294/347/423 293/345/421
f 213/318/534 214/319/535 295/349/425 294/347/423
f 214/319/535 215/320/536 296/351/427 295/349/425
f 215/320/536 216/321/537 297/353/429 296/351/427
f 216/321/537 217/322/538 298/355/431 297/353/429
f 217/322/538 218/323/539 299/357/433 298/355/431
f 218/323/539 219/324/540 300/359/435 299/357/433
f 219/324/540 220/325/541 301/361/437 300/359/435
f 220/325/541 221/326/542 302/363/439 301/361/437
f 221/326/542 222/327/543 303/365/441 302/363/439
f 222/327/543 223/328/544 304/367/443 303/365/441
f 223/328/544 204/310/525 285/329/405 304/367/443
s 13
f 224/332/545 225/331/546 306/370/446 305/369/445
f 225/331/546 226/334/547 307/373/449 306/370/446
f 226/334/547 227/336/548 308/375/451 307/373/449
f 227/336/548 228/338/549 309/377/453 308/375/451
f 228/338/549 229/340/550 310/379/455 309/377/453
f 229/340/550 230/342/551 311/381/457 310/379/455
f 230/342/551 231/344/552 312/383/459 311/381/457
f 231/344/552 232/346/553 313/385/461 312/383/459
f 232/346/553 233/348/554 314/387/463 313/385/461
f 233/348/554 234/350/555 315/389/465 314/387/463
f 234/350/555 235/352/556 316/391/467 315/389/465
f 235/352/556 236/354/557 317/393/469 316/391/467
f 236/354/557 237/356/558 318/395/471 317/393/469
f 237/356/558 238/358/559 319/397/473 318/395/471
f 238/358/559 239/360/560 320/399/475 319/397/473
f 239/360/560 240/362/561 321/401/477 320/399/475
f 240/362/561 241/364/562 322/403/479 321/401/477
f 241/364/562 242/366/563 323/405/481 322/403/479
f 242/366/563 243/368/564 324/407/483 323/405/481
f 243/368/564 224/332/545 305/369/445 324/407/483
