# This file uses meters as units for non-parametric coordinates.

mtllib fern_ver01_mesh.mtl
g default
v -69.371521 23.035282 -0.673889
v -69.371521 23.035282 0.673889
v -0.622314 3.377471 -1.469330
v -0.622314 3.377471 1.469330
v -59.559448 38.619999 -1.119751
v -59.559448 38.619999 1.119751
v -27.646210 40.172974 -1.749969
v -27.646210 40.172974 1.749969
v -67.169952 30.384356 0.998047
v -44.957672 43.678978 -1.612640
v -44.957672 43.678978 1.612640
v -13.187042 25.861300 -1.870697
v -13.187042 25.861300 1.870697
v -67.169952 30.384356 -0.998047
v -5.427460 13.371748 -1.940674
v -5.427460 13.371748 1.940674
v -7.597229 11.818590 1.940674
v -2.264862 2.284162 1.469330
v -2.264862 2.284162 -1.469330
v -7.597229 11.818591 -1.940674
v -15.075287 23.979944 -1.870697
v -15.075287 23.979944 1.870697
v -28.670197 37.723621 -1.749969
v -28.670197 37.723625 1.749969
v -65.076599 28.908588 0.998047
v -58.258972 36.294884 1.119751
v -58.258972 36.294884 -1.119751
v -65.076599 28.908587 -0.998047
v -67.614197 22.283779 0.673889
v -67.614197 22.283779 -0.673889
v -44.752594 40.952400 1.612640
v -44.752594 40.952400 -1.612640
v -27.475555 40.581200 0.000000
v -19.711823 33.572128 -1.815033
v -67.518860 30.630320 0.000000
v -64.163666 34.730873 -1.059753
v -59.776215 39.007515 0.000000
v -64.163666 34.730873 1.059753
v -69.926239 22.234671 0.000000
v -69.000549 25.776361 -0.935150
v -69.000549 25.776365 0.935150
v -44.991852 44.133408 0.000000
v -36.294769 43.329967 -1.682587
v -36.294769 43.329967 1.682587
v -52.982208 42.012966 -1.319458
v -52.982208 42.012966 1.319458
v -0.812012 1.592335 1.991760
v -6.512329 12.595171 2.587585
v -0.812012 1.592335 -1.991760
v -6.512329 12.595171 -2.587585
v -14.131134 24.920628 -2.494263
v -14.131134 24.920628 2.494263
v -28.158234 38.948299 -2.333282
v -28.158234 38.948299 2.333282
v -58.909210 37.457443 1.493011
v -66.123260 29.646475 1.330750
v -66.123260 29.646475 -1.330750
v -58.909210 37.457443 -1.493011
v -68.719604 21.766939 0.892822
v -68.719604 21.766939 -0.892822
v -44.855164 42.315685 2.150208
v -44.855164 42.315685 -2.150208
v -4.353333 5.624857 1.971375
v -1.923096 0.858682 0.000000
v -4.353302 5.624857 -1.971375
v -7.958801 11.559732 0.000000
v -10.850098 17.693604 -1.909851
v -15.389954 23.666391 0.000000
v -10.850098 17.693602 1.909851
v -21.235748 31.407686 -1.815033
v -28.840851 37.315399 0.000000
v -21.235748 31.407681 1.815033
v -62.416779 32.820271 1.059753
v -58.042206 35.907372 0.000000
v -62.416779 32.820271 -1.059753
v -64.727692 28.662628 0.000000
v -66.689514 24.643221 0.935150
v -66.689514 24.643219 -0.935150
v -67.513000 21.299210 0.000000
v -36.717224 40.674553 1.682587
v -36.717224 40.674553 -1.682587
v -44.718414 40.497967 0.000000
v -52.104858 39.091934 1.319458
v -52.104858 39.091934 -1.319458
v -5.065826 13.630608 0.000000
v -2.142944 7.113818 -1.971375
v 0.299011 2.325987 0.000000
v -2.142944 7.113818 1.971375
v -8.767212 19.374374 1.909851
v -12.872345 26.174862 0.000000
v -8.767212 19.374376 -1.909851
v -19.711823 33.572128 1.815033
v -4.721741 5.376697 0.000000
v -11.197266 17.413473 0.000000
v -21.489746 31.046951 0.000000
v -62.125610 32.501839 0.000000
v -66.304321 24.454365 0.000000
v -36.787628 40.231987 0.000000
v -51.958618 38.605091 0.000000
v -1.774536 7.361979 0.000000
v -8.420044 19.654503 0.000000
v -19.457825 33.932865 0.000000
v -64.454834 35.049305 0.000000
v -69.385742 25.965223 0.000000
v -36.224365 43.772541 0.000000
v -53.128418 42.499794 0.000000
v -3.248108 6.369338 2.628479
v 0.000000 0.000000 0.000000
v -3.248108 6.369338 -2.628479
v -9.808655 18.533989 -2.546478
v -9.808655 18.533989 2.546478
v -20.473785 32.489906 -2.420044
v -20.473785 32.489906 2.420044
v -63.290222 33.775570 1.413025
v -63.290222 33.775570 -1.413025
v -67.845032 25.209797 1.246887
v -67.845032 25.209797 -1.246887
v -69.011169 20.619326 0.000000
v -36.505981 42.002262 2.243439
v -36.505981 42.002266 -2.243439
v -52.543518 40.552448 1.759277
v -52.543518 40.552448 -1.759277
v -67.948914 23.671448 0.616821
v -68.129883 23.149170 0.125977
v -68.627747 22.308350 1.232727
v -68.456055 22.803955 1.698425
v -71.002411 16.821274 4.161652
v -69.600220 20.868500 7.965057
v -70.163208 13.868286 11.308075
v -70.301331 18.844910 6.063354
v -68.541901 22.556183 1.465546
v -68.039368 23.410309 0.371399
v -70.160522 17.775055 9.949585
v -70.615570 16.461609 8.715271
v -71.070618 15.148163 7.480988
v -68.919342 22.388245 1.255188
v -68.421448 23.229034 0.148499
v -68.833496 22.636047 1.488037
v -68.330963 23.490204 0.393890
v -71.293976 16.901169 4.184143
v -70.592896 18.924774 6.085846
v -70.907135 16.541504 8.737762
v -71.362183 15.228058 7.503448
v -70.454773 13.948181 11.330566
v -70.452118 17.854935 9.972076
v -68.747620 22.883850 1.720886
v -69.891785 20.948395 7.987549
v -68.240479 23.751312 0.639313
v -70.378693 18.637100 2.039673
v -70.670258 18.716995 2.062134
v -69.975708 20.721741 3.946167
v -69.281128 22.726530 5.830139
v -68.989563 22.646652 5.807678
v -69.684143 20.641859 3.923645
v -66.491516 29.343472 -0.731750
v -65.755005 29.949476 -0.835327
v -65.828156 29.675896 -2.728943
v -66.526978 29.100891 -2.630615
v -63.256775 30.309105 -10.952118
v -68.963745 25.613235 -10.149200
v -64.234070 24.246086 -18.935181
v -66.110260 27.961168 -10.550659
v -66.177582 29.388397 -2.679749
v -66.123260 29.646475 -0.783569
v -67.335876 24.932446 -14.635925
v -65.483795 26.456383 -14.896484
v -63.631744 27.980316 -15.157043
v -66.065216 29.944239 -2.845764
v -65.992065 30.217812 -0.952179
v -66.414612 29.656734 -2.796631
v -66.360321 29.914818 -0.900330
v -63.493835 30.577431 -11.068909
v -66.347321 28.229507 -10.667480
v -65.720856 26.724720 -15.013306
v -63.868805 28.248648 -15.273865
v -64.471130 24.514423 -19.051971
v -67.572937 25.200802 -14.752747
v -66.764038 29.369244 -2.747437
v -69.200806 25.881599 -10.266022
v -66.728546 29.611820 -0.848572
v -63.483795 31.147560 -7.341309
v -63.720856 31.415880 -7.458069
v -66.547729 29.089849 -7.060425
v -69.374695 26.763762 -6.662659
v -69.137634 26.495445 -6.545837
v -66.310699 28.821510 -6.943542
v -58.424866 37.662262 0.727936
v -59.393555 37.252625 0.554901
v -59.879456 37.610649 2.594757
v -58.960297 37.999336 2.758911
v -65.129028 37.204151 10.619934
v -57.622650 40.378437 11.960785
v -62.450439 37.029152 21.483551
v -61.375824 38.791298 11.290344
v -59.419861 37.804993 2.676819
v -58.909210 37.457443 0.641388
v -59.690247 39.447411 16.813690
v -62.126251 38.417274 16.378540
v -64.562286 37.387123 15.943451
v -60.041565 37.996346 2.588379
v -59.555695 37.638321 0.548492
v -59.582001 38.190693 2.670441
v -59.071350 37.843143 0.635010
v -65.291107 37.589844 10.613525
v -61.537964 39.176994 11.283997
v -62.288391 38.802979 16.372162
v -64.724426 37.772827 15.937042
v -62.612549 37.414845 21.477142
v -59.852386 39.833126 16.807343
v -59.122437 38.385036 2.752533
v -57.784790 40.764149 11.954407
v -58.587006 38.047966 0.721527
v -64.292480 37.031273 6.583099
v -64.454590 37.416969 6.576721
v -60.736420 38.989334 7.240906
v -57.018158 40.561714 7.905060
v -56.856049 40.176025 7.911438
v -60.574280 38.603638 7.247284
v -44.228882 42.268688 1.320343
v -45.481354 42.362686 1.081146
v -45.933167 42.291046 3.593384
v -44.744781 42.201874 3.820313
v -52.251526 41.684845 13.201508
v -42.546143 40.956512 15.055115
v -49.911194 36.398640 25.348877
v -47.398804 41.320679 14.128296
v -45.338959 42.246460 3.706818
v -44.855164 42.315685 1.200745
v -45.490356 39.287796 20.522858
v -48.640045 39.524151 19.921295
v -51.789703 39.760506 19.319794
v -45.921783 42.796513 3.732361
v -45.470001 42.868141 1.220123
v -45.327576 42.751926 3.845825
v -44.843750 42.821152 1.339722
v -52.240112 42.190300 13.340485
v -47.387451 41.826141 14.267303
v -48.628632 40.029617 20.060272
v -51.778320 40.265976 19.458740
v -49.899780 36.904106 25.487854
v -45.479004 39.793266 20.661865
v -44.733368 42.707336 3.959320
v -42.534729 41.461990 15.194061
v -44.217529 42.774155 1.459351
v -51.232452 42.475601 8.422943
v -51.221008 42.981064 8.561951
v -46.413544 42.620308 9.480133
v -41.605988 42.259541 10.398285
v -41.617401 41.754082 10.259308
v -46.424927 42.114838 9.341125
v -68.127228 23.166002 -0.020020
v -67.951569 23.654642 -0.546204
v -68.481476 22.723124 -1.561646
v -68.648132 22.259493 -1.062378
v -69.740570 20.398600 -7.672058
v -71.101624 16.612177 -3.594971
v -70.397949 13.202845 -10.550354
v -70.421082 18.505396 -5.633484
v -68.564789 22.491312 -1.312012
v -68.039398 23.410311 -0.283142
v -71.234375 14.730753 -6.798798
v -70.792694 15.959550 -8.121887
v -70.350983 17.188349 -9.445007
v -68.772949 22.803339 -1.584412
v -68.243042 23.734827 -0.569000
v -68.856262 22.571512 -1.334839
v -68.330872 23.490534 -0.305908
v -70.032013 20.478800 -7.694824
v -70.712555 18.585604 -5.656311
v -71.084137 16.039766 -8.144714
v -70.642426 17.268572 -9.467834
v -70.689392 13.283068 -10.573151
v -71.525848 14.810976 -6.821594
v -68.939606 22.339701 -1.085205
v -71.393097 16.692392 -3.617798
v -68.418701 23.246180 -0.042847
v -69.084198 22.306932 -5.643127
v -69.375641 22.387163 -5.665955
v -70.049866 20.511568 -3.646423
v -70.724060 18.635965 -1.626831
v -70.432617 18.555758 -1.604034
v -69.758392 20.431368 -3.623596
v -28.850372 39.095230 -1.748138
v -27.466034 38.801376 -1.813263
v -27.543854 39.228836 -4.609039
v -28.857391 39.507668 -4.547241
v -23.163940 39.295624 -16.592865
v -33.891174 41.572647 -16.088379
v -29.805786 37.394791 -29.801331
v -28.527527 40.434135 -16.340576
v -28.200623 39.368256 -4.578125
v -28.158234 38.948303 -1.780670
v -32.493073 40.398216 -22.975342
v -29.011810 39.659256 -23.139069
v -25.530487 38.920288 -23.302826
v -27.426056 39.795387 -4.660828
v -27.348206 39.367920 -1.865021
v -28.082794 39.934799 -4.629944
v -28.040375 39.514847 -1.832489
v -23.046143 39.862167 -16.644653
v -28.409760 41.000687 -16.392426
v -28.893982 40.225807 -23.190857
v -25.412659 39.486855 -23.354614
v -29.687958 37.961342 -29.853119
v -32.375244 40.964783 -23.027191
v -28.739594 40.074211 -4.599091
v -33.773346 42.139206 -16.140198
v -28.732544 39.661774 -1.799988
v -22.976715 39.210091 -11.112488
v -22.858887 39.776634 -11.164276
v -28.172516 40.904556 -10.914429
v -33.486206 42.032478 -10.664459
v -33.604004 41.465942 -10.612671
v -28.290314 40.338005 -10.862610
v -65.796906 29.988983 0.859863
v -66.449615 29.303970 0.701416
v -67.002930 29.442719 2.529144
v -66.383606 30.092690 2.679443
v -71.292358 27.299271 9.715210
v -66.234497 32.607407 10.942871
v -69.145081 28.193611 19.514923
v -68.763428 29.953346 10.329041
v -66.693268 29.767700 2.604279
v -66.123260 29.646477 0.780609
v -67.669495 31.139208 15.305145
v -69.310883 29.416578 14.906738
v -70.952271 27.693939 14.508362
v -67.274231 29.703697 2.517578
v -66.720886 29.564957 0.689819
v -66.964569 30.028687 2.592682
v -66.394531 29.907455 0.769043
v -71.563599 27.560259 9.703613
v -69.034729 30.214325 10.317444
v -69.582153 29.677559 14.895142
v -71.223572 27.954918 14.496765
v -69.416351 28.454599 19.503326
v -67.940796 31.400202 15.293579
v -66.654907 30.353678 2.667847
v -66.505798 32.868393 10.931305
v -66.068207 30.249968 0.848267
v -70.491455 27.422890 6.090851
v -70.762695 27.683868 6.079254
v -68.257385 30.313217 6.687378
v -65.752014 32.942589 7.295471
v -65.480713 32.681610 7.307068
v -67.986084 30.052231 6.698975
v -45.471161 42.156273 -1.616486
v -44.239075 42.475094 -1.739197
v -44.676453 43.095783 -4.177246
v -45.845520 42.793262 -4.060791
v -42.041870 46.202675 -14.948120
v -51.589294 43.732094 -13.997269
v -47.670502 43.501808 -26.864670
v -46.815552 44.967377 -14.472641
v -45.260986 42.944511 -4.119019
v -44.855164 42.315681 -1.677856
v -50.510681 44.100159 -20.325790
v -47.412323 44.901920 -20.634369
v -44.313904 45.703690 -20.942963
v -44.805206 43.603409 -4.151154
v -44.367859 42.982719 -1.713135
v -45.389740 43.452145 -4.092926
v -44.983917 42.823303 -1.651764
v -42.170624 46.710281 -14.922012
v -46.944336 45.474998 -14.446579
v -47.541077 45.409546 -20.608276
v -44.442688 46.211319 -20.916885
v -47.799255 44.009434 -26.838562
v -50.639465 44.607796 -20.299713
v -45.974274 43.300880 -4.034698
v -51.718048 44.239723 -13.971161
v -45.599915 42.663891 -1.590454
v -41.449158 45.604355 -10.070679
v -41.577942 46.111969 -10.044617
v -46.307190 44.888214 -9.573608
v -51.036438 43.664421 -9.102585
v -50.907684 43.156807 -9.128677
v -46.178406 44.380589 -9.599701
v -59.362610 37.179657 -1.081970
v -58.455811 37.735214 -1.009705
v -58.355133 37.794849 -3.133789
v -59.215546 37.267708 -3.202271
v -54.488953 39.556648 -11.740555
v -61.515625 35.251740 -12.300049
v -55.510406 34.595760 -21.718933
v -58.002258 37.404198 -12.020294
v -58.785370 37.531273 -3.168030
v -58.909210 37.457436 -1.045868
v -59.308899 35.063992 -17.177338
v -57.028534 36.461060 -16.995758
v -54.748230 37.858105 -16.814148
v -58.562195 38.145592 -3.229736
v -58.662872 38.085949 -1.105713
v -58.992401 37.882019 -3.263977
v -59.116272 37.808174 -1.141785
v -54.696014 39.907372 -11.836426
v -58.209320 37.754932 -12.116211
v -57.235596 36.811790 -17.091675
v -54.955292 38.208851 -16.910095
v -55.717468 34.946499 -21.814880
v -59.515930 35.414753 -17.273285
v -59.422607 37.618462 -3.298218
v -61.722656 35.602493 -12.395996
v -59.569641 37.530399 -1.177917
v -55.036346 39.846039 -7.661011
v -55.243408 40.196774 -7.756973
v -58.723999 38.064392 -8.034180
v -62.204620 35.931969 -8.311310
v -61.997559 35.581253 -8.215393
v -58.516937 37.713654 -7.938171
v -27.510101 38.662781 1.423737
v -28.806335 39.233818 1.398499
v -28.672211 39.572380 4.204346
v -27.442261 39.030548 4.228271
v -32.943268 42.344185 15.903717
v -22.898621 37.919182 16.099274
v -29.519073 37.097168 29.429047
v -27.920929 40.131676 16.001495
v -28.057220 39.301468 4.216278
v -28.158234 38.948303 1.411102
v -25.155273 37.874214 22.857239
v -28.415009 39.310234 22.793793
v -31.674774 40.746262 22.730347
v -28.440186 40.101677 4.264069
v -28.574341 39.763115 1.458252
v -27.825226 39.830757 4.276031
v -27.926178 39.477592 1.470825
v -32.711182 42.873451 15.963440
v -27.688904 40.660973 16.061218
v -28.182983 39.839531 22.853485
v -31.442719 41.275566 22.790070
v -29.287109 37.626465 29.488770
v -24.923248 38.403519 22.916962
v -27.210266 39.559837 4.287994
v -22.666626 38.448494 16.158966
v -27.278046 39.192070 1.483490
v -32.795044 42.311378 10.421600
v -32.563049 42.840668 10.481293
v -27.587524 40.648796 10.578186
v -22.611969 38.456902 10.675018
v -22.843994 37.927620 10.615295
v -27.819550 40.119499 10.518463
vt 0.000000 0.000000
vt 0.000000 0.000000
vt 1.000000 0.000000
vt 1.000000 0.000000
vt 0.000000 1.000000
vt 0.000000 1.000000
vt 1.000000 1.000000
vt 1.000000 1.000000
vt 0.000000 0.387186
vt 0.000000 0.387186
vt 1.000000 0.387186
vt 1.000000 0.387186
vt 0.000000 0.716034
vt 0.000000 0.716034
vt 1.000000 0.716034
vt 1.000000 0.716034
vt 1.000000 0.193593
vt 1.000000 0.193593
vt 0.000000 0.551610
vt 0.000000 0.551610
vt 1.000000 0.551610
vt 1.000000 0.551610
vt 0.000000 0.858017
vt 0.000000 0.858017
vt 1.000000 0.858017
vt 1.000000 0.858017
vt 0.000000 0.193593
vt 0.000000 0.193593
vt 0.000000 0.929009
vt 0.000000 0.929009
vt 1.000000 0.929009
vt 1.000000 0.929009
vt 0.875000 0.929009
vt 0.777778 0.984224
vt 0.222222 0.984224
vt 0.125000 0.929009
vt 0.125000 0.849143
vt 0.875000 0.849143
vt 0.125000 0.713229
vt 0.875000 0.713229
vt 0.875000 0.193593
vt 0.875000 0.383540
vt 0.125000 0.383540
vt 0.125000 0.193593
vt 0.777778 0.043021
vt 0.222222 0.043021
vt 0.875000 0.551610
vt 0.125000 0.551610
vt 0.500000 0.964504
vt 0.500000 0.893513
vt 0.500000 0.787026
vt 0.500000 0.290389
vt 0.500000 0.096796
vt 0.500000 0.633822
vt 0.500000 0.469398
vt 0.500000 0.964504
vt 0.500000 0.893513
vt 0.500000 0.787026
vt 0.500000 0.290389
vt 0.500000 0.096796
vt 0.500000 0.633822
vt 0.500000 0.469398
vt 1.000000 0.964504
vt 0.500000 1.000000
vt 0.000000 0.964504
vt 0.000000 0.893513
vt 1.000000 0.893513
vt 0.000000 0.787026
vt 1.000000 0.787026
vt 1.000000 0.290389
vt 0.000000 0.290389
vt 1.000000 0.096796
vt 0.000000 0.096796
vt 0.500000 0.000000
vt 1.000000 0.633822
vt 0.000000 0.633822
vt 1.000000 0.469398
vt 0.000000 0.469398
vt 0.875000 0.964504
vt 0.500000 0.991126
vt 0.125000 0.964504
vt 0.500000 0.929009
vt 0.125000 0.893513
vt 0.500000 0.849143
vt 0.875000 0.893513
vt 0.125000 0.787026
vt 0.500000 0.713229
vt 0.875000 0.787026
vt 0.875000 0.290389
vt 0.500000 0.383540
vt 0.125000 0.290389
vt 0.500000 0.193593
vt 0.875000 0.096796
vt 0.125000 0.096796
vt 0.500000 0.024199
vt 0.875000 0.633822
vt 0.125000 0.633822
vt 0.500000 0.551610
vt 0.875000 0.469398
vt 0.125000 0.469398
vt 0.500000 0.929009
vt 0.000000 0.964504
vt 0.000000 0.964504
vt 0.500000 1.000000
vt 0.500000 1.000000
vt 1.000000 0.964504
vt 1.000000 0.964504
vt 1.000000 0.893513
vt 1.000000 0.893513
vt 0.500000 0.849143
vt 0.000000 0.893513
vt 0.000000 0.893513
vt 1.000000 0.787026
vt 1.000000 0.787026
vt 0.500000 0.713229
vt 0.000000 0.787026
vt 0.000000 0.787026
vt 0.500000 0.193593
vt 0.000000 0.290389
vt 0.000000 0.290389
vt 0.500000 0.383540
vt 1.000000 0.290389
vt 1.000000 0.290389
vt 0.500000 0.000000
vt 0.500000 0.000000
vt 0.000000 0.096796
vt 0.000000 0.096796
vt 1.000000 0.096796
vt 1.000000 0.096796
vt 0.500000 0.551610
vt 0.000000 0.633822
vt 0.000000 0.633822
vt 1.000000 0.633822
vt 1.000000 0.633822
vt 0.000000 0.469398
vt 0.000000 0.469398
vt 1.000000 0.469398
vt 1.000000 0.469398
vt 0.875000 0.991126
vt 1.000000 0.929009
vt 0.125000 0.991126
vt 0.000000 0.929009
vt 0.000000 0.849143
vt 1.000000 0.849143
vt 0.000000 0.713229
vt 1.000000 0.713229
vt 1.000000 0.383540
vt 1.000000 0.193593
vt 0.000000 0.193593
vt 0.000000 0.383540
vt 0.875000 0.024199
vt 0.125000 0.024199
vt 1.000000 0.551610
vt 0.000000 0.551610
vt 1.000000 1.000000
vt 0.902033 1.000000
vt 0.902033 0.500000
vt 1.000000 0.500000
vt 0.682035 1.000000
vt 0.682035 0.500000
vt 0.243917 0.500000
vt 0.243917 1.000000
vt 0.000000 0.500000
vt 0.243917 0.000000
vt 0.902033 0.000000
vt 0.682035 0.000000
vt 1.000000 0.000000
vt 0.487834 0.000000
vt 0.487834 0.500000
vt 0.487834 1.000000
vt 1.000000 1.000000
vt 1.000000 0.500000
vt 0.902033 0.500000
vt 0.902033 1.000000
vt 0.682035 0.500000
vt 0.682035 1.000000
vt 0.243917 0.500000
vt 0.000000 0.500000
vt 0.243917 1.000000
vt 0.243917 0.000000
vt 0.902033 0.000000
vt 0.682035 0.000000
vt 1.000000 0.000000
vt 0.487834 0.000000
vt 0.487834 0.500000
vt 0.487834 1.000000
vt 1.000000 1.000000
vt 0.902033 1.000000
vt 1.000000 0.500000
vt 0.682035 1.000000
vt 0.243917 1.000000
vt 0.000000 0.500000
vt 0.243917 0.000000
vt 0.682035 0.000000
vt 0.902033 0.000000
vt 1.000000 0.000000
vt 0.487834 0.000000
vt 0.487834 1.000000
vt 1.000000 1.000000
vt 0.902033 1.000000
vt 0.902033 0.500000
vt 1.000000 0.500000
vt 0.682035 1.000000
vt 0.682035 0.500000
vt 0.243917 0.500000
vt 0.243917 1.000000
vt 0.000000 0.500000
vt 0.243917 0.000000
vt 0.902033 0.000000
vt 0.682035 0.000000
vt 1.000000 0.000000
vt 0.487834 0.000000
vt 0.487834 0.500000
vt 0.487834 1.000000
vt 1.000000 1.000000
vt 1.000000 0.500000
vt 0.902033 0.500000
vt 0.902033 1.000000
vt 0.682035 0.500000
vt 0.682035 1.000000
vt 0.243917 0.500000
vt 0.000000 0.500000
vt 0.243917 1.000000
vt 0.243917 0.000000
vt 0.902033 0.000000
vt 0.682035 0.000000
vt 1.000000 0.000000
vt 0.487834 0.000000
vt 0.487834 0.500000
vt 0.487834 1.000000
vt 1.000000 1.000000
vt 0.902033 1.000000
vt 1.000000 0.500000
vt 0.682035 1.000000
vt 0.243917 1.000000
vt 0.000000 0.500000
vt 0.243917 0.000000
vt 0.682035 0.000000
vt 0.902033 0.000000
vt 1.000000 0.000000
vt 0.487834 0.000000
vt 0.487834 1.000000
vt 1.000000 1.000000
vt 0.902033 1.000000
vt 0.902033 0.500000
vt 1.000000 0.500000
vt 0.682035 1.000000
vt 0.682035 0.500000
vt 0.243917 0.500000
vt 0.243917 1.000000
vt 0.000000 0.500000
vt 0.243917 0.000000
vt 0.902033 0.000000
vt 0.682035 0.000000
vt 1.000000 0.000000
vt 0.487834 0.000000
vt 0.487834 0.500000
vt 0.487834 1.000000
vt 1.000000 1.000000
vt 1.000000 0.500000
vt 0.902033 0.500000
vt 0.902033 1.000000
vt 0.682035 0.500000
vt 0.682035 1.000000
vt 0.243917 0.500000
vt 0.000000 0.500000
vt 0.243917 1.000000
vt 0.243917 0.000000
vt 0.902033 0.000000
vt 0.682035 0.000000
vt 1.000000 0.000000
vt 0.487834 0.000000
vt 0.487834 0.500000
vt 0.487834 1.000000
vt 1.000000 1.000000
vt 0.902033 1.000000
vt 1.000000 0.500000
vt 0.682035 1.000000
vt 0.243917 1.000000
vt 0.000000 0.500000
vt 0.243917 0.000000
vt 0.682035 0.000000
vt 0.902033 0.000000
vt 1.000000 0.000000
vt 0.487834 0.000000
vt 0.487834 1.000000
vt 1.000000 1.000000
vt 0.902033 1.000000
vt 0.902033 0.500000
vt 1.000000 0.500000
vt 0.682035 1.000000
vt 0.682035 0.500000
vt 0.243917 0.500000
vt 0.243917 1.000000
vt 0.000000 0.500000
vt 0.243917 0.000000
vt 0.902033 0.000000
vt 0.682035 0.000000
vt 1.000000 0.000000
vt 0.487834 0.000000
vt 0.487834 0.500000
vt 0.487834 1.000000
vt 1.000000 1.000000
vt 1.000000 0.500000
vt 0.902033 0.500000
vt 0.902033 1.000000
vt 0.682035 0.500000
vt 0.682035 1.000000
vt 0.243917 0.500000
vt 0.000000 0.500000
vt 0.243917 1.000000
vt 0.243917 0.000000
vt 0.902033 0.000000
vt 0.682035 0.000000
vt 1.000000 0.000000
vt 0.487834 0.000000
vt 0.487834 0.500000
vt 0.487834 1.000000
vt 1.000000 1.000000
vt 0.902033 1.000000
vt 1.000000 0.500000
vt 0.682035 1.000000
vt 0.243917 1.000000
vt 0.000000 0.500000
vt 0.243917 0.000000
vt 0.682035 0.000000
vt 0.902033 0.000000
vt 1.000000 0.000000
vt 0.487834 0.000000
vt 0.487834 1.000000
vt 1.000000 1.000000
vt 0.902033 1.000000
vt 0.902033 0.500000
vt 1.000000 0.500000
vt 0.682035 1.000000
vt 0.682035 0.500000
vt 0.243917 0.500000
vt 0.243917 1.000000
vt 0.000000 0.500000
vt 0.243917 0.000000
vt 0.902033 0.000000
vt 0.682035 0.000000
vt 1.000000 0.000000
vt 0.487834 0.000000
vt 0.487834 0.500000
vt 0.487834 1.000000
vt 1.000000 1.000000
vt 1.000000 0.500000
vt 0.902033 0.500000
vt 0.902033 1.000000
vt 0.682035 0.500000
vt 0.682035 1.000000
vt 0.243917 0.500000
vt 0.000000 0.500000
vt 0.243917 1.000000
vt 0.243917 0.000000
vt 0.902033 0.000000
vt 0.682035 0.000000
vt 1.000000 0.000000
vt 0.487834 0.000000
vt 0.487834 0.500000
vt 0.487834 1.000000
vt 1.000000 1.000000
vt 0.902033 1.000000
vt 1.000000 0.500000
vt 0.682035 1.000000
vt 0.243917 1.000000
vt 0.000000 0.500000
vt 0.243917 0.000000
vt 0.682035 0.000000
vt 0.902033 0.000000
vt 1.000000 0.000000
vt 0.487834 0.000000
vt 0.487834 1.000000
vt 1.000000 1.000000
vt 0.902033 1.000000
vt 0.902033 0.500000
vt 1.000000 0.500000
vt 0.682035 1.000000
vt 0.682035 0.500000
vt 0.243917 0.500000
vt 0.243917 1.000000
vt 0.000000 0.500000
vt 0.243917 0.000000
vt 0.902033 0.000000
vt 0.682035 0.000000
vt 1.000000 0.000000
vt 0.487834 0.000000
vt 0.487834 0.500000
vt 0.487834 1.000000
vt 1.000000 1.000000
vt 1.000000 0.500000
vt 0.902033 0.500000
vt 0.902033 1.000000
vt 0.682035 0.500000
vt 0.682035 1.000000
vt 0.243917 0.500000
vt 0.000000 0.500000
vt 0.243917 1.000000
vt 0.243917 0.000000
vt 0.902033 0.000000
vt 0.682035 0.000000
vt 1.000000 0.000000
vt 0.487834 0.000000
vt 0.487834 0.500000
vt 0.487834 1.000000
vt 1.000000 1.000000
vt 0.902033 1.000000
vt 1.000000 0.500000
vt 0.682035 1.000000
vt 0.243917 1.000000
vt 0.000000 0.500000
vt 0.243917 0.000000
vt 0.682035 0.000000
vt 0.902033 0.000000
vt 1.000000 0.000000
vt 0.487834 0.000000
vt 0.487834 1.000000
vt 1.000000 1.000000
vt 0.902033 1.000000
vt 0.902033 0.500000
vt 1.000000 0.500000
vt 0.682035 1.000000
vt 0.682035 0.500000
vt 0.243917 0.500000
vt 0.243917 1.000000
vt 0.000000 0.500000
vt 0.243917 0.000000
vt 0.902033 0.000000
vt 0.682035 0.000000
vt 1.000000 0.000000
vt 0.487834 0.000000
vt 0.487834 0.500000
vt 0.487834 1.000000
vt 1.000000 1.000000
vt 1.000000 0.500000
vt 0.902033 0.500000
vt 0.902033 1.000000
vt 0.682035 0.500000
vt 0.682035 1.000000
vt 0.243917 0.500000
vt 0.000000 0.500000
vt 0.243917 1.000000
vt 0.243917 0.000000
vt 0.902033 0.000000
vt 0.682035 0.000000
vt 1.000000 0.000000
vt 0.487834 0.000000
vt 0.487834 0.500000
vt 0.487834 1.000000
vt 1.000000 1.000000
vt 0.902033 1.000000
vt 1.000000 0.500000
vt 0.682035 1.000000
vt 0.243917 1.000000
vt 0.000000 0.500000
vt 0.243917 0.000000
vt 0.682035 0.000000
vt 0.902033 0.000000
vt 1.000000 0.000000
vt 0.487834 0.000000
vt 0.487834 1.000000
vt 1.000000 1.000000
vt 0.902033 1.000000
vt 0.902033 0.500000
vt 1.000000 0.500000
vt 0.682035 1.000000
vt 0.682035 0.500000
vt 0.243917 0.500000
vt 0.243917 1.000000
vt 0.000000 0.500000
vt 0.243917 0.000000
vt 0.902033 0.000000
vt 0.682035 0.000000
vt 1.000000 0.000000
vt 0.487834 0.000000
vt 0.487834 0.500000
vt 0.487834 1.000000
vt 1.000000 1.000000
vt 1.000000 0.500000
vt 0.902033 0.500000
vt 0.902033 1.000000
vt 0.682035 0.500000
vt 0.682035 1.000000
vt 0.243917 0.500000
vt 0.000000 0.500000
vt 0.243917 1.000000
vt 0.243917 0.000000
vt 0.902033 0.000000
vt 0.682035 0.000000
vt 1.000000 0.000000
vt 0.487834 0.000000
vt 0.487834 0.500000
vt 0.487834 1.000000
vt 1.000000 1.000000
vt 0.902033 1.000000
vt 1.000000 0.500000
vt 0.682035 1.000000
vt 0.243917 1.000000
vt 0.000000 0.500000
vt 0.243917 0.000000
vt 0.682035 0.000000
vt 0.902033 0.000000
vt 1.000000 0.000000
vt 0.487834 0.000000
vt 0.487834 1.000000
vt 1.000000 1.000000
vt 0.902033 1.000000
vt 0.902033 0.500000
vt 1.000000 0.500000
vt 0.682035 1.000000
vt 0.682035 0.500000
vt 0.243917 0.500000
vt 0.243917 1.000000
vt 0.000000 0.500000
vt 0.243917 0.000000
vt 0.902033 0.000000
vt 0.682035 0.000000
vt 1.000000 0.000000
vt 0.487834 0.000000
vt 0.487834 0.500000
vt 0.487834 1.000000
vt 1.000000 1.000000
vt 1.000000 0.500000
vt 0.902033 0.500000
vt 0.902033 1.000000
vt 0.682035 0.500000
vt 0.682035 1.000000
vt 0.243917 0.500000
vt 0.000000 0.500000
vt 0.243917 1.000000
vt 0.243917 0.000000
vt 0.902033 0.000000
vt 0.682035 0.000000
vt 1.000000 0.000000
vt 0.487834 0.000000
vt 0.487834 0.500000
vt 0.487834 1.000000
vt 1.000000 1.000000
vt 0.902033 1.000000
vt 1.000000 0.500000
vt 0.682035 1.000000
vt 0.243917 1.000000
vt 0.000000 0.500000
vt 0.243917 0.000000
vt 0.682035 0.000000
vt 0.902033 0.000000
vt 1.000000 0.000000
vt 0.487834 0.000000
vt 0.487834 1.000000
vt 1.000000 1.000000
vt 0.902033 1.000000
vt 0.902033 0.500000
vt 1.000000 0.500000
vt 0.682035 1.000000
vt 0.682035 0.500000
vt 0.243917 0.500000
vt 0.243917 1.000000
vt 0.000000 0.500000
vt 0.243917 0.000000
vt 0.902033 0.000000
vt 0.682035 0.000000
vt 1.000000 0.000000
vt 0.487834 0.000000
vt 0.487834 0.500000
vt 0.487834 1.000000
vt 1.000000 1.000000
vt 1.000000 0.500000
vt 0.902033 0.500000
vt 0.902033 1.000000
vt 0.682035 0.500000
vt 0.682035 1.000000
vt 0.243917 0.500000
vt 0.000000 0.500000
vt 0.243917 1.000000
vt 0.243917 0.000000
vt 0.902033 0.000000
vt 0.682035 0.000000
vt 1.000000 0.000000
vt 0.487834 0.000000
vt 0.487834 0.500000
vt 0.487834 1.000000
vt 1.000000 1.000000
vt 0.902033 1.000000
vt 1.000000 0.500000
vt 0.682035 1.000000
vt 0.243917 1.000000
vt 0.000000 0.500000
vt 0.243917 0.000000
vt 0.682035 0.000000
vt 0.902033 0.000000
vt 1.000000 0.000000
vt 0.487834 0.000000
vt 0.487834 1.000000
vn -0.727240 -0.388449 0.565888
vn -0.880970 -0.473172 -0.000002
vn -0.870471 -0.492219 -0.000003
vn -0.714810 -0.418407 0.560341
vn -0.678760 -0.734360 -0.000001
vn -0.646209 -0.521864 0.556842
vn -0.714810 -0.418407 -0.560341
vn -0.646210 -0.521862 -0.556842
vn -0.727240 -0.388450 -0.565887
vn -0.697760 -0.425103 0.576557
vn -0.852970 -0.521960 -0.000000
vn -0.697760 -0.425103 -0.576557
vn -0.799039 -0.601279 -0.000000
vn -0.650085 -0.487315 -0.583022
vn -0.650084 -0.487315 0.583022
vn -0.714753 -0.699377 -0.000001
vn -0.573416 -0.559597 -0.598370
vn -0.520834 -0.853658 -0.000001
vn -0.404788 -0.660560 -0.632303
vn -0.573416 -0.559597 0.598369
vn -0.404788 -0.660560 0.632303
vn 0.517111 -0.285589 0.806867
vn 0.885656 -0.464342 -0.000000
vn 0.732529 -0.680736 -0.000000
vn 0.435507 -0.418934 0.796761
vn 0.508185 -0.861248 0.000000
vn 0.302835 -0.540097 0.785230
vn 0.435507 -0.418934 -0.796761
vn 0.302835 -0.540097 -0.785231
vn 0.517111 -0.285589 -0.806867
vn 0.498949 -0.316656 0.806709
vn 0.721989 -0.691905 0.000000
vn 0.930856 -0.365387 0.000001
vn 0.545135 -0.238973 0.803567
vn 0.545135 -0.238973 -0.803567
vn 0.498949 -0.316656 -0.806709
vn 0.050123 -0.717872 0.694368
vn 0.093417 -0.995627 0.000000
vn -0.201829 -0.979421 0.000000
vn -0.157342 -0.741296 0.652475
vn -0.157343 -0.741296 -0.652475
vn 0.050123 -0.717872 -0.694369
vn 0.313539 -0.949575 0.000000
vn 0.187967 -0.641248 0.743955
vn 0.187967 -0.641248 -0.743955
vn 0.727573 0.395857 0.560299
vn 0.750233 0.345686 0.563606
vn 0.902577 0.430528 -0.000000
vn 0.879443 0.476004 -0.000000
vn 0.750233 0.345686 -0.563606
vn 0.727573 0.395857 -0.560299
vn 0.989329 0.145701 -0.000000
vn 0.806947 0.227393 -0.545096
vn 0.806947 0.227392 0.545096
vn 0.848711 0.528858 0.000000
vn 0.700471 0.438058 0.563423
vn 0.790988 0.611832 0.000000
vn 0.649808 0.504169 0.568826
vn 0.700471 0.438058 -0.563424
vn 0.649808 0.504169 -0.568826
vn 0.576841 0.586183 -0.568897
vn 0.701852 0.712323 0.000000
vn 0.576842 0.586183 0.568896
vn 0.505789 0.862657 0.000000
vn 0.414088 0.706367 0.574087
vn 0.414088 0.706367 -0.574088
vn -0.567711 0.298777 0.767096
vn -0.488661 0.444276 0.750886
vn -0.731269 0.682089 -0.000000
vn -0.877221 0.480088 -0.000000
vn -0.488661 0.444275 -0.750886
vn -0.567711 0.298777 -0.767096
vn -0.543920 0.839137 -0.000000
vn -0.374586 0.556417 -0.741678
vn -0.374586 0.556417 0.741678
vn -0.618391 -0.014353 0.785740
vn -0.594376 0.154980 0.789112
vn -0.957384 0.288817 -0.000000
vn -0.980056 -0.198723 -0.000000
vn -0.594376 0.154980 -0.789112
vn -0.618390 -0.014353 -0.785740
vn -0.067682 0.758494 0.648156
vn 0.157368 0.785656 0.598314
vn 0.199786 0.979840 -0.000000
vn -0.072978 0.997334 0.000000
vn 0.157368 0.785656 -0.598314
vn -0.067682 0.758494 -0.648156
vn -0.244259 0.667663 0.703252
vn -0.319164 0.947699 0.000000
vn -0.244259 0.667663 -0.703252
vn 0.002526 0.006992 0.999972
vn 0.023177 -0.041757 0.998859
vn 0.260616 -0.398856 0.879200
vn 0.527203 -0.849739 0.000000
vn 0.260617 -0.398856 -0.879200
vn 0.023177 -0.041757 -0.998859
vn 0.002526 0.006992 -0.999972
vn 0.008616 0.010746 -0.999905
vn 0.007590 0.012563 -0.999892
vn 0.007590 0.012563 0.999892
vn 0.008616 0.010746 0.999905
vn 0.017047 0.022927 -0.999592
vn 0.024421 0.047044 -0.998594
vn 0.024421 0.047045 0.998594
vn 0.017047 0.022927 0.999592
vn -0.030441 -0.002170 0.999534
vn -0.032008 0.009039 0.999447
vn -0.038651 0.010138 0.999201
vn -0.038651 0.010138 -0.999201
vn -0.032009 0.009039 -0.999447
vn -0.030441 -0.002170 -0.999534
vn -0.132418 -0.324131 0.936699
vn -0.030742 -0.043678 0.998573
vn -0.030742 -0.043678 -0.998573
vn -0.132418 -0.324131 -0.936699
vn -0.330561 -0.943785 0.000000
vn -0.027481 0.031973 0.999111
vn 0.001702 0.046370 0.998923
vn 0.001702 0.046370 -0.998923
vn -0.027481 0.031973 -0.999111
vn -0.045933 0.014577 0.998838
vn -0.045933 0.014577 -0.998838
vn -0.907861 0.407441 -0.098893
vn -0.906519 0.409712 -0.101782
vn -0.906550 0.409663 -0.101703
vn -0.907848 0.407477 -0.098869
vn -0.936363 0.349978 -0.027213
vn -0.932131 0.359972 -0.039402
vn -0.969197 0.197512 0.147128
vn -0.968446 0.211243 0.132243
vn -0.961819 0.090474 0.258301
vn -0.968446 0.211246 0.132238
vn -0.906512 0.409730 -0.101774
vn -0.936361 0.349984 -0.027208
vn -0.907834 0.407513 -0.098844
vn -0.956801 0.286834 0.047519
vn -0.957756 0.282815 0.052145
vn -0.956802 0.286830 0.047519
vn 0.907855 -0.407464 0.098862
vn 0.907858 -0.407451 0.098877
vn 0.906551 -0.409659 0.101711
vn 0.906516 -0.409715 0.101793
vn 0.932131 -0.359972 0.039406
vn 0.936363 -0.349977 0.027217
vn 0.969195 -0.197515 -0.147133
vn 0.961816 -0.090484 -0.258307
vn 0.968446 -0.211244 -0.132244
vn 0.968445 -0.211249 -0.132246
vn 0.906515 -0.409720 0.101781
vn 0.936361 -0.349982 0.027208
vn 0.907862 -0.407439 0.098893
vn 0.956801 -0.286835 -0.047524
vn 0.957756 -0.282815 -0.052146
vn 0.956803 -0.286829 -0.047518
vn -0.246368 -0.715136 -0.654128
vn -0.167097 -0.350750 -0.921441
vn -0.151509 -0.287003 -0.945872
vn -0.246368 -0.715136 -0.654128
vn 0.122519 0.656791 -0.744053
vn 0.122489 0.656760 -0.744086
vn 0.122489 0.656760 -0.744086
vn 0.122519 0.656791 -0.744053
vn -0.173389 -0.376936 -0.909866
vn -0.185588 -0.428659 -0.884200
vn -0.273007 -0.902783 -0.332341
vn -0.273758 -0.929794 -0.246048
vn -0.273758 -0.929794 -0.246048
vn -0.272612 -0.896824 -0.348411
vn 0.160703 0.324067 0.932285
vn 0.180066 0.404827 0.896488
vn 0.183571 0.419764 0.888875
vn 0.160703 0.324067 0.932285
vn 0.272313 0.893141 0.357972
vn 0.273497 0.913088 0.302439
vn 0.273727 0.921824 0.274436
vn 0.273335 0.939453 0.206677
vn 0.243129 0.697851 0.673715
vn 0.243129 0.697851 0.673715
vn 0.122549 0.656823 -0.744020
vn 0.122549 0.656823 -0.744020
vn 0.223970 0.601641 0.766724
vn 0.223083 0.597402 0.770289
vn -0.260234 -0.795904 -0.546640
vn -0.260707 -0.798950 -0.541951
vn -0.640203 0.763426 -0.085568
vn -0.640094 0.763924 -0.081856
vn -0.640095 0.763913 -0.081954
vn -0.640200 0.763428 -0.085568
vn -0.640101 0.747781 -0.176334
vn -0.640501 0.750886 -0.161023
vn -0.617214 0.683477 -0.389751
vn -0.620463 0.690488 -0.371823
vn -0.584798 0.621615 -0.521158
vn -0.620458 0.690488 -0.371831
vn -0.640089 0.763927 -0.081858
vn -0.640100 0.747783 -0.176332
vn -0.640197 0.763431 -0.085568
vn -0.634248 0.724829 -0.268983
vn -0.633693 0.723183 -0.274662
vn -0.634250 0.724829 -0.268981
vn 0.640187 -0.763439 0.085568
vn 0.640198 -0.763430 0.085568
vn 0.640095 -0.763913 0.081949
vn 0.640091 -0.763927 0.081852
vn 0.640503 -0.750885 0.161023
vn 0.640103 -0.747779 0.176337
vn 0.617217 -0.683474 0.389751
vn 0.584802 -0.621613 0.521157
vn 0.620466 -0.690485 0.371823
vn 0.620462 -0.690484 0.371831
vn 0.640093 -0.763925 0.081852
vn 0.640102 -0.747780 0.176336
vn 0.640209 -0.763421 0.085568
vn 0.634250 -0.724826 0.268986
vn 0.633696 -0.723180 0.274663
vn 0.634253 -0.724826 0.268982
vn 0.769405 0.627321 -0.120355
vn 0.639681 0.701682 0.313767
vn 0.607350 0.700035 0.375602
vn 0.769405 0.627321 -0.120355
vn -0.118957 0.306040 0.944557
vn -0.118955 0.306064 0.944550
vn -0.118955 0.306064 0.944550
vn -0.118957 0.306040 0.944557
vn 0.652206 0.701370 0.287589
vn 0.676308 0.698845 0.232860
vn 0.755775 0.468577 -0.457428
vn 0.736170 0.418999 -0.531502
vn 0.736170 0.418999 -0.531502
vn 0.758460 0.476549 -0.444567
vn -0.626450 -0.701403 -0.339991
vn -0.665771 -0.700273 -0.257616
vn -0.671840 -0.699510 -0.243550
vn -0.626450 -0.701403 -0.339991
vn -0.760388 -0.482467 0.434782
vn -0.749450 -0.451130 0.484568
vn -0.743169 -0.435292 0.508154
vn -0.725542 -0.395892 0.562902
vn -0.766302 -0.635346 0.095481
vn -0.766302 -0.635346 0.095481
vn -0.118958 0.306016 0.944565
vn -0.118958 0.306016 0.944565
vn -0.742015 -0.669600 -0.032405
vn -0.740391 -0.671043 -0.039017
vn 0.777028 0.579441 -0.245919
vn 0.777040 0.576682 -0.252283
vn -0.341247 0.908618 -0.240756
vn -0.340337 0.908001 -0.244346
vn -0.340358 0.908018 -0.244252
vn -0.341243 0.908620 -0.240756
vn -0.361874 0.919802 -0.151693
vn -0.358585 0.918454 -0.166912
vn -0.399016 0.914329 0.069204
vn -0.396561 0.916647 0.049977
vn -0.412678 0.885258 0.214513
vn -0.396564 0.916645 0.049986
vn -0.340333 0.908003 -0.244345
vn -0.361872 0.919803 -0.151695
vn -0.341238 0.908621 -0.240756
vn -0.380050 0.923154 -0.057867
vn -0.381065 0.923084 -0.052017
vn -0.380050 0.923154 -0.057870
vn 0.341237 -0.908621 0.240760
vn 0.341233 -0.908623 0.240759
vn 0.340357 -0.908019 0.244251
vn 0.340332 -0.908003 0.244344
vn 0.358584 -0.918454 0.166912
vn 0.361871 -0.919804 0.151694
vn 0.399013 -0.914330 -0.069205
vn 0.412674 -0.885261 -0.214508
vn 0.396558 -0.916648 -0.049980
vn 0.396560 -0.916647 -0.049986
vn 0.340335 -0.908002 0.244345
vn 0.361873 -0.919803 0.151692
vn 0.341229 -0.908625 0.240757
vn 0.380048 -0.923155 0.057864
vn 0.381063 -0.923085 0.052015
vn 0.380047 -0.923155 0.057869
vn -0.910652 -0.385260 -0.149294
vn -0.750539 -0.324981 -0.575394
vn -0.711371 -0.309434 -0.631032
vn -0.910652 -0.385260 -0.149294
vn 0.155509 0.049018 -0.986618
vn 0.155484 0.049007 -0.986622
vn 0.155484 0.049007 -0.986622
vn 0.155509 0.049018 -0.986618
vn -0.765755 -0.330958 -0.551441
vn -0.795123 -0.342457 -0.500503
vn -0.899930 -0.374558 0.223231
vn -0.877941 -0.363872 0.311155
vn -0.877941 -0.363871 0.311155
vn -0.902901 -0.376053 0.208217
vn 0.734499 0.318646 0.599146
vn 0.782243 0.337472 0.523649
vn 0.789627 0.340360 0.510533
vn 0.734499 0.318646 0.599146
vn 0.904987 0.377146 -0.196873
vn 0.892859 0.371085 -0.255145
vn 0.885800 0.367671 -0.283155
vn 0.865851 0.358188 -0.349289
vn 0.906547 0.383998 0.175263
vn 0.906547 0.383998 0.175263
vn 0.155534 0.049028 -0.986613
vn 0.155534 0.049028 -0.986613
vn 0.875869 0.373225 0.305870
vn 0.873844 0.372484 0.312493
vn -0.921692 -0.387627 -0.015173
vn -0.921807 -0.387561 -0.008239
vn 0.067072 0.996926 0.040489
vn 0.067817 0.997025 0.036648
vn 0.067799 0.997022 0.036747
vn 0.067076 0.996926 0.040488
vn 0.048561 0.989709 0.134606
vn 0.051738 0.991581 0.118707
vn 0.001917 0.934109 0.356982
vn 0.005992 0.940997 0.338362
vn -0.029070 0.869148 0.493698
vn 0.005989 0.940997 0.338361
vn 0.067819 0.997024 0.036647
vn 0.048562 0.989709 0.134606
vn 0.067080 0.996926 0.040487
vn 0.028847 0.972509 0.231070
vn 0.027613 0.971121 0.236986
vn 0.028847 0.972509 0.231071
vn -0.067085 -0.996925 -0.040492
vn -0.067081 -0.996926 -0.040490
vn -0.067799 -0.997022 -0.036749
vn -0.067819 -0.997024 -0.036649
vn -0.051738 -0.991581 -0.118706
vn -0.048562 -0.989709 -0.134605
vn -0.001920 -0.934109 -0.356983
vn 0.029066 -0.869147 -0.493698
vn -0.005995 -0.940997 -0.338363
vn -0.005991 -0.940997 -0.338362
vn -0.067817 -0.997024 -0.036649
vn -0.048561 -0.989709 -0.134606
vn -0.067077 -0.996926 -0.040488
vn -0.028847 -0.972509 -0.231071
vn -0.027614 -0.971121 -0.236986
vn -0.028849 -0.972509 -0.231071
vn -0.982136 0.070101 -0.174628
vn -0.795274 0.177339 -0.579732
vn -0.750914 0.190786 -0.632241
vn -0.982136 0.070101 -0.174628
vn 0.199842 0.255591 -0.945905
vn 0.199835 0.255580 -0.945910
vn 0.199835 0.255580 -0.945910
vn 0.199842 0.255591 -0.945905
vn -0.812681 0.171497 -0.556901
vn -0.845626 0.159204 -0.509480
vn -0.982224 -0.028841 0.185486
vn -0.961365 -0.052602 0.270205
vn -0.961365 -0.052602 0.270205
vn -0.985275 -0.024306 0.169238
vn 0.777060 -0.183096 0.602208
vn 0.830712 -0.164911 0.531716
vn 0.840115 -0.161313 0.517865
vn 0.777060 -0.183096 0.602208
vn 0.986965 0.021570 -0.159483
vn 0.975834 0.037176 -0.215327
vn 0.969047 0.044889 -0.242763
vn 0.949450 0.063128 -0.307506
vn 0.976874 -0.076869 0.199522
vn 0.976874 -0.076869 0.199522
vn 0.199849 0.255602 -0.945900
vn 0.199849 0.255602 -0.945900
vn 0.939257 -0.110516 0.324934
vn 0.937326 -0.111866 0.330010
vn -0.998369 0.034954 -0.045132
vn -0.998650 0.033473 -0.039727
vn -0.903808 0.418930 0.087343
vn -0.902412 0.421355 0.090066
vn -0.902447 0.421295 0.089993
vn -0.903807 0.418932 0.087336
vn -0.933823 0.357179 0.019969
vn -0.929334 0.367900 0.031427
vn -0.970401 0.194097 -0.143698
vn -0.969327 0.208747 -0.129733
vn -0.965467 0.080127 -0.247897
vn -0.969326 0.208747 -0.129733
vn -0.902410 0.421362 0.090063
vn -0.933823 0.357178 0.019973
vn -0.903807 0.418935 0.087330
vn -0.955854 0.289517 -0.050221
vn -0.956907 0.285221 -0.054565
vn -0.955854 0.289519 -0.050224
vn 0.903810 -0.418925 -0.087350
vn 0.903806 -0.418937 -0.087330
vn 0.902445 -0.421301 -0.089993
vn 0.902409 -0.421362 -0.090069
vn 0.929334 -0.367900 -0.031427
vn 0.933823 -0.357176 -0.019974
vn 0.970402 -0.194097 0.143691
vn 0.965469 -0.080127 0.247891
vn 0.969328 -0.208747 0.129727
vn 0.969328 -0.208746 0.129726
vn 0.902409 -0.421365 -0.090058
vn 0.933823 -0.357179 -0.019966
vn 0.903802 -0.418949 -0.087310
vn 0.955854 -0.289517 0.050222
vn 0.956908 -0.285219 0.054561
vn 0.955855 -0.289515 0.050217
vn 0.235678 0.651754 -0.720883
vn 0.274226 0.900568 -0.337308
vn 0.275071 0.922489 -0.270834
vn 0.235678 0.651754 -0.720883
vn 0.138609 0.702183 0.698374
vn 0.138631 0.702181 0.698372
vn 0.138631 0.702181 0.698372
vn 0.138609 0.702183 0.698374
vn 0.273505 0.890065 -0.364662
vn 0.271283 0.866607 -0.418805
vn 0.167346 0.345482 -0.923384
vn 0.146963 0.262739 -0.953609
vn 0.146963 0.262739 -0.953609
vn 0.171058 0.360860 -0.916798
vn -0.274776 -0.910336 0.309494
vn -0.272437 -0.877867 0.393861
vn -0.271742 -0.870897 0.409505
vn -0.274776 -0.910336 0.309494
vn -0.173267 -0.370011 0.912727
vn -0.160358 -0.316817 0.934833
vn -0.153735 -0.290008 0.944596
vn -0.137389 -0.224900 0.964647
vn -0.239408 -0.670221 0.702487
vn -0.239408 -0.670221 0.702487
vn 0.138587 0.702186 0.698376
vn 0.138587 0.702186 0.698376
vn -0.255511 -0.757595 0.600636
vn -0.256079 -0.760936 0.596154
vn 0.214490 0.549904 -0.807218
vn 0.213522 0.545459 -0.810483
vn 0.211926 0.966923 0.141940
vn 0.211981 0.966336 0.145805
vn 0.211978 0.966352 0.145705
vn 0.211918 0.966925 0.141940
vn 0.209502 0.976713 0.046276
vn 0.210049 0.975688 0.062555
vn 0.195572 0.962733 -0.186809
vn 0.197210 0.966053 -0.166883
vn 0.180454 0.924508 -0.335741
vn 0.197218 0.966051 -0.166884
vn 0.211978 0.966336 0.145806
vn 0.209501 0.976713 0.046276
vn 0.211911 0.966927 0.141940
vn 0.204933 0.977309 -0.053568
vn 0.204581 0.977024 -0.059751
vn 0.204931 0.977310 -0.053567
vn -0.211931 -0.966922 -0.141940
vn -0.211929 -0.966922 -0.141941
vn -0.211981 -0.966351 -0.145705
vn -0.211983 -0.966336 -0.145805
vn -0.210050 -0.975687 -0.062555
vn -0.209502 -0.976713 -0.046277
vn -0.195570 -0.962733 0.186810
vn -0.180451 -0.924508 0.335740
vn -0.197211 -0.966053 0.166884
vn -0.197212 -0.966052 0.166884
vn -0.211982 -0.966336 -0.145805
vn -0.209501 -0.976713 -0.046274
vn -0.211926 -0.966923 -0.141942
vn -0.204931 -0.977309 0.053570
vn -0.204580 -0.977025 0.059752
vn -0.204931 -0.977309 0.053569
vn 0.976258 -0.208409 -0.059044
vn 0.907508 -0.152956 0.391195
vn 0.879543 -0.141369 0.454334
vn 0.976258 -0.208409 -0.059044
vn 0.063294 0.077825 0.994956
vn 0.063316 0.077780 0.994958
vn 0.063316 0.077780 0.994958
vn 0.063294 0.077825 0.994956
vn 0.917901 -0.157588 0.364176
vn 0.936424 -0.166497 0.308850
vn 0.880231 -0.221418 -0.419723
vn 0.837874 -0.219921 -0.499602
vn 0.837874 -0.219921 -0.499602
vn 0.887456 -0.221498 -0.404180
vn -0.896265 0.148166 -0.418038
vn -0.928234 0.162437 -0.334659
vn -0.933439 0.164992 -0.318543
vn -0.896265 0.148166 -0.418039
vn -0.891656 0.221520 0.394814
vn -0.866221 0.221101 0.448079
vn -0.852468 0.220608 0.473952
vn -0.816638 0.218658 0.534127
vn -0.977923 0.206367 0.032865
vn -0.977923 0.206367 0.032865
vn 0.063271 0.077870 0.994954
vn 0.063271 0.077870 0.994954
vn -0.975791 0.193623 -0.101698
vn -0.975316 0.193016 -0.107255
vn 0.957068 -0.216626 -0.192600
vn 0.955892 -0.216882 -0.198073
vn -0.669699 0.697230 -0.255681
vn -0.668577 0.696992 -0.259242
vn -0.668604 0.697001 -0.259147
vn -0.669701 0.697229 -0.255680
vn -0.694247 0.700108 -0.166943
vn -0.690490 0.700042 -0.182112
vn -0.729101 0.682298 0.053678
vn -0.727509 0.685232 0.034447
vn -0.732063 0.651454 0.199229
vn -0.727513 0.685229 0.034451
vn -0.668572 0.696998 -0.259238
vn -0.694241 0.700114 -0.166940
vn -0.669703 0.697227 -0.255680
vn -0.713498 0.696810 -0.073328
vn -0.714481 0.696392 -0.067486
vn -0.713501 0.696806 -0.073331
vn 0.669697 -0.697238 0.255667
vn 0.669691 -0.697244 0.255667
vn 0.668600 -0.697006 0.259145
vn 0.668569 -0.697002 0.259237
vn 0.690486 -0.700046 0.182111
vn 0.694239 -0.700117 0.166941
vn 0.729098 -0.682301 -0.053680
vn 0.732061 -0.651456 -0.199230
vn 0.727508 -0.685234 -0.034448
vn 0.727508 -0.685233 -0.034452
vn 0.668573 -0.696997 0.259238
vn 0.694243 -0.700113 0.166941
vn 0.669685 -0.697250 0.255667
vn 0.713497 -0.696811 0.073328
vn 0.714478 -0.696396 0.067486
vn 0.713495 -0.696812 0.073329
vn -0.681844 -0.715508 -0.152106
vn -0.553044 -0.600494 -0.577537
vn -0.522482 -0.571188 -0.633054
vn -0.681844 -0.715508 -0.152106
vn 0.136409 0.098046 -0.985789
vn 0.136389 0.098020 -0.985794
vn 0.136389 0.098020 -0.985794
vn 0.136409 0.098046 -0.985789
vn -0.564966 -0.611789 -0.553649
vn -0.588051 -0.633522 -0.502838
vn -0.681138 -0.698217 0.220325
vn -0.666331 -0.678944 0.308283
vn -0.666331 -0.678944 0.308283
vn -0.683077 -0.700895 0.205312
vn 0.540513 0.588515 0.601245
vn 0.577900 0.624045 0.525927
vn 0.583712 0.629507 0.512837
vn 0.540513 0.588515 0.601245
vn 0.684397 0.702831 -0.193982
vn 0.676431 0.691960 -0.252254
vn 0.671679 0.685772 -0.280291
vn 0.657986 0.668598 -0.346456
vn 0.678231 0.712951 0.178055
vn 0.678231 0.712951 0.178055
vn 0.136428 0.098071 -0.985784
vn 0.136428 0.098071 -0.985784
vn 0.652587 0.692064 0.308508
vn 0.650933 0.690637 0.315130
vn -0.692816 -0.720888 -0.018062
vn -0.693039 -0.720814 -0.011124
vn -0.214769 0.936571 0.276966
vn -0.214144 0.935601 0.280701
vn -0.214163 0.935625 0.280606
vn -0.214779 0.936568 0.276968
vn -0.229046 0.955902 0.183821
vn -0.226772 0.953241 0.199763
vn -0.254743 0.965793 -0.048471
vn -0.253060 0.967036 -0.028312
vn -0.264120 0.943304 -0.201041
vn -0.253055 0.967038 -0.028312
vn -0.214150 0.935599 0.280704
vn -0.229050 0.955901 0.183822
vn -0.214789 0.936565 0.276970
vn -0.241638 0.966615 0.085248
vn -0.242340 0.966962 0.079099
vn -0.241638 0.966615 0.085249
vn 0.214774 -0.936569 -0.276965
vn 0.214768 -0.936571 -0.276963
vn 0.214162 -0.935626 -0.280604
vn 0.214148 -0.935600 -0.280701
vn 0.226773 -0.953242 -0.199762
vn 0.229050 -0.955900 -0.183823
vn 0.254745 -0.965793 0.048472
vn 0.264120 -0.943304 0.201041
vn 0.253060 -0.967036 0.028313
vn 0.253058 -0.967037 0.028312
vn 0.214143 -0.935601 -0.280701
vn 0.229048 -0.955901 -0.183820
vn 0.214763 -0.936574 -0.276960
vn 0.241638 -0.966615 -0.085247
vn 0.242341 -0.966961 -0.079099
vn 0.241640 -0.966614 -0.085249
vn 0.962170 0.249676 -0.109042
vn 0.913582 0.213985 0.345800
vn 0.888655 0.204336 0.410536
vn 0.962170 0.249676 -0.109042
vn 0.105301 -0.024345 0.994142
vn 0.105310 -0.024356 0.994141
vn 0.105310 -0.024356 0.994141
vn 0.105301 -0.024345 0.994142
vn 0.922684 0.217715 0.318206
vn 0.938619 0.224657 0.261772
vn 0.851780 0.240007 -0.465690
vn 0.806491 0.232525 -0.543603
vn 0.806491 0.232525 -0.543603
vn 0.859583 0.241204 -0.450487
vn -0.903631 -0.210033 -0.373278
vn -0.931637 -0.221514 -0.288070
vn -0.936089 -0.223487 -0.271644
vn -0.903631 -0.210033 -0.373278
vn -0.864145 -0.241867 0.441309
vn -0.836720 -0.237589 0.493408
vn -0.822011 -0.235154 0.518654
vn -0.784033 -0.228526 0.577120
vn -0.964947 -0.249011 0.082894
vn -0.964947 -0.249011 0.082894
vn 0.105292 -0.024334 0.994144
vn 0.105292 -0.024334 0.994144
vn -0.968622 -0.243015 -0.052116
vn -0.968391 -0.242670 -0.057703
vn 0.937465 0.250244 -0.241945
vn 0.936068 0.250168 -0.247370
vn -0.522363 0.852723 -0.000815
vn -0.522573 0.852590 0.002923
vn -0.522567 0.852593 0.002825
vn -0.522363 0.852723 -0.000814
vn -0.514787 0.852301 -0.092614
vn -0.516382 0.852883 -0.077077
vn -0.478262 0.821128 -0.311471
vn -0.482430 0.825509 -0.292909
vn -0.440620 0.777520 -0.448683
vn -0.482420 0.825512 -0.292917
vn -0.522573 0.852590 0.002921
vn -0.514789 0.852300 -0.092612
vn -0.522363 0.852723 -0.000813
vn -0.502307 0.844209 -0.187079
vn -0.501381 0.843451 -0.192895
vn -0.502309 0.844208 -0.187077
vn 0.522354 -0.852728 0.000815
vn 0.522364 -0.852722 0.000816
vn 0.522568 -0.852593 -0.002826
vn 0.522570 -0.852591 -0.002922
vn 0.516382 -0.852883 0.077076
vn 0.514789 -0.852300 0.092613
vn 0.478263 -0.821127 0.311473
vn 0.440619 -0.777519 0.448686
vn 0.482429 -0.825509 0.292911
vn 0.482424 -0.825510 0.292918
vn 0.522577 -0.852587 -0.002924
vn 0.514787 -0.852301 0.092613
vn 0.522374 -0.852716 0.000818
vn 0.502307 -0.844209 0.187079
vn 0.501382 -0.843450 0.192895
vn 0.502312 -0.844207 0.187076
vn 0.853175 0.518717 0.055004
vn 0.689478 0.539308 0.483496
vn 0.650898 0.532333 0.541251
vn 0.853175 0.518717 0.055004
vn -0.176317 0.161535 0.970989
vn -0.176332 0.161565 0.970981
vn -0.176332 0.161565 0.970981
vn -0.176317 0.161535 0.970988
vn 0.704517 0.541435 0.458807
vn 0.733728 0.544386 0.406556
vn 0.854326 0.420993 -0.304781
vn 0.836285 0.387628 -0.387777
vn 0.836285 0.387628 -0.387777
vn 0.856667 0.426272 -0.290541
vn -0.673666 -0.536661 -0.508103
vn -0.720926 -0.543253 -0.430281
vn -0.728281 -0.543916 -0.416848
vn -0.673667 -0.536661 -0.508103
vn -0.858302 -0.430170 0.279772
vn -0.848642 -0.409365 0.335005
vn -0.842843 -0.398710 0.361449
vn -0.826051 -0.371818 0.423545
vn -0.848552 -0.522942 -0.080567
vn -0.848552 -0.522942 -0.080567
vn -0.176302 0.161506 0.970996
vn -0.176302 0.161506 0.970996
vn -0.815701 -0.538967 -0.210108
vn -0.813594 -0.539532 -0.216726
vn 0.867602 0.491415 -0.076012
vn 0.867920 0.489767 -0.082725
vn 0.401888 0.906612 -0.128607
vn 0.401752 0.906114 -0.132484
vn 0.401757 0.906127 -0.132384
vn 0.401896 0.906610 -0.128604
vn 0.403464 0.914409 -0.032745
vn 0.403461 0.913681 -0.049049
vn 0.391710 0.898021 0.200305
vn 0.393592 0.901409 0.180411
vn 0.372134 0.860145 0.348808
vn 0.393587 0.901411 0.180411
vn 0.401753 0.906114 -0.132486
vn 0.403465 0.914409 -0.032745
vn 0.401903 0.906607 -0.128601
vn 0.401141 0.913550 0.067175
vn 0.400865 0.913196 0.073358
vn 0.401141 0.913550 0.067174
vn -0.401887 -0.906613 0.128609
vn -0.401895 -0.906609 0.128609
vn -0.401755 -0.906128 0.132383
vn -0.401751 -0.906115 0.132484
vn -0.403461 -0.913681 0.049048
vn -0.403465 -0.914409 0.032743
vn -0.391709 -0.898021 -0.200304
vn -0.372133 -0.860146 -0.348807
vn -0.393588 -0.901410 -0.180410
vn -0.393589 -0.901410 -0.180410
vn -0.401752 -0.906115 0.132484
vn -0.403464 -0.914410 0.032743
vn -0.401902 -0.906606 0.128610
vn -0.401141 -0.913550 -0.067175
vn -0.400865 -0.913196 -0.073359
vn -0.401142 -0.913550 -0.067176
vn -0.915669 0.401905 -0.004719
vn -0.798923 0.400783 -0.448435
vn -0.765485 0.393012 -0.509485
vn -0.915669 0.401905 -0.004719
vn 0.057674 0.086964 -0.994541
vn 0.057635 0.086983 -0.994541
vn 0.057635 0.086983 -0.994541
vn 0.057674 0.086964 -0.994541
vn -0.811748 0.403474 -0.422225
vn -0.835472 0.407803 -0.368352
vn -0.868533 0.340075 0.360555
vn -0.838485 0.317572 0.442821
vn -0.838485 0.317572 0.442822
vn -0.873430 0.344028 0.344623
vn 0.785313 -0.397738 0.474434
vn 0.824839 -0.405938 0.393517
vn 0.831575 -0.407118 0.377806
vn 0.785313 -0.397738 0.474434
vn 0.876267 -0.346298 -0.335014
vn 0.858826 -0.332483 -0.389708
vn 0.849053 -0.325204 -0.416356
vn 0.822760 -0.306655 -0.478570
vn 0.914140 -0.404220 0.030904
vn 0.914140 -0.404220 0.030904
vn 0.057713 0.086946 -0.994540
vn 0.057713 0.086946 -0.994540
vn 0.896403 -0.411501 0.164710
vn 0.895311 -0.411642 0.170203
vn -0.913422 0.385869 0.129477
vn -0.912968 0.385046 0.135012
s 1
g plant_stem04
usemtl initialShadingGroup
f 17/33/1 66/82/2 93/49/3 63/79/4
f 63/79/4 93/49/3 64/80/5 18/34/6
f 93/49/3 65/81/7 19/35/8 64/80/5
f 66/82/2 20/36/9 65/81/7 93/49/3
f 17/33/1 69/85/10 94/50/11 66/82/2
f 66/82/2 94/50/11 67/83/12 20/36/9
f 94/50/11 68/84/13 21/37/14 67/83/12
f 69/85/10 22/38/15 68/84/13 94/50/11
f 21/37/14 68/84/13 95/51/16 70/86/17
f 70/86/17 95/51/16 71/87/18 23/39/19
f 95/51/16 72/88/20 24/40/21 71/87/18
f 68/84/13 22/38/15 72/88/20 95/51/16
f 25/41/22 76/92/23 96/52/24 73/89/25
f 73/89/25 96/52/24 74/90/26 26/42/27
f 96/52/24 75/91/28 27/43/29 74/90/26
f 76/92/23 28/44/30 75/91/28 96/52/24
f 29/45/31 79/95/32 97/53/33 77/93/34
f 77/93/34 97/53/33 76/92/23 25/41/22
f 97/53/33 78/94/35 28/44/30 76/92/23
f 79/95/32 30/46/36 78/94/35 97/53/33
f 31/47/37 82/98/38 98/54/39 80/96/40
f 80/96/40 98/54/39 71/87/18 24/40/21
f 98/54/39 81/97/41 23/39/19 71/87/18
f 82/98/38 32/48/42 81/97/41 98/54/39
f 26/42/27 74/90/26 99/55/43 83/99/44
f 83/99/44 99/55/43 82/98/38 31/47/37
f 99/55/43 84/100/45 32/48/42 82/98/38
f 74/90/26 27/43/29 84/100/45 99/55/43
f 16/31/46 88/106/47 100/56/48 85/101/49
f 85/101/49 100/56/48 86/102/50 15/29/51
f 100/56/48 87/104/52 3/5/53 86/102/50
f 88/106/47 4/7/54 87/104/52 100/56/48
f 16/31/46 85/101/49 101/57/55 89/108/56
f 89/108/56 101/57/55 90/110/57 13/25/58
f 101/57/55 91/111/59 12/23/60 90/110/57
f 85/101/49 15/29/51 91/111/59 101/57/55
f 12/23/60 34/116/61 102/58/62 90/110/57
f 90/110/57 102/58/62 92/113/63 13/25/58
f 102/58/62 33/115/64 8/15/65 92/113/63
f 34/116/61 7/13/66 33/115/64 102/58/62
f 9/17/67 38/122/68 103/59/69 35/118/70
f 35/118/70 103/59/69 36/119/71 14/27/72
f 103/59/69 37/121/73 5/9/74 36/119/71
f 38/122/68 6/11/75 37/121/73 103/59/69
f 2/3/76 41/128/77 104/60/78 39/124/79
f 39/124/79 104/60/78 40/126/80 1/1/81
f 104/60/78 35/118/70 14/27/72 40/126/80
f 41/128/77 9/17/67 35/118/70 104/60/78
f 11/21/82 44/133/83 105/61/84 42/130/85
f 42/130/85 105/61/84 43/131/86 10/19/87
f 105/61/84 33/115/64 7/13/66 43/131/86
f 44/133/83 8/15/65 33/115/64 105/61/84
f 6/11/75 46/137/88 106/62/89 37/121/73
f 37/121/73 106/62/89 45/135/90 5/9/74
f 106/62/89 42/130/85 10/19/87 45/135/90
f 46/137/88 11/21/82 42/130/85 106/62/89
f 16/32/46 48/140/91 107/63/92 88/107/47
f 88/107/47 107/63/92 47/139/93 4/8/54
f 107/63/92 63/79/4 18/34/6 47/139/93
f 48/140/91 17/33/1 63/79/4 107/63/92
f 4/8/54 47/139/93 108/64/94 87/105/52
f 87/105/52 108/64/94 49/141/95 3/6/53
f 108/64/94 64/80/5 19/35/8 49/141/95
f 47/139/93 18/34/6 64/80/5 108/64/94
f 3/6/53 49/141/95 109/65/96 86/103/50
f 86/103/50 109/65/96 50/142/97 15/30/51
f 109/65/96 65/81/7 20/36/9 50/142/97
f 49/141/95 19/35/8 65/81/7 109/65/96
f 15/30/51 50/142/97 110/66/98 91/112/59
f 91/112/59 110/66/98 51/143/99 12/24/60
f 110/66/98 67/83/12 21/37/14 51/143/99
f 50/142/97 20/36/9 67/83/12 110/66/98
f 13/26/58 52/144/100 111/67/101 89/109/56
f 89/109/56 111/67/101 48/140/91 16/32/46
f 111/67/101 69/85/10 17/33/1 48/140/91
f 52/144/100 22/38/15 69/85/10 111/67/101
f 12/24/60 51/143/99 112/68/102 34/117/61
f 34/117/61 112/68/102 53/145/103 7/14/66
f 112/68/102 70/86/17 23/39/19 53/145/103
f 51/143/99 21/37/14 70/86/17 112/68/102
f 8/16/65 54/146/104 113/69/105 92/114/63
f 92/114/63 113/69/105 52/144/100 13/26/58
f 113/69/105 72/88/20 22/38/15 52/144/100
f 54/146/104 24/40/21 72/88/20 113/69/105
f 9/18/67 56/148/106 114/70/107 38/123/68
f 38/123/68 114/70/107 55/147/108 6/12/75
f 114/70/107 73/89/25 26/42/27 55/147/108
f 56/148/106 25/41/22 73/89/25 114/70/107
f 5/10/74 58/150/109 115/71/110 36/120/71
f 36/120/71 115/71/110 57/149/111 14/28/72
f 115/71/110 75/91/28 28/44/30 57/149/111
f 58/150/109 27/43/29 75/91/28 115/71/110
f 2/4/76 59/151/112 116/72/113 41/129/77
f 41/129/77 116/72/113 56/148/106 9/18/67
f 116/72/113 77/93/34 25/41/22 56/148/106
f 59/151/112 29/45/31 77/93/34 116/72/113
f 14/28/72 57/149/111 117/73/114 40/127/80
f 40/127/80 117/73/114 60/152/115 1/2/81
f 117/73/114 78/94/35 30/46/36 60/152/115
f 57/149/111 28/44/30 78/94/35 117/73/114
f 1/2/81 60/152/115 118/74/116 39/125/79
f 39/125/79 118/74/116 59/151/112 2/4/76
f 118/74/116 79/95/32 29/45/31 59/151/112
f 60/152/115 30/46/36 79/95/32 118/74/116
f 11/22/82 61/153/117 119/75/118 44/134/83
f 44/134/83 119/75/118 54/146/104 8/16/65
f 119/75/118 80/96/40 24/40/21 54/146/104
f 61/153/117 31/47/37 80/96/40 119/75/118
f 7/14/66 53/145/103 120/76/119 43/132/86
f 43/132/86 120/76/119 62/154/120 10/20/87
f 120/76/119 81/97/41 32/48/42 62/154/120
f 53/145/103 23/39/19 81/97/41 120/76/119
f 6/12/75 55/147/108 121/77/121 46/138/88
f 46/138/88 121/77/121 61/153/117 11/22/82
f 121/77/121 83/99/44 31/47/37 61/153/117
f 55/147/108 26/42/27 83/99/44 121/77/121
f 10/20/87 62/154/120 122/78/122 45/136/90
f 45/136/90 122/78/122 58/150/109 5/10/74
f 122/78/122 84/100/45 27/43/29 58/150/109
f 62/154/120 32/48/42 84/100/45 122/78/122
s 9
f 137/155/123 136/156/124 138/157/125 139/158/126
f 138/157/125 136/156/124 150/159/127 151/160/128
f 142/161/129 143/162/130 144/163/131
f 145/164/132 142/161/129 144/163/131
f 146/165/133 138/157/125 151/160/128 152/166/134
f 139/158/126 138/157/125 146/165/133 148/167/135
f 147/168/136 141/169/137 142/161/129 145/164/132
f 141/169/137 140/170/138 143/162/130 142/161/129
s 11
f 124/171/139 132/172/140 131/173/141 125/174/142
f 131/173/141 154/175/143 149/176/144 125/174/142
f 134/177/145 129/178/146 135/179/147
f 133/180/148 129/178/146 134/177/145
f 126/181/149 153/182/150 154/175/143 131/173/141
f 132/172/140 123/183/151 126/181/149 131/173/141
f 128/184/152 133/180/148 134/177/145 130/185/153
f 130/185/153 134/177/145 135/179/147 127/186/154
s 13
f 124/187/155 125/188/156 136/156/157 137/155/158
s 14
f 132/189/159 124/187/160 137/155/161 139/158/162
s 13
f 125/188/156 149/190/163 150/159/164 136/156/157
f 135/191/165 129/192/166 144/163/167 143/162/168
s 16
f 129/192/169 133/193/170 145/164/171 144/163/172
f 152/166/173 153/194/174 126/195/175 146/165/176
f 126/195/175 123/196/177 148/167/178 146/165/176
s 14
f 123/196/179 132/189/159 139/158/162 148/167/180
s 16
f 133/193/170 128/197/181 147/168/182 145/164/171
s 13
f 127/198/183 135/191/165 143/162/168 140/170/184
f 150/159/164 149/190/163 127/198/183 140/170/184
s 9
f 151/160/128 150/159/127 140/170/138 141/169/137
f 152/166/134 151/160/128 141/169/137 147/168/136
s 16
f 128/197/181 153/194/174 152/166/173 147/168/182
s 11
f 154/175/143 153/182/150 128/184/152 130/185/153
f 149/176/144 154/175/143 130/185/153 127/186/154
s 18
f 169/199/185 168/200/186 170/201/187 171/202/188
f 170/201/187 168/200/186 182/203/189 183/204/190
f 174/205/191 175/206/192 176/207/193
f 177/208/194 174/205/191 176/207/193
f 178/209/195 170/201/187 183/204/190 184/210/196
f 171/202/188 170/201/187 178/209/195 180/211/197
f 179/212/198 173/213/199 174/205/191 177/208/194
f 173/213/199 172/214/200 175/206/192 174/205/191
s 20
f 156/215/201 164/216/202 163/217/203 157/218/204
f 163/217/203 186/219/205 181/220/206 157/218/204
f 166/221/207 161/222/208 167/223/209
f 165/224/210 161/222/208 166/221/207
f 158/225/211 185/226/212 186/219/205 163/217/203
f 164/216/202 155/227/213 158/225/211 163/217/203
f 160/228/214 165/224/210 166/221/207 162/229/215
f 162/229/215 166/221/207 167/223/209 159/230/216
s 22
f 156/231/217 157/232/218 168/200/219 169/199/220
s 23
f 164/233/221 156/231/222 169/199/223 171/202/224
s 22
f 157/232/218 181/234/225 182/203/226 168/200/219
f 167/235/227 161/236/228 176/207/229 175/206/230
s 25
f 161/236/231 165/237/232 177/208/233 176/207/234
f 184/210/235 185/238/236 158/239/237 178/209/238
f 158/239/237 155/240/239 180/211/240 178/209/238
s 23
f 155/240/241 164/233/221 171/202/224 180/211/242
s 25
f 165/237/232 160/241/243 179/212/244 177/208/233
s 22
f 159/242/245 167/235/227 175/206/230 172/214/246
f 182/203/226 181/234/225 159/242/245 172/214/246
s 18
f 183/204/190 182/203/189 172/214/200 173/213/199
f 184/210/196 183/204/190 173/213/199 179/212/198
s 25
f 160/241/243 185/238/236 184/210/235 179/212/244
s 20
f 186/219/205 185/226/212 160/228/214 162/229/215
f 181/220/206 186/219/205 162/229/215 159/230/216
s 27
f 201/243/247 200/244/248 202/245/249 203/246/250
f 202/245/249 200/244/248 214/247/251 215/248/252
f 206/249/253 207/250/254 208/251/255
f 209/252/256 206/249/253 208/251/255
f 210/253/257 202/245/249 215/248/252 216/254/258
f 203/246/250 202/245/249 210/253/257 212/255/259
f 211/256/260 205/257/261 206/249/253 209/252/256
f 205/257/261 204/258/262 207/250/254 206/249/253
s 29
f 188/259/263 196/260/264 195/261/265 189/262/266
f 195/261/265 218/263/267 213/264/268 189/262/266
f 198/265/269 193/266/270 199/267/271
f 197/268/272 193/266/270 198/265/269
f 190/269/273 217/270/274 218/263/267 195/261/265
f 196/260/264 187/271/275 190/269/273 195/261/265
f 192/272/276 197/268/272 198/265/269 194/273/277
f 194/273/277 198/265/269 199/267/271 191/274/278
s 31
f 188/275/279 189/276/280 200/244/281 201/243/282
s 32
f 196/277/283 188/275/284 201/243/285 203/246/286
s 31
f 189/276/280 213/278/287 214/247/288 200/244/281
f 199/279/289 193/280/290 208/251/291 207/250/292
s 34
f 193/280/293 197/281/294 209/252/295 208/251/296
f 216/254/297 217/282/298 190/283/299 210/253/300
f 190/283/299 187/284/301 212/255/302 210/253/300
s 32
f 187/284/303 196/277/283 203/246/286 212/255/304
s 34
f 197/281/294 192/285/305 211/256/306 209/252/295
s 31
f 191/286/307 199/279/289 207/250/292 204/258/308
f 214/247/288 213/278/287 191/286/307 204/258/308
s 27
f 215/248/252 214/247/251 204/258/262 205/257/261
f 216/254/258 215/248/252 205/257/261 211/256/260
s 34
f 192/285/305 217/282/298 216/254/297 211/256/306
s 29
f 218/263/267 217/270/274 192/272/276 194/273/277
f 213/264/268 218/263/267 194/273/277 191/274/278
s 36
f 233/287/309 232/288/310 234/289/311 235/290/312
f 234/289/311 232/288/310 246/291/313 247/292/314
f 238/293/315 239/294/316 240/295/317
f 241/296/318 238/293/315 240/295/317
f 242/297/319 234/289/311 247/292/314 248/298/320
f 235/290/312 234/289/311 242/297/319 244/299/321
f 243/300/322 237/301/323 238/293/315 241/296/318
f 237/301/323 236/302/324 239/294/316 238/293/315
s 38
f 220/303/325 228/304/326 227/305/327 221/306/328
f 227/305/327 250/307/329 245/308/330 221/306/328
f 230/309/331 225/310/332 231/311/333
f 229/312/334 225/310/332 230/309/331
f 222/313/335 249/314/336 250/307/329 227/305/327
f 228/304/326 219/315/337 222/313/335 227/305/327
f 224/316/338 229/312/334 230/309/331 226/317/339
f 226/317/339 230/309/331 231/311/333 223/318/340
s 40
f 220/319/341 221/320/342 232/288/343 233/287/344
s 41
f 228/321/345 220/319/346 233/287/347 235/290/348
s 40
f 221/320/342 245/322/349 246/291/350 232/288/343
f 231/323/351 225/324/352 240/295/353 239/294/354
s 43
f 225/324/355 229/325/356 241/296/357 240/295/358
f 248/298/359 249/326/360 222/327/361 242/297/362
f 222/327/361 219/328/363 244/299/364 242/297/362
s 41
f 219/328/365 228/321/345 235/290/348 244/299/366
s 43
f 229/325/356 224/329/367 243/300/368 241/296/357
s 40
f 223/330/369 231/323/351 239/294/354 236/302/370
f 246/291/350 245/322/349 223/330/369 236/302/370
s 36
f 247/292/314 246/291/313 236/302/324 237/301/323
f 248/298/320 247/292/314 237/301/323 243/300/322
s 43
f 224/329/367 249/326/360 248/298/359 243/300/368
s 38
f 250/307/329 249/314/336 224/316/338 226/317/339
f 245/308/330 250/307/329 226/317/339 223/318/340
s 45
f 265/331/371 264/332/372 266/333/373 267/334/374
f 266/333/373 264/332/372 278/335/375 279/336/376
f 270/337/377 271/338/378 272/339/379
f 273/340/380 270/337/377 272/339/379
f 274/341/381 266/333/373 279/336/376 280/342/382
f 267/334/374 266/333/373 274/341/381 276/343/383
f 275/344/384 269/345/385 270/337/377 273/340/380
f 269/345/385 268/346/386 271/338/378 270/337/377
s 47
f 252/347/387 260/348/388 259/349/389 253/350/390
f 259/349/389 282/351/391 277/352/392 253/350/390
f 262/353/393 257/354/394 263/355/395
f 261/356/396 257/354/394 262/353/393
f 254/357/397 281/358/398 282/351/391 259/349/389
f 260/348/388 251/359/399 254/357/397 259/349/389
f 256/360/400 261/356/396 262/353/393 258/361/401
f 258/361/401 262/353/393 263/355/395 255/362/402
s 49
f 252/363/403 253/364/404 264/332/405 265/331/406
s 50
f 260/365/407 252/363/408 265/331/409 267/334/410
s 49
f 253/364/404 277/366/411 278/335/412 264/332/405
f 263/367/413 257/368/414 272/339/415 271/338/416
s 52
f 257/368/417 261/369/418 273/340/419 272/339/420
f 280/342/421 281/370/422 254/371/423 274/341/424
f 254/371/423 251/372/425 276/343/426 274/341/424
s 50
f 251/372/427 260/365/407 267/334/410 276/343/428
s 52
f 261/369/418 256/373/429 275/344/430 273/340/419
s 49
f 255/374/431 263/367/413 271/338/416 268/346/432
f 278/335/412 277/366/411 255/374/431 268/346/432
s 45
f 279/336/376 278/335/375 268/346/386 269/345/385
f 280/342/382 279/336/376 269/345/385 275/344/384
s 52
f 256/373/429 281/370/422 280/342/421 275/344/430
s 47
f 282/351/391 281/358/398 256/360/400 258/361/401
f 277/352/392 282/351/391 258/361/401 255/362/402
s 54
f 297/375/433 296/376/434 298/377/435 299/378/436
f 298/377/435 296/376/434 310/379/437 311/380/438
f 302/381/439 303/382/440 304/383/441
f 305/384/442 302/381/439 304/383/441
f 306/385/443 298/377/435 311/380/438 312/386/444
f 299/378/436 298/377/435 306/385/443 308/387/445
f 307/388/446 301/389/447 302/381/439 305/384/442
f 301/389/447 300/390/448 303/382/440 302/381/439
s 56
f 284/391/449 292/392/450 291/393/451 285/394/452
f 291/393/451 314/395/453 309/396/454 285/394/452
f 294/397/455 289/398/456 295/399/457
f 293/400/458 289/398/456 294/397/455
f 286/401/459 313/402/460 314/395/453 291/393/451
f 292/392/450 283/403/461 286/401/459 291/393/451
f 288/404/462 293/400/458 294/397/455 290/405/463
f 290/405/463 294/397/455 295/399/457 287/406/464
s 58
f 284/407/465 285/408/466 296/376/467 297/375/468
s 59
f 292/409/469 284/407/470 297/375/471 299/378/472
s 58
f 285/408/466 309/410/473 310/379/474 296/376/467
f 295/411/475 289/412/476 304/383/477 303/382/478
s 61
f 289/412/479 293/413/480 305/384/481 304/383/482
f 312/386/483 313/414/484 286/415/485 306/385/486
f 286/415/485 283/416/487 308/387/488 306/385/486
s 59
f 283/416/489 292/409/469 299/378/472 308/387/490
s 61
f 293/413/480 288/417/491 307/388/492 305/384/481
s 58
f 287/418/493 295/411/475 303/382/478 300/390/494
f 310/379/474 309/410/473 287/418/493 300/390/494
s 54
f 311/380/438 310/379/437 300/390/448 301/389/447
f 312/386/444 311/380/438 301/389/447 307/388/446
s 61
f 288/417/491 313/414/484 312/386/483 307/388/492
s 56
f 314/395/453 313/402/460 288/404/462 290/405/463
f 309/396/454 314/395/453 290/405/463 287/406/464
s 63
f 329/419/495 328/420/496 330/421/497 331/422/498
f 330/421/497 328/420/496 342/423/499 343/424/500
f 334/425/501 335/426/502 336/427/503
f 337/428/504 334/425/501 336/427/503
f 338/429/505 330/421/497 343/424/500 344/430/506
f 331/422/498 330/421/497 338/429/505 340/431/507
f 339/432/508 333/433/509 334/425/501 337/428/504
f 333/433/509 332/434/510 335/426/502 334/425/501
s 65
f 316/435/511 324/436/512 323/437/513 317/438/514
f 323/437/513 346/439/515 341/440/516 317/438/514
f 326/441/517 321/442/518 327/443/519
f 325/444/520 321/442/518 326/441/517
f 318/445/521 345/446/522 346/439/515 323/437/513
f 324/436/512 315/447/523 318/445/521 323/437/513
f 320/448/524 325/444/520 326/441/517 322/449/525
f 322/449/525 326/441/517 327/443/519 319/450/526
s 67
f 316/451/527 317/452/528 328/420/529 329/419/530
s 68
f 324/453/531 316/451/532 329/419/533 331/422/534
s 67
f 317/452/528 341/454/535 342/423/536 328/420/529
f 327/455/537 321/456/538 336/427/539 335/426/540
s 70
f 321/456/541 325/457/542 337/428/543 336/427/544
f 344/430/545 345/458/546 318/459/547 338/429/548
f 318/459/547 315/460/549 340/431/550 338/429/548
s 68
f 315/460/551 324/453/531 331/422/534 340/431/552
s 70
f 325/457/542 320/461/553 339/432/554 337/428/543
s 67
f 319/462/555 327/455/537 335/426/540 332/434/556
f 342/423/536 341/454/535 319/462/555 332/434/556
s 63
f 343/424/500 342/423/499 332/434/510 333/433/509
f 344/430/506 343/424/500 333/433/509 339/432/508
s 70
f 320/461/553 345/458/546 344/430/545 339/432/554
s 65
f 346/439/515 345/446/522 320/448/524 322/449/525
f 341/440/516 346/439/515 322/449/525 319/450/526
s 72
f 361/463/557 360/464/558 362/465/559 363/466/560
f 362/465/559 360/464/558 374/467/561 375/468/562
f 366/469/563 367/470/564 368/471/565
f 369/472/566 366/469/563 368/471/565
f 370/473/567 362/465/559 375/468/562 376/474/568
f 363/466/560 362/465/559 370/473/567 372/475/569
f 371/476/570 365/477/571 366/469/563 369/472/566
f 365/477/571 364/478/572 367/470/564 366/469/563
s 74
f 348/479/573 356/480/574 355/481/575 349/482/576
f 355/481/575 378/483/577 373/484/578 349/482/576
f 358/485/579 353/486/580 359/487/581
f 357/488/582 353/486/580 358/485/579
f 350/489/583 377/490/584 378/483/577 355/481/575
f 356/480/574 347/491/585 350/489/583 355/481/575
f 352/492/586 357/488/582 358/485/579 354/493/587
f 354/493/587 358/485/579 359/487/581 351/494/588
s 76
f 348/495/589 349/496/590 360/464/591 361/463/592
s 77
f 356/497/593 348/495/594 361/463/595 363/466/596
s 76
f 349/496/590 373/498/597 374/467/598 360/464/591
f 359/499/599 353/500/600 368/471/601 367/470/602
s 79
f 353/500/603 357/501/604 369/472/605 368/471/606
f 376/474/607 377/502/608 350/503/609 370/473/610
f 350/503/609 347/504/611 372/475/612 370/473/610
s 77
f 347/504/613 356/497/593 363/466/596 372/475/614
s 79
f 357/501/604 352/505/615 371/476/616 369/472/605
s 76
f 351/506/617 359/499/599 367/470/602 364/478/618
f 374/467/598 373/498/597 351/506/617 364/478/618
s 72
f 375/468/562 374/467/561 364/478/572 365/477/571
f 376/474/568 375/468/562 365/477/571 371/476/570
s 79
f 352/505/615 377/502/608 376/474/607 371/476/616
s 74
f 378/483/577 377/490/584 352/492/586 354/493/587
f 373/484/578 378/483/577 354/493/587 351/494/588
s 81
f 393/507/619 392/508/620 394/509/621 395/510/622
f 394/509/621 392/508/620 406/511/623 407/512/624
f 398/513/625 399/514/626 400/515/627
f 401/516/628 398/513/625 400/515/627
f 402/517/629 394/509/621 407/512/624 408/518/630
f 395/510/622 394/509/621 402/517/629 404/519/631
f 403/520/632 397/521/633 398/513/625 401/516/628
f 397/521/633 396/522/634 399/514/626 398/513/625
s 83
f 380/523/635 388/524/636 387/525/637 381/526/638
f 387/525/637 410/527/639 405/528/640 381/526/638
f 390/529/641 385/530/642 391/531/643
f 389/532/644 385/530/642 390/529/641
f 382/533/645 409/534/646 410/527/639 387/525/637
f 388/524/636 379/535/647 382/533/645 387/525/637
f 384/536/648 389/532/644 390/529/641 386/537/649
f 386/537/649 390/529/641 391/531/643 383/538/650
s 85
f 380/539/651 381/540/652 392/508/653 393/507/654
s 86
f 388/541/655 380/539/656 393/507/657 395/510/658
s 85
f 381/540/652 405/542/659 406/511/660 392/508/653
f 391/543/661 385/544/662 400/515/663 399/514/664
s 88
f 385/544/665 389/545/666 401/516/667 400/515/668
f 408/518/669 409/546/670 382/547/671 402/517/672
f 382/547/671 379/548/673 404/519/674 402/517/672
s 86
f 379/548/675 388/541/655 395/510/658 404/519/676
s 88
f 389/545/666 384/549/677 403/520/678 401/516/667
s 85
f 383/550/679 391/543/661 399/514/664 396/522/680
f 406/511/660 405/542/659 383/550/679 396/522/680
s 81
f 407/512/624 406/511/623 396/522/634 397/521/633
f 408/518/630 407/512/624 397/521/633 403/520/632
s 88
f 384/549/677 409/546/670 408/518/669 403/520/678
s 83
f 410/527/639 409/534/646 384/536/648 386/537/649
f 405/528/640 410/527/639 386/537/649 383/538/650
s 90
f 425/551/681 424/552/682 426/553/683 427/554/684
f 426/553/683 424/552/682 438/555/685 439/556/686
f 430/557/687 431/558/688 432/559/689
f 433/560/690 430/557/687 432/559/689
f 434/561/691 426/553/683 439/556/686 440/562/692
f 427/554/684 426/553/683 434/561/691 436/563/693
f 435/564/694 429/565/695 430/557/687 433/560/690
f 429/565/695 428/566/696 431/558/688 430/557/687
s 92
f 412/567/697 420/568/698 419/569/699 413/570/700
f 419/569/699 442/571/701 437/572/702 413/570/700
f 422/573/703 417/574/704 423/575/705
f 421/576/706 417/574/704 422/573/703
f 414/577/707 441/578/708 442/571/701 419/569/699
f 420/568/698 411/579/709 414/577/707 419/569/699
f 416/580/710 421/576/706 422/573/703 418/581/711
f 418/581/711 422/573/703 423/575/705 415/582/712
s 94
f 412/583/713 413/584/714 424/552/715 425/551/716
s 95
f 420/585/717 412/583/718 425/551/719 427/554/720
s 94
f 413/584/714 437/586/721 438/555/722 424/552/715
f 423/587/723 417/588/724 432/559/725 431/558/726
s 97
f 417/588/727 421/589/728 433/560/729 432/559/730
f 440/562/731 441/590/732 414/591/733 434/561/734
f 414/591/733 411/592/735 436/563/736 434/561/734
s 95
f 411/592/737 420/585/717 427/554/720 436/563/738
s 97
f 421/589/728 416/593/739 435/564/740 433/560/729
s 94
f 415/594/741 423/587/723 431/558/726 428/566/742
f 438/555/722 437/586/721 415/594/741 428/566/742
s 90
f 439/556/686 438/555/685 428/566/696 429/565/695
f 440/562/692 439/556/686 429/565/695 435/564/694
s 97
f 416/593/739 441/590/732 440/562/731 435/564/740
s 92
f 442/571/701 441/578/708 416/580/710 418/581/711
f 437/572/702 442/571/701 418/581/711 415/582/712
