# This file uses meters as units for non-parametric coordinates.

mtllib mushroom03_mesh.mtl
g default
v -14.852295 27.612747 -2.182617
v -15.995117 27.520874 -4.533203
v -17.774902 27.202667 -6.423096
v -20.017578 26.689240 -7.666992
v -22.503418 26.030869 -8.143311
v -24.989502 25.291977 -7.805176
v -27.232178 24.544937 -6.685791
v -29.011719 23.862823 -4.895020
v -30.154541 23.312439 -2.607666
v -30.548340 22.947647 -0.047852
v -30.154541 22.804153 2.533691
v -29.011719 22.896011 4.884521
v -27.232178 23.214233 6.774414
v -24.989502 23.727661 8.018311
v -22.503418 24.386032 8.494629
v -20.017578 25.124908 8.156494
v -17.774902 25.871979 7.037109
v -15.995117 26.554077 5.246094
v -14.852295 27.104462 2.958984
v -14.458496 27.469254 0.399170
v -24.037598 36.055481 0.949707
v -24.250000 36.038406 0.512695
v -24.580811 35.979248 0.161377
v -24.997803 35.883820 -0.069824
v -25.459961 35.761429 -0.158447
v -25.921875 35.624100 -0.095459
v -26.338867 35.485245 0.112549
v -26.669678 35.358444 0.445313
v -26.882080 35.256134 0.870605
v -26.955078 35.188339 1.346436
v -26.882080 35.161667 1.826172
v -26.669678 35.178741 2.263184
v -26.338867 35.237885 2.614502
v -25.921875 35.333328 2.845703
v -25.459961 35.455704 2.934326
v -24.997803 35.593033 2.871338
v -24.580811 35.731903 2.663330
v -24.250000 35.858704 2.330322
v -24.037598 35.960999 1.905273
v -23.964600 36.028809 1.429443
v -22.503418 25.208450 0.175537
v -25.459961 35.608566 1.387939
v -13.799561 29.728119 -2.381592
v -15.169189 29.618011 -5.199707
v -17.302734 29.236557 -7.465088
v -19.991211 28.621094 -8.956055
v -22.971191 27.831879 -9.527100
v -25.951172 26.946167 -9.121826
v -28.639648 26.050644 -7.780029
v -30.772949 25.232986 -5.633057
v -32.142822 24.573212 -2.891357
v -32.614746 24.135925 0.177246
v -32.142822 23.963928 3.271729
v -30.772949 24.074036 6.089844
v -28.639648 24.455490 8.355225
v -25.951172 25.070953 9.846436
v -22.971191 25.860168 10.417236
v -19.991211 26.745880 10.011963
v -17.302734 27.641403 8.670166
v -15.169189 28.459061 6.523438
v -13.799561 29.118835 3.781494
v -13.327637 29.556122 0.713135
v -15.544434 33.821426 -1.837646
v -15.100342 33.659500 1.075928
v -15.544434 33.247803 3.964600
v -16.834229 32.626648 6.546143
v -18.842773 31.856842 8.567383
v -21.373779 31.013733 9.830566
v -24.179443 30.179855 10.212158
v -26.985107 29.436829 9.674561
v -29.516113 28.857391 8.270752
v -31.524658 28.498260 6.137939
v -32.814209 28.394577 3.484863
v -33.258545 28.556519 0.571289
v -32.814209 28.968216 -2.317627
v -31.524658 29.589371 -4.898926
v -29.516113 30.359177 -6.920166
v -26.985107 31.202286 -8.183350
v -24.179443 32.036163 -8.564941
v -21.373779 32.779190 -8.027588
v -18.842773 33.358627 -6.623535
v -16.834229 33.717758 -4.490723
v -18.879150 35.935944 -0.757813
v -18.563965 35.821075 1.308838
v -18.879150 35.529053 3.357910
v -19.793701 35.088470 5.188965
v -21.218506 34.542450 6.622559
v -23.013672 33.944427 7.518555
v -25.003906 33.352951 7.789307
v -26.993896 32.825912 7.407959
v -28.789063 32.414932 6.412109
v -30.213867 32.160187 4.899414
v -31.128418 32.086655 3.017578
v -31.443848 32.201523 0.950928
v -31.128418 32.493530 -1.098145
v -30.213867 32.934128 -2.929199
v -28.789063 33.480148 -4.362793
v -26.993896 34.078171 -5.258789
v -25.003906 34.669647 -5.529297
v -23.013672 35.196671 -5.148193
v -21.218506 35.607666 -4.152344
v -19.793701 35.862396 -2.639648
v -23.401855 23.758392 1.814941
v -3.933838 -1.323364 1.814941
v -20.389404 25.003677 1.814941
v -3.205322 3.468277 1.814941
v -20.389404 25.003677 -1.814941
v -3.205322 3.468277 -1.814941
v -23.401855 23.758392 -1.814941
v -3.933838 -1.323364 -1.814941
v -16.497070 4.836700 2.804932
v -16.497070 4.836700 -2.804932
v -13.488037 9.894440 -2.804932
v -13.488037 9.894440 2.804932
v -16.998535 3.993744 0.000000
v -2.281006 -2.713470 0.000000
v -24.733398 26.358414 0.000000
v -22.624756 26.825409 2.450195
v -20.516113 27.292374 0.000000
v -22.624756 26.825409 -2.450195
v -21.733398 15.996185 -2.450195
v -21.733398 15.996185 2.450195
v -17.891846 18.798050 -2.450195
v -17.891846 18.798050 2.450195
v -14.992676 7.365570 3.739990
v -8.851074 -0.697754 2.723145
v -2.007813 0.603256 2.450195
v -7.212158 5.523819 2.723145
v -12.986572 10.737396 0.000000
v -1.734619 3.919983 0.000000
v -7.212158 5.523819 -2.723145
v -14.992676 7.365570 -3.739990
v -2.007813 0.603256 -2.450195
v -8.851074 -0.697754 -2.723145
v -8.031494 2.413025 3.630859
v -6.938965 6.560745 0.000000
v -8.031494 2.413025 -3.630859
v -9.124268 -1.734680 0.000000
v 0.000000 0.000000 0.000000
v -23.562012 29.968170 0.000000
v -22.373535 15.529205 0.000000
v -19.812500 17.397110 -3.266846
v -17.251709 19.265030 0.000000
v -19.812500 17.397110 3.266846
vt 0.648603 0.107966
vt 0.626409 0.064408
vt 0.591842 0.029841
vt 0.548284 0.007647
vt 0.500000 -0.000000
vt 0.451716 0.007647
vt 0.408159 0.029841
vt 0.373591 0.064409
vt 0.351397 0.107966
vt 0.343750 0.156250
vt 0.351397 0.204534
vt 0.373591 0.248091
vt 0.408159 0.282659
vt 0.451716 0.304853
vt 0.500000 0.312500
vt 0.548284 0.304853
vt 0.591841 0.282659
vt 0.626409 0.248091
vt 0.648603 0.204534
vt 0.656250 0.156250
vt 0.375000 0.312500
vt 0.387500 0.312500
vt 0.400000 0.312500
vt 0.412500 0.312500
vt 0.425000 0.312500
vt 0.437500 0.312500
vt 0.450000 0.312500
vt 0.462500 0.312500
vt 0.475000 0.312500
vt 0.487500 0.312500
vt 0.500000 0.312500
vt 0.512500 0.312500
vt 0.525000 0.312500
vt 0.537500 0.312500
vt 0.550000 0.312500
vt 0.562500 0.312500
vt 0.575000 0.312500
vt 0.587500 0.312500
vt 0.600000 0.312500
vt 0.612500 0.312500
vt 0.625000 0.312500
vt 0.375000 0.688440
vt 0.387500 0.688440
vt 0.400000 0.688440
vt 0.412500 0.688440
vt 0.425000 0.688440
vt 0.437500 0.688440
vt 0.450000 0.688440
vt 0.462500 0.688440
vt 0.475000 0.688440
vt 0.487500 0.688440
vt 0.500000 0.688440
vt 0.512500 0.688440
vt 0.525000 0.688440
vt 0.537500 0.688440
vt 0.550000 0.688440
vt 0.562500 0.688440
vt 0.575000 0.688440
vt 0.587500 0.688440
vt 0.600000 0.688440
vt 0.612500 0.688440
vt 0.625000 0.688440
vt 0.648603 0.795466
vt 0.626409 0.751908
vt 0.591842 0.717341
vt 0.548284 0.695147
vt 0.500000 0.687500
vt 0.451716 0.695147
vt 0.408159 0.717341
vt 0.373591 0.751909
vt 0.351397 0.795466
vt 0.343750 0.843750
vt 0.351397 0.892034
vt 0.373591 0.935591
vt 0.408159 0.970159
vt 0.451716 0.992353
vt 0.500000 1.000000
vt 0.548284 0.992353
vt 0.591841 0.970159
vt 0.626409 0.935591
vt 0.648603 0.892034
vt 0.656250 0.843750
vt 0.500000 0.150000
vt 0.500000 0.837500
vt 0.625000 0.341882
vt 0.375000 0.341882
vt 0.387500 0.341882
vt 0.400000 0.341882
vt 0.412500 0.341882
vt 0.425000 0.341882
vt 0.437500 0.341882
vt 0.450000 0.341882
vt 0.462500 0.341882
vt 0.475000 0.341882
vt 0.487500 0.341882
vt 0.500000 0.341882
vt 0.512500 0.341882
vt 0.525000 0.341882
vt 0.537500 0.341882
vt 0.550000 0.341882
vt 0.562500 0.341882
vt 0.575000 0.341882
vt 0.587500 0.341882
vt 0.600000 0.341882
vt 0.612500 0.341882
vt 0.625000 0.395001
vt 0.375000 0.395001
vt 0.612500 0.395001
vt 0.600000 0.395001
vt 0.587500 0.395001
vt 0.575000 0.395001
vt 0.562500 0.395001
vt 0.550000 0.395001
vt 0.537500 0.395001
vt 0.525000 0.395001
vt 0.512500 0.395001
vt 0.500000 0.395001
vt 0.487500 0.395001
vt 0.475000 0.395001
vt 0.462500 0.395001
vt 0.450000 0.395001
vt 0.437500 0.395001
vt 0.425000 0.395001
vt 0.412500 0.395001
vt 0.400000 0.395001
vt 0.387500 0.395001
vt 0.625000 0.534639
vt 0.375000 0.534639
vt 0.612500 0.534639
vt 0.600000 0.534639
vt 0.587500 0.534639
vt 0.575000 0.534639
vt 0.562500 0.534639
vt 0.550000 0.534639
vt 0.537500 0.534639
vt 0.525000 0.534639
vt 0.512500 0.534639
vt 0.500000 0.534639
vt 0.487500 0.534639
vt 0.475000 0.534639
vt 0.462500 0.534639
vt 0.450000 0.534639
vt 0.437500 0.534639
vt 0.425000 0.534639
vt 0.412500 0.534639
vt 0.400000 0.534639
vt 0.387500 0.534639
vt 0.502756 0.250000
vt 0.502756 0.125000
vt 0.564337 0.125000
vt 0.564337 0.250000
vt 0.503675 0.000000
vt 0.564337 0.000000
vt 0.625000 0.000000
vt 0.641084 0.125000
vt 0.625000 0.250000
vt 0.502756 0.500000
vt 0.502756 0.375000
vt 0.564337 0.375000
vt 0.564337 0.500000
vt 0.625000 0.375000
vt 0.625000 0.500000
vt 0.502756 0.750000
vt 0.502756 0.625000
vt 0.564337 0.625000
vt 0.564337 0.750000
vt 0.625000 0.625000
vt 0.625000 0.750000
vt 0.503675 1.000000
vt 0.502756 0.875000
vt 0.564337 0.875000
vt 0.564337 1.000000
vt 0.625000 0.875000
vt 0.625000 1.000000
vt 0.750000 0.000000
vt 0.750000 0.125000
vt 0.875000 0.000000
vt 0.875000 0.125000
vt 0.875000 0.250000
vt 0.750000 0.250000
vt 0.125000 0.000000
vt 0.250000 0.000000
vt 0.250000 0.125000
vt 0.125000 0.125000
vt 0.375000 0.000000
vt 0.359834 0.125000
vt 0.375000 0.250000
vt 0.250000 0.250000
vt 0.125000 0.250000
vt 0.375000 0.750000
vt 0.439337 0.750000
vt 0.439337 0.875000
vt 0.375000 0.875000
vt 0.439337 1.000000
vt 0.375000 1.000000
vt 0.375000 0.500000
vt 0.439337 0.500000
vt 0.439337 0.625000
vt 0.375000 0.625000
vt 0.439337 0.250000
vt 0.439337 0.375000
vt 0.375000 0.375000
vt 0.439337 0.000000
vt 0.439337 0.125000
vn 0.945592 0.145373 -0.291073
vn 0.810321 0.136946 -0.569760
vn 0.624399 0.608406 -0.489866
vn 0.751152 0.619431 -0.228201
vn 0.599250 0.101145 -0.794146
vn 0.426672 0.572343 -0.700267
vn 0.333066 0.041461 -0.941992
vn 0.177312 0.514788 -0.838781
vn 0.037940 -0.036253 -0.998622
vn -0.099264 0.441391 -0.891807
vn -0.256968 -0.124349 -0.958387
vn -0.375920 0.359324 -0.854149
vn -0.522535 -0.214102 -0.825299
vn -0.625543 0.276637 -0.729499
vn -0.732586 -0.296673 -0.612620
vn -0.823662 0.201452 -0.530092
vn -0.866595 -0.363911 -0.341440
vn -0.950883 0.141124 -0.275508
vn -0.911597 -0.409277 -0.038523
vn -0.994786 0.101561 0.009303
vn -0.863432 -0.428402 0.266378
vn -0.951116 0.086605 0.296443
vn -0.727080 -0.419487 0.543493
vn -0.824196 0.097725 0.557809
vn -0.516031 -0.383444 0.765952
vn -0.626457 0.133822 0.767882
vn -0.250942 -0.323876 0.912213
vn -0.377297 0.191339 0.906111
vn 0.042393 -0.246581 0.968195
vn -0.101028 0.264666 0.959034
vn 0.335523 -0.159071 0.928505
vn 0.175327 0.346630 0.921471
vn 0.599978 -0.069841 0.796962
vn 0.424740 0.429222 0.797097
vn 0.810058 0.012498 0.586217
vn 0.622863 0.504392 0.598022
vn 0.945184 0.079876 0.316617
vn 0.750293 0.564742 0.343695
vn 0.991967 0.125678 0.014362
vn 0.794493 0.604398 0.059017
vn 0.271765 -0.957694 -0.094690
vn 0.271763 -0.957695 -0.094687
vn 0.271768 -0.957694 -0.094679
vn 0.271768 -0.957694 -0.094685
vn 0.271776 -0.957692 -0.094682
vn 0.271773 -0.957693 -0.094680
vn 0.271757 -0.957697 -0.094679
vn 0.271772 -0.957692 -0.094690
vn 0.271775 -0.957692 -0.094683
vn 0.271762 -0.957697 -0.094667
vn 0.271763 -0.957696 -0.094680
vn 0.271762 -0.957695 -0.094690
vn 0.271773 -0.957693 -0.094675
vn 0.271773 -0.957694 -0.094667
vn 0.271761 -0.957697 -0.094676
vn 0.271770 -0.957694 -0.094677
vn 0.271775 -0.957693 -0.094675
vn 0.271767 -0.957695 -0.094672
vn 0.271766 -0.957696 -0.094670
vn 0.271766 -0.957696 -0.094671
vn 0.271766 -0.957695 -0.094675
vn -0.271760 0.957701 0.094633
vn -0.271758 0.957700 0.094645
vn -0.271763 0.957696 0.094678
vn -0.271723 0.957708 0.094667
vn -0.271727 0.957705 0.094687
vn -0.271795 0.957688 0.094668
vn -0.271760 0.957699 0.094651
vn -0.271757 0.957698 0.094670
vn -0.271791 0.957687 0.094683
vn -0.271786 0.957686 0.094704
vn -0.271801 0.957685 0.094679
vn -0.271790 0.957692 0.094636
vn -0.271776 0.957692 0.094678
vn -0.271748 0.957697 0.094707
vn -0.271801 0.957683 0.094696
vn -0.271780 0.957692 0.094668
vn -0.271697 0.957715 0.094674
vn -0.271733 0.957703 0.094691
vn -0.271746 0.957699 0.094697
vn -0.271754 0.957693 0.094734
vn -0.271769 0.957693 0.094690
vn 0.850816 -0.449108 -0.272789
vn 0.753991 -0.449217 -0.479271
vn 0.599307 -0.470811 -0.647432
vn 0.401955 -0.512036 -0.759112
vn 0.182176 -0.568885 -0.801986
vn -0.036977 -0.635408 -0.771291
vn -0.232434 -0.704529 -0.670532
vn -0.384147 -0.769029 -0.510907
vn -0.477293 -0.822364 -0.309693
vn -0.503742 -0.859362 -0.087988
vn -0.462450 -0.876773 0.131944
vn -0.359039 -0.873406 0.329017
vn -0.204539 -0.850062 0.485344
vn -0.014054 -0.809268 0.587272
vn 0.194765 -0.754941 0.626204
vn 0.403015 -0.692056 0.598863
vn 0.591818 -0.626285 0.507463
vn 0.743690 -0.563537 0.359655
vn 0.843760 -0.509675 0.168229
vn 0.881222 -0.470103 -0.049507
vn 0.333885 0.937895 -0.094202
vn 0.363960 0.926898 0.091610
vn 0.337204 0.899835 0.276751
vn 0.255861 0.859243 0.442985
vn 0.127597 0.809092 0.573663
vn -0.034955 0.754312 0.655585
vn -0.215728 0.700366 0.680403
vn -0.396610 0.652671 0.645539
vn -0.559431 0.616020 0.554578
vn -0.688131 0.593965 0.416752
vn -0.770038 0.588668 0.245992
vn -0.797409 0.600515 0.059341
vn -0.767926 0.628261 -0.124813
vn -0.684894 0.669050 -0.288606
vn -0.556627 0.718901 -0.416350
vn -0.395732 0.772944 -0.495937
vn -0.217693 0.826026 -0.519895
vn -0.039542 0.873046 -0.486032
vn 0.121627 0.909508 -0.397494
vn 0.250311 0.931860 -0.262643
vn 0.024298 0.999699 0.003422
vn 0.040453 0.994282 0.098827
vn 0.027375 0.980550 0.194349
vn -0.014059 0.959746 0.280517
vn -0.080048 0.933872 0.348534
vn -0.164105 0.905512 0.391302
vn -0.257838 0.877540 0.404281
vn -0.351638 0.852810 0.386091
vn -0.435825 0.833884 0.338665
vn -0.502045 0.822609 0.266956
vn -0.543755 0.820047 0.178473
vn -0.557119 0.826352 0.082222
vn -0.541276 0.840755 -0.012282
vn -0.498116 0.861784 -0.095964
vn -0.432099 0.887342 -0.160981
vn -0.349751 0.914952 -0.201337
vn -0.258808 0.942046 -0.213467
vn -0.167815 0.966080 -0.196285
vn -0.085320 0.984794 -0.151335
vn -0.019125 0.996394 -0.082666
vn 0.491960 0.418625 0.763367
vn -0.079731 -0.020592 0.996604
vn 0.051356 -0.062135 0.996746
vn 0.369491 0.513295 0.774600
vn -0.592799 -0.456620 0.663390
vn -0.277385 -0.639038 0.717417
vn 0.103374 -0.654139 0.749277
vn 0.458454 -0.074643 0.885578
vn 0.464103 0.497122 0.733129
vn 0.491959 0.418625 -0.763367
vn 0.781675 0.623686 -0.000000
vn 0.545562 0.838071 0.000000
vn 0.369491 0.513295 -0.774600
vn 0.729458 0.684026 0.000000
vn 0.464103 0.497122 -0.733129
vn -0.592799 -0.456620 -0.663390
vn -0.079731 -0.020592 -0.996604
vn 0.051356 -0.062135 -0.996746
vn -0.277385 -0.639038 -0.717417
vn 0.458454 -0.074643 -0.885578
vn 0.103374 -0.654139 -0.749277
vn -0.778025 -0.628233 0.000000
vn -0.431132 -0.902289 0.000000
vn 0.306148 -0.951984 0.000000
vn 0.985429 -0.170088 0.000000
vn -0.754885 -0.097912 -0.648508
vn -0.998911 0.046648 -0.000000
vn -0.327444 0.944871 -0.000000
vn -0.122895 0.350610 -0.928423
vn -0.754885 -0.097912 0.648508
vn -0.122896 0.350610 0.928423
vn 0.645687 0.344779 0.681333
vn 0.803364 0.595488 -0.000000
vn 0.645687 0.344779 -0.681333
vn -0.717237 -0.239581 -0.654349
vn -0.938496 -0.345291 -0.000000
vn -0.717237 -0.239581 0.654349
vn 0.644536 0.329743 -0.689813
vn -0.064223 0.045477 -0.996899
vn 0.644536 0.329743 0.689814
vn 0.904827 0.425779 -0.000000
vn -0.064223 0.045477 0.996899
s 1
g mushroom03
usemtl initialShadingGroup
f 43/86/1 44/87/2 82/126/3 63/107/4
f 44/87/2 45/88/5 81/125/6 82/126/3
f 45/88/5 46/89/7 80/124/8 81/125/6
f 46/89/7 47/90/9 79/123/10 80/124/8
f 47/90/9 48/91/11 78/122/12 79/123/10
f 48/91/11 49/92/13 77/121/14 78/122/12
f 49/92/13 50/93/15 76/120/16 77/121/14
f 50/93/15 51/94/17 75/119/18 76/120/16
f 51/94/17 52/95/19 74/118/20 75/119/18
f 52/95/19 53/96/21 73/117/22 74/118/20
f 53/96/21 54/97/23 72/116/24 73/117/22
f 54/97/23 55/98/25 71/115/26 72/116/24
f 55/98/25 56/99/27 70/114/28 71/115/26
f 56/99/27 57/100/29 69/113/30 70/114/28
f 57/100/29 58/101/31 68/112/32 69/113/30
f 58/101/31 59/102/33 67/111/34 68/112/32
f 59/102/33 60/103/35 66/110/36 67/111/34
f 60/103/35 61/104/37 65/109/38 66/110/36
f 61/104/37 62/105/39 64/108/40 65/109/38
f 62/105/39 43/85/1 63/106/4 64/108/40
s 2
f 2/2/41 1/1/42 41/83/43
f 3/3/44 2/2/41 41/83/43
f 4/4/45 3/3/44 41/83/43
f 5/5/46 4/4/45 41/83/43
f 6/6/47 5/5/46 41/83/43
f 7/7/48 6/6/47 41/83/43
f 8/8/49 7/7/48 41/83/43
f 9/9/50 8/8/49 41/83/43
f 10/10/51 9/9/50 41/83/43
f 11/11/52 10/10/51 41/83/43
f 12/12/53 11/11/52 41/83/43
f 13/13/54 12/12/53 41/83/43
f 14/14/55 13/13/54 41/83/43
f 15/15/56 14/14/55 41/83/43
f 16/16/57 15/15/56 41/83/43
f 17/17/58 16/16/57 41/83/43
f 18/18/59 17/17/58 41/83/43
f 19/19/60 18/18/59 41/83/43
f 20/20/61 19/19/60 41/83/43
f 1/1/42 20/20/61 41/83/43
s 3
f 21/81/62 22/80/63 42/84/64
f 22/80/63 23/79/65 42/84/64
f 23/79/65 24/78/66 42/84/64
f 24/78/66 25/77/67 42/84/64
f 25/77/67 26/76/68 42/84/64
f 26/76/68 27/75/69 42/84/64
f 27/75/69 28/74/70 42/84/64
f 28/74/70 29/73/71 42/84/64
f 29/73/71 30/72/72 42/84/64
f 30/72/72 31/71/73 42/84/64
f 31/71/73 32/70/74 42/84/64
f 32/70/74 33/69/75 42/84/64
f 33/69/75 34/68/76 42/84/64
f 34/68/76 35/67/77 42/84/64
f 35/67/77 36/66/78 42/84/64
f 36/66/78 37/65/79 42/84/64
f 37/65/79 38/64/80 42/84/64
f 38/64/80 39/63/81 42/84/64
f 39/63/81 40/82/82 42/84/64
f 40/82/82 21/81/62 42/84/64
s 1
f 1/21/83 2/22/84 44/87/2 43/86/1
f 2/22/84 3/23/85 45/88/5 44/87/2
f 3/23/85 4/24/86 46/89/7 45/88/5
f 4/24/86 5/25/87 47/90/9 46/89/7
f 5/25/87 6/26/88 48/91/11 47/90/9
f 6/26/88 7/27/89 49/92/13 48/91/11
f 7/27/89 8/28/90 50/93/15 49/92/13
f 8/28/90 9/29/91 51/94/17 50/93/15
f 9/29/91 10/30/92 52/95/19 51/94/17
f 10/30/92 11/31/93 53/96/21 52/95/19
f 11/31/93 12/32/94 54/97/23 53/96/21
f 12/32/94 13/33/95 55/98/25 54/97/23
f 13/33/95 14/34/96 56/99/27 55/98/25
f 14/34/96 15/35/97 57/100/29 56/99/27
f 15/35/97 16/36/98 58/101/31 57/100/29
f 16/36/98 17/37/99 59/102/33 58/101/31
f 17/37/99 18/38/100 60/103/35 59/102/33
f 18/38/100 19/39/101 61/104/37 60/103/35
f 19/39/101 20/40/102 62/105/39 61/104/37
f 20/40/102 1/41/83 43/85/1 62/105/39
f 64/108/40 63/106/4 83/127/103 84/129/104
f 65/109/38 64/108/40 84/129/104 85/130/105
f 66/110/36 65/109/38 85/130/105 86/131/106
f 67/111/34 66/110/36 86/131/106 87/132/107
f 68/112/32 67/111/34 87/132/107 88/133/108
f 69/113/30 68/112/32 88/133/108 89/134/109
f 70/114/28 69/113/30 89/134/109 90/135/110
f 71/115/26 70/114/28 90/135/110 91/136/111
f 72/116/24 71/115/26 91/136/111 92/137/112
f 73/117/22 72/116/24 92/137/112 93/138/113
f 74/118/20 73/117/22 93/138/113 94/139/114
f 75/119/18 74/118/20 94/139/114 95/140/115
f 76/120/16 75/119/18 95/140/115 96/141/116
f 77/121/14 76/120/16 96/141/116 97/142/117
f 78/122/12 77/121/14 97/142/117 98/143/118
f 79/123/10 78/122/12 98/143/118 99/144/119
f 80/124/8 79/123/10 99/144/119 100/145/120
f 81/125/6 80/124/8 100/145/120 101/146/121
f 82/126/3 81/125/6 101/146/121 102/147/122
f 63/107/4 82/126/3 102/147/122 83/128/103
f 84/129/104 83/127/103 21/62/123 40/61/124
f 85/130/105 84/129/104 40/61/124 39/60/125
f 86/131/106 85/130/105 39/60/125 38/59/126
f 87/132/107 86/131/106 38/59/126 37/58/127
f 88/133/108 87/132/107 37/58/127 36/57/128
f 89/134/109 88/133/108 36/57/128 35/56/129
f 90/135/110 89/134/109 35/56/129 34/55/130
f 91/136/111 90/135/110 34/55/130 33/54/131
f 92/137/112 91/136/111 33/54/131 32/53/132
f 93/138/113 92/137/112 32/53/132 31/52/133
f 94/139/114 93/138/113 31/52/133 30/51/134
f 95/140/115 94/139/114 30/51/134 29/50/135
f 96/141/116 95/140/115 29/50/135 28/49/136
f 97/142/117 96/141/116 28/49/136 27/48/137
f 98/143/118 97/142/117 27/48/137 26/47/138
f 99/144/119 98/143/118 26/47/138 25/46/139
f 100/145/120 99/144/119 25/46/139 24/45/140
f 101/146/121 100/145/120 24/45/140 23/44/141
f 102/147/122 101/146/121 23/44/141 22/43/142
f 83/128/103 102/147/122 22/43/142 21/42/123
s 4
f 114/148/143 125/149/144 135/150/145 128/151/146
f 125/149/144 111/152/147 126/153/148 135/150/145
f 135/150/145 126/153/148 104/154/149 127/155/150
f 128/151/146 135/150/145 127/155/150 106/156/151
f 113/157/152 129/158/153 136/159/154 131/160/155
f 129/158/153 114/148/143 128/151/146 136/159/154
f 136/159/154 128/151/146 106/156/151 130/161/156
f 131/160/155 136/159/154 130/161/156 108/162/157
f 112/163/158 132/164/159 137/165/160 134/166/161
f 132/164/159 113/157/152 131/160/155 137/165/160
f 137/165/160 131/160/155 108/162/157 133/167/162
f 134/166/161 137/165/160 133/167/162 110/168/163
f 111/169/147 115/170/164 138/171/165 126/172/148
f 115/170/164 112/163/158 134/166/161 138/171/165
f 138/171/165 134/166/161 110/168/163 116/173/166
f 126/172/148 138/171/165 116/173/166 104/174/149
f 104/154/149 116/175/166 139/176/167 127/155/150
f 116/175/166 110/177/163 133/178/162 139/176/167
f 139/176/167 133/178/162 108/179/157 130/180/156
f 127/155/150 139/176/167 130/180/156 106/156/151
f 109/181/168 117/182/169 140/183/170 120/184/171
f 117/182/169 103/185/172 118/186/173 140/183/170
f 140/183/170 118/186/173 105/187/174 119/188/175
f 120/184/171 140/183/170 119/188/175 107/189/176
f 109/190/168 121/191/177 141/192/178 117/193/169
f 121/191/177 112/163/158 115/170/164 141/192/178
f 141/192/178 115/170/164 111/169/147 122/194/179
f 117/193/169 141/192/178 122/194/179 103/195/172
f 107/196/176 123/197/180 142/198/181 120/199/171
f 123/197/180 113/157/152 132/164/159 142/198/181
f 142/198/181 132/164/159 112/163/158 121/191/177
f 120/199/171 142/198/181 121/191/177 109/190/168
f 105/187/174 124/200/182 143/201/183 119/202/175
f 124/200/182 114/148/143 129/158/153 143/201/183
f 143/201/183 129/158/153 113/157/152 123/197/180
f 119/202/175 143/201/183 123/197/180 107/196/176
f 103/185/172 122/203/179 144/204/184 118/186/173
f 122/203/179 111/152/147 125/149/144 144/204/184
f 144/204/184 125/149/144 114/148/143 124/200/182
f 118/186/173 144/204/184 124/200/182 105/187/174
