# This file uses meters as units for non-parametric coordinates.

mtllib vase_curved_mesh.mtl
g default
v 4.794678 19.513550 -1.557861
v 4.078613 19.513550 -2.963379
v 2.963135 19.513550 -4.078857
v 1.557861 19.513550 -4.794922
v -0.000244 19.513550 -5.041504
v -1.558105 19.513550 -4.794922
v -2.963623 19.513550 -4.078857
v -4.078857 19.513550 -2.963379
v -4.794922 19.513550 -1.557861
v -5.041748 19.513550 0.000000
v -4.794922 19.513550 1.558105
v -4.078857 19.513550 2.963379
v -2.963623 19.513550 4.078857
v -1.558105 19.513550 4.794922
v -0.000244 19.513550 5.041504
v 1.557861 19.513550 4.794922
v 2.963135 19.513550 4.078857
v 4.078613 19.513550 2.963379
v 4.794678 19.513550 1.558105
v 5.041504 19.513550 0.000000
v 4.794678 20.037243 -1.557861
v 4.078613 20.037243 -2.963379
v 2.963135 20.037243 -4.078857
v 1.557861 20.037243 -4.794922
v -0.000244 20.037243 -5.041504
v -1.558105 20.037243 -4.794922
v -2.963623 20.037243 -4.078857
v -4.078857 20.037243 -2.963379
v -4.794922 20.037243 -1.557861
v -5.041748 20.037243 0.000000
v -4.794922 20.037243 1.558105
v -4.078857 20.037243 2.963379
v -2.963623 20.037243 4.078857
v -1.558105 20.037243 4.794922
v -0.000244 20.037243 5.041504
v 1.557861 20.037243 4.794922
v 2.963135 20.037243 4.078857
v 4.078613 20.037243 2.963379
v 4.794678 20.037243 1.558105
v 5.041504 20.037243 0.000000
v -0.000244 19.513550 0.000000
v 3.912842 20.770241 -1.271240
v 3.328369 20.770241 -2.418213
v 2.417969 20.770241 -3.328369
v 1.271240 20.770241 -3.912842
v -0.000244 20.770241 -4.114258
v -1.271729 20.770241 -3.912842
v -2.418457 20.770241 -3.328369
v -3.328613 20.770241 -2.418213
v -3.913086 20.770241 -1.271240
v -4.114502 20.770241 0.000000
v -3.913086 20.770241 1.271484
v -3.328613 20.770241 2.418213
v -2.418457 20.770241 3.328613
v -1.271729 20.770241 3.912842
v -0.000244 20.770241 4.114258
v 1.271240 20.770241 3.912842
v 2.417969 20.770241 3.328613
v 3.328369 20.770241 2.418213
v 3.912842 20.770241 1.271484
v 4.114014 20.770241 0.000000
v 0.891113 21.336777 -0.289551
v 0.758057 21.336777 -0.550781
v 0.550537 21.336777 -0.758301
v 0.289307 21.336777 -0.891357
v -0.000244 21.336777 -0.937256
v -0.289795 21.336777 -0.891357
v -0.551270 21.336777 -0.758301
v -0.758545 21.336777 -0.550781
v -0.891602 21.336777 -0.289551
v -0.937500 21.336777 0.000000
v -0.891602 21.336777 0.289795
v -0.758545 21.336777 0.551025
v -0.551270 21.336777 0.758301
v -0.289795 21.336777 0.891357
v -0.000244 21.336777 0.937256
v 0.289307 21.336777 0.891357
v 0.550537 21.336777 0.758301
v 0.758057 21.336777 0.551025
v 0.891113 21.336777 0.289795
v 0.937012 21.336777 0.000000
v 1.228027 21.808460 -0.398926
v 1.044678 21.808460 -0.759033
v 0.758789 21.808460 -1.044678
v 0.398926 21.808460 -1.228271
v -0.000244 21.808460 -1.291260
v -0.399414 21.808460 -1.228271
v -0.759277 21.808460 -1.044678
v -1.045166 21.808460 -0.759033
v -1.228516 21.808460 -0.399170
v -1.291748 21.808460 0.000000
v -1.228516 21.808460 0.399170
v -1.044922 21.808460 0.759033
v -0.759277 21.808460 1.044922
v -0.399414 21.808460 1.228271
v -0.000244 21.808460 1.291504
v 0.398926 21.808460 1.228271
v 0.758789 21.808460 1.044922
v 1.044678 21.808460 0.759033
v 1.228027 21.808460 0.399170
v 1.291260 21.808460 0.000000
v 0.399902 22.887848 -0.129883
v 0.340088 22.887848 -0.247070
v -0.000244 22.887852 0.000000
v 0.247070 22.887848 -0.340088
v 0.129639 22.887848 -0.399902
v -0.000244 22.887848 -0.420654
v -0.130127 22.887848 -0.399902
v -0.247559 22.887848 -0.340088
v -0.340576 22.887848 -0.247070
v -0.400391 22.887848 -0.129883
v -0.420898 22.887848 0.000000
v -0.400391 22.887848 0.130127
v -0.340576 22.887848 0.247314
v -0.247559 22.887848 0.340332
v -0.130127 22.887848 0.400146
v -0.000244 22.887848 0.420654
v 0.129639 22.887848 0.400146
v 0.247070 22.887848 0.340332
v 0.340088 22.887848 0.247314
v 0.399902 22.887848 0.130127
v 0.420410 22.887848 0.000000
v 7.488281 0.000000 -2.433105
v 6.369873 0.000000 -4.628174
v 4.627930 0.000000 -6.370117
v 2.433105 0.000000 -7.488525
v -0.000244 0.000000 -7.873779
v -2.433350 0.000000 -7.488525
v -4.628174 0.000000 -6.370117
v -6.370117 0.000000 -4.628174
v -7.488525 0.000000 -2.433105
v -7.874023 0.000000 0.000000
v -7.488525 0.000000 2.433105
v -6.370117 0.000000 4.628174
v -4.628174 0.000000 6.370117
v -2.433350 0.000000 7.488525
v -0.000244 0.000000 7.873779
v 2.433105 0.000000 7.488525
v 4.627930 0.000000 6.370117
v 6.369873 0.000000 4.628174
v 7.488281 0.000000 2.433105
v 7.873779 0.000000 0.000000
v 7.066162 0.979274 -2.433105
v 6.010986 0.979274 -4.628174
v 4.367188 0.979274 -6.370117
v 2.295898 0.979274 -7.488525
v -0.000244 0.979274 -7.873779
v -2.296143 0.979274 -7.488525
v -4.367432 0.979274 -6.370117
v -6.011230 0.979274 -4.628174
v -7.066650 0.979274 -2.433105
v -7.430176 0.979274 0.000000
v -7.066650 0.979274 2.433105
v -6.011230 0.979274 4.628174
v -4.367432 0.979274 6.370117
v -2.296143 0.979274 7.488525
v -0.000244 0.979274 7.873779
v 2.295898 0.979274 7.488525
v 4.367188 0.979274 6.370117
v 6.010986 0.979274 4.628174
v 7.066162 0.979274 2.433105
v 7.429932 0.979274 0.000000
v -0.000244 0.000000 0.000000
v 5.445801 1.718738 -1.876221
v 4.626953 1.718738 -3.564697
v 3.356934 1.718738 -4.899414
v 1.762695 1.718738 -5.752930
v 0.000000 1.718738 -6.046143
v -1.762939 1.718738 -5.752686
v -3.357178 1.718738 -4.899170
v -4.627197 1.718738 -3.564697
v -5.446045 1.718738 -1.876221
v -5.729004 1.718738 0.000000
v -5.446045 1.718738 1.876221
v -4.627197 1.718738 3.564697
v -3.357178 1.718738 4.899170
v -1.762939 1.718738 5.752686
v 0.000000 1.718738 6.046143
v 1.762695 1.718738 5.752686
v 3.356934 1.718738 4.899170
v 4.627197 1.718738 3.564697
v 5.445801 1.718738 1.876221
v 5.728760 1.718738 0.000000
v 9.000488 4.625441 -3.099609
v 7.658447 4.625441 -5.897217
v 5.565918 4.625441 -8.119629
v 2.927002 4.625441 -9.547607
v 0.000000 4.625425 -10.039795
v -2.927002 4.625441 -9.547607
v -5.566406 4.625441 -8.119385
v -7.658691 4.625441 -5.897217
v -9.000732 4.625441 -3.099365
v -9.462646 4.625441 0.000000
v -9.000732 4.625441 3.099365
v -7.658691 4.625441 5.897217
v -5.566162 4.625441 8.119385
v -2.927490 4.625441 9.547363
v 0.000000 4.625425 10.039795
v 2.927002 4.625425 9.547607
v 5.565918 4.625441 8.119385
v 7.658691 4.625441 5.897217
v 9.000488 4.625441 3.099365
v 9.462646 4.625441 0.000000
v 10.027588 7.212496 -3.453369
v 8.532227 7.212496 -6.570068
v 6.200928 7.212496 -9.045898
v 3.260986 7.212496 -10.636963
v 0.000000 7.212496 -11.185303
v -3.260986 7.212496 -10.636963
v -6.201416 7.212496 -9.045898
v -8.532471 7.212496 -6.570068
v -10.027588 7.212496 -3.453125
v -10.542480 7.212496 0.000000
v -10.027832 7.212496 3.453125
v -8.532471 7.212496 6.570068
v -6.201172 7.212496 9.045654
v -3.261230 7.212496 10.636719
v 0.000000 7.212496 11.185303
v 3.260986 7.212496 10.636963
v 6.200928 7.212496 9.045898
v 8.532471 7.212496 6.570068
v 10.027344 7.212496 3.453125
v 10.542236 7.212496 0.000000
v 4.087891 16.472263 -1.411377
v 3.461426 16.472263 -2.672119
v 2.500732 16.472263 -3.656982
v 1.308594 16.472263 -4.279541
v -0.000244 16.472263 -4.492188
v -1.309082 16.472263 -4.279541
v -2.500977 16.472263 -3.656982
v -3.461670 16.472263 -2.672119
v -4.088135 16.472263 -1.411377
v -4.306152 16.472263 0.000000
v -4.088135 16.472263 1.411377
v -3.461670 16.472263 2.671875
v -2.500977 16.472263 3.656982
v -1.309082 16.472263 4.279785
v -0.000244 16.472263 4.492188
v 1.308594 16.472260 4.279785
v 2.500732 16.472263 3.656982
v 3.461426 16.472263 2.672119
v 4.087891 16.472263 1.411133
v 4.305908 16.472263 0.000000
v 5.847656 18.684322 -2.019775
v 4.956543 18.684319 -3.827637
v 3.585449 18.684319 -5.244629
v 1.877930 18.684319 -6.143555
v -0.000244 18.684319 -6.450928
v -1.878662 18.684322 -6.143555
v -3.585449 18.684322 -5.244873
v -4.956787 18.684322 -3.827637
v -5.847900 18.684322 -2.019775
v -6.157471 18.684315 0.000000
v -5.847900 18.684319 2.019775
v -4.956787 18.684319 3.827393
v -3.585693 18.684322 5.244629
v -1.878418 18.684322 6.143555
v -0.000244 18.684319 6.450928
v 1.877930 18.684315 6.143799
v 3.585205 18.684319 5.244873
v 4.956299 18.684315 3.827637
v 5.847656 18.684322 2.019531
v 6.156982 18.684322 0.000000
v 5.847656 19.482922 -2.019775
v 4.956543 19.482918 -3.827637
v -0.000244 19.513550 0.000000
v 3.585449 19.482918 -5.244629
v 1.877930 19.482918 -6.143555
v -0.000244 19.482918 -6.450928
v -1.878662 19.482922 -6.143555
v -3.585449 19.482922 -5.244873
v -4.956787 19.482922 -3.827637
v -5.847900 19.482922 -2.019775
v -6.157471 19.482914 0.000000
v -5.847900 19.482918 2.019775
v -4.956787 19.482918 3.827393
v -3.585693 19.482922 5.244629
v -1.878418 19.482922 6.143555
v -0.000244 19.482918 6.450928
v 1.877930 19.482914 6.143799
v 3.585205 19.482918 5.244873
v 4.956299 19.482918 3.827637
v 5.847656 19.482922 2.019531
v 6.156982 19.482922 0.000000
v 9.322510 9.759083 -3.212891
v 7.920410 9.759083 -6.103760
v 5.746094 9.759083 -8.388672
v 3.017334 9.759083 -9.849854
v -0.000244 9.759083 -10.351807
v -3.017578 9.759083 -9.849609
v -5.746582 9.759083 -8.388428
v -7.920898 9.759083 -6.103760
v -9.322510 9.759083 -3.212891
v -9.806885 9.759083 0.000000
v -9.322754 9.759083 3.212891
v -7.920898 9.759083 6.103760
v -5.746582 9.759083 8.388428
v -3.017578 9.759083 9.849609
v -0.000244 9.759083 10.351807
v 3.017334 9.759083 9.849609
v 5.746094 9.759083 8.388672
v 7.920654 9.759083 6.103760
v 9.322266 9.759083 3.212646
v 9.806641 9.759083 0.000000
v 6.872803 2.405721 -2.367188
v 5.845215 2.405721 -4.501709
v 4.245605 2.405721 -6.194580
v 2.231445 2.405721 -7.280518
v 0.000000 2.405721 -7.654541
v -2.231689 2.405721 -7.280273
v -4.245850 2.405721 -6.194336
v -5.845459 2.405721 -4.501709
v -6.873047 2.405721 -2.367188
v -7.227295 2.405721 0.000000
v -6.873047 2.405721 2.367188
v -5.845459 2.405721 4.501709
v -4.245850 2.405721 6.194336
v -2.231689 2.405721 7.280273
v 0.000000 2.405721 7.654541
v 2.231689 2.405721 7.280273
v 4.245605 2.405721 6.194336
v 5.845215 2.405721 4.501709
v 6.872803 2.405721 2.367188
v 7.227051 2.405721 0.000000
v 4.464111 17.622066 -1.541748
v 3.782227 17.622066 -2.920410
v 2.734375 17.622066 -3.999512
v 1.431885 17.622066 -4.683350
v -0.000244 17.622066 -4.916748
v -1.432373 17.622066 -4.683105
v -2.734619 17.622066 -3.999512
v -3.782471 17.622066 -2.920410
v -4.464111 17.622066 -1.541504
v -4.701172 17.622063 0.000000
v -4.464355 17.622066 1.541504
v -3.782471 17.622066 2.920166
v -2.734863 17.622066 3.999512
v -1.432129 17.622066 4.683350
v -0.000244 17.622066 4.916748
v 1.431885 17.622063 4.683350
v 2.734619 17.622066 3.999756
v 3.781982 17.622063 2.920410
v 4.464111 17.622066 1.541504
v 4.700928 17.622066 0.000000
vt 0.648603 0.107966
vt 0.626409 0.064408
vt 0.591842 0.029841
vt 0.548284 0.007647
vt 0.500000 -0.000000
vt 0.451716 0.007647
vt 0.408159 0.029841
vt 0.373591 0.064409
vt 0.351397 0.107966
vt 0.343750 0.156250
vt 0.351397 0.204534
vt 0.373591 0.248091
vt 0.408159 0.282659
vt 0.451716 0.304853
vt 0.500000 0.312500
vt 0.548284 0.304853
vt 0.591841 0.282659
vt 0.626409 0.248091
vt 0.648603 0.204534
vt 0.656250 0.156250
vt 0.375000 0.312500
vt 0.387500 0.312500
vt 0.400000 0.312500
vt 0.412500 0.312500
vt 0.425000 0.312500
vt 0.437500 0.312500
vt 0.450000 0.312500
vt 0.462500 0.312500
vt 0.475000 0.312500
vt 0.487500 0.312500
vt 0.500000 0.312500
vt 0.512500 0.312500
vt 0.525000 0.312500
vt 0.537500 0.312500
vt 0.550000 0.312500
vt 0.562500 0.312500
vt 0.575000 0.312500
vt 0.587500 0.312500
vt 0.600000 0.312500
vt 0.612500 0.312500
vt 0.625000 0.312500
vt 0.375000 0.688440
vt 0.387500 0.688440
vt 0.400000 0.688440
vt 0.412500 0.688440
vt 0.425000 0.688440
vt 0.437500 0.688440
vt 0.450000 0.688440
vt 0.462500 0.688440
vt 0.475000 0.688440
vt 0.487500 0.688440
vt 0.500000 0.688440
vt 0.512500 0.688440
vt 0.525000 0.688440
vt 0.537500 0.688440
vt 0.550000 0.688440
vt 0.562500 0.688440
vt 0.575000 0.688440
vt 0.587500 0.688440
vt 0.600000 0.688440
vt 0.612500 0.688440
vt 0.625000 0.688440
vt 0.648603 0.795466
vt 0.626409 0.751908
vt 0.591842 0.717341
vt 0.548284 0.695147
vt 0.500000 0.687500
vt 0.451716 0.695147
vt 0.408159 0.717341
vt 0.373591 0.751909
vt 0.351397 0.795466
vt 0.343750 0.843750
vt 0.351397 0.892034
vt 0.373591 0.935591
vt 0.408159 0.970159
vt 0.451716 0.992353
vt 0.500000 1.000000
vt 0.548284 0.992353
vt 0.591841 0.970159
vt 0.626409 0.935591
vt 0.648603 0.892034
vt 0.656250 0.843750
vt 0.500000 0.150000
vt 0.500000 0.837500
vt 0.648603 0.892034
vt 0.626409 0.935591
vt 0.591841 0.970159
vt 0.548284 0.992353
vt 0.500000 1.000000
vt 0.451716 0.992353
vt 0.408159 0.970159
vt 0.373591 0.935591
vt 0.351397 0.892034
vt 0.343750 0.843750
vt 0.351397 0.795466
vt 0.373591 0.751909
vt 0.408159 0.717341
vt 0.451716 0.695147
vt 0.500000 0.687500
vt 0.548284 0.695147
vt 0.591842 0.717341
vt 0.626409 0.751908
vt 0.648603 0.795466
vt 0.656250 0.843750
vt 0.648603 0.892034
vt 0.626409 0.935591
vt 0.591841 0.970159
vt 0.548284 0.992353
vt 0.500000 1.000000
vt 0.451716 0.992353
vt 0.408159 0.970159
vt 0.373591 0.935591
vt 0.351397 0.892034
vt 0.343750 0.843750
vt 0.351397 0.795466
vt 0.373591 0.751909
vt 0.408159 0.717341
vt 0.451716 0.695147
vt 0.500000 0.687500
vt 0.548284 0.695147
vt 0.591842 0.717341
vt 0.626409 0.751908
vt 0.648603 0.795466
vt 0.656250 0.843750
vt 0.648603 0.892034
vt 0.626409 0.935591
vt 0.591841 0.970159
vt 0.548284 0.992353
vt 0.500000 1.000000
vt 0.451716 0.992353
vt 0.408159 0.970159
vt 0.373591 0.935591
vt 0.351397 0.892034
vt 0.343750 0.843750
vt 0.351397 0.795466
vt 0.373591 0.751909
vt 0.408159 0.717341
vt 0.451716 0.695147
vt 0.500000 0.687500
vt 0.548284 0.695147
vt 0.591842 0.717341
vt 0.626409 0.751908
vt 0.648603 0.795466
vt 0.656250 0.843750
vt 0.648603 0.892034
vt 0.626409 0.935591
vt 0.591841 0.970159
vt 0.548284 0.992353
vt 0.500000 1.000000
vt 0.451716 0.992353
vt 0.408159 0.970159
vt 0.373591 0.935591
vt 0.351397 0.892034
vt 0.343750 0.843750
vt 0.351397 0.795466
vt 0.373591 0.751909
vt 0.408159 0.717341
vt 0.451716 0.695147
vt 0.500000 0.687500
vt 0.548284 0.695147
vt 0.591842 0.717341
vt 0.626409 0.751908
vt 0.648603 0.795466
vt 0.656250 0.843750
vt 0.375000 0.312500
vt 0.387500 0.312500
vt 0.387500 0.688440
vt 0.375000 0.688440
vt 0.400000 0.312500
vt 0.400000 0.688440
vt 0.412500 0.312500
vt 0.412500 0.688440
vt 0.425000 0.312500
vt 0.425000 0.688440
vt 0.437500 0.312500
vt 0.437500 0.688440
vt 0.450000 0.312500
vt 0.450000 0.688440
vt 0.462500 0.312500
vt 0.462500 0.688440
vt 0.475000 0.312500
vt 0.475000 0.688440
vt 0.487500 0.312500
vt 0.487500 0.688440
vt 0.500000 0.312500
vt 0.500000 0.688440
vt 0.512500 0.312500
vt 0.512500 0.688440
vt 0.525000 0.312500
vt 0.525000 0.688440
vt 0.537500 0.312500
vt 0.537500 0.688440
vt 0.550000 0.312500
vt 0.550000 0.688440
vt 0.562500 0.312500
vt 0.562500 0.688440
vt 0.575000 0.312500
vt 0.575000 0.688440
vt 0.587500 0.312500
vt 0.587500 0.688440
vt 0.600000 0.312500
vt 0.600000 0.688440
vt 0.612500 0.312500
vt 0.612500 0.688440
vt 0.625000 0.312500
vt 0.625000 0.688440
vt 0.626409 0.064408
vt 0.648603 0.107966
vt 0.500000 0.150000
vt 0.591842 0.029841
vt 0.548284 0.007647
vt 0.500000 -0.000000
vt 0.451716 0.007647
vt 0.408159 0.029841
vt 0.373591 0.064409
vt 0.351397 0.107966
vt 0.343750 0.156250
vt 0.351397 0.204534
vt 0.373591 0.248091
vt 0.408159 0.282659
vt 0.451716 0.304853
vt 0.500000 0.312500
vt 0.548284 0.304853
vt 0.591841 0.282659
vt 0.626409 0.248091
vt 0.648603 0.204534
vt 0.656250 0.156250
vt 0.648603 0.892034
vt 0.626409 0.935591
vt 0.500000 0.837500
vt 0.591841 0.970159
vt 0.548284 0.992353
vt 0.500000 1.000000
vt 0.451716 0.992353
vt 0.408159 0.970159
vt 0.373591 0.935591
vt 0.351397 0.892034
vt 0.343750 0.843750
vt 0.351397 0.795466
vt 0.373591 0.751909
vt 0.408159 0.717341
vt 0.451716 0.695147
vt 0.500000 0.687500
vt 0.548284 0.695147
vt 0.591842 0.717341
vt 0.626409 0.751908
vt 0.648603 0.795466
vt 0.656250 0.843750
vt 0.648603 0.892034
vt 0.626409 0.935591
vt 0.626409 0.935591
vt 0.648603 0.892034
vt 0.591841 0.970159
vt 0.591841 0.970159
vt 0.548284 0.992353
vt 0.548284 0.992353
vt 0.500000 1.000000
vt 0.500000 1.000000
vt 0.451716 0.992353
vt 0.451716 0.992353
vt 0.408159 0.970159
vt 0.408159 0.970159
vt 0.373591 0.935591
vt 0.373591 0.935591
vt 0.351397 0.892034
vt 0.351397 0.892034
vt 0.343750 0.843750
vt 0.343750 0.843750
vt 0.351397 0.795466
vt 0.351397 0.795466
vt 0.373591 0.751909
vt 0.373591 0.751909
vt 0.408159 0.717341
vt 0.408159 0.717341
vt 0.451716 0.695147
vt 0.451716 0.695147
vt 0.500000 0.687500
vt 0.500000 0.687500
vt 0.548284 0.695147
vt 0.548284 0.695147
vt 0.591842 0.717341
vt 0.591842 0.717341
vt 0.626409 0.751908
vt 0.626409 0.751908
vt 0.648603 0.795466
vt 0.648603 0.795466
vt 0.656250 0.843750
vt 0.656250 0.843750
vt 0.648603 0.892034
vt 0.626409 0.935591
vt 0.626409 0.935591
vt 0.648603 0.892034
vt 0.591841 0.970159
vt 0.591841 0.970159
vt 0.548284 0.992353
vt 0.548284 0.992353
vt 0.500000 1.000000
vt 0.500000 1.000000
vt 0.451716 0.992353
vt 0.451716 0.992353
vt 0.408159 0.970159
vt 0.408159 0.970159
vt 0.373591 0.935591
vt 0.373591 0.935591
vt 0.351397 0.892034
vt 0.351397 0.892034
vt 0.343750 0.843750
vt 0.343750 0.843750
vt 0.351397 0.795466
vt 0.351397 0.795466
vt 0.373591 0.751909
vt 0.373591 0.751909
vt 0.408159 0.717341
vt 0.408159 0.717341
vt 0.451716 0.695147
vt 0.451716 0.695147
vt 0.500000 0.687500
vt 0.500000 0.687500
vt 0.548284 0.695147
vt 0.548284 0.695147
vt 0.591842 0.717341
vt 0.591842 0.717341
vt 0.626409 0.751908
vt 0.626409 0.751908
vt 0.648603 0.795466
vt 0.648603 0.795466
vt 0.656250 0.843750
vt 0.656250 0.843750
vt 0.626409 0.935591
vt 0.648603 0.892034
vt 0.591841 0.970159
vt 0.548284 0.992353
vt 0.500000 1.000000
vt 0.451716 0.992353
vt 0.408159 0.970159
vt 0.373591 0.935591
vt 0.351397 0.892034
vt 0.343750 0.843750
vt 0.351397 0.795466
vt 0.373591 0.751909
vt 0.408159 0.717341
vt 0.451716 0.695147
vt 0.500000 0.687500
vt 0.548284 0.695147
vt 0.591842 0.717341
vt 0.626409 0.751908
vt 0.648603 0.795466
vt 0.656250 0.843750
vt 0.648603 0.892034
vt 0.648603 0.892034
vt 0.626409 0.935591
vt 0.626409 0.935591
vt 0.591841 0.970159
vt 0.591841 0.970159
vt 0.548284 0.992353
vt 0.548284 0.992353
vt 0.500000 1.000000
vt 0.500000 1.000000
vt 0.451716 0.992353
vt 0.451716 0.992353
vt 0.408159 0.970159
vt 0.408159 0.970159
vt 0.373591 0.935591
vt 0.373591 0.935591
vt 0.351397 0.892034
vt 0.351397 0.892034
vt 0.343750 0.843750
vt 0.343750 0.843750
vt 0.351397 0.795466
vt 0.351397 0.795466
vt 0.373591 0.751909
vt 0.373591 0.751909
vt 0.408159 0.717341
vt 0.408159 0.717341
vt 0.451716 0.695147
vt 0.451716 0.695147
vt 0.500000 0.687500
vt 0.500000 0.687500
vt 0.548284 0.695147
vt 0.548284 0.695147
vt 0.591842 0.717341
vt 0.591842 0.717341
vt 0.626409 0.751909
vt 0.626409 0.751908
vt 0.648603 0.795466
vt 0.648603 0.795466
vt 0.656250 0.843750
vt 0.656250 0.843750
vt 0.648603 0.892034
vt 0.626409 0.935591
vt 0.626409 0.935591
vt 0.648603 0.892034
vt 0.591841 0.970159
vt 0.591841 0.970159
vt 0.548284 0.992353
vt 0.548284 0.992353
vt 0.500000 1.000000
vt 0.500000 1.000000
vt 0.451716 0.992353
vt 0.451716 0.992353
vt 0.408159 0.970159
vt 0.408159 0.970159
vt 0.373591 0.935591
vt 0.373591 0.935591
vt 0.351397 0.892034
vt 0.351397 0.892034
vt 0.343750 0.843750
vt 0.343750 0.843750
vt 0.351397 0.795466
vt 0.351397 0.795466
vt 0.373591 0.751909
vt 0.373591 0.751909
vt 0.408158 0.717341
vt 0.408159 0.717341
vt 0.451716 0.695147
vt 0.451716 0.695147
vt 0.500000 0.687500
vt 0.500000 0.687500
vt 0.548284 0.695147
vt 0.548284 0.695147
vt 0.591841 0.717341
vt 0.591842 0.717341
vt 0.626409 0.751908
vt 0.626409 0.751908
vt 0.648603 0.795466
vt 0.648603 0.795466
vt 0.656250 0.843750
vt 0.656250 0.843750
vn 0.951054 0.000000 -0.309026
vn 0.809027 0.000000 -0.587771
vn 0.668199 0.563749 -0.485487
vn 0.785537 0.563723 -0.255239
vn 0.587808 0.000000 -0.809000
vn 0.485475 0.563791 -0.668172
vn 0.308955 0.000000 -0.951077
vn 0.255204 0.563763 -0.785520
vn 0.000000 0.000000 -1.000000
vn 0.000000 0.563737 -0.825954
vn -0.308955 0.000000 -0.951077
vn -0.255198 0.563751 -0.785531
vn -0.587809 0.000000 -0.809000
vn -0.485493 0.563770 -0.668177
vn -0.809065 0.000000 -0.587719
vn -0.668229 0.563750 -0.485444
vn -0.951054 0.000000 -0.309026
vn -0.785548 0.563698 -0.255263
vn -1.000000 0.000000 0.000000
vn -0.825997 0.563674 0.000000
vn -0.951054 0.000000 0.309026
vn -0.785549 0.563696 0.255262
vn -0.809038 0.000000 0.587757
vn -0.668221 0.563736 0.485471
vn -0.587809 0.000000 0.809000
vn -0.485512 0.563735 0.668193
vn -0.308955 0.000000 0.951077
vn -0.255187 0.563723 0.785554
vn 0.000000 0.000000 1.000000
vn 0.000000 0.563737 0.825954
vn 0.308955 0.000000 0.951077
vn 0.255192 0.563736 0.785544
vn 0.587808 0.000000 0.809000
vn 0.485494 0.563756 0.668188
vn 0.809000 0.000000 0.587809
vn 0.668190 0.563735 0.485515
vn 0.951054 0.000000 0.309026
vn 0.785538 0.563722 0.255239
vn 1.000000 0.000000 0.000000
vn 0.825967 0.563718 0.000000
vn 0.000000 -1.000000 0.000000
vn 0.000000 -1.000000 0.000000
vn 0.000000 -1.000000 -0.000000
vn 0.000000 -1.000000 0.000000
vn 0.000000 -1.000000 0.000000
vn 0.000000 -1.000000 0.000000
vn 0.000000 -1.000000 0.000000
vn 0.000000 -1.000000 0.000000
vn 0.000000 -1.000000 -0.000001
vn 0.000000 -1.000000 0.000000
vn 0.000000 -1.000000 -0.000000
vn 0.000000 -1.000000 0.000000
vn 0.000000 -1.000000 0.000001
vn 0.000000 -1.000000 0.000000
vn 0.000000 -1.000000 0.000000
vn 0.000000 -1.000000 0.000000
vn 0.000000 -1.000000 0.000000
vn 0.000000 -1.000000 0.000000
vn 0.000000 -1.000000 0.000000
vn 0.000000 -1.000000 0.000000
vn 0.000000 -1.000000 0.000000
vn 0.000009 1.000000 -0.000017
vn 0.000007 1.000000 -0.000009
vn 0.000000 1.000000 -0.000000
vn 0.000005 1.000000 0.000000
vn 0.000003 1.000000 -0.000013
vn 0.000000 1.000000 -0.000009
vn -0.000003 1.000000 -0.000013
vn -0.000005 1.000000 0.000000
vn -0.000007 1.000000 -0.000000
vn -0.000009 1.000000 -0.000009
vn -0.000009 1.000000 0.000000
vn -0.000009 1.000000 0.000017
vn -0.000007 1.000000 0.000009
vn -0.000005 1.000000 -0.000000
vn -0.000003 1.000000 0.000013
vn 0.000000 1.000000 0.000009
vn 0.000003 1.000000 0.000013
vn 0.000005 1.000000 -0.000000
vn 0.000007 1.000000 0.000000
vn 0.000009 1.000000 0.000009
vn 0.000009 1.000000 0.000000
vn 0.310426 0.923450 -0.225557
vn 0.364962 0.923441 -0.118574
vn 0.225535 0.923462 -0.310407
vn 0.118582 0.923447 -0.364945
vn 0.000000 0.923443 -0.383736
vn -0.118584 0.923447 -0.364944
vn -0.225555 0.923455 -0.310413
vn -0.310455 0.923445 -0.225538
vn -0.364964 0.923437 -0.118597
vn -0.383749 0.923438 0.000000
vn -0.364963 0.923438 0.118594
vn -0.310448 0.923445 0.225545
vn -0.225565 0.923442 0.310445
vn -0.118564 0.923448 0.364947
vn 0.000000 0.923443 0.383736
vn 0.118562 0.923448 0.364949
vn 0.225545 0.923449 0.310439
vn 0.310418 0.923450 0.225565
vn 0.364961 0.923442 0.118572
vn 0.383707 0.923455 0.000000
vn 0.142016 0.984470 -0.103197
vn 0.166957 0.984471 -0.054242
vn 0.103191 0.984469 -0.142030
vn 0.054257 0.984470 -0.166960
vn 0.000000 0.984470 -0.175553
vn -0.054251 0.984469 -0.166965
vn -0.103201 0.984469 -0.142025
vn -0.142043 0.984468 -0.103181
vn -0.166963 0.984469 -0.054259
vn -0.175554 0.984470 -0.000000
vn -0.166965 0.984469 0.054254
vn -0.142037 0.984468 0.103193
vn -0.103186 0.984469 0.142030
vn -0.054238 0.984469 0.166968
vn 0.000000 0.984470 0.175553
vn 0.054244 0.984470 0.166963
vn 0.103176 0.984470 0.142036
vn 0.142010 0.984470 0.103210
vn 0.166958 0.984471 0.054239
vn 0.175552 0.984470 -0.000000
vn 0.760484 -0.600513 -0.247079
vn 0.646880 -0.600517 -0.470028
vn 0.646879 -0.600516 -0.470029
vn 0.760490 -0.600513 -0.247061
vn 0.470039 -0.600458 -0.646926
vn 0.470073 -0.600458 -0.646902
vn 0.247066 -0.600455 -0.760534
vn 0.247104 -0.600455 -0.760522
vn 0.000000 -0.600393 -0.799705
vn 0.000000 -0.600393 -0.799705
vn -0.247024 -0.600420 -0.760576
vn -0.247071 -0.600420 -0.760561
vn -0.470093 -0.600393 -0.646948
vn -0.470079 -0.600393 -0.646957
vn -0.646925 -0.600488 -0.470003
vn -0.646920 -0.600488 -0.470009
vn -0.760460 -0.600561 -0.247039
vn -0.760448 -0.600561 -0.247076
vn -0.799600 -0.600534 -0.000003
vn -0.799600 -0.600534 0.000000
vn -0.760508 -0.600440 0.247181
vn -0.760519 -0.600440 0.247148
vn -0.647024 -0.600302 0.470103
vn -0.647031 -0.600302 0.470094
vn -0.470058 -0.600422 0.646946
vn -0.470017 -0.600422 0.646975
vn -0.247000 -0.600525 0.760500
vn -0.247045 -0.600525 0.760485
vn 0.000000 -0.600546 0.799590
vn 0.000000 -0.600546 0.799590
vn 0.247042 -0.600561 0.760458
vn 0.247079 -0.600561 0.760446
vn 0.469920 -0.600528 0.646947
vn 0.469936 -0.600528 0.646936
vn 0.646830 -0.600482 0.470140
vn 0.646867 -0.600482 0.470091
vn 0.760515 -0.600491 0.247039
vn 0.760521 -0.600491 0.247019
vn 0.799606 -0.600525 -0.000003
vn 0.799606 -0.600525 0.000002
vn 0.740200 0.627901 -0.240509
vn 0.629572 0.627929 -0.457542
vn 0.629563 0.627929 -0.457554
vn 0.740199 0.627901 -0.240513
vn 0.457452 0.627921 -0.629645
vn 0.457466 0.627921 -0.629635
vn 0.240615 0.627943 -0.740130
vn 0.240626 0.627943 -0.740126
vn -0.000000 0.627894 -0.778299
vn -0.000000 0.627894 -0.778299
vn -0.240615 0.627943 -0.740130
vn -0.240626 0.627943 -0.740126
vn -0.457452 0.627921 -0.629645
vn -0.457466 0.627921 -0.629635
vn -0.629510 0.627935 -0.457619
vn -0.629497 0.627935 -0.457638
vn -0.740178 0.627925 -0.240513
vn -0.740183 0.627925 -0.240496
vn -0.778304 0.627888 0.000000
vn -0.778304 0.627888 -0.000007
vn -0.740181 0.627887 0.240604
vn -0.740176 0.627887 0.240619
vn -0.629646 0.627816 0.457594
vn -0.629634 0.627816 0.457610
vn -0.457545 0.627890 0.629609
vn -0.457565 0.627890 0.629594
vn -0.240464 0.627907 0.740210
vn -0.240429 0.627907 0.740221
vn 0.000000 0.627894 0.778299
vn 0.000000 0.627894 0.778299
vn 0.240464 0.627907 0.740209
vn 0.240429 0.627907 0.740221
vn 0.457464 0.627900 0.629657
vn 0.457476 0.627900 0.629649
vn 0.629607 0.627881 0.457559
vn 0.629587 0.627881 0.457586
vn 0.740220 0.627899 0.240453
vn 0.740219 0.627899 0.240455
vn 0.778305 0.627886 0.000002
vn 0.778305 0.627886 -0.000007
vn 0.887185 0.375548 -0.268078
vn 0.792705 0.291393 -0.535452
vn 0.774411 0.276743 -0.568948
vn 0.882529 0.370692 -0.289362
vn 0.606863 0.169393 -0.776546
vn 0.575570 0.152564 -0.803395
vn 0.329341 0.057026 -0.942488
vn 0.304002 0.050078 -0.951354
vn -0.000000 0.011413 -0.999935
vn -0.000000 0.011413 -0.999935
vn -0.329355 0.057028 -0.942482
vn -0.304018 0.050080 -0.951349
vn -0.606863 0.169394 -0.776546
vn -0.575570 0.152564 -0.803395
vn -0.792708 0.291332 -0.535481
vn -0.774411 0.276695 -0.568971
vn -0.887222 0.375452 -0.268092
vn -0.882565 0.370597 -0.289372
vn -0.914632 0.404288 0.000000
vn -0.914632 0.404288 0.000000
vn -0.887222 0.375452 0.268092
vn -0.882565 0.370597 0.289372
vn -0.792708 0.291332 0.535481
vn -0.774411 0.276695 0.568971
vn -0.606863 0.169394 0.776546
vn -0.575570 0.152564 0.803395
vn -0.329355 0.057028 0.942482
vn -0.304018 0.050080 0.951349
vn -0.000000 0.011413 0.999935
vn -0.000000 0.011413 0.999935
vn 0.329341 0.057026 0.942488
vn 0.304002 0.050078 0.951354
vn 0.606863 0.169393 0.776546
vn 0.575570 0.152564 0.803395
vn 0.792705 0.291393 0.535452
vn 0.774411 0.276743 0.568948
vn 0.887185 0.375548 0.268078
vn 0.882529 0.370692 0.289362
vn 0.914589 0.404384 0.000000
vn 0.914589 0.404384 0.000000
vn 0.000000 -1.000000 0.000000
vn 0.000000 -1.000000 0.000000
vn 0.000000 -1.000000 0.000000
vn 0.000000 -1.000000 0.000000
vn 0.000000 -1.000000 0.000000
vn 0.000000 -1.000000 0.000000
vn 0.000000 -1.000000 0.000000
vn 0.000000 -1.000000 0.000000
vn 0.000000 -1.000000 0.000000
vn 0.000000 -1.000000 0.000000
vn 0.000000 -1.000000 0.000000
vn 0.000000 -1.000000 0.000000
vn 0.000000 -1.000000 0.000000
vn 0.000000 -1.000000 0.000000
vn 0.000000 -1.000000 0.000000
vn 0.000000 -1.000000 0.000000
vn 0.000000 -1.000000 0.000000
vn 0.000000 -1.000000 0.000000
vn 0.000000 -1.000000 0.000000
vn 0.000000 -1.000000 0.000000
vn 0.000000 -1.000000 0.000000
vn 0.004720 0.999988 -0.001496
vn 0.003993 0.999988 -0.002832
vn -0.000000 1.000000 0.000000
vn 0.002882 0.999988 -0.003871
vn 0.001507 0.999989 -0.004525
vn 0.000001 0.999989 -0.004748
vn -0.001506 0.999989 -0.004525
vn -0.002882 0.999988 -0.003870
vn -0.003993 0.999988 -0.002831
vn -0.004721 0.999988 -0.001495
vn -0.004976 0.999988 0.000001
vn -0.004722 0.999988 0.001495
vn -0.003995 0.999988 0.002829
vn -0.002883 0.999988 0.003869
vn -0.001506 0.999989 0.004525
vn 0.000002 0.999989 0.004748
vn 0.001507 0.999989 0.004526
vn 0.002881 0.999988 0.003871
vn 0.003993 0.999988 0.002832
vn 0.004720 0.999988 0.001497
vn 0.004974 0.999988 -0.000000
vn 0.378273 0.918181 -0.117702
vn 0.320456 0.920653 -0.222947
vn 0.322708 0.920565 -0.220044
vn 0.379008 0.918146 -0.115588
vn 0.231642 0.923638 -0.305345
vn 0.234733 0.923550 -0.303242
vn 0.121267 0.926002 -0.357511
vn 0.123504 0.925969 -0.356831
vn -0.000016 0.926900 -0.375309
vn -0.000009 0.926900 -0.375309
vn -0.121265 0.926015 -0.357478
vn -0.123506 0.925982 -0.356796
vn -0.231616 0.923649 -0.305330
vn -0.234711 0.923561 -0.303226
vn -0.320433 0.920661 -0.222947
vn -0.322682 0.920573 -0.220048
vn -0.378249 0.918192 -0.117693
vn -0.378983 0.918158 -0.115581
vn -0.398353 0.917232 -0.000000
vn -0.398353 0.917232 -0.000000
vn -0.378249 0.918192 0.117693
vn -0.378983 0.918158 0.115581
vn -0.320433 0.920661 0.222947
vn -0.322682 0.920573 0.220048
vn -0.231616 0.923649 0.305330
vn -0.234711 0.923561 0.303226
vn -0.121265 0.926015 0.357478
vn -0.123506 0.925982 0.356796
vn -0.000005 0.926905 0.375297
vn 0.000005 0.926905 0.375297
vn 0.121266 0.926014 0.357481
vn 0.123508 0.925981 0.356799
vn 0.231616 0.923645 0.305341
vn 0.234709 0.923557 0.303238
vn 0.320456 0.920651 0.222959
vn 0.322712 0.920562 0.220052
vn 0.378289 0.918175 0.117695
vn 0.379023 0.918141 0.115579
vn 0.398374 0.917223 -0.000000
vn 0.398374 0.917223 -0.000000
vn 0.607790 -0.772111 -0.185572
vn 0.520089 -0.776803 -0.355084
vn 0.573127 -0.717334 -0.396178
vn 0.671030 -0.711830 -0.207407
vn 0.380705 -0.782688 -0.492406
vn 0.418471 -0.724204 -0.548098
vn 0.201378 -0.787527 -0.582450
vn 0.220876 -0.729809 -0.646988
vn -0.000019 -0.789394 -0.613887
vn -0.000016 -0.731965 -0.681343
vn -0.201394 -0.787536 -0.582432
vn -0.220878 -0.729823 -0.646971
vn -0.380679 -0.782696 -0.492413
vn -0.418448 -0.724218 -0.548096
vn -0.520088 -0.776804 -0.355085
vn -0.573125 -0.717338 -0.396173
vn -0.607802 -0.772102 -0.185568
vn -0.671049 -0.711815 -0.207394
vn -0.637663 -0.770315 0.000000
vn -0.704490 -0.709713 0.000000
vn -0.607802 -0.772102 0.185568
vn -0.671049 -0.711815 0.207395
vn -0.520086 -0.776800 0.355095
vn -0.573123 -0.717333 0.396186
vn -0.380689 -0.782691 0.492414
vn -0.418458 -0.724206 0.548104
vn -0.201392 -0.787532 0.582439
vn -0.220896 -0.729813 0.646976
vn -0.000013 -0.789394 0.613887
vn -0.000016 -0.731968 0.681339
vn 0.201409 -0.787537 0.582426
vn 0.220891 -0.729821 0.646968
vn 0.380691 -0.782692 0.492410
vn 0.418460 -0.724210 0.548097
vn 0.520079 -0.776805 0.355094
vn 0.573110 -0.717350 0.396175
vn 0.607797 -0.772107 0.185563
vn 0.671034 -0.711831 0.207389
vn 0.637648 -0.770328 -0.000000
vn 0.704467 -0.709736 -0.000000
vn 0.882100 -0.386909 -0.268702
vn 0.760450 -0.391588 -0.518048
vn 0.758233 -0.391666 -0.521231
vn 0.881411 -0.386938 -0.270912
vn 0.562020 -0.397650 -0.725264
vn 0.558779 -0.397733 -0.727719
vn 0.299688 -0.402831 -0.864820
vn 0.297212 -0.402865 -0.865659
vn 0.000000 -0.404871 -0.914374
vn 0.000000 -0.404871 -0.914374
vn -0.299679 -0.402847 -0.864816
vn -0.297205 -0.402880 -0.865654
vn -0.561999 -0.397681 -0.725264
vn -0.558749 -0.397764 -0.727724
vn -0.760482 -0.391583 -0.518005
vn -0.758262 -0.391662 -0.521190
vn -0.882114 -0.386890 -0.268685
vn -0.881423 -0.386919 -0.270900
vn -0.922845 -0.385172 -0.000017
vn -0.922845 -0.385172 -0.000016
vn -0.882098 -0.386927 0.268682
vn -0.881409 -0.386956 0.270894
vn -0.760450 -0.391591 0.518048
vn -0.758232 -0.391668 0.521230
vn -0.562009 -0.397640 0.725278
vn -0.558769 -0.397723 0.727732
vn -0.299719 -0.402818 0.864816
vn -0.297226 -0.402852 0.865660
vn -0.000037 -0.404869 0.914375
vn -0.000035 -0.404869 0.914375
vn 0.299703 -0.402847 0.864808
vn 0.297225 -0.402881 0.865647
vn 0.561999 -0.397675 0.725267
vn 0.558752 -0.397759 0.727725
vn 0.760464 -0.391589 0.518027
vn 0.758244 -0.391667 0.521213
vn 0.882127 -0.386868 0.268672
vn 0.881437 -0.386897 0.270888
vn 0.922860 -0.385136 0.000017
vn 0.922860 -0.385136 0.000016
vn 0.736988 0.636223 -0.228187
vn 0.809508 0.530450 -0.251635
vn 0.692776 0.536832 -0.481533
vn 0.630408 0.641945 -0.436455
vn 0.507196 0.544828 -0.667768
vn 0.461207 0.649154 -0.604887
vn 0.268314 0.551395 -0.789919
vn 0.243839 0.655083 -0.715129
vn -0.000022 0.553923 -0.832568
vn -0.000021 0.657360 -0.753577
vn -0.268336 0.551391 -0.789914
vn -0.243871 0.655069 -0.715131
vn -0.507181 0.544829 -0.667779
vn -0.461195 0.649149 -0.604900
vn -0.692799 0.536825 -0.481506
vn -0.630415 0.641951 -0.436434
vn -0.809520 0.530438 -0.251622
vn -0.737001 0.636214 -0.228170
vn -0.849230 0.528024 -0.000025
vn -0.773290 0.634052 -0.000020
vn -0.809514 0.530445 0.251625
vn -0.736988 0.636228 0.228175
vn -0.692783 0.536824 0.481531
vn -0.630403 0.641957 0.436444
vn -0.507204 0.544815 0.667773
vn -0.461228 0.649147 0.604877
vn -0.268343 0.551374 0.789923
vn -0.243872 0.655064 0.715134
vn -0.000009 0.553910 0.832577
vn 0.000000 0.657347 0.753588
vn 0.268315 0.551395 0.789918
vn 0.243842 0.655068 0.715141
vn 0.507180 0.544829 0.667780
vn 0.461202 0.649149 0.604895
vn 0.692798 0.536835 0.481496
vn 0.630427 0.641952 0.436417
vn 0.809518 0.530446 0.251613
vn 0.737002 0.636212 0.228170
vn 0.849231 0.528022 0.000024
vn 0.773290 0.634053 0.000021
vn 0.702941 -0.676169 -0.220611
vn 0.599001 -0.681440 -0.420520
vn 0.475219 -0.812935 -0.336607
vn 0.559950 -0.809331 -0.177312
vn 0.436136 -0.687917 -0.580135
vn 0.344303 -0.817293 -0.462046
vn 0.229692 -0.693184 -0.683182
vn 0.180599 -0.820756 -0.541981
vn -0.000031 -0.695166 -0.718850
vn -0.000022 -0.822077 -0.569376
vn -0.229700 -0.693188 -0.683176
vn -0.180591 -0.820786 -0.541938
vn -0.436149 -0.687930 -0.580109
vn -0.344294 -0.817312 -0.462021
vn -0.599009 -0.681459 -0.420479
vn -0.475214 -0.812951 -0.336576
vn -0.702939 -0.676169 -0.220618
vn -0.559897 -0.809366 -0.177319
vn -0.738571 -0.674175 -0.000030
vn -0.589205 -0.807984 -0.000021
vn -0.702921 -0.676185 0.220625
vn -0.559915 -0.809350 0.177338
vn -0.599036 -0.681425 0.420495
vn -0.475244 -0.812927 0.336590
vn -0.436204 -0.687917 0.580084
vn -0.344335 -0.817287 0.462034
vn -0.229698 -0.693162 0.683202
vn -0.180612 -0.820757 0.541976
vn -0.000016 -0.695144 0.718871
vn -0.000019 -0.822075 0.569380
vn 0.229652 -0.693177 0.683202
vn 0.180556 -0.820767 0.541979
vn 0.436174 -0.687934 0.580085
vn 0.344330 -0.817282 0.462046
vn 0.599069 -0.681400 0.420487
vn 0.475273 -0.812912 0.336586
vn 0.702933 -0.676165 0.220650
vn 0.559937 -0.809332 0.177346
vn 0.738611 -0.674132 0.000000
vn 0.589266 -0.807939 -0.000000
vn 0.954174 0.000000 -0.299252
vn 0.818658 0.000000 -0.574281
vn 0.818658 0.000000 -0.574281
vn 0.954174 0.000000 -0.299252
vn 0.601155 0.000000 -0.799132
vn 0.601155 0.000000 -0.799132
vn 0.318859 0.000000 -0.947802
vn 0.318859 0.000000 -0.947802
vn 0.000000 0.000000 -1.000000
vn -0.000000 0.000000 -1.000000
vn -0.318840 0.000000 -0.947808
vn -0.318841 0.000000 -0.947808
vn -0.601216 0.000000 -0.799087
vn -0.601216 0.000000 -0.799087
vn -0.818649 0.000000 -0.574294
vn -0.818649 0.000000 -0.574294
vn -0.954157 0.000000 -0.299307
vn -0.954157 0.000000 -0.299308
vn -1.000000 0.000000 0.000000
vn -1.000000 0.000000 0.000000
vn -0.954151 0.000000 0.299325
vn -0.954151 0.000000 0.299325
vn -0.818658 0.000000 0.574281
vn -0.818658 0.000000 0.574282
vn -0.601226 0.000000 0.799079
vn -0.601226 0.000000 0.799079
vn -0.318879 0.000000 0.947795
vn -0.318879 0.000000 0.947795
vn -0.000065 0.000000 1.000000
vn -0.000065 0.000000 1.000000
vn 0.318821 0.000000 0.947815
vn 0.318821 0.000000 0.947815
vn 0.601227 0.000000 0.799079
vn 0.601227 0.000000 0.799078
vn 0.818670 0.000000 0.574265
vn 0.818670 0.000000 0.574265
vn 0.954157 0.000000 0.299308
vn 0.954157 0.000000 0.299308
vn 1.000000 0.000000 0.000000
vn 1.000000 0.000000 0.000000
vn 0.916981 0.281412 -0.282760
vn 0.788059 0.289144 -0.543469
vn 0.580021 0.298886 -0.757788
vn 0.308164 0.306979 -0.900444
vn -0.000009 0.310131 -0.950694
vn -0.308155 0.307014 -0.900435
vn -0.579982 0.298914 -0.757807
vn -0.788095 0.289117 -0.543431
vn -0.916998 0.281376 -0.282739
vn -0.960446 0.278465 -0.000034
vn -0.916997 0.281379 0.282739
vn -0.788073 0.289087 0.543479
vn -0.579992 0.298846 0.757826
vn -0.308192 0.306960 0.900440
vn -0.000008 0.310136 0.950692
vn 0.308157 0.307017 0.900433
vn 0.579989 0.298904 0.757805
vn 0.788085 0.289148 0.543429
vn 0.916992 0.281407 0.282729
vn 0.960445 0.278471 0.000034
vn 0.396288 -0.910126 -0.120942
vn 0.337495 -0.912720 -0.230302
vn 0.245563 -0.915922 -0.317467
vn 0.129237 -0.918520 -0.373656
vn -0.000026 -0.919517 -0.393050
vn -0.129253 -0.918519 -0.373654
vn -0.245548 -0.915922 -0.317481
vn -0.337485 -0.912721 -0.230313
vn -0.396288 -0.910126 -0.120942
vn -0.416509 -0.909132 0.000000
vn -0.396288 -0.910126 0.120942
vn -0.337485 -0.912721 0.230313
vn -0.245548 -0.915922 0.317481
vn -0.129253 -0.918519 0.373654
vn 0.000000 -0.919519 0.393045
vn 0.129253 -0.918522 0.373644
vn 0.245549 -0.915919 0.317486
vn 0.337504 -0.912712 0.230320
vn 0.396305 -0.910119 0.120934
vn 0.416509 -0.909132 0.000000
vn 0.901403 -0.327366 -0.283382
vn 0.771452 -0.332479 -0.542512
vn 0.564765 -0.338864 -0.752471
vn 0.298771 -0.344135 -0.890116
vn -0.000042 -0.346098 -0.938198
vn -0.298802 -0.344050 -0.890139
vn -0.564787 -0.338824 -0.752472
vn -0.771502 -0.332419 -0.542478
vn -0.901437 -0.327249 -0.283405
vn -0.945601 -0.325329 -0.000039
vn -0.901398 -0.327340 0.283424
vn -0.771482 -0.332484 0.542466
vn -0.564857 -0.338858 0.752404
vn -0.298806 -0.344048 0.890138
vn -0.000000 -0.346041 0.938219
vn 0.298718 -0.344114 0.890142
vn 0.564798 -0.338920 0.752420
vn 0.771522 -0.332463 0.542423
vn 0.901405 -0.327326 0.283420
vn 0.945581 -0.325386 0.000000
s 1
g vase_curved
usemtl initialShadingGroup
f 1/21/1 2/22/2 22/43/3 21/42/4
f 2/22/2 3/23/5 23/44/6 22/43/3
f 3/23/5 4/24/7 24/45/8 23/44/6
f 4/24/7 5/25/9 25/46/10 24/45/8
f 5/25/9 6/26/11 26/47/12 25/46/10
f 6/26/11 7/27/13 27/48/14 26/47/12
f 7/27/13 8/28/15 28/49/16 27/48/14
f 8/28/15 9/29/17 29/50/18 28/49/16
f 9/29/17 10/30/19 30/51/20 29/50/18
f 10/30/19 11/31/21 31/52/22 30/51/20
f 11/31/21 12/32/23 32/53/24 31/52/22
f 12/32/23 13/33/25 33/54/26 32/53/24
f 13/33/25 14/34/27 34/55/28 33/54/26
f 14/34/27 15/35/29 35/56/30 34/55/28
f 15/35/29 16/36/31 36/57/32 35/56/30
f 16/36/31 17/37/33 37/58/34 36/57/32
f 17/37/33 18/38/35 38/59/36 37/58/34
f 18/38/35 19/39/37 39/60/38 38/59/36
f 19/39/37 20/40/39 40/61/40 39/60/38
f 20/40/39 1/41/1 21/62/4 40/61/40
s 2
f 2/2/41 1/1/42 41/83/43
f 3/3/44 2/2/41 41/83/43
f 4/4/45 3/3/44 41/83/43
f 5/5/46 4/4/45 41/83/43
f 6/6/47 5/5/46 41/83/43
f 7/7/48 6/6/47 41/83/43
f 8/8/49 7/7/48 41/83/43
f 9/9/50 8/8/49 41/83/43
f 10/10/51 9/9/50 41/83/43
f 11/11/52 10/10/51 41/83/43
f 12/12/53 11/11/52 41/83/43
f 13/13/54 12/12/53 41/83/43
f 14/14/55 13/13/54 41/83/43
f 15/15/56 14/14/55 41/83/43
f 16/16/57 15/15/56 41/83/43
f 17/17/58 16/16/57 41/83/43
f 18/18/59 17/17/58 41/83/43
f 19/19/60 18/18/59 41/83/43
f 20/20/61 19/19/60 41/83/43
f 1/1/42 20/20/61 41/83/43
s 3
f 102/145/62 103/146/63 104/84/64
f 103/146/63 105/147/65 104/84/64
f 105/147/65 106/148/66 104/84/64
f 106/148/66 107/149/67 104/84/64
f 107/149/67 108/150/68 104/84/64
f 108/150/68 109/151/69 104/84/64
f 109/151/69 110/152/70 104/84/64
f 110/152/70 111/153/71 104/84/64
f 111/153/71 112/154/72 104/84/64
f 112/154/72 113/155/73 104/84/64
f 113/155/73 114/156/74 104/84/64
f 114/156/74 115/157/75 104/84/64
f 115/157/75 116/158/76 104/84/64
f 116/158/76 117/159/77 104/84/64
f 117/159/77 118/160/78 104/84/64
f 118/160/78 119/161/79 104/84/64
f 119/161/79 120/162/80 104/84/64
f 120/162/80 121/163/81 104/84/64
f 121/163/81 122/164/82 104/84/64
f 122/164/82 102/145/62 104/84/64
s 1
f 21/81/4 22/80/3 43/86/83 42/85/84
f 22/80/3 23/79/6 44/87/85 43/86/83
f 23/79/6 24/78/8 45/88/86 44/87/85
f 24/78/8 25/77/10 46/89/87 45/88/86
f 25/77/10 26/76/12 47/90/88 46/89/87
f 26/76/12 27/75/14 48/91/89 47/90/88
f 27/75/14 28/74/16 49/92/90 48/91/89
f 28/74/16 29/73/18 50/93/91 49/92/90
f 29/73/18 30/72/20 51/94/92 50/93/91
f 30/72/20 31/71/22 52/95/93 51/94/92
f 31/71/22 32/70/24 53/96/94 52/95/93
f 32/70/24 33/69/26 54/97/95 53/96/94
f 33/69/26 34/68/28 55/98/96 54/97/95
f 34/68/28 35/67/30 56/99/97 55/98/96
f 35/67/30 36/66/32 57/100/98 56/99/97
f 36/66/32 37/65/34 58/101/99 57/100/98
f 37/65/34 38/64/36 59/102/100 58/101/99
f 38/64/36 39/63/38 60/103/101 59/102/100
f 39/63/38 40/82/40 61/104/102 60/103/101
f 40/82/40 21/81/4 42/85/84 61/104/102
f 42/85/84 43/86/83 63/106/103 62/105/104
f 43/86/83 44/87/85 64/107/105 63/106/103
f 44/87/85 45/88/86 65/108/106 64/107/105
f 45/88/86 46/89/87 66/109/107 65/108/106
f 46/89/87 47/90/88 67/110/108 66/109/107
f 47/90/88 48/91/89 68/111/109 67/110/108
f 48/91/89 49/92/90 69/112/110 68/111/109
f 49/92/90 50/93/91 70/113/111 69/112/110
f 50/93/91 51/94/92 71/114/112 70/113/111
f 51/94/92 52/95/93 72/115/113 71/114/112
f 52/95/93 53/96/94 73/116/114 72/115/113
f 53/96/94 54/97/95 74/117/115 73/116/114
f 54/97/95 55/98/96 75/118/116 74/117/115
f 55/98/96 56/99/97 76/119/117 75/118/116
f 56/99/97 57/100/98 77/120/118 76/119/117
f 57/100/98 58/101/99 78/121/119 77/120/118
f 58/101/99 59/102/100 79/122/120 78/121/119
f 59/102/100 60/103/101 80/123/121 79/122/120
f 60/103/101 61/104/102 81/124/122 80/123/121
f 61/104/102 42/85/84 62/105/104 81/124/122
s 4
f 62/105/123 63/106/124 83/126/125 82/125/126
f 63/106/124 64/107/127 84/127/128 83/126/125
f 64/107/127 65/108/129 85/128/130 84/127/128
f 65/108/129 66/109/131 86/129/132 85/128/130
f 66/109/131 67/110/133 87/130/134 86/129/132
f 67/110/133 68/111/135 88/131/136 87/130/134
f 68/111/135 69/112/137 89/132/138 88/131/136
f 69/112/137 70/113/139 90/133/140 89/132/138
f 70/113/139 71/114/141 91/134/142 90/133/140
f 71/114/141 72/115/143 92/135/144 91/134/142
f 72/115/143 73/116/145 93/136/146 92/135/144
f 73/116/145 74/117/147 94/137/148 93/136/146
f 74/117/147 75/118/149 95/138/150 94/137/148
f 75/118/149 76/119/151 96/139/152 95/138/150
f 76/119/151 77/120/153 97/140/154 96/139/152
f 77/120/153 78/121/155 98/141/156 97/140/154
f 78/121/155 79/122/157 99/142/158 98/141/156
f 79/122/157 80/123/159 100/143/160 99/142/158
f 80/123/159 81/124/161 101/144/162 100/143/160
f 81/124/161 62/105/123 82/125/126 101/144/162
s 5
f 82/125/163 83/126/164 103/146/165 102/145/166
f 83/126/164 84/127/167 105/147/168 103/146/165
f 84/127/167 85/128/169 106/148/170 105/147/168
f 85/128/169 86/129/171 107/149/172 106/148/170
f 86/129/171 87/130/173 108/150/174 107/149/172
f 87/130/173 88/131/175 109/151/176 108/150/174
f 88/131/175 89/132/177 110/152/178 109/151/176
f 89/132/177 90/133/179 111/153/180 110/152/178
f 90/133/179 91/134/181 112/154/182 111/153/180
f 91/134/181 92/135/183 113/155/184 112/154/182
f 92/135/183 93/136/185 114/156/186 113/155/184
f 93/136/185 94/137/187 115/157/188 114/156/186
f 94/137/187 95/138/189 116/158/190 115/157/188
f 95/138/189 96/139/191 117/159/192 116/158/190
f 96/139/191 97/140/193 118/160/194 117/159/192
f 97/140/193 98/141/195 119/161/196 118/160/194
f 98/141/195 99/142/197 120/162/198 119/161/196
f 99/142/197 100/143/199 121/163/200 120/162/198
f 100/143/199 101/144/201 122/164/202 121/163/200
f 101/144/201 82/125/163 102/145/166 122/164/202
s 6
f 123/165/203 124/166/204 144/167/205 143/168/206
f 124/166/204 125/169/207 145/170/208 144/167/205
f 125/169/207 126/171/209 146/172/210 145/170/208
f 126/171/209 127/173/211 147/174/212 146/172/210
f 127/173/211 128/175/213 148/176/214 147/174/212
f 128/175/213 129/177/215 149/178/216 148/176/214
f 129/177/215 130/179/217 150/180/218 149/178/216
f 130/179/217 131/181/219 151/182/220 150/180/218
f 131/181/219 132/183/221 152/184/222 151/182/220
f 132/183/221 133/185/223 153/186/224 152/184/222
f 133/185/223 134/187/225 154/188/226 153/186/224
f 134/187/225 135/189/227 155/190/228 154/188/226
f 135/189/227 136/191/229 156/192/230 155/190/228
f 136/191/229 137/193/231 157/194/232 156/192/230
f 137/193/231 138/195/233 158/196/234 157/194/232
f 138/195/233 139/197/235 159/198/236 158/196/234
f 139/197/235 140/199/237 160/200/238 159/198/236
f 140/199/237 141/201/239 161/202/240 160/200/238
f 141/201/239 142/203/241 162/204/242 161/202/240
f 142/203/241 123/205/203 143/206/206 162/204/242
s 7
f 124/207/243 123/208/244 163/209/245
f 125/210/246 124/207/243 163/209/245
f 126/211/247 125/210/246 163/209/245
f 127/212/248 126/211/247 163/209/245
f 128/213/249 127/212/248 163/209/245
f 129/214/250 128/213/249 163/209/245
f 130/215/251 129/214/250 163/209/245
f 131/216/252 130/215/251 163/209/245
f 132/217/253 131/216/252 163/209/245
f 133/218/254 132/217/253 163/209/245
f 134/219/255 133/218/254 163/209/245
f 135/220/256 134/219/255 163/209/245
f 136/221/257 135/220/256 163/209/245
f 137/222/258 136/221/257 163/209/245
f 138/223/259 137/222/258 163/209/245
f 139/224/260 138/223/259 163/209/245
f 140/225/261 139/224/260 163/209/245
f 141/226/262 140/225/261 163/209/245
f 142/227/263 141/226/262 163/209/245
f 123/208/244 142/227/263 163/209/245
s 8
f 264/228/264 265/229/265 266/230/266
f 265/229/265 267/231/267 266/230/266
f 267/231/267 268/232/268 266/230/266
f 268/232/268 269/233/269 266/230/266
f 269/233/269 270/234/270 266/230/266
f 270/234/270 271/235/271 266/230/266
f 271/235/271 272/236/272 266/230/266
f 272/236/272 273/237/273 266/230/266
f 273/237/273 274/238/274 266/230/266
f 274/238/274 275/239/275 266/230/266
f 275/239/275 276/240/276 266/230/266
f 276/240/276 277/241/277 266/230/266
f 277/241/277 278/242/278 266/230/266
f 278/242/278 279/243/279 266/230/266
f 279/243/279 280/244/280 266/230/266
f 280/244/280 281/245/281 266/230/266
f 281/245/281 282/246/282 266/230/266
f 282/246/282 283/247/283 266/230/266
f 283/247/283 284/248/284 266/230/266
f 284/248/284 264/228/264 266/230/266
s 9
f 143/249/285 144/250/286 165/251/287 164/252/288
f 144/250/286 145/253/289 166/254/290 165/251/287
f 145/253/289 146/255/291 167/256/292 166/254/290
f 146/255/291 147/257/293 168/258/294 167/256/292
f 147/257/293 148/259/295 169/260/296 168/258/294
f 148/259/295 149/261/297 170/262/298 169/260/296
f 149/261/297 150/263/299 171/264/300 170/262/298
f 150/263/299 151/265/301 172/266/302 171/264/300
f 151/265/301 152/267/303 173/268/304 172/266/302
f 152/267/303 153/269/305 174/270/306 173/268/304
f 153/269/305 154/271/307 175/272/308 174/270/306
f 154/271/307 155/273/309 176/274/310 175/272/308
f 155/273/309 156/275/311 177/276/312 176/274/310
f 156/275/311 157/277/313 178/278/314 177/276/312
f 157/277/313 158/279/315 179/280/316 178/278/314
f 158/279/315 159/281/317 180/282/318 179/280/316
f 159/281/317 160/283/319 181/284/320 180/282/318
f 160/283/319 161/285/321 182/286/322 181/284/320
f 161/285/321 162/287/323 183/288/324 182/286/322
f 162/287/323 143/249/285 164/252/288 183/288/324
s 10
f 305/289/325 306/290/326 185/291/327 184/292/328
f 306/290/326 307/293/329 186/294/330 185/291/327
f 307/293/329 308/295/331 187/296/332 186/294/330
f 308/295/331 309/297/333 188/298/334 187/296/332
f 309/297/333 310/299/335 189/300/336 188/298/334
f 310/299/335 311/301/337 190/302/338 189/300/336
f 311/301/337 312/303/339 191/304/340 190/302/338
f 312/303/339 313/305/341 192/306/342 191/304/340
f 313/305/341 314/307/343 193/308/344 192/306/342
f 314/307/343 315/309/345 194/310/346 193/308/344
f 315/309/345 316/311/347 195/312/348 194/310/346
f 316/311/347 317/313/349 196/314/350 195/312/348
f 317/313/349 318/315/351 197/316/352 196/314/350
f 318/315/351 319/317/353 198/318/354 197/316/352
f 319/317/353 320/319/355 199/320/356 198/318/354
f 320/319/355 321/321/357 200/322/358 199/320/356
f 321/321/357 322/323/359 201/324/360 200/322/358
f 322/323/359 323/325/361 202/326/362 201/324/360
f 323/325/361 324/327/363 203/328/364 202/326/362
f 324/327/363 305/289/325 184/292/328 203/328/364
s 11
f 184/292/365 185/291/366 205/329/367 204/330/368
f 185/291/366 186/294/369 206/331/370 205/329/367
f 186/294/369 187/296/371 207/332/372 206/331/370
f 187/296/371 188/298/373 208/333/374 207/332/372
f 188/298/373 189/300/375 209/334/376 208/333/374
f 189/300/375 190/302/377 210/335/378 209/334/376
f 190/302/377 191/304/379 211/336/380 210/335/378
f 191/304/379 192/306/381 212/337/382 211/336/380
f 192/306/381 193/308/383 213/338/384 212/337/382
f 193/308/383 194/310/385 214/339/386 213/338/384
f 194/310/385 195/312/387 215/340/388 214/339/386
f 195/312/387 196/314/389 216/341/390 215/340/388
f 196/314/389 197/316/391 217/342/392 216/341/390
f 197/316/391 198/318/393 218/343/394 217/342/392
f 198/318/393 199/320/395 219/344/396 218/343/394
f 199/320/395 200/322/397 220/345/398 219/344/396
f 200/322/397 201/324/399 221/346/400 220/345/398
f 201/324/399 202/326/401 222/347/402 221/346/400
f 202/326/401 203/328/403 223/348/404 222/347/402
f 203/328/403 184/292/365 204/330/368 223/348/404
s 12
f 224/349/405 285/350/406 286/351/407 225/352/408
f 286/351/407 287/353/409 226/354/410 225/352/408
f 287/353/409 288/355/411 227/356/412 226/354/410
f 288/355/411 289/357/413 228/358/414 227/356/412
f 289/357/413 290/359/415 229/360/416 228/358/414
f 290/359/415 291/361/417 230/362/418 229/360/416
f 291/361/417 292/363/419 231/364/420 230/362/418
f 292/363/419 293/365/421 232/366/422 231/364/420
f 293/365/421 294/367/423 233/368/424 232/366/422
f 294/367/423 295/369/425 234/370/426 233/368/424
f 295/369/425 296/371/427 235/372/428 234/370/426
f 296/371/427 297/373/429 236/374/430 235/372/428
f 297/373/429 298/375/431 237/376/432 236/374/430
f 298/375/431 299/377/433 238/378/434 237/376/432
f 299/377/433 300/379/435 239/380/436 238/378/434
f 300/379/435 301/381/437 240/382/438 239/380/436
f 301/381/437 302/383/439 241/384/440 240/382/438
f 302/383/439 303/385/441 242/386/442 241/384/440
f 303/385/441 304/387/443 243/388/444 242/386/442
f 304/387/443 285/350/406 224/349/405 243/388/444
s 13
f 325/389/445 326/390/446 245/391/447 244/392/448
f 326/390/446 327/393/449 246/394/450 245/391/447
f 327/393/449 328/395/451 247/396/452 246/394/450
f 328/395/451 329/397/453 248/398/454 247/396/452
f 329/397/453 330/399/455 249/400/456 248/398/454
f 330/399/455 331/401/457 250/402/458 249/400/456
f 331/401/457 332/403/459 251/404/460 250/402/458
f 332/403/459 333/405/461 252/406/462 251/404/460
f 333/405/461 334/407/463 253/408/464 252/406/462
f 334/407/463 335/409/465 254/410/466 253/408/464
f 335/409/465 336/411/467 255/412/468 254/410/466
f 336/411/467 337/413/469 256/414/470 255/412/468
f 337/413/469 338/415/471 257/416/472 256/414/470
f 338/415/471 339/417/473 258/418/474 257/416/472
f 339/417/473 340/419/475 259/420/476 258/418/474
f 340/419/475 341/421/477 260/422/478 259/420/476
f 341/421/477 342/423/479 261/424/480 260/422/478
f 342/423/479 343/425/481 262/426/482 261/424/480
f 343/425/481 344/427/483 263/428/484 262/426/482
f 344/427/483 325/389/445 244/392/448 263/428/484
s 14
f 244/392/485 245/391/486 265/229/487 264/228/488
f 245/391/486 246/394/489 267/231/490 265/229/487
f 246/394/489 247/396/491 268/232/492 267/231/490
f 247/396/491 248/398/493 269/233/494 268/232/492
f 248/398/493 249/400/495 270/234/496 269/233/494
f 249/400/495 250/402/497 271/235/498 270/234/496
f 250/402/497 251/404/499 272/236/500 271/235/498
f 251/404/499 252/406/501 273/237/502 272/236/500
f 252/406/501 253/408/503 274/238/504 273/237/502
f 253/408/503 254/410/505 275/239/506 274/238/504
f 254/410/505 255/412/507 276/240/508 275/239/506
f 255/412/507 256/414/509 277/241/510 276/240/508
f 256/414/509 257/416/511 278/242/512 277/241/510
f 257/416/511 258/418/513 279/243/514 278/242/512
f 258/418/513 259/420/515 280/244/516 279/243/514
f 259/420/515 260/422/517 281/245/518 280/244/516
f 260/422/517 261/424/519 282/246/520 281/245/518
f 261/424/519 262/426/521 283/247/522 282/246/520
f 262/426/521 263/428/523 284/248/524 283/247/522
f 263/428/523 244/392/485 264/228/488 284/248/524
s 12
f 204/330/525 205/329/526 286/351/407 285/350/406
f 205/329/526 206/331/527 287/353/409 286/351/407
f 206/331/527 207/332/528 288/355/411 287/353/409
f 207/332/528 208/333/529 289/357/413 288/355/411
f 208/333/529 209/334/530 290/359/415 289/357/413
f 209/334/530 210/335/531 291/361/417 290/359/415
f 210/335/531 211/336/532 292/363/419 291/361/417
f 211/336/532 212/337/533 293/365/421 292/363/419
f 212/337/533 213/338/534 294/367/423 293/365/421
f 213/338/534 214/339/535 295/369/425 294/367/423
f 214/339/535 215/340/536 296/371/427 295/369/425
f 215/340/536 216/341/537 297/373/429 296/371/427
f 216/341/537 217/342/538 298/375/431 297/373/429
f 217/342/538 218/343/539 299/377/433 298/375/431
f 218/343/539 219/344/540 300/379/435 299/377/433
f 219/344/540 220/345/541 301/381/437 300/379/435
f 220/345/541 221/346/542 302/383/439 301/381/437
f 221/346/542 222/347/543 303/385/441 302/383/439
f 222/347/543 223/348/544 304/387/443 303/385/441
f 223/348/544 204/330/525 285/350/406 304/387/443
s 10
f 164/252/545 165/251/546 306/290/326 305/289/325
f 165/251/546 166/254/547 307/293/329 306/290/326
f 166/254/547 167/256/548 308/295/331 307/293/329
f 167/256/548 168/258/549 309/297/333 308/295/331
f 168/258/549 169/260/550 310/299/335 309/297/333
f 169/260/550 170/262/551 311/301/337 310/299/335
f 170/262/551 171/264/552 312/303/339 311/301/337
f 171/264/552 172/266/553 313/305/341 312/303/339
f 172/266/553 173/268/554 314/307/343 313/305/341
f 173/268/554 174/270/555 315/309/345 314/307/343
f 174/270/555 175/272/556 316/311/347 315/309/345
f 175/272/556 176/274/557 317/313/349 316/311/347
f 176/274/557 177/276/558 318/315/351 317/313/349
f 177/276/558 178/278/559 319/317/353 318/315/351
f 178/278/559 179/280/560 320/319/355 319/317/353
f 179/280/560 180/282/561 321/321/357 320/319/355
f 180/282/561 181/284/562 322/323/359 321/321/357
f 181/284/562 182/286/563 323/325/361 322/323/359
f 182/286/563 183/288/564 324/327/363 323/325/361
f 183/288/564 164/252/545 305/289/325 324/327/363
s 13
f 224/349/565 225/352/566 326/390/446 325/389/445
f 225/352/566 226/354/567 327/393/449 326/390/446
f 226/354/567 227/356/568 328/395/451 327/393/449
f 227/356/568 228/358/569 329/397/453 328/395/451
f 228/358/569 229/360/570 330/399/455 329/397/453
f 229/360/570 230/362/571 331/401/457 330/399/455
f 230/362/571 231/364/572 332/403/459 331/401/457
f 231/364/572 232/366/573 333/405/461 332/403/459
f 232/366/573 233/368/574 334/407/463 333/405/461
f 233/368/574 234/370/575 335/409/465 334/407/463
f 234/370/575 235/372/576 336/411/467 335/409/465
f 235/372/576 236/374/577 337/413/469 336/411/467
f 236/374/577 237/376/578 338/415/471 337/413/469
f 237/376/578 238/378/579 339/417/473 338/415/471
f 238/378/579 239/380/580 340/419/475 339/417/473
f 239/380/580 240/382/581 341/421/477 340/419/475
f 240/382/581 241/384/582 342/423/479 341/421/477
f 241/384/582 242/386/583 343/425/481 342/423/479
f 242/386/583 243/388/584 344/427/483 343/425/481
f 243/388/584 224/349/565 325/389/445 344/427/483
