# This file uses meters as units for non-parametric coordinates.

mtllib wall_tile_mesh.mtl
g default
v 0.000000 100.000000 100.000000
v 0.000000 -0.000000 100.000000
v -0.000000 100.000000 0.000000
v 0.000000 -0.000000 0.000000
vt 0.000000 0.000000
vt 1.000000 0.000000
vt 0.000000 1.000000
vt 1.000000 1.000000
vn -1.000000 -0.000000 0.000000
vn -1.000000 -0.000000 0.000000
vn -1.000000 -0.000000 0.000000
vn -1.000000 -0.000000 0.000000
s off
g wall_tile
usemtl initialShadingGroup
f 1/1/1 3/3/2 4/4/3 2/2/4
