14
14
11111111111111
10000000000001
10111111111101
10000000000001
10000000000001
10011111111001
10000000000001
00000000000001
10000000000001
10011111111001
10000000000001
10001111000001
10000000000001
11111111111111