14
14
11111111111111
10000000000001
10000000000001
10000000000001
11100000000111
11100000000111
11100000000111
11000000000000
11100000000111
10000000000001
10000000000001
10000000000001
10000000000001
11111111111111