# This file uses meters as units for non-parametric coordinates.

mtllib mushroom05_mesh.mtl
g default
v -20.388916 1.581512 -1.576660
v -20.638184 1.285843 -2.627930
v -20.977539 0.693405 -3.515869
v -21.373535 -0.137787 -4.153809
v -21.787354 -1.126389 -4.479004
v -22.178955 -2.175613 -4.459961
v -22.509766 -3.182785 -4.098145
v -22.747070 -4.049271 -3.429443
v -22.868408 -4.690277 -2.518799
v -22.861084 -5.043076 -1.455811
v -22.726318 -5.073090 -0.344238
v -22.477051 -4.777420 0.707031
v -22.137939 -4.184982 1.594971
v -21.741943 -3.353790 2.232666
v -21.327881 -2.365189 2.557861
v -20.936279 -1.315964 2.538818
v -20.605469 -0.308807 2.177246
v -20.367920 0.557693 1.508301
v -20.247070 1.198700 0.597900
v -20.254150 1.551483 -0.465332
v -25.664063 0.484787 -0.429199
v -25.710449 0.429825 -0.624512
v -25.773438 0.319717 -0.789551
v -25.846924 0.165207 -0.908203
v -25.924072 -0.018555 -0.968506
v -25.996582 -0.213593 -0.965088
v -26.058350 -0.400787 -0.897705
v -26.102295 -0.561859 -0.773438
v -26.124756 -0.681000 -0.604248
v -26.123535 -0.746582 -0.406494
v -26.098389 -0.752167 -0.199951
v -26.052002 -0.697205 -0.004639
v -25.989258 -0.587082 0.160400
v -25.915527 -0.432587 0.279053
v -25.838623 -0.248825 0.339600
v -25.765869 -0.053787 0.335938
v -25.704346 0.133408 0.268799
v -25.660156 0.294479 0.144531
v -25.637695 0.413620 -0.024902
v -25.638916 0.479202 -0.222412
v -21.557617 -1.745789 -0.960449
v -25.881348 -0.133682 -0.314453
v -20.838623 2.491989 -1.563965
v -21.137451 2.137558 -2.824219
v -21.543945 1.427399 -3.888672
v -22.018555 0.431015 -4.653320
v -22.514893 -0.754059 -5.043213
v -22.984375 -2.011810 -5.020264
v -23.380615 -3.219116 -4.586670
v -23.665527 -4.257813 -3.784912
v -23.810547 -5.026215 -2.693604
v -23.802002 -5.449097 -1.419189
v -23.640381 -5.485092 -0.086914
v -23.341553 -5.130661 1.173340
v -22.935059 -4.420486 2.237793
v -22.460205 -3.424103 3.002441
v -21.964111 -2.239044 3.392334
v -21.494629 -0.981293 3.369385
v -21.098145 0.226013 2.935791
v -20.813477 1.264709 2.134033
v -20.668457 2.033112 1.042725
v -20.677002 2.456009 -0.231689
v -22.690918 2.926117 -1.306396
v -22.538574 2.892242 -0.052002
v -22.530518 2.494095 1.147705
v -22.667236 1.770660 2.175537
v -22.935303 0.792755 2.930176
v -23.308594 -0.343887 3.338379
v -23.750488 -1.528030 3.359863
v -24.217529 -2.643738 2.992920
v -24.664551 -3.581802 2.272949
v -25.047363 -4.250412 1.270996
v -25.328613 -4.584091 0.084473
v -25.480713 -4.550217 -1.169922
v -25.488770 -4.152069 -2.369629
v -25.352295 -3.428635 -3.397217
v -25.084229 -2.450729 -4.152100
v -24.710938 -1.314087 -4.560059
v -24.269043 -0.129944 -4.581787
v -23.801758 0.985748 -4.214600
v -23.354736 1.923828 -3.494873
v -22.972168 2.592438 -2.492676
v -24.280762 2.286423 -0.937500
v -24.172852 2.262390 -0.047607
v -24.167236 1.979996 0.803223
v -24.264160 1.466858 1.532227
v -24.454102 0.773239 2.067627
v -24.718750 -0.033005 2.356934
v -25.032227 -0.872910 2.372314
v -25.363770 -1.664291 2.112061
v -25.680664 -2.329666 1.601318
v -25.952393 -2.803894 0.890625
v -26.151611 -3.040588 0.049072
v -26.259766 -3.016556 -0.840820
v -26.265381 -2.734146 -1.691650
v -26.168457 -2.221024 -2.420410
v -25.978271 -1.527390 -2.955811
v -25.713623 -0.721161 -3.245361
v -25.400146 0.118744 -3.260742
v -25.068848 0.910126 -3.000488
v -24.751709 1.575500 -2.489746
v -24.480225 2.049744 -1.779053
v -20.997559 -2.833252 1.007324
v -3.470459 -2.844116 1.445557
v -20.629639 -1.164398 1.007324
v -3.126221 1.033386 1.445557
v -20.629639 -1.164398 -0.709229
v -3.126221 1.033386 -1.425781
v -20.997559 -2.833252 -0.709229
v -3.470459 -2.844116 -1.425781
v -14.530762 -4.751678 1.353760
v -14.530762 -4.751678 -1.242188
v -13.362549 -1.710968 -1.242188
v -13.362549 -1.710968 1.353760
v -14.725586 -5.258453 0.055664
v -1.984375 -3.372726 0.005615
v -21.708008 -2.828064 0.162109
v -21.560059 -1.739426 1.320557
v -21.411865 -0.650772 0.162109
v -21.560059 -1.739426 -0.996582
v -19.079834 -3.923218 -1.047119
v -19.079834 -3.923218 1.270508
v -18.281982 -1.556793 -1.047119
v -18.281982 -1.556793 1.270508
v -13.946777 -3.231323 1.786377
v -7.808594 -4.285156 1.737793
v -1.855469 -0.509262 2.092041
v -7.033691 0.211044 1.737793
v -13.167725 -1.204193 0.055664
v -1.726074 2.354187 0.005615
v -7.033691 0.211044 -1.693115
v -13.946777 -3.231323 -1.674805
v -1.855469 -0.509262 -2.081055
v -7.808594 -4.285156 -1.693115
v -7.421143 -2.037048 2.309326
v -6.904541 0.960403 0.022217
v -7.421143 -2.037048 -2.264893
v -7.937744 -5.034515 0.022217
v 0.000000 0.000000 0.000000
v -22.519775 -1.405884 0.178955
v -19.212891 -4.317612 0.111572
v -18.680908 -2.740005 -1.433350
v -18.149170 -1.162384 0.111572
v -18.680908 -2.740005 1.656494
vt 0.648603 0.107966
vt 0.626409 0.064408
vt 0.591842 0.029841
vt 0.548284 0.007647
vt 0.500000 -0.000000
vt 0.451716 0.007647
vt 0.408159 0.029841
vt 0.373591 0.064409
vt 0.351397 0.107966
vt 0.343750 0.156250
vt 0.351397 0.204534
vt 0.373591 0.248091
vt 0.408159 0.282659
vt 0.451716 0.304853
vt 0.500000 0.312500
vt 0.548284 0.304853
vt 0.591841 0.282659
vt 0.626409 0.248091
vt 0.648603 0.204534
vt 0.656250 0.156250
vt 0.375000 0.312500
vt 0.387500 0.312500
vt 0.400000 0.312500
vt 0.412500 0.312500
vt 0.425000 0.312500
vt 0.437500 0.312500
vt 0.450000 0.312500
vt 0.462500 0.312500
vt 0.475000 0.312500
vt 0.487500 0.312500
vt 0.500000 0.312500
vt 0.512500 0.312500
vt 0.525000 0.312500
vt 0.537500 0.312500
vt 0.550000 0.312500
vt 0.562500 0.312500
vt 0.575000 0.312500
vt 0.587500 0.312500
vt 0.600000 0.312500
vt 0.612500 0.312500
vt 0.625000 0.312500
vt 0.375000 0.688440
vt 0.387500 0.688440
vt 0.400000 0.688440
vt 0.412500 0.688440
vt 0.425000 0.688440
vt 0.437500 0.688440
vt 0.450000 0.688440
vt 0.462500 0.688440
vt 0.475000 0.688440
vt 0.487500 0.688440
vt 0.500000 0.688440
vt 0.512500 0.688440
vt 0.525000 0.688440
vt 0.537500 0.688440
vt 0.550000 0.688440
vt 0.562500 0.688440
vt 0.575000 0.688440
vt 0.587500 0.688440
vt 0.600000 0.688440
vt 0.612500 0.688440
vt 0.625000 0.688440
vt 0.648603 0.795466
vt 0.626409 0.751908
vt 0.591842 0.717341
vt 0.548284 0.695147
vt 0.500000 0.687500
vt 0.451716 0.695147
vt 0.408159 0.717341
vt 0.373591 0.751909
vt 0.351397 0.795466
vt 0.343750 0.843750
vt 0.351397 0.892034
vt 0.373591 0.935591
vt 0.408159 0.970159
vt 0.451716 0.992353
vt 0.500000 1.000000
vt 0.548284 0.992353
vt 0.591841 0.970159
vt 0.626409 0.935591
vt 0.648603 0.892034
vt 0.656250 0.843750
vt 0.500000 0.150000
vt 0.500000 0.837500
vt 0.625000 0.341882
vt 0.375000 0.341882
vt 0.387500 0.341882
vt 0.400000 0.341882
vt 0.412500 0.341882
vt 0.425000 0.341882
vt 0.437500 0.341882
vt 0.450000 0.341882
vt 0.462500 0.341882
vt 0.475000 0.341882
vt 0.487500 0.341882
vt 0.500000 0.341882
vt 0.512500 0.341882
vt 0.525000 0.341882
vt 0.537500 0.341882
vt 0.550000 0.341882
vt 0.562500 0.341882
vt 0.575000 0.341882
vt 0.587500 0.341882
vt 0.600000 0.341882
vt 0.612500 0.341882
vt 0.625000 0.395001
vt 0.375000 0.395001
vt 0.612500 0.395001
vt 0.600000 0.395001
vt 0.587500 0.395001
vt 0.575000 0.395001
vt 0.562500 0.395001
vt 0.550000 0.395001
vt 0.537500 0.395001
vt 0.525000 0.395001
vt 0.512500 0.395001
vt 0.500000 0.395001
vt 0.487500 0.395001
vt 0.475000 0.395001
vt 0.462500 0.395001
vt 0.450000 0.395001
vt 0.437500 0.395001
vt 0.425000 0.395001
vt 0.412500 0.395001
vt 0.400000 0.395001
vt 0.387500 0.395001
vt 0.625000 0.534639
vt 0.375000 0.534639
vt 0.612500 0.534639
vt 0.600000 0.534639
vt 0.587500 0.534639
vt 0.575000 0.534639
vt 0.562500 0.534639
vt 0.550000 0.534639
vt 0.537500 0.534639
vt 0.525000 0.534639
vt 0.512500 0.534639
vt 0.500000 0.534639
vt 0.487500 0.534639
vt 0.475000 0.534639
vt 0.462500 0.534639
vt 0.450000 0.534639
vt 0.437500 0.534639
vt 0.425000 0.534639
vt 0.412500 0.534639
vt 0.400000 0.534639
vt 0.387500 0.534639
vt 0.502756 0.250000
vt 0.502756 0.125000
vt 0.564337 0.125000
vt 0.564337 0.250000
vt 0.503675 0.000000
vt 0.564337 0.000000
vt 0.625000 0.000000
vt 0.641084 0.125000
vt 0.625000 0.250000
vt 0.502756 0.500000
vt 0.502756 0.375000
vt 0.564337 0.375000
vt 0.564337 0.500000
vt 0.625000 0.375000
vt 0.625000 0.500000
vt 0.502756 0.750000
vt 0.502756 0.625000
vt 0.564337 0.625000
vt 0.564337 0.750000
vt 0.625000 0.625000
vt 0.625000 0.750000
vt 0.503675 1.000000
vt 0.502756 0.875000
vt 0.564337 0.875000
vt 0.564337 1.000000
vt 0.625000 0.875000
vt 0.625000 1.000000
vt 0.750000 0.000000
vt 0.750000 0.125000
vt 0.875000 0.000000
vt 0.875000 0.125000
vt 0.875000 0.250000
vt 0.750000 0.250000
vt 0.125000 0.000000
vt 0.250000 0.000000
vt 0.250000 0.125000
vt 0.125000 0.125000
vt 0.375000 0.000000
vt 0.359834 0.125000
vt 0.375000 0.250000
vt 0.250000 0.250000
vt 0.125000 0.250000
vt 0.375000 0.750000
vt 0.439337 0.750000
vt 0.439337 0.875000
vt 0.375000 0.875000
vt 0.439337 1.000000
vt 0.375000 1.000000
vt 0.375000 0.500000
vt 0.439337 0.500000
vt 0.439337 0.625000
vt 0.375000 0.625000
vt 0.439337 0.250000
vt 0.439337 0.375000
vt 0.375000 0.375000
vt 0.439337 0.000000
vt 0.439337 0.125000
vn 0.458308 0.869059 -0.186252
vn 0.387483 0.788854 -0.477040
vn -0.101836 0.915558 -0.389080
vn -0.037998 0.992535 -0.115893
vn 0.292015 0.625990 -0.723093
vn -0.189231 0.761486 -0.619944
vn 0.181236 0.396401 -0.900011
vn -0.291712 0.545434 -0.785752
vn 0.066094 0.122628 -0.990250
vn -0.399135 0.288504 -0.870320
vn -0.042025 -0.168276 -0.984844
vn -0.501026 0.015983 -0.865285
vn -0.132365 -0.447606 -0.884380
vn -0.587340 -0.245501 -0.771208
vn -0.196256 -0.687799 -0.698868
vn -0.649695 -0.470299 -0.597256
vn -0.227264 -0.865300 -0.446773
vn -0.681899 -0.636388 -0.360588
vn -0.222582 -0.962832 -0.153011
vn -0.680910 -0.727493 -0.084356
vn -0.182665 -0.971107 0.153571
vn -0.646773 -0.734789 0.204377
vn -0.111547 -0.889561 0.442989
vn -0.582861 -0.657588 0.477338
vn -0.016272 -0.726324 0.687160
vn -0.495461 -0.503439 0.707862
vn 0.093995 -0.497509 0.862351
vn -0.393105 -0.287536 0.873379
vn 0.208342 -0.225325 0.951747
vn -0.285842 -0.030867 0.957780
vn 0.315816 0.063730 0.946678
vn -0.184070 0.241317 0.952830
vn 0.405970 0.341718 0.847595
vn -0.097760 0.502552 0.859002
vn 0.469993 0.581577 0.663984
vn -0.035407 0.727325 0.685379
vn 0.501572 0.759841 0.413602
vn -0.003090 0.893546 0.448962
vn 0.497621 0.858957 0.120689
vn -0.003947 0.984933 0.172889
vn 0.929124 -0.348994 -0.122194
vn 0.929140 -0.348975 -0.122130
vn 0.929146 -0.348962 -0.122118
vn 0.929134 -0.348970 -0.122184
vn 0.929184 -0.348864 -0.122106
vn 0.929174 -0.348898 -0.122088
vn 0.929128 -0.349017 -0.122099
vn 0.929156 -0.348920 -0.122159
vn 0.929158 -0.348946 -0.122074
vn 0.929133 -0.349016 -0.122069
vn 0.929146 -0.348955 -0.122143
vn 0.929143 -0.348973 -0.122115
vn 0.929151 -0.348954 -0.122104
vn 0.929155 -0.348954 -0.122078
vn 0.929139 -0.348984 -0.122108
vn 0.929136 -0.348992 -0.122110
vn 0.929130 -0.349007 -0.122109
vn 0.929130 -0.349007 -0.122113
vn 0.929151 -0.348921 -0.122198
vn 0.929161 -0.348919 -0.122131
vn 0.929149 -0.348982 -0.122043
vn -0.929052 0.349113 0.122407
vn -0.929132 0.348989 0.122147
vn -0.929175 0.348906 0.122056
vn -0.929279 0.348739 0.121748
vn -0.929076 0.349214 0.121929
vn -0.929215 0.348789 0.122093
vn -0.929198 0.348968 0.121711
vn -0.929080 0.349165 0.122045
vn -0.929331 0.348384 0.122363
vn -0.929257 0.348782 0.121791
vn -0.929202 0.348851 0.122007
vn -0.929168 0.348753 0.122546
vn -0.929383 0.348431 0.121835
vn -0.929284 0.348715 0.121780
vn -0.929114 0.349000 0.122254
vn -0.929214 0.348787 0.122101
vn -0.929129 0.349016 0.122096
vn -0.929095 0.349111 0.122085
vn -0.929115 0.349030 0.122158
vn -0.929111 0.349110 0.121962
vn -0.929073 0.349179 0.122055
vn 0.875073 0.435159 -0.211859
vn 0.819735 0.382126 -0.426631
vn 0.746196 0.265920 -0.610310
vn 0.661744 0.097679 -0.743339
vn 0.575123 -0.105498 -0.811236
vn 0.495602 -0.322364 -0.806511
vn 0.431459 -0.530125 -0.729939
vn 0.389172 -0.707211 -0.590253
vn 0.372698 -0.836003 -0.402736
vn 0.383081 -0.904524 -0.187311
vn 0.418672 -0.907492 0.034247
vn 0.475513 -0.846177 0.240567
vn 0.547824 -0.727751 0.412635
vn 0.628719 -0.564147 0.535211
vn 0.710694 -0.370751 0.597878
vn 0.786409 -0.165116 0.595229
vn 0.849066 0.034417 0.527164
vn 0.892699 0.209303 0.399100
vn 0.912838 0.342671 0.222044
vn 0.907002 0.420961 0.011831
vn -0.545512 0.838081 -0.006073
vn -0.521240 0.834034 0.180821
vn -0.518448 0.775423 0.360460
vn -0.537532 0.667600 0.515140
vn -0.576712 0.520928 0.629314
vn -0.632221 0.350024 0.691216
vn -0.698494 0.171811 0.694685
vn -0.769003 0.003961 0.639233
vn -0.836621 -0.136532 0.530495
vn -0.894674 -0.235827 0.379399
vn -0.937353 -0.284312 0.201337
vn -0.960643 -0.277440 0.013866
vn -0.962336 -0.216389 -0.164574
vn -0.942486 -0.107437 -0.316510
vn -0.903083 0.038676 -0.427721
vn -0.848040 0.207563 -0.487593
vn -0.782695 0.383040 -0.490580
vn -0.713258 0.548464 -0.436406
vn -0.646457 0.687764 -0.330264
vn -0.588669 0.787587 -0.182141
vn -0.782836 0.618979 0.063503
vn -0.770164 0.617587 0.159482
vn -0.768481 0.588057 0.252242
vn -0.778106 0.532855 0.332590
vn -0.798222 0.457220 0.392163
vn -0.826849 0.368823 0.424606
vn -0.861204 0.276452 0.426499
vn -0.897809 0.189404 0.397575
vn -0.932820 0.116790 0.340891
vn -0.962728 0.065866 0.262328
vn -0.984523 0.041446 0.170287
vn -0.996234 0.045714 0.073678
vn -0.996812 0.077744 -0.017929
vn -0.986381 0.133986 -0.095393
vn -0.966029 0.209060 -0.151930
vn -0.937815 0.295456 -0.182230
vn -0.904460 0.385026 -0.183595
vn -0.868987 0.469592 -0.156027
vn -0.834817 0.540980 -0.102086
vn -0.805145 0.592481 -0.026593
vn -0.144105 0.617138 0.773546
vn -0.055259 -0.027852 0.998084
vn -0.014068 -0.004974 0.999889
vn -0.174939 0.628071 0.758237
vn -0.043090 -0.676529 0.735154
vn 0.096766 -0.625327 0.774340
vn 0.312336 -0.579434 0.752797
vn 0.405707 -0.023750 0.913695
vn 0.031201 0.616412 0.786806
vn -0.155290 0.617831 -0.770824
vn -0.214191 0.976792 -0.000229
vn -0.273064 0.961996 -0.000227
vn -0.180864 0.627635 -0.757207
vn 0.311876 0.950123 -0.000024
vn 0.026384 0.616580 -0.786850
vn -0.054061 -0.673846 -0.736891
vn -0.070188 -0.023124 -0.997266
vn -0.022679 -0.003155 -0.999738
vn 0.090371 -0.624340 -0.775908
vn 0.401127 -0.023405 -0.915724
vn 0.308362 -0.579745 -0.754194
vn -0.054212 -0.998529 -0.000226
vn 0.147912 -0.989000 -0.000285
vn 0.622554 -0.782577 -0.000094
vn 0.999637 0.026921 -0.000737
vn -0.471528 -0.556483 -0.684096
vn -0.714640 -0.699492 0.000922
vn -0.972826 0.231483 0.005036
vn -0.453714 0.098309 -0.885708
vn -0.451785 -0.564946 0.690454
vn -0.430963 0.093139 0.897550
vn 0.004771 0.718716 0.695287
vn -0.176775 0.984251 0.000383
vn -0.015977 0.722298 -0.691398
vn -0.233431 -0.644545 -0.728060
vn -0.301471 -0.953475 0.000740
vn -0.215368 -0.649582 0.729150
vn 0.006827 0.661217 -0.750164
vn -0.089039 0.002694 -0.996025
vn 0.025870 0.656505 0.753878
vn 0.050974 0.998700 0.000526
vn -0.064145 -0.005739 0.997924
s 1
g mushroom05
usemtl initialShadingGroup
f 43/86/1 44/87/2 82/126/3 63/107/4
f 44/87/2 45/88/5 81/125/6 82/126/3
f 45/88/5 46/89/7 80/124/8 81/125/6
f 46/89/7 47/90/9 79/123/10 80/124/8
f 47/90/9 48/91/11 78/122/12 79/123/10
f 48/91/11 49/92/13 77/121/14 78/122/12
f 49/92/13 50/93/15 76/120/16 77/121/14
f 50/93/15 51/94/17 75/119/18 76/120/16
f 51/94/17 52/95/19 74/118/20 75/119/18
f 52/95/19 53/96/21 73/117/22 74/118/20
f 53/96/21 54/97/23 72/116/24 73/117/22
f 54/97/23 55/98/25 71/115/26 72/116/24
f 55/98/25 56/99/27 70/114/28 71/115/26
f 56/99/27 57/100/29 69/113/30 70/114/28
f 57/100/29 58/101/31 68/112/32 69/113/30
f 58/101/31 59/102/33 67/111/34 68/112/32
f 59/102/33 60/103/35 66/110/36 67/111/34
f 60/103/35 61/104/37 65/109/38 66/110/36
f 61/104/37 62/105/39 64/108/40 65/109/38
f 62/105/39 43/85/1 63/106/4 64/108/40
s 2
f 2/2/41 1/1/42 41/83/43
f 3/3/44 2/2/41 41/83/43
f 4/4/45 3/3/44 41/83/43
f 5/5/46 4/4/45 41/83/43
f 6/6/47 5/5/46 41/83/43
f 7/7/48 6/6/47 41/83/43
f 8/8/49 7/7/48 41/83/43
f 9/9/50 8/8/49 41/83/43
f 10/10/51 9/9/50 41/83/43
f 11/11/52 10/10/51 41/83/43
f 12/12/53 11/11/52 41/83/43
f 13/13/54 12/12/53 41/83/43
f 14/14/55 13/13/54 41/83/43
f 15/15/56 14/14/55 41/83/43
f 16/16/57 15/15/56 41/83/43
f 17/17/58 16/16/57 41/83/43
f 18/18/59 17/17/58 41/83/43
f 19/19/60 18/18/59 41/83/43
f 20/20/61 19/19/60 41/83/43
f 1/1/42 20/20/61 41/83/43
s 3
f 21/81/62 22/80/63 42/84/64
f 22/80/63 23/79/65 42/84/64
f 23/79/65 24/78/66 42/84/64
f 24/78/66 25/77/67 42/84/64
f 25/77/67 26/76/68 42/84/64
f 26/76/68 27/75/69 42/84/64
f 27/75/69 28/74/70 42/84/64
f 28/74/70 29/73/71 42/84/64
f 29/73/71 30/72/72 42/84/64
f 30/72/72 31/71/73 42/84/64
f 31/71/73 32/70/74 42/84/64
f 32/70/74 33/69/75 42/84/64
f 33/69/75 34/68/76 42/84/64
f 34/68/76 35/67/77 42/84/64
f 35/67/77 36/66/78 42/84/64
f 36/66/78 37/65/79 42/84/64
f 37/65/79 38/64/80 42/84/64
f 38/64/80 39/63/81 42/84/64
f 39/63/81 40/82/82 42/84/64
f 40/82/82 21/81/62 42/84/64
s 1
f 1/21/83 2/22/84 44/87/2 43/86/1
f 2/22/84 3/23/85 45/88/5 44/87/2
f 3/23/85 4/24/86 46/89/7 45/88/5
f 4/24/86 5/25/87 47/90/9 46/89/7
f 5/25/87 6/26/88 48/91/11 47/90/9
f 6/26/88 7/27/89 49/92/13 48/91/11
f 7/27/89 8/28/90 50/93/15 49/92/13
f 8/28/90 9/29/91 51/94/17 50/93/15
f 9/29/91 10/30/92 52/95/19 51/94/17
f 10/30/92 11/31/93 53/96/21 52/95/19
f 11/31/93 12/32/94 54/97/23 53/96/21
f 12/32/94 13/33/95 55/98/25 54/97/23
f 13/33/95 14/34/96 56/99/27 55/98/25
f 14/34/96 15/35/97 57/100/29 56/99/27
f 15/35/97 16/36/98 58/101/31 57/100/29
f 16/36/98 17/37/99 59/102/33 58/101/31
f 17/37/99 18/38/100 60/103/35 59/102/33
f 18/38/100 19/39/101 61/104/37 60/103/35
f 19/39/101 20/40/102 62/105/39 61/104/37
f 20/40/102 1/41/83 43/85/1 62/105/39
f 64/108/40 63/106/4 83/127/103 84/129/104
f 65/109/38 64/108/40 84/129/104 85/130/105
f 66/110/36 65/109/38 85/130/105 86/131/106
f 67/111/34 66/110/36 86/131/106 87/132/107
f 68/112/32 67/111/34 87/132/107 88/133/108
f 69/113/30 68/112/32 88/133/108 89/134/109
f 70/114/28 69/113/30 89/134/109 90/135/110
f 71/115/26 70/114/28 90/135/110 91/136/111
f 72/116/24 71/115/26 91/136/111 92/137/112
f 73/117/22 72/116/24 92/137/112 93/138/113
f 74/118/20 73/117/22 93/138/113 94/139/114
f 75/119/18 74/118/20 94/139/114 95/140/115
f 76/120/16 75/119/18 95/140/115 96/141/116
f 77/121/14 76/120/16 96/141/116 97/142/117
f 78/122/12 77/121/14 97/142/117 98/143/118
f 79/123/10 78/122/12 98/143/118 99/144/119
f 80/124/8 79/123/10 99/144/119 100/145/120
f 81/125/6 80/124/8 100/145/120 101/146/121
f 82/126/3 81/125/6 101/146/121 102/147/122
f 63/107/4 82/126/3 102/147/122 83/128/103
f 84/129/104 83/127/103 21/62/123 40/61/124
f 85/130/105 84/129/104 40/61/124 39/60/125
f 86/131/106 85/130/105 39/60/125 38/59/126
f 87/132/107 86/131/106 38/59/126 37/58/127
f 88/133/108 87/132/107 37/58/127 36/57/128
f 89/134/109 88/133/108 36/57/128 35/56/129
f 90/135/110 89/134/109 35/56/129 34/55/130
f 91/136/111 90/135/110 34/55/130 33/54/131
f 92/137/112 91/136/111 33/54/131 32/53/132
f 93/138/113 92/137/112 32/53/132 31/52/133
f 94/139/114 93/138/113 31/52/133 30/51/134
f 95/140/115 94/139/114 30/51/134 29/50/135
f 96/141/116 95/140/115 29/50/135 28/49/136
f 97/142/117 96/141/116 28/49/136 27/48/137
f 98/143/118 97/142/117 27/48/137 26/47/138
f 99/144/119 98/143/118 26/47/138 25/46/139
f 100/145/120 99/144/119 25/46/139 24/45/140
f 101/146/121 100/145/120 24/45/140 23/44/141
f 102/147/122 101/146/121 23/44/141 22/43/142
f 83/128/103 102/147/122 22/43/142 21/42/123
s 4
f 114/148/143 125/149/144 135/150/145 128/151/146
f 125/149/144 111/152/147 126/153/148 135/150/145
f 135/150/145 126/153/148 104/154/149 127/155/150
f 128/151/146 135/150/145 127/155/150 106/156/151
f 113/157/152 129/158/153 136/159/154 131/160/155
f 129/158/153 114/148/143 128/151/146 136/159/154
f 136/159/154 128/151/146 106/156/151 130/161/156
f 131/160/155 136/159/154 130/161/156 108/162/157
f 112/163/158 132/164/159 137/165/160 134/166/161
f 132/164/159 113/157/152 131/160/155 137/165/160
f 137/165/160 131/160/155 108/162/157 133/167/162
f 134/166/161 137/165/160 133/167/162 110/168/163
f 111/169/147 115/170/164 138/171/165 126/172/148
f 115/170/164 112/163/158 134/166/161 138/171/165
f 138/171/165 134/166/161 110/168/163 116/173/166
f 126/172/148 138/171/165 116/173/166 104/174/149
f 104/154/149 116/175/166 139/176/167 127/155/150
f 116/175/166 110/177/163 133/178/162 139/176/167
f 139/176/167 133/178/162 108/179/157 130/180/156
f 127/155/150 139/176/167 130/180/156 106/156/151
f 109/181/168 117/182/169 140/183/170 120/184/171
f 117/182/169 103/185/172 118/186/173 140/183/170
f 140/183/170 118/186/173 105/187/174 119/188/175
f 120/184/171 140/183/170 119/188/175 107/189/176
f 109/190/168 121/191/177 141/192/178 117/193/169
f 121/191/177 112/163/158 115/170/164 141/192/178
f 141/192/178 115/170/164 111/169/147 122/194/179
f 117/193/169 141/192/178 122/194/179 103/195/172
f 107/196/176 123/197/180 142/198/181 120/199/171
f 123/197/180 113/157/152 132/164/159 142/198/181
f 142/198/181 132/164/159 112/163/158 121/191/177
f 120/199/171 142/198/181 121/191/177 109/190/168
f 105/187/174 124/200/182 143/201/183 119/202/175
f 124/200/182 114/148/143 129/158/153 143/201/183
f 143/201/183 129/158/153 113/157/152 123/197/180
f 119/202/175 143/201/183 123/197/180 107/196/176
f 103/185/172 122/203/179 144/204/184 118/186/173
f 122/203/179 111/152/147 125/149/144 144/204/184
f 144/204/184 125/149/144 114/148/143 124/200/182
f 118/186/173 144/204/184 124/200/182 105/187/174
