14
14
11111100111111
10000000000001
10000000000001
10000000000001
10000000000001
10000111110001
00000111110000
00000111110000
10000111110001
10000111110001
10000000000001
10000000000001
10000000000001
11111111111111