14
14
11111100111111
10000000000001
10111000000001
10111000011101
10111000011101
10000000011101
00000000000000
00000000000000
10000000000001
10000111110001
10000111110001
11111111111111
11111111111111
11111111111111