14
14
11111111111111
10000001111111
10000001111111
10000001111111
10000000111111
10000000000001
10000000000001
10000000000001
10000000000001
10000000000001
10000000000001
10000000000001
10000000000001
11111100111111