# This file uses meters as units for non-parametric coordinates.

mtllib mushroom01_mesh.mtl
g default
v -16.325195 23.764893 -12.347900
v -17.447510 22.551880 -14.937256
v -19.396973 21.490967 -17.061035
v -21.982422 20.686035 -18.511230
v -24.950928 20.215866 -19.145996
v -28.011963 20.126465 -18.903320
v -30.865479 20.426605 -17.806885
v -33.232666 21.086884 -15.963867
v -34.881592 22.042694 -13.554932
v -35.650879 23.200455 -10.815430
v -35.465088 24.446854 -8.013916
v -34.342529 25.659866 -5.424805
v -32.393066 26.720764 -3.301025
v -29.807861 27.525711 -1.850586
v -26.839355 27.995880 -1.215820
v -23.778320 28.085281 -1.458740
v -20.924561 27.785156 -2.555176
v -18.557373 27.124863 -4.398193
v -16.908691 26.169052 -6.807129
v -16.139404 25.011292 -9.546631
v -24.885742 35.799469 -15.530518
v -25.094238 35.574005 -16.011963
v -25.456787 35.376801 -16.406738
v -25.937256 35.227173 -16.676270
v -26.489014 35.139786 -16.794189
v -27.058105 35.123169 -16.749023
v -27.588379 35.178955 -16.545410
v -28.028564 35.301697 -16.202637
v -28.334961 35.479355 -15.754883
v -28.478027 35.694565 -15.245605
v -28.443359 35.926224 -14.725098
v -28.234619 36.151718 -14.243652
v -27.872314 36.348907 -13.848877
v -27.391846 36.498535 -13.579346
v -26.840088 36.585922 -13.461426
v -26.270996 36.602539 -13.506592
v -25.740723 36.546753 -13.710205
v -25.300781 36.424026 -14.052979
v -24.994141 36.246353 -14.500732
v -24.851074 36.031143 -15.009766
v -25.895020 24.105865 -10.180908
v -26.664551 35.862854 -15.127930
v -14.553711 25.593353 -13.477539
v -15.899414 24.139282 -16.581299
v -18.236084 22.867538 -19.127197
v -21.335693 21.902634 -20.865723
v -24.893799 21.339020 -21.626709
v -28.563232 21.231857 -21.335693
v -31.984131 21.591644 -20.021240
v -34.821533 22.383148 -17.812012
v -36.798096 23.528900 -14.924072
v -37.720215 24.916748 -11.640381
v -37.497559 26.410843 -8.282227
v -36.151855 27.864929 -5.178223
v -33.815186 29.136658 -2.632568
v -30.715820 30.101563 -0.894043
v -27.157471 30.665192 -0.133057
v -23.488281 30.772354 -0.424072
v -20.067383 30.412567 -1.738525
v -17.229736 29.621063 -3.947754
v -15.253174 28.475311 -6.835693
v -14.331055 27.087448 -10.119385
v -15.526367 30.367554 -15.473145
v -15.316650 31.774185 -12.311523
v -16.184814 33.080826 -9.219971
v -18.045654 34.159515 -6.501221
v -20.717285 34.904694 -4.421143
v -23.937988 35.243423 -3.183594
v -27.392334 35.142532 -2.909668
v -30.742432 34.611908 -3.626221
v -33.660400 33.703476 -5.262939
v -35.860596 32.506165 -7.659668
v -37.127197 31.137192 -10.582031
v -37.336914 29.730530 -13.743652
v -36.468750 28.423904 -16.835205
v -34.607910 27.345215 -19.553955
v -31.936279 26.600021 -21.634033
v -28.715820 26.261307 -22.871338
v -25.261475 26.362198 -23.145508
v -21.911133 26.892822 -22.428955
v -18.993408 27.801254 -20.792236
v -16.793213 28.998566 -18.395508
v -18.876953 33.743103 -16.175781
v -18.728271 34.740845 -13.933350
v -19.344238 35.667648 -11.740479
v -20.664063 36.432770 -9.812012
v -22.558838 36.961334 -8.336670
v -24.843262 37.201584 -7.458984
v -27.293457 37.130020 -7.264648
v -29.669678 36.753647 -7.772705
v -31.739502 36.109283 -8.933838
v -33.300049 35.260040 -10.633789
v -34.198730 34.289017 -12.706543
v -34.347412 33.291290 -14.949219
v -33.731445 32.364487 -17.141846
v -32.411621 31.599365 -19.070313
v -30.516602 31.070801 -20.545654
v -28.232422 30.830536 -21.423584
v -25.781982 30.902100 -21.617920
v -23.405762 31.278473 -21.109619
v -21.336182 31.922836 -19.948730
v -19.775391 32.772079 -18.248535
v -27.210938 23.804428 -6.414551
v -5.485352 -1.845306 2.530762
v -23.010254 25.540848 -6.414551
v -4.469482 4.836182 2.530762
v -23.010254 25.540848 -11.476074
v -4.469482 4.836182 -2.530762
v -27.210938 23.804428 -11.476074
v -5.485352 -1.845306 -2.530762
v -22.132324 5.245758 1.979004
v -22.132324 5.245758 -4.854248
v -17.936523 12.298294 -4.854248
v -17.936523 12.298294 1.979004
v -22.831787 4.070343 -1.437744
v -3.180664 -3.783676 0.000000
v -28.389893 26.264374 -10.063477
v -25.449463 26.915527 -6.646973
v -22.509277 27.566696 -10.063477
v -25.449463 26.915527 -13.479980
v -26.820068 16.310898 -9.167236
v -26.820068 16.310898 -2.333984
v -21.463623 20.217850 -9.167236
v -21.463623 20.217850 -2.333984
v -20.034424 8.772018 3.117676
v -12.341797 -0.972961 3.416504
v -2.799805 0.841187 3.416504
v -10.056641 7.702438 3.416504
v -17.237305 13.473724 -1.437744
v -2.418945 5.466049 0.000000
v -10.056641 7.702438 -3.416504
v -20.034424 8.772018 -5.992920
v -2.799805 0.841187 -3.416504
v -12.341797 -0.972961 -3.416504
v -11.199219 3.364746 4.555420
v -9.675537 9.148346 0.000000
v -11.199219 3.364746 -4.555420
v -12.722900 -2.418854 0.000000
v 0.000000 0.000000 0.000000
v -25.885498 29.799255 -11.501221
v -27.712891 15.659744 -5.750732
v -24.141846 18.264374 -10.305908
v -20.570801 20.869003 -5.750732
v -24.141846 18.264374 -1.195068
vt 0.648603 0.107966
vt 0.626409 0.064408
vt 0.591842 0.029841
vt 0.548284 0.007647
vt 0.500000 -0.000000
vt 0.451716 0.007647
vt 0.408159 0.029841
vt 0.373591 0.064409
vt 0.351397 0.107966
vt 0.343750 0.156250
vt 0.351397 0.204534
vt 0.373591 0.248091
vt 0.408159 0.282659
vt 0.451716 0.304853
vt 0.500000 0.312500
vt 0.548284 0.304853
vt 0.591841 0.282659
vt 0.626409 0.248091
vt 0.648603 0.204534
vt 0.656250 0.156250
vt 0.375000 0.312500
vt 0.387500 0.312500
vt 0.400000 0.312500
vt 0.412500 0.312500
vt 0.425000 0.312500
vt 0.437500 0.312500
vt 0.450000 0.312500
vt 0.462500 0.312500
vt 0.475000 0.312500
vt 0.487500 0.312500
vt 0.500000 0.312500
vt 0.512500 0.312500
vt 0.525000 0.312500
vt 0.537500 0.312500
vt 0.550000 0.312500
vt 0.562500 0.312500
vt 0.575000 0.312500
vt 0.587500 0.312500
vt 0.600000 0.312500
vt 0.612500 0.312500
vt 0.625000 0.312500
vt 0.375000 0.688440
vt 0.387500 0.688440
vt 0.400000 0.688440
vt 0.412500 0.688440
vt 0.425000 0.688440
vt 0.437500 0.688440
vt 0.450000 0.688440
vt 0.462500 0.688440
vt 0.475000 0.688440
vt 0.487500 0.688440
vt 0.500000 0.688440
vt 0.512500 0.688440
vt 0.525000 0.688440
vt 0.537500 0.688440
vt 0.550000 0.688440
vt 0.562500 0.688440
vt 0.575000 0.688440
vt 0.587500 0.688440
vt 0.600000 0.688440
vt 0.612500 0.688440
vt 0.625000 0.688440
vt 0.648603 0.795466
vt 0.626409 0.751908
vt 0.591842 0.717341
vt 0.548284 0.695147
vt 0.500000 0.687500
vt 0.451716 0.695147
vt 0.408159 0.717341
vt 0.373591 0.751909
vt 0.351397 0.795466
vt 0.343750 0.843750
vt 0.351397 0.892034
vt 0.373591 0.935591
vt 0.408159 0.970159
vt 0.451716 0.992353
vt 0.500000 1.000000
vt 0.548284 0.992353
vt 0.591841 0.970159
vt 0.626409 0.935591
vt 0.648603 0.892034
vt 0.656250 0.843750
vt 0.500000 0.150000
vt 0.500000 0.837500
vt 0.625000 0.341882
vt 0.375000 0.341882
vt 0.387500 0.341882
vt 0.400000 0.341882
vt 0.412500 0.341882
vt 0.425000 0.341882
vt 0.437500 0.341882
vt 0.450000 0.341882
vt 0.462500 0.341882
vt 0.475000 0.341882
vt 0.487500 0.341882
vt 0.500000 0.341882
vt 0.512500 0.341882
vt 0.525000 0.341882
vt 0.537500 0.341882
vt 0.550000 0.341882
vt 0.562500 0.341882
vt 0.575000 0.341882
vt 0.587500 0.341882
vt 0.600000 0.341882
vt 0.612500 0.341882
vt 0.625000 0.395001
vt 0.375000 0.395001
vt 0.612500 0.395001
vt 0.600000 0.395001
vt 0.587500 0.395001
vt 0.575000 0.395001
vt 0.562500 0.395001
vt 0.550000 0.395001
vt 0.537500 0.395001
vt 0.525000 0.395001
vt 0.512500 0.395001
vt 0.500000 0.395001
vt 0.487500 0.395001
vt 0.475000 0.395001
vt 0.462500 0.395001
vt 0.450000 0.395001
vt 0.437500 0.395001
vt 0.425000 0.395001
vt 0.412500 0.395001
vt 0.400000 0.395001
vt 0.387500 0.395001
vt 0.625000 0.534639
vt 0.375000 0.534639
vt 0.612500 0.534639
vt 0.600000 0.534639
vt 0.587500 0.534639
vt 0.575000 0.534639
vt 0.562500 0.534639
vt 0.550000 0.534639
vt 0.537500 0.534639
vt 0.525000 0.534639
vt 0.512500 0.534639
vt 0.500000 0.534639
vt 0.487500 0.534639
vt 0.475000 0.534639
vt 0.462500 0.534639
vt 0.450000 0.534639
vt 0.437500 0.534639
vt 0.425000 0.534639
vt 0.412500 0.534639
vt 0.400000 0.534639
vt 0.387500 0.534639
vt 0.502756 0.250000
vt 0.502756 0.125000
vt 0.564337 0.125000
vt 0.564337 0.250000
vt 0.503675 0.000000
vt 0.564337 0.000000
vt 0.625000 0.000000
vt 0.641084 0.125000
vt 0.625000 0.250000
vt 0.502756 0.500000
vt 0.502756 0.375000
vt 0.564337 0.375000
vt 0.564337 0.500000
vt 0.625000 0.375000
vt 0.625000 0.500000
vt 0.502756 0.750000
vt 0.502756 0.625000
vt 0.564337 0.625000
vt 0.564337 0.750000
vt 0.625000 0.625000
vt 0.625000 0.750000
vt 0.503675 1.000000
vt 0.502756 0.875000
vt 0.564337 0.875000
vt 0.564337 1.000000
vt 0.625000 0.875000
vt 0.625000 1.000000
vt 0.750000 0.000000
vt 0.750000 0.125000
vt 0.875000 0.000000
vt 0.875000 0.125000
vt 0.875000 0.250000
vt 0.750000 0.250000
vt 0.125000 0.000000
vt 0.250000 0.000000
vt 0.250000 0.125000
vt 0.125000 0.125000
vt 0.375000 0.000000
vt 0.359834 0.125000
vt 0.375000 0.250000
vt 0.250000 0.250000
vt 0.125000 0.250000
vt 0.375000 0.750000
vt 0.439337 0.750000
vt 0.439337 0.875000
vt 0.375000 0.875000
vt 0.439337 1.000000
vt 0.375000 1.000000
vt 0.375000 0.500000
vt 0.439337 0.500000
vt 0.439337 0.625000
vt 0.375000 0.625000
vt 0.439337 0.250000
vt 0.439337 0.375000
vt 0.375000 0.375000
vt 0.439337 0.000000
vt 0.439337 0.125000
vn 0.973284 -0.166377 -0.158234
vn 0.860726 -0.286705 -0.420655
vn 0.778705 0.187407 -0.598746
vn 0.884830 0.303127 -0.353823
vn 0.664346 -0.392267 -0.636217
vn 0.594183 0.086238 -0.799693
vn 0.403333 -0.472641 -0.783539
vn 0.349332 0.009539 -0.936951
vn 0.103385 -0.519842 -0.847984
vn 0.068090 -0.035158 -0.997060
vn -0.205869 -0.529185 -0.823153
vn -0.221895 -0.043478 -0.974101
vn -0.493905 -0.499768 -0.711540
vn -0.492218 -0.014580 -0.870350
vn -0.732336 -0.434553 -0.524259
vn -0.716414 0.048660 -0.695976
vn -0.897793 -0.340027 -0.279911
vn -0.872502 0.140029 -0.468115
vn -0.974234 -0.225522 -0.002628
vn -0.945243 0.250598 -0.209083
vn -0.954427 -0.102321 0.280356
vn -0.927549 0.369522 0.055730
vn -0.840574 0.017510 0.541414
vn -0.821207 0.485149 0.300416
vn -0.644010 0.122366 0.755167
vn -0.636633 0.586205 0.501061
vn -0.384001 0.202046 0.900955
vn -0.391955 0.662769 0.638050
vn -0.085830 0.248829 0.964737
vn -0.111050 0.707389 0.698046
vn 0.221530 0.258217 0.940345
vn 0.178613 0.715713 0.675169
vn 0.508262 0.229306 0.830114
vn 0.448721 0.686921 0.571655
vn 0.746514 0.164823 0.644632
vn 0.672884 0.623821 0.397586
vn 0.912970 0.070973 0.401806
vn 0.829143 0.532568 0.169981
vn 0.991193 -0.043132 0.125203
vn 0.902192 0.422068 -0.088929
vn 0.058604 -0.913521 0.402548
vn 0.058607 -0.913516 0.402560
vn 0.058602 -0.913519 0.402553
vn 0.058608 -0.913520 0.402550
vn 0.058611 -0.913518 0.402553
vn 0.058602 -0.913519 0.402552
vn 0.058593 -0.913520 0.402552
vn 0.058596 -0.913521 0.402549
vn 0.058593 -0.913519 0.402555
vn 0.058593 -0.913523 0.402546
vn 0.058601 -0.913527 0.402536
vn 0.058604 -0.913516 0.402559
vn 0.058600 -0.913515 0.402563
vn 0.058591 -0.913521 0.402549
vn 0.058599 -0.913520 0.402551
vn 0.058618 -0.913517 0.402556
vn 0.058611 -0.913515 0.402560
vn 0.058601 -0.913516 0.402560
vn 0.058602 -0.913515 0.402561
vn 0.058606 -0.913521 0.402548
vn 0.058612 -0.913519 0.402551
vn -0.058542 0.913546 -0.402501
vn -0.058558 0.913540 -0.402511
vn -0.058607 0.913519 -0.402552
vn -0.058610 0.913513 -0.402565
vn -0.058639 0.913501 -0.402588
vn -0.058632 0.913502 -0.402587
vn -0.058558 0.913500 -0.402603
vn -0.058596 0.913517 -0.402558
vn -0.058664 0.913522 -0.402538
vn -0.058642 0.913519 -0.402548
vn -0.058649 0.913503 -0.402583
vn -0.058621 0.913513 -0.402564
vn -0.058611 0.913544 -0.402494
vn -0.058646 0.913527 -0.402528
vn -0.058662 0.913520 -0.402542
vn -0.058638 0.913523 -0.402539
vn -0.058549 0.913520 -0.402557
vn -0.058590 0.913540 -0.402507
vn -0.058634 0.913534 -0.402515
vn -0.058548 0.913492 -0.402622
vn -0.058541 0.913507 -0.402589
vn 0.747750 -0.654172 0.113700
vn 0.669077 -0.738543 -0.083015
vn 0.526459 -0.813722 -0.246370
vn 0.333740 -0.871734 -0.358745
vn 0.110632 -0.906337 -0.407815
vn -0.119437 -0.913802 -0.388201
vn -0.332328 -0.893442 -0.302192
vn -0.506072 -0.847627 -0.159435
vn -0.623496 -0.781442 0.024500
vn -0.673981 -0.701936 0.230293
vn -0.654131 -0.617229 0.437196
vn -0.567547 -0.535600 0.625318
vn -0.423859 -0.464606 0.777486
vn -0.237239 -0.410596 0.880414
vn -0.025042 -0.378337 0.925329
vn 0.193398 -0.370643 0.908417
vn 0.398390 -0.388271 0.830982
vn 0.571029 -0.429903 0.699363
vn 0.694523 -0.492063 0.524892
vn 0.755942 -0.569234 0.323303
vn 0.539901 0.708590 -0.454320
vn 0.552822 0.784118 -0.282041
vn 0.506964 0.854563 -0.112736
vn 0.406457 0.912925 0.036880
vn 0.260897 0.953349 0.151853
vn 0.084559 0.971717 0.220490
vn -0.104996 0.966111 0.235807
vn -0.288812 0.937063 0.196218
vn -0.448478 0.887521 0.105707
vn -0.568186 0.822473 -0.026500
vn -0.636257 0.748452 -0.187073
vn -0.646288 0.672816 -0.360043
vn -0.597713 0.602999 -0.528329
vn -0.495701 0.545728 -0.675619
vn -0.350425 0.506451 -0.787852
vn -0.176061 0.488842 -0.854421
vn 0.010618 0.494553 -0.869083
vn 0.191725 0.522978 -0.830503
vn 0.349887 0.571445 -0.742314
vn 0.469887 0.635343 -0.612818
vn 0.245372 0.858352 -0.450583
vn 0.252740 0.897212 -0.362122
vn 0.229845 0.933646 -0.274729
vn 0.178513 0.963982 -0.197159
vn 0.103545 0.985101 -0.137311
vn 0.012300 0.994765 -0.101443
vn -0.085984 0.991910 -0.093384
vn -0.181270 0.976800 -0.114027
vn -0.263811 0.951009 -0.161201
vn -0.325319 0.917226 -0.229924
vn -0.359821 0.878930 -0.313067
vn -0.364243 0.839950 -0.402258
vn -0.338578 0.804144 -0.488588
vn -0.285723 0.774931 -0.563778
vn -0.211041 0.754989 -0.620849
vn -0.121797 0.746121 -0.654576
vn -0.026476 0.749076 -0.661954
vn 0.066029 0.763546 -0.642368
vn 0.147043 0.788219 -0.597569
vn 0.208862 0.820839 -0.531601
vn 0.194623 0.553977 0.809464
vn -0.270701 0.117754 0.955434
vn -0.037936 -0.013982 0.999182
vn 0.235207 0.528478 0.815714
vn -0.634235 -0.351656 0.688538
vn -0.278223 -0.580476 0.765271
vn 0.085068 -0.628063 0.773499
vn 0.436423 -0.067502 0.897206
vn 0.432363 0.484904 0.760217
vn 0.634077 0.233337 -0.737225
vn 0.733817 0.678884 0.025076
vn 0.489794 0.871538 0.022872
vn 0.383972 0.486450 -0.784813
vn 0.732011 0.681293 0.000000
vn 0.432363 0.484904 -0.760217
vn -0.453019 -0.554151 -0.698348
vn 0.158465 -0.191725 -0.968571
vn 0.115340 -0.076546 -0.990373
vn -0.188938 -0.639480 -0.745230
vn 0.436423 -0.067502 -0.897206
vn 0.085068 -0.628063 -0.773499
vn -0.760033 -0.649556 0.020643
vn -0.383368 -0.923389 0.019528
vn 0.313004 -0.949752 0.000000
vn 0.985430 -0.170083 0.000000
vn -0.697220 -0.220017 -0.682258
vn -0.968227 0.250020 -0.005117
vn -0.284257 0.946817 -0.150781
vn -0.013662 0.065213 -0.997778
vn -0.806048 0.273144 0.525052
vn -0.253448 0.683346 0.684691
vn 0.475056 0.629180 0.615186
vn 0.808779 0.587772 -0.020023
vn 0.750573 0.005819 -0.660762
vn -0.567558 -0.404512 -0.717111
vn -0.962635 -0.270659 -0.008760
vn -0.816485 0.005687 0.577338
vn 0.771134 -0.025103 -0.636178
vn 0.220392 -0.290034 -0.931294
vn 0.421147 0.578896 0.698223
vn 0.931020 0.364793 -0.011325
vn -0.338716 0.346558 0.874739
s 1
g mushroom01
usemtl initialShadingGroup
f 43/86/1 44/87/2 82/126/3 63/107/4
f 44/87/2 45/88/5 81/125/6 82/126/3
f 45/88/5 46/89/7 80/124/8 81/125/6
f 46/89/7 47/90/9 79/123/10 80/124/8
f 47/90/9 48/91/11 78/122/12 79/123/10
f 48/91/11 49/92/13 77/121/14 78/122/12
f 49/92/13 50/93/15 76/120/16 77/121/14
f 50/93/15 51/94/17 75/119/18 76/120/16
f 51/94/17 52/95/19 74/118/20 75/119/18
f 52/95/19 53/96/21 73/117/22 74/118/20
f 53/96/21 54/97/23 72/116/24 73/117/22
f 54/97/23 55/98/25 71/115/26 72/116/24
f 55/98/25 56/99/27 70/114/28 71/115/26
f 56/99/27 57/100/29 69/113/30 70/114/28
f 57/100/29 58/101/31 68/112/32 69/113/30
f 58/101/31 59/102/33 67/111/34 68/112/32
f 59/102/33 60/103/35 66/110/36 67/111/34
f 60/103/35 61/104/37 65/109/38 66/110/36
f 61/104/37 62/105/39 64/108/40 65/109/38
f 62/105/39 43/85/1 63/106/4 64/108/40
s 2
f 2/2/41 1/1/42 41/83/43
f 3/3/44 2/2/41 41/83/43
f 4/4/45 3/3/44 41/83/43
f 5/5/46 4/4/45 41/83/43
f 6/6/47 5/5/46 41/83/43
f 7/7/48 6/6/47 41/83/43
f 8/8/49 7/7/48 41/83/43
f 9/9/50 8/8/49 41/83/43
f 10/10/51 9/9/50 41/83/43
f 11/11/52 10/10/51 41/83/43
f 12/12/53 11/11/52 41/83/43
f 13/13/54 12/12/53 41/83/43
f 14/14/55 13/13/54 41/83/43
f 15/15/56 14/14/55 41/83/43
f 16/16/57 15/15/56 41/83/43
f 17/17/58 16/16/57 41/83/43
f 18/18/59 17/17/58 41/83/43
f 19/19/60 18/18/59 41/83/43
f 20/20/61 19/19/60 41/83/43
f 1/1/42 20/20/61 41/83/43
s 3
f 21/81/62 22/80/63 42/84/64
f 22/80/63 23/79/65 42/84/64
f 23/79/65 24/78/66 42/84/64
f 24/78/66 25/77/67 42/84/64
f 25/77/67 26/76/68 42/84/64
f 26/76/68 27/75/69 42/84/64
f 27/75/69 28/74/70 42/84/64
f 28/74/70 29/73/71 42/84/64
f 29/73/71 30/72/72 42/84/64
f 30/72/72 31/71/73 42/84/64
f 31/71/73 32/70/74 42/84/64
f 32/70/74 33/69/75 42/84/64
f 33/69/75 34/68/76 42/84/64
f 34/68/76 35/67/77 42/84/64
f 35/67/77 36/66/78 42/84/64
f 36/66/78 37/65/79 42/84/64
f 37/65/79 38/64/80 42/84/64
f 38/64/80 39/63/81 42/84/64
f 39/63/81 40/82/82 42/84/64
f 40/82/82 21/81/62 42/84/64
s 1
f 1/21/83 2/22/84 44/87/2 43/86/1
f 2/22/84 3/23/85 45/88/5 44/87/2
f 3/23/85 4/24/86 46/89/7 45/88/5
f 4/24/86 5/25/87 47/90/9 46/89/7
f 5/25/87 6/26/88 48/91/11 47/90/9
f 6/26/88 7/27/89 49/92/13 48/91/11
f 7/27/89 8/28/90 50/93/15 49/92/13
f 8/28/90 9/29/91 51/94/17 50/93/15
f 9/29/91 10/30/92 52/95/19 51/94/17
f 10/30/92 11/31/93 53/96/21 52/95/19
f 11/31/93 12/32/94 54/97/23 53/96/21
f 12/32/94 13/33/95 55/98/25 54/97/23
f 13/33/95 14/34/96 56/99/27 55/98/25
f 14/34/96 15/35/97 57/100/29 56/99/27
f 15/35/97 16/36/98 58/101/31 57/100/29
f 16/36/98 17/37/99 59/102/33 58/101/31
f 17/37/99 18/38/100 60/103/35 59/102/33
f 18/38/100 19/39/101 61/104/37 60/103/35
f 19/39/101 20/40/102 62/105/39 61/104/37
f 20/40/102 1/41/83 43/85/1 62/105/39
f 64/108/40 63/106/4 83/127/103 84/129/104
f 65/109/38 64/108/40 84/129/104 85/130/105
f 66/110/36 65/109/38 85/130/105 86/131/106
f 67/111/34 66/110/36 86/131/106 87/132/107
f 68/112/32 67/111/34 87/132/107 88/133/108
f 69/113/30 68/112/32 88/133/108 89/134/109
f 70/114/28 69/113/30 89/134/109 90/135/110
f 71/115/26 70/114/28 90/135/110 91/136/111
f 72/116/24 71/115/26 91/136/111 92/137/112
f 73/117/22 72/116/24 92/137/112 93/138/113
f 74/118/20 73/117/22 93/138/113 94/139/114
f 75/119/18 74/118/20 94/139/114 95/140/115
f 76/120/16 75/119/18 95/140/115 96/141/116
f 77/121/14 76/120/16 96/141/116 97/142/117
f 78/122/12 77/121/14 97/142/117 98/143/118
f 79/123/10 78/122/12 98/143/118 99/144/119
f 80/124/8 79/123/10 99/144/119 100/145/120
f 81/125/6 80/124/8 100/145/120 101/146/121
f 82/126/3 81/125/6 101/146/121 102/147/122
f 63/107/4 82/126/3 102/147/122 83/128/103
f 84/129/104 83/127/103 21/62/123 40/61/124
f 85/130/105 84/129/104 40/61/124 39/60/125
f 86/131/106 85/130/105 39/60/125 38/59/126
f 87/132/107 86/131/106 38/59/126 37/58/127
f 88/133/108 87/132/107 37/58/127 36/57/128
f 89/134/109 88/133/108 36/57/128 35/56/129
f 90/135/110 89/134/109 35/56/129 34/55/130
f 91/136/111 90/135/110 34/55/130 33/54/131
f 92/137/112 91/136/111 33/54/131 32/53/132
f 93/138/113 92/137/112 32/53/132 31/52/133
f 94/139/114 93/138/113 31/52/133 30/51/134
f 95/140/115 94/139/114 30/51/134 29/50/135
f 96/141/116 95/140/115 29/50/135 28/49/136
f 97/142/117 96/141/116 28/49/136 27/48/137
f 98/143/118 97/142/117 27/48/137 26/47/138
f 99/144/119 98/143/118 26/47/138 25/46/139
f 100/145/120 99/144/119 25/46/139 24/45/140
f 101/146/121 100/145/120 24/45/140 23/44/141
f 102/147/122 101/146/121 23/44/141 22/43/142
f 83/128/103 102/147/122 22/43/142 21/42/123
s 4
f 114/148/143 125/149/144 135/150/145 128/151/146
f 125/149/144 111/152/147 126/153/148 135/150/145
f 135/150/145 126/153/148 104/154/149 127/155/150
f 128/151/146 135/150/145 127/155/150 106/156/151
f 113/157/152 129/158/153 136/159/154 131/160/155
f 129/158/153 114/148/143 128/151/146 136/159/154
f 136/159/154 128/151/146 106/156/151 130/161/156
f 131/160/155 136/159/154 130/161/156 108/162/157
f 112/163/158 132/164/159 137/165/160 134/166/161
f 132/164/159 113/157/152 131/160/155 137/165/160
f 137/165/160 131/160/155 108/162/157 133/167/162
f 134/166/161 137/165/160 133/167/162 110/168/163
f 111/169/147 115/170/164 138/171/165 126/172/148
f 115/170/164 112/163/158 134/166/161 138/171/165
f 138/171/165 134/166/161 110/168/163 116/173/166
f 126/172/148 138/171/165 116/173/166 104/174/149
f 104/154/149 116/175/166 139/176/167 127/155/150
f 116/175/166 110/177/163 133/178/162 139/176/167
f 139/176/167 133/178/162 108/179/157 130/180/156
f 127/155/150 139/176/167 130/180/156 106/156/151
f 109/181/168 117/182/169 140/183/170 120/184/171
f 117/182/169 103/185/172 118/186/173 140/183/170
f 140/183/170 118/186/173 105/187/174 119/188/175
f 120/184/171 140/183/170 119/188/175 107/189/176
f 109/190/168 121/191/177 141/192/178 117/193/169
f 121/191/177 112/163/158 115/170/164 141/192/178
f 141/192/178 115/170/164 111/169/147 122/194/179
f 117/193/169 141/192/178 122/194/179 103/195/172
f 107/196/176 123/197/180 142/198/181 120/199/171
f 123/197/180 113/157/152 132/164/159 142/198/181
f 142/198/181 132/164/159 112/163/158 121/191/177
f 120/199/171 142/198/181 121/191/177 109/190/168
f 105/187/174 124/200/182 143/201/183 119/202/175
f 124/200/182 114/148/143 129/158/153 143/201/183
f 143/201/183 129/158/153 113/157/152 123/197/180
f 119/202/175 143/201/183 123/197/180 107/196/176
f 103/185/172 122/203/179 144/204/184 118/186/173
f 122/203/179 111/152/147 125/149/144 144/204/184
f 144/204/184 125/149/144 114/148/143 124/200/182
f 118/186/173 144/204/184 124/200/182 105/187/174
