# This file uses meters as units for non-parametric coordinates.

mtllib scaffolding_bottom.mtl
g default
v 0.000000 247.471710 -3.428528
v 0.000000 271.040436 -3.428528
v -188.028214 247.471710 -3.428528
v -188.028214 271.040436 -3.428528
v -188.028214 247.471710 -10.285583
v -188.028214 271.040436 -10.285583
v 0.000000 247.471710 -10.285583
v 0.000000 271.040436 -10.285583
v -35.353111 153.196777 10.285583
v -35.353096 188.549866 10.285583
v -129.628021 247.471695 10.285583
v -94.274940 247.471710 10.285583
v -129.628021 247.471695 3.428528
v -94.274940 247.471710 3.428528
v -35.353111 153.196777 3.428528
v -35.353096 188.549866 3.428528
v -55.493408 0.000000 50.565918
v -55.493408 0.000000 26.997192
v -55.493408 47.137466 3.428467
v -55.493408 23.568733 3.428467
v -62.350403 47.137466 3.428467
v -62.350403 23.568733 3.428467
v -62.350403 0.000000 50.565918
v -62.350403 0.000000 26.997192
v -107.940186 247.471710 3.428528
v -107.940186 271.040436 3.428528
v -194.277878 247.471710 3.428528
v -194.277878 271.040436 3.428528
v -194.277878 247.471710 -3.428528
v -194.277878 271.040436 -3.428528
v -107.940186 247.471710 -3.428528
v -107.940186 271.040436 -3.428528
v 0.000000 247.471710 3.428528
v 0.000000 271.040436 3.428528
v -188.028198 247.471710 3.428528
v -188.028198 271.040436 3.428528
v -188.028198 247.471710 10.285583
v -188.028198 271.040436 10.285583
v 0.000000 247.471710 10.285583
v 0.000000 271.040436 10.285583
v -35.353027 153.196762 -10.285461
v -35.353027 188.549866 -10.285461
v -129.628052 247.471710 -10.285461
v -94.274902 247.471710 -10.285461
v -129.628052 247.471710 -3.428467
v -94.274902 247.471710 -3.428467
v -35.353027 153.196762 -3.428467
v -35.353027 188.549866 -3.428467
v -70.706200 0.000000 3.428528
v -47.137466 0.000000 3.428528
v -70.706200 282.824799 3.428528
v -47.137466 282.824799 3.428528
v -70.706200 282.824799 -3.428528
v -47.137466 282.824799 -3.428528
v -70.706200 0.000000 -3.428528
v -47.137466 0.000000 -3.428528
v -62.350281 0.000000 -50.565918
v -62.350281 0.000000 -26.997192
v -62.350281 47.137466 -3.428467
v -62.350281 23.568733 -3.428467
v -55.493282 47.137466 -3.428467
v -55.493282 23.568733 -3.428467
v -55.493282 0.000000 -50.565918
v -55.493282 0.000000 -26.997192
v -171.180695 234.930771 -0.667542
v -171.634323 234.402557 -0.667542
v -171.180695 234.930771 0.667542
v -171.634323 234.402557 0.667542
v -167.217300 248.524338 0.667542
v -166.356735 248.524338 0.667542
v -167.217300 248.524353 -0.667542
v -166.356735 248.524338 -0.667542
v -166.645264 243.418854 1.100952
v -165.239243 243.537109 1.100952
v -165.239243 243.537109 -1.100891
v -166.645264 243.418854 -1.100891
v -162.016678 237.769577 1.100952
v -160.614182 238.202164 1.100952
v -160.614182 238.202164 -1.100891
v -162.016678 237.769577 -1.100891
v -162.903412 233.011703 1.100952
v -161.771210 232.400391 1.100952
v -161.771210 232.400391 -1.100891
v -162.903412 233.011703 -1.100891
v -167.697510 231.600906 1.100952
v -167.826096 230.497925 1.100952
v -167.826096 230.497925 -1.100891
v -167.697510 231.600906 -1.100891
v -164.115860 240.516083 -1.100891
v -160.317276 235.184525 1.100952
v -161.777588 235.198685 1.100952
v -160.317276 235.184525 -1.100891
v -161.777588 235.198685 -1.100891
v -164.699142 230.532639 1.100952
v -165.245316 231.621201 1.100952
v -164.699142 230.532639 -1.100891
v -165.245316 231.621201 -1.100891
v -170.480026 232.567078 1.065369
v -169.983902 233.363373 1.065369
v -170.480026 232.567078 -1.065369
v -169.983902 233.363373 -1.065369
v -166.031754 246.227936 1.065369
v -167.403793 246.216125 1.065369
v -166.031754 246.227936 -1.065369
v -167.403793 246.216125 -1.065369
v -162.733948 240.875916 1.100952
v -164.115860 240.516083 1.100952
v -162.733948 240.875916 -1.100891
v -160.832703 233.722519 1.100952
v -160.230362 236.709641 1.100952
v -161.684921 236.453110 1.100952
v -160.832703 233.722519 -1.100891
v -160.230362 236.709641 -1.100891
v -161.684921 236.453110 -1.100891
v -162.174774 234.034088 -1.100891
v -166.477478 231.394073 1.100952
v -166.284470 230.240067 1.100952
v -163.127365 231.294937 1.100952
v -163.990448 232.183914 1.100952
v -166.284470 230.240067 -1.100891
v -163.127365 231.294937 -1.100891
v -163.990448 232.183914 -1.100891
v -166.477478 231.394073 -1.100891
v -170.752518 234.422546 0.958252
v -171.339462 233.697861 0.958252
v -169.266754 231.387024 1.100952
v -168.915939 232.340073 1.100952
v -171.339462 233.697861 -0.958252
v -169.266754 231.387024 -1.100891
v -168.915939 232.340073 -1.100891
v -170.752518 234.422546 -0.958252
v -167.217072 244.814133 1.100952
v -165.803040 244.861435 1.100952
v -166.169327 247.687576 0.958252
v -167.404709 247.687576 0.958252
v -167.404709 247.687576 -0.958252
v -166.169327 247.687576 -0.958252
v -165.803040 244.861435 -1.100891
v -167.217072 244.814133 -1.100891
v -162.892685 239.120346 1.100952
v -161.510956 239.566452 1.100952
v -164.096466 242.204041 1.100952
v -165.489120 241.967560 1.100952
v -161.510956 239.566452 -1.100891
v -164.096466 242.204025 -1.100891
v -165.489120 241.967560 -1.100891
v -162.892685 239.120346 -1.100891
v -162.174774 234.034088 1.100952
vt 0.375000 0.000000
vt 0.625000 0.000000
vt 0.375000 0.250000
vt 0.625000 0.250000
vt 0.375000 0.500000
vt 0.625000 0.500000
vt 0.375000 0.750000
vt 0.625000 0.750000
vt 0.375000 1.000000
vt 0.625000 1.000000
vt 0.875000 0.000000
vt 0.875000 0.250000
vt 0.125000 0.000000
vt 0.125000 0.250000
vt 0.375000 0.000000
vt 0.625000 0.000000
vt 0.625000 0.250000
vt 0.375000 0.250000
vt 0.625000 0.500000
vt 0.375000 0.500000
vt 0.625000 0.750000
vt 0.375000 0.750000
vt 0.625000 1.000000
vt 0.375000 1.000000
vt 0.875000 0.000000
vt 0.875000 0.250000
vt 0.125000 0.000000
vt 0.125000 0.250000
vt 0.375000 0.000000
vt 0.625000 0.000000
vt 0.625000 0.250000
vt 0.375000 0.250000
vt 0.625000 0.500000
vt 0.375000 0.500000
vt 0.625000 0.750000
vt 0.375000 0.750000
vt 0.625000 1.000000
vt 0.375000 1.000000
vt 0.875000 0.000000
vt 0.875000 0.250000
vt 0.125000 0.000000
vt 0.125000 0.250000
vt 0.375000 0.000000
vt 0.625000 0.000000
vt 0.625000 0.250000
vt 0.375000 0.250000
vt 0.625000 0.500000
vt 0.375000 0.500000
vt 0.625000 0.750000
vt 0.375000 0.750000
vt 0.625000 1.000000
vt 0.375000 1.000000
vt 0.875000 0.000000
vt 0.875000 0.250000
vt 0.125000 0.000000
vt 0.125000 0.250000
vt 0.375000 0.000000
vt 0.625000 0.000000
vt 0.625000 0.250000
vt 0.375000 0.250000
vt 0.625000 0.500000
vt 0.375000 0.500000
vt 0.625000 0.750000
vt 0.375000 0.750000
vt 0.625000 1.000000
vt 0.375000 1.000000
vt 0.875000 0.000000
vt 0.875000 0.250000
vt 0.125000 0.000000
vt 0.125000 0.250000
vt 0.375000 0.000000
vt 0.625000 0.000000
vt 0.625000 0.250000
vt 0.375000 0.250000
vt 0.625000 0.500000
vt 0.375000 0.500000
vt 0.625000 0.750000
vt 0.375000 0.750000
vt 0.625000 1.000000
vt 0.375000 1.000000
vt 0.875000 0.000000
vt 0.875000 0.250000
vt 0.125000 0.000000
vt 0.125000 0.250000
vt 0.375000 0.000000
vt 0.625000 0.000000
vt 0.625000 0.250000
vt 0.375000 0.250000
vt 0.625000 0.500000
vt 0.375000 0.500000
vt 0.625000 0.750000
vt 0.375000 0.750000
vt 0.625000 1.000000
vt 0.375000 1.000000
vt 0.875000 0.000000
vt 0.875000 0.250000
vt 0.125000 0.000000
vt 0.125000 0.250000
vt 0.375000 0.000000
vt 0.625000 0.000000
vt 0.625000 0.250000
vt 0.375000 0.250000
vt 0.625000 0.500000
vt 0.375000 0.500000
vt 0.625000 0.750000
vt 0.375000 0.750000
vt 0.625000 1.000000
vt 0.375000 1.000000
vt 0.875000 0.000000
vt 0.875000 0.250000
vt 0.125000 0.000000
vt 0.125000 0.250000
vt 0.375000 0.000000
vt 0.625000 0.000000
vt 0.625000 0.250000
vt 0.375000 0.250000
vt 0.375000 0.437916
vt 0.375000 0.406874
vt 0.625000 0.406874
vt 0.625000 0.437916
vt 0.375000 0.375832
vt 0.625000 0.375832
vt 0.375000 0.468958
vt 0.625000 0.468958
vt 0.625000 0.500000
vt 0.375000 0.500000
vt 0.625000 0.750000
vt 0.375000 0.750000
vt 0.375000 0.812084
vt 0.375000 0.781042
vt 0.625000 0.781042
vt 0.625000 0.812084
vt 0.375000 0.843126
vt 0.625000 0.843126
vt 0.625000 0.874168
vt 0.375000 0.874168
vt 0.812916 0.250000
vt 0.781874 0.250000
vt 0.781874 0.000000
vt 0.812916 0.000000
vt 0.750832 0.250000
vt 0.750832 0.000000
vt 0.843958 0.250000
vt 0.843958 0.000000
vt 0.875000 0.000000
vt 0.875000 0.250000
vt 0.156042 0.250000
vt 0.125000 0.250000
vt 0.125000 0.000000
vt 0.156042 0.000000
vt 0.187084 0.000000
vt 0.187084 0.250000
vt 0.218126 0.000000
vt 0.218126 0.250000
vt 0.249168 0.000000
vt 0.249168 0.250000
vt 0.375000 0.359707
vt 0.375000 0.351645
vt 0.625000 0.351645
vt 0.625000 0.359707
vt 0.375000 0.343582
vt 0.625000 0.343582
vt 0.375000 0.367770
vt 0.625000 0.367770
vt 0.734707 0.250000
vt 0.726645 0.250000
vt 0.726645 0.000000
vt 0.734707 0.000000
vt 0.718582 0.250000
vt 0.718582 0.000000
vt 0.742770 0.250000
vt 0.742770 0.000000
vt 0.375000 0.890293
vt 0.375000 0.882230
vt 0.625000 0.882230
vt 0.625000 0.890293
vt 0.375000 0.898355
vt 0.625000 0.898355
vt 0.625000 0.906418
vt 0.375000 0.906418
vt 0.265293 0.250000
vt 0.257230 0.250000
vt 0.257230 0.000000
vt 0.265293 0.000000
vt 0.273355 0.250000
vt 0.273355 0.000000
vt 0.281418 0.000000
vt 0.281418 0.250000
vt 0.375000 0.326804
vt 0.375000 0.318416
vt 0.625000 0.318416
vt 0.625000 0.326804
vt 0.375000 0.310027
vt 0.625000 0.310027
vt 0.375000 0.335193
vt 0.625000 0.335193
vt 0.701804 0.250000
vt 0.693416 0.250000
vt 0.693416 0.000000
vt 0.701804 0.000000
vt 0.685027 0.250000
vt 0.685027 0.000000
vt 0.710193 0.250000
vt 0.710193 0.000000
vt 0.375000 0.923196
vt 0.375000 0.914807
vt 0.625000 0.914807
vt 0.625000 0.923196
vt 0.375000 0.931584
vt 0.625000 0.931584
vt 0.625000 0.939973
vt 0.375000 0.939973
vt 0.298196 0.250000
vt 0.289807 0.250000
vt 0.289807 0.000000
vt 0.298196 0.000000
vt 0.306584 0.250000
vt 0.306584 0.000000
vt 0.314973 0.000000
vt 0.314973 0.250000
vt 0.375000 0.292365
vt 0.375000 0.283534
vt 0.625000 0.283534
vt 0.625000 0.292365
vt 0.375000 0.274704
vt 0.625000 0.274704
vt 0.375000 0.301196
vt 0.625000 0.301196
vt 0.667365 0.250000
vt 0.658534 0.250000
vt 0.658534 0.000000
vt 0.667365 0.000000
vt 0.649704 0.250000
vt 0.649704 0.000000
vt 0.676196 0.250000
vt 0.676196 0.000000
vt 0.375000 0.957635
vt 0.375000 0.948804
vt 0.625000 0.948804
vt 0.625000 0.957635
vt 0.375000 0.966466
vt 0.625000 0.966466
vt 0.625000 0.975296
vt 0.375000 0.975296
vt 0.332635 0.250000
vt 0.323804 0.250000
vt 0.323804 0.000000
vt 0.332635 0.000000
vt 0.341466 0.250000
vt 0.341466 0.000000
vt 0.350296 0.000000
vt 0.350296 0.250000
vt 0.375000 0.262352
vt 0.375000 0.256176
vt 0.625000 0.256176
vt 0.625000 0.262352
vt 0.375000 0.268528
vt 0.625000 0.268528
vt 0.631176 0.250000
vt 0.631176 0.000000
vt 0.637352 0.000000
vt 0.637352 0.250000
vt 0.643528 0.000000
vt 0.643528 0.250000
vt 0.375000 0.987648
vt 0.375000 0.981472
vt 0.625000 0.981472
vt 0.625000 0.987648
vt 0.375000 0.993824
vt 0.625000 0.993824
vt 0.625000 1.000000
vt 0.375000 1.000000
vt 0.362648 0.250000
vt 0.356472 0.250000
vt 0.356472 0.000000
vt 0.362648 0.000000
vt 0.368824 0.250000
vt 0.368824 0.000000
vn 0.000000 0.000000 1.000000
vn 0.000000 0.000000 1.000000
vn 0.000000 0.000000 1.000000
vn 0.000000 0.000000 1.000000
vn -1.000000 0.000000 0.000000
vn -1.000000 0.000000 0.000000
vn -1.000000 0.000000 0.000000
vn -1.000000 0.000000 0.000000
vn 0.000000 0.000000 -1.000000
vn 0.000000 0.000000 -1.000000
vn 0.000000 0.000000 -1.000000
vn 0.000000 0.000000 -1.000000
vn 1.000000 0.000000 0.000000
vn 1.000000 0.000000 0.000000
vn 1.000000 0.000000 0.000000
vn 1.000000 0.000000 0.000000
vn 0.000000 1.000000 0.000000
vn 0.000000 1.000000 0.000000
vn 0.000000 1.000000 0.000000
vn 0.000000 1.000000 0.000000
vn 0.000000 -1.000000 0.000000
vn 0.000000 -1.000000 0.000000
vn 0.000000 -1.000000 0.000000
vn 0.000000 -1.000000 0.000000
vn 0.000000 0.000000 1.000000
vn 0.000000 0.000000 1.000000
vn 0.000000 0.000000 1.000000
vn 0.000000 0.000000 1.000000
vn -0.000000 1.000000 0.000000
vn -0.000000 1.000000 0.000000
vn -0.000000 1.000000 0.000000
vn -0.000000 1.000000 0.000000
vn 0.000000 0.000000 -1.000000
vn 0.000000 0.000000 -1.000000
vn 0.000000 0.000000 -1.000000
vn 0.000000 0.000000 -1.000000
vn 1.000000 -0.000000 0.000000
vn 1.000000 -0.000000 0.000000
vn 1.000000 -0.000000 0.000000
vn 1.000000 -0.000000 0.000000
vn 0.707107 0.707107 0.000000
vn 0.707107 0.707107 0.000000
vn 0.707107 0.707107 0.000000
vn 0.707107 0.707107 0.000000
vn -0.707107 -0.707107 0.000000
vn -0.707107 -0.707107 0.000000
vn -0.707107 -0.707107 0.000000
vn -0.707107 -0.707107 0.000000
vn 1.000000 0.000000 0.000000
vn 1.000000 0.000000 0.000000
vn 1.000000 0.000000 0.000000
vn 1.000000 0.000000 0.000000
vn 0.000000 0.000000 -1.000000
vn 0.000000 0.000000 -1.000000
vn 0.000000 0.000000 -1.000000
vn 0.000000 0.000000 -1.000000
vn -1.000000 0.000000 0.000000
vn -1.000000 0.000000 0.000000
vn -1.000000 0.000000 0.000000
vn -1.000000 0.000000 0.000000
vn 0.000000 -1.000000 0.000000
vn 0.000000 -1.000000 0.000000
vn 0.000000 -1.000000 0.000000
vn 0.000000 -1.000000 0.000000
vn 0.000000 -0.707107 -0.707107
vn 0.000000 -0.707107 -0.707107
vn 0.000000 -0.707107 -0.707107
vn 0.000000 -0.707107 -0.707107
vn 0.000000 0.707107 0.707107
vn 0.000000 0.707107 0.707107
vn 0.000000 0.707107 0.707107
vn 0.000000 0.707107 0.707107
vn 0.000000 0.000000 1.000000
vn 0.000000 0.000000 1.000000
vn 0.000000 0.000000 1.000000
vn 0.000000 0.000000 1.000000
vn -1.000000 0.000000 0.000000
vn -1.000000 0.000000 0.000000
vn -1.000000 0.000000 0.000000
vn -1.000000 0.000000 0.000000
vn 0.000000 0.000000 -1.000000
vn 0.000000 0.000000 -1.000000
vn 0.000000 0.000000 -1.000000
vn 0.000000 0.000000 -1.000000
vn 1.000000 0.000000 0.000000
vn 1.000000 0.000000 0.000000
vn 1.000000 0.000000 0.000000
vn 1.000000 0.000000 0.000000
vn 0.000000 1.000000 0.000000
vn 0.000000 1.000000 0.000000
vn 0.000000 1.000000 0.000000
vn 0.000000 1.000000 0.000000
vn 0.000000 -1.000000 0.000000
vn 0.000000 -1.000000 0.000000
vn 0.000000 -1.000000 0.000000
vn 0.000000 -1.000000 0.000000
vn 0.000000 0.000000 -1.000000
vn 0.000000 0.000000 -1.000000
vn 0.000000 0.000000 -1.000000
vn 0.000000 0.000000 -1.000000
vn -1.000000 0.000000 0.000000
vn -1.000000 0.000000 0.000000
vn -1.000000 0.000000 0.000000
vn -1.000000 0.000000 0.000000
vn 0.000000 0.000000 1.000000
vn 0.000000 0.000000 1.000000
vn 0.000000 0.000000 1.000000
vn 0.000000 0.000000 1.000000
vn 1.000000 0.000000 0.000000
vn 1.000000 0.000000 0.000000
vn 1.000000 0.000000 0.000000
vn 1.000000 0.000000 0.000000
vn 0.000000 1.000000 0.000000
vn 0.000000 1.000000 0.000000
vn 0.000000 1.000000 0.000000
vn 0.000000 1.000000 0.000000
vn 0.000000 -1.000000 0.000000
vn 0.000000 -1.000000 0.000000
vn 0.000000 -1.000000 0.000000
vn 0.000000 -1.000000 0.000000
vn 0.000000 0.000000 -1.000000
vn 0.000000 0.000000 -1.000000
vn 0.000000 0.000000 -1.000000
vn 0.000000 0.000000 -1.000000
vn 0.000000 1.000000 0.000000
vn 0.000000 1.000000 0.000000
vn 0.000000 1.000000 0.000000
vn 0.000000 1.000000 0.000000
vn -0.000000 0.000000 1.000000
vn -0.000000 0.000000 1.000000
vn -0.000000 0.000000 1.000000
vn -0.000000 0.000000 1.000000
vn 1.000000 0.000000 0.000000
vn 1.000000 0.000000 0.000000
vn 1.000000 0.000000 0.000000
vn 1.000000 0.000000 0.000000
vn 0.707107 0.707107 0.000000
vn 0.707107 0.707107 0.000000
vn 0.707107 0.707107 0.000000
vn 0.707107 0.707107 0.000000
vn -0.707106 -0.707107 0.000000
vn -0.707106 -0.707107 0.000000
vn -0.707106 -0.707107 0.000000
vn -0.707106 -0.707107 0.000000
vn 0.000000 0.000000 1.000000
vn 0.000000 0.000000 1.000000
vn 0.000000 0.000000 1.000000
vn 0.000000 0.000000 1.000000
vn 0.000000 1.000000 0.000000
vn 0.000000 1.000000 0.000000
vn 0.000000 1.000000 0.000000
vn 0.000000 1.000000 0.000000
vn 0.000000 0.000000 -1.000000
vn 0.000000 0.000000 -1.000000
vn 0.000000 0.000000 -1.000000
vn 0.000000 0.000000 -1.000000
vn 0.000000 -1.000000 0.000000
vn 0.000000 -1.000000 0.000000
vn 0.000000 -1.000000 0.000000
vn 0.000000 -1.000000 0.000000
vn 1.000000 0.000000 0.000000
vn 1.000000 0.000000 0.000000
vn 1.000000 0.000000 0.000000
vn 1.000000 0.000000 0.000000
vn -1.000000 0.000000 0.000000
vn -1.000000 0.000000 0.000000
vn -1.000000 0.000000 0.000000
vn -1.000000 0.000000 0.000000
vn -1.000000 0.000000 0.000000
vn -1.000000 0.000000 0.000000
vn -1.000000 0.000000 0.000000
vn -1.000000 0.000000 0.000000
vn 0.000000 0.000000 1.000000
vn 0.000000 0.000000 1.000000
vn 0.000000 0.000000 1.000000
vn 0.000000 0.000000 1.000000
vn 1.000000 0.000000 0.000000
vn 1.000000 0.000000 0.000000
vn 1.000000 0.000000 0.000000
vn 1.000000 0.000000 0.000000
vn 0.000000 -1.000000 0.000000
vn 0.000000 -1.000000 0.000000
vn 0.000000 -1.000000 0.000000
vn 0.000000 -1.000000 0.000000
vn 0.000000 -0.707107 0.707107
vn 0.000000 -0.707107 0.707107
vn 0.000000 -0.707107 0.707107
vn 0.000000 -0.707107 0.707107
vn 0.000000 0.707107 -0.707107
vn 0.000000 0.707107 -0.707107
vn 0.000000 0.707107 -0.707107
vn 0.000000 0.707107 -0.707107
vn -0.758633 0.651518 0.000000
vn -0.758633 0.651518 0.000000
vn -0.758633 0.651518 0.000000
vn -0.758633 0.651518 0.000000
vn -0.000433 0.050055 0.998746
vn -0.000313 0.014733 0.999891
vn -0.000229 0.010814 0.999942
vn -0.000446 0.047364 0.998878
vn -0.000000 0.000000 1.000000
vn -0.000000 0.000000 1.000000
vn -0.000234 0.149495 0.988762
vn -0.000238 0.146382 0.989228
vn 0.000000 0.328179 0.944616
vn 0.000000 0.328179 0.944616
vn 0.000009 1.000000 0.000000
vn 0.000009 1.000000 0.000000
vn 0.000009 1.000000 0.000000
vn 0.000009 1.000000 0.000000
vn -0.000433 0.050034 -0.998748
vn -0.000233 0.149495 -0.988762
vn -0.000237 0.146381 -0.989228
vn -0.000445 0.047340 -0.998879
vn 0.000002 0.328175 -0.944617
vn 0.000002 0.328175 -0.944617
vn -0.000312 0.014707 -0.999892
vn -0.000229 0.010795 -0.999942
vn 0.000000 0.000000 -1.000000
vn 0.000000 0.000000 -1.000000
vn 0.991397 0.130888 0.000000
vn 0.958708 0.284394 0.000000
vn 0.958708 0.284392 0.000000
vn 0.991397 0.130887 0.000000
vn 0.841432 0.540363 0.000000
vn 0.841432 0.540363 0.000000
vn 0.991934 0.126752 0.000000
vn 0.991934 0.126752 0.000000
vn 0.975824 0.218557 0.000000
vn 0.975824 0.218557 0.000000
vn -0.998375 0.056992 0.000000
vn -0.975825 0.218552 0.000000
vn -0.975825 0.218552 0.000000
vn -0.998375 0.056992 0.000000
vn -0.997583 -0.069482 0.000000
vn -0.997583 -0.069483 0.000000
vn -0.964598 -0.263726 0.000000
vn -0.964597 -0.263728 0.000000
vn -0.854830 -0.518908 0.000000
vn -0.854830 -0.518908 0.000000
vn -0.000000 0.000000 1.000000
vn -0.000000 0.000000 1.000000
vn -0.000000 0.000000 1.000000
vn -0.000000 0.000000 1.000000
vn 0.000000 0.000000 1.000000
vn 0.000000 0.000000 1.000000
vn -0.000000 0.000000 1.000000
vn -0.000000 0.000000 1.000000
vn 0.714120 0.700023 0.000000
vn 0.783612 0.621251 0.000000
vn 0.783612 0.621251 0.000000
vn 0.714120 0.700023 0.000000
vn 0.912516 0.409041 0.000000
vn 0.912516 0.409041 0.000000
vn 0.728113 0.685458 0.000000
vn 0.728112 0.685458 0.000000
vn -0.000000 0.000000 -1.000000
vn -0.000000 0.000000 -1.000000
vn -0.000000 0.000000 -1.000000
vn 0.000000 0.000000 -1.000000
vn 0.000000 0.000000 -1.000000
vn 0.000000 0.000000 -1.000000
vn 0.000000 0.000000 -1.000000
vn 0.000000 0.000000 -1.000000
vn -0.738898 -0.673818 0.000000
vn -0.753928 -0.656957 0.000000
vn -0.753928 -0.656957 0.000000
vn -0.738898 -0.673818 0.000000
vn -0.794510 -0.607252 0.000000
vn -0.794510 -0.607252 0.000000
vn -0.910960 -0.412495 0.000000
vn -0.910960 -0.412495 0.000000
vn -0.000000 0.000000 1.000000
vn -0.000000 0.000000 1.000000
vn -0.000000 0.000000 1.000000
vn -0.000000 0.000000 1.000000
vn -0.000000 0.000000 1.000000
vn -0.000000 0.000000 1.000000
vn 0.000000 0.000000 1.000000
vn 0.000000 0.000000 1.000000
vn 0.980270 -0.197663 0.000000
vn 0.886408 -0.462904 0.000000
vn 0.886408 -0.462904 0.000000
vn 0.980270 -0.197663 0.000000
vn 0.726722 -0.686932 0.000000
vn 0.726722 -0.686932 0.000000
vn 0.995194 0.097918 0.000000
vn 0.995194 0.097918 0.000000
vn -0.000000 0.000000 -1.000000
vn -0.000000 0.000000 -1.000000
vn 0.000000 0.000000 -1.000000
vn -0.000000 0.000000 -1.000000
vn 0.000000 0.000000 -1.000000
vn 0.000000 0.000000 -1.000000
vn 0.000000 0.000000 -1.000000
vn 0.000000 0.000000 -1.000000
vn -0.980106 0.198473 0.000000
vn -0.995704 -0.092597 0.000000
vn -0.995704 -0.092597 0.000000
vn -0.980106 0.198473 0.000000
vn -0.889108 0.457698 0.000000
vn -0.889108 0.457698 0.000000
vn -0.713730 0.700421 0.000000
vn -0.713730 0.700421 0.000000
vn -0.000000 0.000000 1.000000
vn 0.000000 0.000000 1.000000
vn -0.000000 0.000000 1.000000
vn -0.000000 0.000000 1.000000
vn 0.000000 0.000000 1.000000
vn 0.000000 0.000000 1.000000
vn 0.000000 0.000000 1.000000
vn 0.000000 0.000000 1.000000
vn 0.316904 -0.948457 0.000000
vn 0.011101 -0.999938 0.000000
vn 0.011101 -0.999938 0.000000
vn 0.316904 -0.948457 0.000000
vn -0.358958 -0.933354 0.000000
vn -0.358958 -0.933354 0.000000
vn 0.537803 -0.843071 0.000000
vn 0.537803 -0.843071 0.000000
vn 0.000000 0.000000 -1.000000
vn 0.000000 0.000000 -1.000000
vn 0.000000 0.000000 -1.000000
vn 0.000000 0.000000 -1.000000
vn 0.000000 0.000000 -1.000000
vn 0.000000 0.000000 -1.000000
vn -0.000000 0.000000 -1.000000
vn -0.000000 0.000000 -1.000000
vn -0.302686 0.953090 0.000000
vn -0.510537 0.859856 0.000000
vn -0.510537 0.859856 0.000000
vn -0.302686 0.953090 0.000000
vn -0.008276 0.999966 0.000000
vn -0.008276 0.999966 0.000000
vn 0.361685 0.932300 0.000000
vn 0.361685 0.932300 0.000000
vn -0.046124 0.030631 0.998466
vn -0.163837 0.131191 0.977725
vn -0.123587 0.096472 0.987633
vn -0.037720 0.023757 0.999006
vn -0.307913 0.255725 0.916403
vn -0.307913 0.255725 0.916403
vn -0.012203 0.005908 0.999908
vn -0.008052 0.003898 0.999960
vn -0.831425 -0.555637 0.000000
vn -0.922496 -0.386007 0.000000
vn -0.922496 -0.386007 0.000000
vn -0.831425 -0.555637 0.000000
vn -0.741200 -0.671284 0.000000
vn -0.741200 -0.671285 0.000000
vn -0.613577 -0.789635 0.000000
vn -0.613576 -0.789636 0.000000
vn -0.046108 0.030624 -0.998467
vn -0.012182 0.005898 -0.999908
vn -0.008038 0.003892 -0.999960
vn -0.037697 0.023746 -0.999007
vn -0.163837 0.131191 -0.977725
vn -0.123587 0.096473 -0.987633
vn -0.307913 0.255725 -0.916403
vn -0.307913 0.255725 -0.916403
vn 0.745966 0.665984 0.000000
vn 0.609134 0.793067 0.000000
vn 0.609136 0.793066 0.000000
vn 0.745967 0.665983 0.000000
vn 0.799800 0.600267 0.000000
vn 0.799800 0.600267 0.000000
vn 0.764760 0.644315 0.000000
vn 0.764760 0.644315 0.000000
s off
g scaffolding_bottom
usemtl initialShadingGroup
f 1/1/1 2/2/2 4/4/3 3/3/4
f 3/3/5 4/4/6 6/6/7 5/5/8
f 5/5/9 6/6/10 8/8/11 7/7/12
f 7/7/13 8/8/14 2/10/15 1/9/16
f 2/2/17 8/11/18 6/12/19 4/4/20
f 7/13/21 1/1/22 3/3/23 5/14/24
f 9/15/25 10/16/26 12/17/27 11/18/28
f 11/18/29 12/17/30 14/19/31 13/20/32
f 13/20/33 14/19/34 16/21/35 15/22/36
f 15/22/37 16/21/38 10/23/39 9/24/40
f 10/16/41 16/25/42 14/26/43 12/17/44
f 15/27/45 9/15/46 11/18/47 13/28/48
f 17/29/49 18/30/50 20/31/51 19/32/52
f 19/32/53 20/31/54 22/33/55 21/34/56
f 21/34/57 22/33/58 24/35/59 23/36/60
f 23/36/61 24/35/62 18/37/63 17/38/64
f 18/30/65 24/39/66 22/40/67 20/31/68
f 23/41/69 17/29/70 19/32/71 21/42/72
f 25/43/73 26/44/74 28/45/75 27/46/76
f 27/46/77 28/45/78 30/47/79 29/48/80
f 29/48/81 30/47/82 32/49/83 31/50/84
f 31/50/85 32/49/86 26/51/87 25/52/88
f 26/44/89 32/53/90 30/54/91 28/45/92
f 31/55/93 25/43/94 27/46/95 29/56/96
f 33/57/97 35/60/98 36/59/99 34/58/100
f 35/60/101 37/62/102 38/61/103 36/59/104
f 37/62/105 39/64/106 40/63/107 38/61/108
f 39/64/109 33/66/110 34/65/111 40/63/112
f 34/58/113 36/59/114 38/68/115 40/67/116
f 39/69/117 37/70/118 35/60/119 33/57/120
f 41/71/121 43/74/122 44/73/123 42/72/124
f 43/74/125 45/76/126 46/75/127 44/73/128
f 45/76/129 47/78/130 48/77/131 46/75/132
f 47/78/133 41/80/134 42/79/135 48/77/136
f 42/72/137 44/73/138 46/82/139 48/81/140
f 47/83/141 45/84/142 43/74/143 41/71/144
f 49/85/145 50/86/146 52/87/147 51/88/148
f 51/88/149 52/87/150 54/89/151 53/90/152
f 53/90/153 54/89/154 56/91/155 55/92/156
f 55/92/157 56/91/158 50/93/159 49/94/160
f 50/86/161 56/95/162 54/96/163 52/87/164
f 55/97/165 49/85/166 51/88/167 53/98/168
f 57/99/169 58/100/170 60/101/171 59/102/172
f 59/102/173 60/101/174 62/103/175 61/104/176
f 61/104/177 62/103/178 64/105/179 63/106/180
f 63/106/181 64/105/182 58/107/183 57/108/184
f 58/100/185 64/109/186 62/110/187 60/101/188
f 63/111/189 57/99/190 59/102/191 61/112/192
f 65/113/193 66/114/194 68/115/195 67/116/196
s 1
f 103/117/197 132/118/198 133/119/199 102/120/200
f 132/118/198 73/121/201 74/122/202 133/119/199
f 135/123/203 103/117/197 102/120/200 134/124/204
f 135/123/203 134/124/204 70/125/205 69/126/206
s off
f 69/126/207 70/125/208 72/127/209 71/128/210
s 2
f 105/129/211 136/130/212 137/131/213 104/132/214
f 136/130/212 71/128/215 72/127/216 137/131/213
f 139/133/217 105/129/211 104/132/214 138/134/218
f 139/133/217 138/134/218 75/135/219 76/136/220
s 3
f 102/137/221 133/138/222 138/139/223 104/140/224
f 133/138/222 74/141/225 75/142/226 138/139/223
f 134/143/227 102/137/221 104/140/224 137/144/228
f 134/143/227 137/144/228 72/145/229 70/146/230
s 4
f 135/147/231 69/148/232 71/149/233 136/150/234
f 135/147/231 136/150/234 105/151/235 103/152/236
f 103/152/236 105/151/235 139/153/237 132/154/238
f 139/153/237 76/155/239 73/156/240 132/154/238
s 1
f 107/157/241 140/158/242 141/159/243 106/160/244
f 140/158/242 77/161/245 78/162/246 141/159/243
f 143/163/247 107/157/241 106/160/244 142/164/248
f 143/163/247 142/164/248 74/122/202 73/121/201
s 3
f 106/165/249 141/166/250 144/167/251 108/168/252
f 141/166/250 78/169/253 79/170/254 144/167/251
f 142/171/255 106/165/249 108/168/252 145/172/256
f 142/171/255 145/172/256 75/142/226 74/141/225
s 2
f 89/173/257 146/174/258 145/175/259 108/176/260
f 146/174/258 76/136/220 75/135/219 145/175/259
f 147/177/261 89/173/257 108/176/260 144/178/262
f 147/177/261 144/178/262 79/179/263 80/180/264
s 4
f 107/181/265 143/182/266 146/183/267 89/184/268
f 143/182/266 73/156/240 76/155/239 146/183/267
f 140/185/269 107/181/265 89/184/268 147/186/270
f 140/185/269 147/186/270 80/187/271 77/188/272
s 1
f 91/189/273 148/190/274 109/191/275 90/192/276
f 148/190/274 81/193/277 82/194/278 109/191/275
f 111/195/279 91/189/273 90/192/276 110/196/280
f 111/195/279 110/196/280 78/162/246 77/161/245
s 3
f 90/197/281 109/198/282 112/199/283 92/200/284
f 109/198/282 82/201/285 83/202/286 112/199/283
f 110/203/287 90/197/281 92/200/284 113/204/288
f 110/203/287 113/204/288 79/170/254 78/169/253
s 2
f 93/205/289 114/206/290 113/207/291 92/208/292
f 114/206/290 80/180/264 79/179/263 113/207/291
f 115/209/293 93/205/289 92/208/292 112/210/294
f 115/209/293 112/210/294 83/211/295 84/212/296
s 4
f 91/213/297 111/214/298 114/215/299 93/216/300
f 111/214/298 77/188/272 80/187/271 114/215/299
f 148/217/301 91/213/297 93/216/300 115/218/302
f 148/217/301 115/218/302 84/219/303 81/220/304
s 1
f 95/221/305 116/222/306 117/223/307 94/224/308
f 116/222/306 85/225/309 86/226/310 117/223/307
f 119/227/311 95/221/305 94/224/308 118/228/312
f 119/227/311 118/228/312 82/194/278 81/193/277
s 3
f 94/229/313 117/230/314 120/231/315 96/232/316
f 117/230/314 86/233/317 87/234/318 120/231/315
f 118/235/319 94/229/313 96/232/316 121/236/320
f 118/235/319 121/236/320 83/202/286 82/201/285
s 2
f 97/237/321 122/238/322 121/239/323 96/240/324
f 122/238/322 84/212/296 83/211/295 121/239/323
f 123/241/325 97/237/321 96/240/324 120/242/326
f 123/241/325 120/242/326 87/243/327 88/244/328
s 4
f 95/245/329 119/246/330 122/247/331 97/248/332
f 119/246/330 81/220/304 84/219/303 122/247/331
f 116/249/333 95/245/329 97/248/332 123/250/334
f 116/249/333 123/250/334 88/251/335 85/252/336
s 1
f 99/253/337 124/254/338 125/255/339 98/256/340
f 124/254/338 67/116/341 68/115/342 125/255/339
f 127/257/343 99/253/337 98/256/340 126/258/344
f 127/257/343 126/258/344 86/226/310 85/225/309
s 3
f 125/259/345 68/115/346 66/114/347 128/260/348
f 125/259/345 128/260/348 100/261/349 98/262/350
f 98/262/350 100/261/349 129/263/351 126/264/352
f 129/263/351 87/234/318 86/233/317 126/264/352
s 2
f 101/265/353 130/266/354 129/267/355 100/268/356
f 130/266/354 88/244/328 87/243/327 129/267/355
f 131/269/357 101/265/353 100/268/356 128/270/358
f 131/269/357 128/270/358 66/271/359 65/272/360
s 4
f 99/273/361 127/274/362 130/275/363 101/276/364
f 127/274/362 85/252/336 88/251/335 130/275/363
f 124/277/365 99/273/361 101/276/364 131/278/366
f 124/277/365 131/278/366 65/113/367 67/116/368
